[gd_scene load_steps=2 format=2]

[ext_resource path="res://src/webrtc/WebRTCClient.gd" type="Script" id=1]

[node name="WebRTCClient" type="Node"]
script = ExtResource( 1 )
websocket_url = "ws://51.255.36.188:9080"
