<?xml version="1.0" encoding="utf-8"?>
<COLLADA xmlns="http://www.collada.org/2005/11/COLLADASchema" version="1.4.1">
  <asset><contributor><author></author><authoring_tool>FBX COLLADA exporter</authoring_tool><comments></comments></contributor><created>2020-05-02T17:09:33Z</created><keywords></keywords><modified>2020-05-02T17:09:33Z</modified><revision></revision><subject></subject><title></title><unit meter="0.010000" name="centimeter"></unit><up_axis>Z_UP</up_axis></asset>
  <library_geometries>
    <geometry id="SM_LargeFloor_01_A-lib" name="SM_LargeFloor_01_AMesh">
      <mesh>
        <source id="SM_LargeFloor_01_A-POSITION">
          <float_array id="SM_LargeFloor_01_A-POSITION-array" count="24">
-2048.000000 -2048.000000 -0.999954
2048.000000 -2048.000000 -0.999954
-2048.000000 2048.000000 -0.999954
2048.000000 2048.000000 -0.999954
-2048.000000 -2048.000000 0.000046
2048.000000 -2048.000000 0.000046
-2048.000000 2048.000000 0.000046
2048.000000 2048.000000 0.000046
</float_array>
          <technique_common>
            <accessor source="#SM_LargeFloor_01_A-POSITION-array" count="8" stride="3">
              <param name="X" type="float"/>
              <param name="Y" type="float"/>
              <param name="Z" type="float"/>
            </accessor>
          </technique_common>
        </source>
        <source id="SM_LargeFloor_01_A-Normal0">
          <float_array id="SM_LargeFloor_01_A-Normal0-array" count="72">
0.000000 0.000000 -1.000000
0.000000 0.000000 -1.000000
0.000000 0.000000 -1.000000
0.000000 0.000000 -1.000000
0.000000 0.000000 1.000000
0.000000 0.000000 1.000000
0.000000 0.000000 1.000000
0.000000 0.000000 1.000000
0.000000 -1.000000 0.000000
0.000000 -1.000000 0.000000
0.000000 -1.000000 0.000000
0.000000 -1.000000 0.000000
1.000000 0.000000 0.000000
1.000000 0.000000 0.000000
1.000000 0.000000 0.000000
1.000000 0.000000 0.000000
0.000000 1.000000 0.000000
0.000000 1.000000 0.000000
0.000000 1.000000 0.000000
0.000000 1.000000 0.000000
-1.000000 0.000000 0.000000
-1.000000 0.000000 0.000000
-1.000000 0.000000 0.000000
-1.000000 0.000000 0.000000
</float_array>
          <technique_common>
            <accessor source="#SM_LargeFloor_01_A-Normal0-array" count="24" stride="3">
              <param name="X" type="float"/>
              <param name="Y" type="float"/>
              <param name="Z" type="float"/>
            </accessor>
          </technique_common>
        </source>
        <source id="SM_LargeFloor_01_A-UV0">
          <float_array id="SM_LargeFloor_01_A-UV0-array" count="48">
0.000500 0.000500
0.993423 0.000500
0.993423 0.993423
0.000500 0.993423
0.999500 0.000500
0.999500 0.999500
0.000500 0.999500
0.000500 0.000500
0.988917 0.515645
0.490850 0.515645
0.490850 0.515645
0.988917 0.515645
0.000500 0.504961
0.498566 0.504961
0.498566 0.505083
0.000500 0.505083
0.000500 0.999258
0.993423 0.999258
0.993423 0.999500
0.000500 0.999500
0.490850 0.512017
0.988917 0.512017
0.988917 0.512138
0.490850 0.512138
</float_array>
          <technique_common>
            <accessor source="#SM_LargeFloor_01_A-UV0-array" count="24" stride="2">
              <param name="S" type="float"/>
              <param name="T" type="float"/>
            </accessor>
          </technique_common>
        </source>
        <vertices id="SM_LargeFloor_01_A-VERTEX">
          <input semantic="POSITION" source="#SM_LargeFloor_01_A-POSITION"/>
        </vertices>
        <polylist count="6"><input semantic="VERTEX" offset="0" source="#SM_LargeFloor_01_A-VERTEX"/><input semantic="NORMAL" offset="1" source="#SM_LargeFloor_01_A-Normal0"/><input semantic="TEXCOORD" offset="2" set="0" source="#SM_LargeFloor_01_A-UV0"/><vcount>4 4 4 4 4 4 </vcount><p> 0 0 0 2 1 1 3 2 2 1 3 3 4 4 4 5 5 5 7 6 6 6 7 7 0 8 8 1 9 9 5 10 10 4 11 11 1 12 12 3 13 13 7 14 14 5 15 15 3 16 16 2 17 17 6 18 18 7 19 19 2 20 20 0 21 21 4 22 22 6 23 23</p></polylist>
      </mesh>
    </geometry>
  </library_geometries>
  <library_visual_scenes>
    <visual_scene id="SM_LargeFloor_01_A" name="SM_LargeFloor_01_A">
      <node name="SM_LargeFloor_01_A" id="SM_LargeFloor_01_A" sid="SM_LargeFloor_01_A"><matrix sid="matrix">1.000000 0.000000 0.000000 0.000000 0.000000 1.000000 0.000000 0.000000 0.000000 0.000000 1.000000 0.000000 0.000000 0.000000 0.000000 1.000000</matrix><instance_geometry url="#SM_LargeFloor_01_A-lib"/><extra><technique profile="FCOLLADA"><visibility>1.000000</visibility></technique></extra></node>
      <extra><technique profile="MAX3D"><frame_rate>60.000000</frame_rate></technique><technique profile="FCOLLADA"><start_time>0.000000</start_time><end_time>2.000000</end_time></technique></extra>
    </visual_scene>
  </library_visual_scenes>
  <scene>
    <instance_visual_scene url="#SM_LargeFloor_01_A"></instance_visual_scene>
  </scene>
</COLLADA>
