[gd_scene load_steps=3 format=2]

[ext_resource path="res://ART/Material/Enviro/M_EnviroPropsTakeable_01.tres" type="Material" id=1]
[ext_resource path="res://ART/Enviro/Products/Ressources/SM_Cheese_01_A_1Cheese.DAE" type="PackedScene" id=2]

[node name="SM_Cheese_01_A_1Cheese" instance=ExtResource( 2 )]

[node name="Cheese" parent="." index="0"]
material/0 = ExtResource( 1 )
