[gd_scene load_steps=3 format=2]

[ext_resource path="res://ART/Enviro/Products/Ressources/SM_HydroGel_02_A_1.DAE" type="PackedScene" id=1]
[ext_resource path="res://ART/Material/Enviro/M_EnviroPropsTakeable_01.tres" type="Material" id=2]

[node name="SM_HydroGel_02_A_1" instance=ExtResource( 1 )]

[node name="SM_HydroGel_02_A_1" parent="." index="0"]
material/0 = ExtResource( 2 )
