[gd_scene load_steps=3 format=2]

[ext_resource path="res://ART/Charac/Ressources/Material #27.material" type="Material" id=1]

[sub_resource type="ArrayMesh" id=4]
resource_name = "MouthMesh"
surfaces/0 = {
"aabb": AABB( -0.053401, 0.304231, 0.678625, 0.154254, 0.11903, 0.082763 ),
"array_data": PoolByteArray( 47, 134, 50, 189, 69, 184, 209, 62, 82, 126, 50, 63, 169, 231, 168, 0, 92, 232, 173, 129, 0, 0, 0, 255, 85, 45, 0, 0, 2, 187, 90, 189, 227, 27, 194, 62, 207, 106, 57, 63, 131, 242, 8, 0, 254, 213, 137, 129, 0, 0, 0, 255, 0, 0, 0, 60, 203, 160, 90, 189, 59, 52, 212, 62, 233, 211, 54, 63, 130, 1, 3, 0, 253, 222, 134, 129, 0, 0, 0, 255, 0, 0, 0, 0, 102, 160, 50, 189, 203, 159, 191, 62, 72, 21, 53, 63, 169, 220, 173, 0, 91, 232, 172, 129, 0, 0, 0, 255, 85, 45, 0, 60, 161, 16, 129, 188, 138, 205, 207, 62, 179, 41, 47, 63, 219, 223, 140, 0, 121, 246, 220, 129, 0, 0, 0, 255, 85, 49, 0, 0, 15, 69, 129, 188, 15, 181, 189, 62, 152, 192, 49, 63, 218, 215, 143, 0, 121, 246, 220, 129, 0, 0, 0, 255, 85, 49, 0, 60, 69, 157, 185, 60, 161, 247, 206, 62, 94, 186, 45, 63, 253, 222, 134, 0, 126, 255, 253, 129, 0, 0, 0, 255, 0, 52, 0, 0, 215, 104, 185, 60, 72, 223, 188, 62, 68, 81, 48, 63, 253, 214, 137, 0, 126, 255, 253, 129, 0, 0, 0, 255, 0, 52, 0, 60, 160, 84, 123, 61, 244, 111, 207, 62, 197, 146, 46, 63, 30, 223, 138, 0, 123, 8, 28, 129, 0, 0, 0, 255, 85, 53, 0, 0, 105, 58, 123, 61, 155, 87, 189, 62, 187, 41, 49, 63, 30, 214, 141, 0, 123, 8, 29, 129, 0, 0, 0, 255, 85, 53, 0, 60, 245, 71, 184, 61, 35, 22, 209, 62, 247, 120, 49, 63, 81, 230, 163, 0, 97, 22, 78, 129, 0, 0, 0, 255, 170, 54, 0, 0, 218, 58, 184, 61, 202, 253, 190, 62, 237, 15, 52, 63, 82, 218, 168, 0, 96, 22, 79, 129, 0, 0, 0, 255, 170, 54, 0, 60, 5, 140, 206, 61, 16, 121, 211, 62, 13, 166, 53, 63, 126, 255, 253, 0, 3, 34, 122, 129, 0, 0, 0, 255, 0, 56, 0, 0, 233, 126, 206, 61, 183, 96, 193, 62, 4, 61, 56, 63, 125, 240, 0, 0, 3, 34, 122, 129, 0, 0, 0, 255, 0, 56, 0, 60, 183, 126, 186, 61, 39, 245, 213, 62, 148, 251, 57, 63, 87, 25, 88, 0, 164, 24, 83, 129, 0, 0, 0, 255, 170, 56, 0, 0, 155, 113, 186, 61, 207, 220, 195, 62, 138, 146, 60, 63, 87, 12, 90, 0, 165, 24, 84, 129, 0, 0, 0, 255, 170, 56, 0, 60, 199, 127, 129, 61, 227, 223, 215, 62, 68, 80, 61, 63, 37, 33, 116, 0, 135, 10, 36, 129, 0, 0, 0, 255, 85, 57, 0, 0, 172, 114, 129, 61, 105, 199, 197, 62, 58, 231, 63, 63, 38, 24, 118, 0, 135, 10, 36, 129, 0, 0, 0, 255, 85, 57, 0, 60, 55, 81, 203, 60, 170, 181, 216, 62, 152, 191, 62, 63, 3, 34, 122, 0, 130, 1, 3, 129, 0, 0, 0, 255, 0, 58, 0, 0, 201, 28, 203, 60, 82, 157, 198, 62, 143, 86, 65, 63, 3, 27, 123, 0, 130, 1, 3, 129, 0, 0, 0, 255, 0, 58, 0, 60, 134, 117, 99, 188, 87, 61, 216, 62, 50, 231, 61, 63, 226, 33, 118, 0, 133, 248, 228, 129, 0, 0, 0, 255, 170, 58, 0, 0, 97, 222, 99, 188, 32, 37, 198, 62, 40, 126, 64, 63, 226, 25, 120, 0, 133, 248, 227, 129, 0, 0, 0, 255, 170, 58, 0, 60, 173, 24, 46, 189, 74, 151, 214, 62, 0, 1, 59, 63, 175, 26, 93, 0, 159, 234, 178, 129, 0, 0, 0, 255, 85, 59, 0, 0, 228, 50, 46, 189, 208, 126, 196, 62, 246, 151, 61, 63, 174, 14, 95, 0, 160, 234, 177, 129, 0, 0, 0, 255, 85, 59, 0, 60, 2, 187, 90, 189, 227, 27, 194, 62, 207, 106, 57, 63, 131, 242, 8, 0, 251, 231, 132, 129, 0, 0, 0, 255, 0, 60, 0, 60, 203, 160, 90, 189, 59, 52, 212, 62, 233, 211, 54, 63, 130, 1, 3, 0, 253, 222, 134, 129, 0, 0, 0, 255, 0, 60, 0, 0, 142, 202, 13, 189, 121, 235, 172, 62, 102, 77, 56, 63, 175, 185, 190, 0, 189, 103, 228, 127, 0, 0, 0, 255, 0, 59, 137, 52, 2, 187, 90, 189, 227, 27, 194, 62, 207, 106, 57, 63, 131, 242, 8, 0, 241, 121, 222, 127, 0, 0, 0, 255, 0, 60, 0, 56, 102, 160, 50, 189, 203, 159, 191, 62, 72, 21, 53, 63, 169, 220, 173, 0, 228, 121, 233, 127, 0, 0, 0, 255, 118, 59, 0, 52, 110, 133, 48, 189, 94, 18, 175, 62, 73, 14, 60, 63, 144, 201, 19, 0, 197, 108, 227, 127, 0, 0, 0, 255, 118, 59, 0, 56, 15, 69, 129, 188, 15, 181, 189, 62, 152, 192, 49, 63, 218, 215, 143, 0, 193, 108, 238, 127, 0, 0, 0, 255, 0, 58, 73, 44, 27, 71, 44, 188, 137, 66, 171, 62, 240, 106, 53, 63, 219, 188, 156, 0, 163, 83, 235, 127, 0, 0, 0, 255, 187, 57, 0, 48, 215, 104, 185, 60, 72, 223, 188, 62, 68, 81, 48, 63, 253, 214, 137, 0, 130, 1, 3, 127, 0, 0, 0, 255, 0, 56, 0, 0, 78, 96, 186, 60, 85, 137, 170, 62, 212, 44, 52, 63, 253, 191, 148, 0, 130, 1, 3, 127, 0, 0, 0, 255, 0, 56, 73, 44, 105, 58, 123, 61, 155, 87, 189, 62, 187, 41, 49, 63, 30, 214, 141, 0, 192, 149, 21, 127, 0, 0, 0, 255, 0, 52, 73, 44, 70, 121, 102, 61, 103, 241, 170, 62, 66, 232, 52, 63, 29, 188, 154, 0, 163, 175, 27, 127, 0, 0, 0, 255, 137, 52, 0, 48, 218, 58, 184, 61, 202, 253, 190, 62, 237, 15, 52, 63, 82, 218, 168, 0, 227, 136, 25, 127, 0, 0, 0, 255, 73, 44, 0, 52, 42, 0, 166, 61, 24, 95, 172, 62, 9, 107, 55, 63, 75, 184, 185, 0, 189, 154, 32, 127, 0, 0, 0, 255, 0, 48, 137, 52, 233, 126, 206, 61, 183, 96, 193, 62, 4, 61, 56, 63, 125, 240, 0, 0, 241, 136, 35, 127, 0, 0, 0, 255, 0, 0, 0, 56, 86, 72, 185, 61, 59, 112, 174, 62, 221, 8, 59, 63, 112, 199, 12, 0, 197, 149, 32, 127, 0, 0, 0, 255, 73, 44, 0, 56, 155, 113, 186, 61, 207, 220, 195, 62, 138, 146, 60, 63, 87, 12, 90, 0, 228, 141, 44, 127, 0, 0, 0, 255, 73, 44, 0, 58, 230, 234, 167, 61, 32, 151, 176, 62, 193, 201, 62, 63, 80, 231, 94, 0, 189, 154, 30, 127, 0, 0, 0, 255, 0, 48, 187, 57, 172, 114, 129, 61, 105, 199, 197, 62, 58, 231, 63, 63, 38, 24, 118, 0, 193, 155, 41, 127, 0, 0, 0, 255, 0, 52, 118, 59, 4, 29, 109, 61, 16, 64, 178, 62, 54, 172, 65, 63, 36, 252, 121, 0, 163, 175, 25, 127, 0, 0, 0, 255, 137, 52, 0, 59, 201, 28, 203, 60, 82, 157, 198, 62, 143, 86, 65, 63, 3, 27, 123, 0, 130, 1, 3, 127, 0, 0, 0, 255, 0, 56, 0, 60, 44, 182, 201, 60, 68, 249, 178, 62, 83, 234, 66, 63, 3, 1, 126, 0, 130, 1, 3, 127, 0, 0, 0, 255, 0, 56, 118, 59, 36, 184, 17, 188, 16, 145, 178, 62, 228, 46, 66, 63, 227, 253, 123, 0, 163, 83, 237, 127, 0, 0, 0, 255, 187, 57, 0, 59, 97, 222, 99, 188, 32, 37, 198, 62, 40, 126, 64, 63, 226, 25, 120, 0, 192, 102, 218, 127, 0, 0, 0, 255, 0, 58, 118, 59, 23, 245, 9, 189, 96, 35, 177, 62, 29, 172, 63, 63, 181, 232, 99, 0, 189, 104, 230, 127, 0, 0, 0, 255, 0, 59, 187, 57, 228, 50, 46, 189, 208, 126, 196, 62, 246, 151, 61, 63, 174, 14, 95, 0, 227, 116, 214, 127, 0, 0, 0, 255, 118, 59, 0, 58, 254, 240, 115, 188, 141, 9, 161, 62, 65, 212, 61, 63, 185, 156, 31, 0, 151, 69, 240, 127, 0, 0, 0, 255, 0, 58, 0, 56, 224, 189, 35, 188, 113, 203, 159, 62, 126, 169, 59, 63, 204, 146, 225, 0, 144, 57, 242, 127, 0, 0, 0, 255, 187, 57, 0, 54, 187, 123, 128, 59, 52, 214, 158, 62, 46, 255, 57, 63, 230, 148, 196, 0, 134, 34, 249, 127, 0, 0, 0, 255, 0, 57, 137, 52, 214, 116, 189, 60, 64, 107, 158, 62, 124, 71, 57, 63, 253, 150, 187, 0, 130, 1, 3, 127, 0, 0, 0, 255, 0, 56, 0, 52, 105, 253, 45, 61, 105, 167, 158, 62, 192, 179, 57, 63, 21, 148, 194, 0, 135, 224, 14, 127, 0, 0, 0, 255, 0, 54, 137, 52, 149, 155, 104, 61, 112, 122, 159, 62, 208, 38, 59, 63, 48, 145, 221, 0, 144, 201, 20, 127, 0, 0, 0, 255, 137, 52, 0, 54, 164, 223, 126, 61, 247, 171, 160, 62, 100, 61, 61, 63, 71, 155, 26, 0, 151, 189, 22, 127, 0, 0, 0, 255, 0, 52, 0, 56, 221, 210, 106, 61, 242, 233, 161, 62, 39, 104, 63, 63, 52, 179, 85, 0, 144, 200, 18, 127, 0, 0, 0, 255, 137, 52, 0, 57, 225, 210, 49, 61, 80, 223, 162, 62, 119, 18, 65, 63, 26, 197, 108, 0, 134, 223, 11, 127, 0, 0, 0, 255, 0, 54, 187, 57, 219, 79, 198, 60, 69, 74, 163, 62, 42, 202, 65, 63, 2, 203, 115, 0, 130, 1, 3, 127, 0, 0, 0, 255, 0, 56, 0, 58, 120, 39, 159, 59, 27, 14, 163, 62, 246, 93, 65, 63, 235, 197, 110, 0, 135, 35, 252, 127, 0, 0, 0, 255, 0, 57, 187, 57, 193, 224, 26, 188, 243, 58, 162, 62, 213, 234, 63, 63, 208, 180, 88, 0, 144, 58, 245, 127, 0, 0, 0, 255, 187, 57, 0, 57, 183, 212, 193, 60, 42, 196, 155, 62, 53, 67, 62, 63, 0, 134, 34, 0, 130, 1, 3, 127, 0, 0, 0, 255, 0, 56, 0, 56, 69, 157, 185, 60, 161, 247, 206, 62, 94, 186, 45, 63, 0, 122, 222, 0, 3, 34, 122, 127, 0, 0, 0, 255, 85, 45, 0, 0, 134, 117, 99, 188, 87, 61, 216, 62, 50, 231, 61, 63, 0, 122, 222, 0, 3, 34, 122, 127, 0, 0, 0, 255, 170, 54, 0, 60, 55, 81, 203, 60, 170, 181, 216, 62, 152, 191, 62, 63, 0, 122, 222, 0, 3, 34, 122, 127, 0, 0, 0, 255, 85, 53, 0, 0, 161, 16, 129, 188, 138, 205, 207, 62, 179, 41, 47, 63, 0, 122, 222, 0, 3, 34, 122, 127, 0, 0, 0, 255, 85, 45, 0, 60, 160, 84, 123, 61, 244, 111, 207, 62, 197, 146, 46, 63, 0, 122, 222, 0, 3, 34, 122, 129, 0, 0, 0, 255, 85, 49, 0, 60, 55, 81, 203, 60, 170, 181, 216, 62, 152, 191, 62, 63, 0, 122, 222, 0, 3, 34, 122, 129, 0, 0, 0, 255, 85, 53, 0, 0, 199, 127, 129, 61, 227, 223, 215, 62, 68, 80, 61, 63, 0, 122, 222, 0, 3, 34, 122, 129, 0, 0, 0, 255, 85, 53, 0, 60, 69, 157, 185, 60, 161, 247, 206, 62, 94, 186, 45, 63, 0, 122, 222, 0, 3, 34, 122, 129, 0, 0, 0, 255, 85, 45, 0, 0, 245, 71, 184, 61, 35, 22, 209, 62, 247, 120, 49, 63, 0, 122, 222, 0, 3, 34, 122, 127, 0, 0, 0, 255, 85, 49, 0, 0, 199, 127, 129, 61, 227, 223, 215, 62, 68, 80, 61, 63, 0, 122, 222, 0, 3, 34, 122, 127, 0, 0, 0, 255, 85, 53, 0, 60, 183, 126, 186, 61, 39, 245, 213, 62, 148, 251, 57, 63, 0, 122, 222, 0, 3, 34, 122, 127, 0, 0, 0, 255, 0, 52, 0, 0, 160, 84, 123, 61, 244, 111, 207, 62, 197, 146, 46, 63, 0, 122, 222, 0, 3, 34, 122, 127, 0, 0, 0, 255, 85, 49, 0, 60, 161, 16, 129, 188, 138, 205, 207, 62, 179, 41, 47, 63, 0, 122, 222, 0, 114, 15, 52, 129, 0, 0, 0, 255, 85, 45, 0, 60, 173, 24, 46, 189, 74, 151, 214, 62, 0, 1, 59, 63, 0, 122, 222, 0, 50, 32, 111, 129, 0, 0, 0, 255, 170, 54, 0, 0, 134, 117, 99, 188, 87, 61, 216, 62, 50, 231, 61, 63, 0, 122, 222, 0, 3, 34, 122, 129, 0, 0, 0, 255, 170, 54, 0, 60, 47, 134, 50, 189, 69, 184, 209, 62, 82, 126, 50, 63, 0, 122, 222, 0, 114, 241, 203, 129, 0, 0, 0, 255, 0, 0, 0, 60, 245, 71, 184, 61, 35, 22, 209, 62, 247, 120, 49, 63, 0, 122, 222, 0, 127, 0, 0, 127, 0, 0, 0, 255, 170, 54, 0, 0, 183, 126, 186, 61, 39, 245, 213, 62, 148, 251, 57, 63, 0, 122, 222, 0, 127, 0, 0, 127, 0, 0, 0, 255, 0, 52, 0, 0, 5, 140, 206, 61, 16, 121, 211, 62, 13, 166, 53, 63, 0, 122, 222, 0, 127, 0, 0, 127, 0, 0, 0, 255, 0, 56, 0, 0, 203, 160, 90, 189, 59, 52, 212, 62, 233, 211, 54, 63, 0, 122, 222, 0, 68, 29, 102, 129, 0, 0, 0, 255, 0, 0, 0, 0, 173, 24, 46, 189, 74, 151, 214, 62, 0, 1, 59, 63, 0, 122, 222, 0, 68, 29, 102, 129, 0, 0, 0, 255, 85, 59, 0, 0, 47, 134, 50, 189, 69, 184, 209, 62, 82, 126, 50, 63, 0, 122, 222, 0, 68, 29, 102, 129, 0, 0, 0, 255, 0, 0, 0, 60 ),
"array_index_data": PoolByteArray( 0, 0, 2, 0, 1, 0, 1, 0, 3, 0, 0, 0, 4, 0, 0, 0, 3, 0, 3, 0, 5, 0, 4, 0, 6, 0, 4, 0, 5, 0, 5, 0, 7, 0, 6, 0, 8, 0, 6, 0, 9, 0, 6, 0, 7, 0, 9, 0, 10, 0, 8, 0, 11, 0, 8, 0, 9, 0, 11, 0, 12, 0, 10, 0, 11, 0, 11, 0, 13, 0, 12, 0, 14, 0, 12, 0, 15, 0, 12, 0, 13, 0, 15, 0, 16, 0, 14, 0, 17, 0, 14, 0, 15, 0, 17, 0, 18, 0, 16, 0, 19, 0, 16, 0, 17, 0, 19, 0, 20, 0, 18, 0, 19, 0, 19, 0, 21, 0, 20, 0, 22, 0, 20, 0, 21, 0, 21, 0, 23, 0, 22, 0, 24, 0, 25, 0, 22, 0, 22, 0, 23, 0, 24, 0, 26, 0, 28, 0, 27, 0, 27, 0, 29, 0, 26, 0, 30, 0, 28, 0, 26, 0, 26, 0, 31, 0, 30, 0, 32, 0, 30, 0, 31, 0, 31, 0, 33, 0, 32, 0, 34, 0, 32, 0, 35, 0, 32, 0, 33, 0, 35, 0, 36, 0, 34, 0, 37, 0, 34, 0, 35, 0, 37, 0, 38, 0, 36, 0, 37, 0, 37, 0, 39, 0, 38, 0, 40, 0, 38, 0, 41, 0, 38, 0, 39, 0, 41, 0, 42, 0, 40, 0, 41, 0, 41, 0, 43, 0, 42, 0, 44, 0, 42, 0, 43, 0, 43, 0, 45, 0, 44, 0, 46, 0, 47, 0, 44, 0, 44, 0, 45, 0, 46, 0, 48, 0, 49, 0, 47, 0, 47, 0, 46, 0, 48, 0, 27, 0, 49, 0, 48, 0, 48, 0, 29, 0, 27, 0, 26, 0, 29, 0, 50, 0, 50, 0, 51, 0, 26, 0, 31, 0, 26, 0, 51, 0, 51, 0, 52, 0, 31, 0, 33, 0, 31, 0, 52, 0, 52, 0, 53, 0, 33, 0, 35, 0, 33, 0, 54, 0, 33, 0, 53, 0, 54, 0, 37, 0, 35, 0, 55, 0, 54, 0, 55, 0, 35, 0, 39, 0, 37, 0, 56, 0, 37, 0, 55, 0, 56, 0, 41, 0, 39, 0, 57, 0, 39, 0, 56, 0, 57, 0, 43, 0, 41, 0, 57, 0, 57, 0, 58, 0, 43, 0, 45, 0, 43, 0, 58, 0, 58, 0, 59, 0, 45, 0, 60, 0, 46, 0, 45, 0, 45, 0, 59, 0, 60, 0, 61, 0, 48, 0, 46, 0, 46, 0, 60, 0, 61, 0, 29, 0, 48, 0, 61, 0, 61, 0, 50, 0, 29, 0, 50, 0, 62, 0, 51, 0, 51, 0, 62, 0, 52, 0, 52, 0, 62, 0, 53, 0, 53, 0, 62, 0, 54, 0, 54, 0, 62, 0, 55, 0, 55, 0, 62, 0, 56, 0, 56, 0, 62, 0, 57, 0, 57, 0, 62, 0, 58, 0, 58, 0, 62, 0, 59, 0, 59, 0, 62, 0, 60, 0, 60, 0, 62, 0, 61, 0, 61, 0, 62, 0, 50, 0, 63, 0, 65, 0, 64, 0, 64, 0, 66, 0, 63, 0, 67, 0, 69, 0, 68, 0, 68, 0, 70, 0, 67, 0, 71, 0, 73, 0, 72, 0, 72, 0, 74, 0, 71, 0, 75, 0, 77, 0, 76, 0, 76, 0, 78, 0, 75, 0, 79, 0, 81, 0, 80, 0, 82, 0, 84, 0, 83, 0 ),
"blend_shape_data": [  ],
"format": 97567,
"index_count": 282,
"material": ExtResource( 1 ),
"name": "Material #27",
"primitive": 4,
"skeleton_aabb": [  ],
"vertex_count": 85
}

[node name="MichuMouth" type="Spatial"]

[node name="Mouth" type="MeshInstance" parent="."]
transform = Transform( 0.139346, 0, 0.990244, 0, 1, 0, -0.990244, 0, 0.139346, -0.704792, -0.346924, -0.0810491 )
mesh = SubResource( 4 )
material/0 = null
