[gd_scene load_steps=7 format=2]

[ext_resource path="res://ART/Character/Scenes/CharacterDoc_hand.tscn" type="PackedScene" id=1]
[ext_resource path="res://src/Character.tscn" type="PackedScene" id=2]
[ext_resource path="res://src/characters/bodies/DocBody.tscn" type="PackedScene" id=3]
[ext_resource path="res://ART/Character/Scenes/CharacterDocEyes.tscn" type="PackedScene" id=4]
[ext_resource path="res://ART/Character/Scenes/CharacterDoc_Accessory.tscn" type="PackedScene" id=5]

[sub_resource type="SphereShape" id=1]
radius = 0.488192

[node name="CharacterDoc" groups=["player"] instance=ExtResource( 2 )]
body_scene = ExtResource( 3 )
eyes_scene = ExtResource( 4 )
hand_scene = ExtResource( 1 )
hat_scene = ExtResource( 5 )

[node name="CollisionShape" parent="." index="1"]
shape = SubResource( 1 )
