[gd_scene load_steps=3 format=2]

[ext_resource path="res://ART/Material/Enviro/M_DecalFloor_04.tres" type="Material" id=1]
[ext_resource path="res://ART/Enviro/Products/Ressources/Numbers/SM_number_05_1.DAE" type="PackedScene" id=2]

[node name="SM_number_05_1" instance=ExtResource( 2 )]

[node name="SM_number_05_1" parent="." index="0"]
material/0 = ExtResource( 1 )
