[gd_scene load_steps=3 format=2]

[ext_resource path="res://src/states/SwitchableStateMachine.gd" type="Script" id=1]
[ext_resource path="res://src/states/StateMachine.tscn" type="PackedScene" id=2]

[node name="SwitchableCharacterState" instance=ExtResource( 2 )]
script = ExtResource( 1 )
