[gd_scene load_steps=5 format=2]

[ext_resource path="res://ART/Enviro/Products/RessourcesScenes/SM_Bread_01_A_1.tscn" type="PackedScene" id=1]
[ext_resource path="res://src/Props/PropBase.tscn" type="PackedScene" id=2]
[ext_resource path="res://assets/icon_product/bread_01_icon.png" type="Texture" id=3]

[sub_resource type="CapsuleShape" id=1]
radius = 0.175409
height = 0.409267

[node name="Bread_01_A_1" groups=[
"common",
] instance=ExtResource( 2 )]
icon = ExtResource( 3 )
product_name = "Bread"

[node name="CollisionShape" parent="." index="1"]
shape = SubResource( 1 )

[node name="SM_Bread_01_A_1" parent="." index="2" instance=ExtResource( 1 )]
