[gd_scene load_steps=5 format=2]

[ext_resource path="res://src/Props/PropBase.tscn" type="PackedScene" id=1]
[ext_resource path="res://ART/Enviro/Products/RessourcesScenes/SM_Ham_01_A_1.tscn" type="PackedScene" id=2]
[ext_resource path="res://assets/icon_product/ham_01_icon.png" type="Texture" id=3]

[sub_resource type="CapsuleShape" id=1]
radius = 0.273276
height = 0.279936

[node name="Ham_01_A_1" groups=[
"butcher",
] instance=ExtResource( 1 )]
icon = ExtResource( 3 )
product_name = "Ham"

[node name="CollisionShape" parent="." index="1"]
transform = Transform( -0.75, 0.5, -0.433013, -0.5, 3.78552e-08, 0.866025, 0.433013, 0.866025, 0.25, -0.00961321, -0.00297434, 0.00555019 )
shape = SubResource( 1 )

[node name="SM_Ham_01_A_1" parent="." index="2" instance=ExtResource( 2 )]
transform = Transform( -0.75, 0.433013, 0.5, -0.5, -0.866025, 0, 0.433013, -0.25, 0.866025, 0.00961321, -0.0414272, -0.00555019 )
