[gd_scene load_steps=5 format=2]

[ext_resource path="res://src/Props/PropBase.tscn" type="PackedScene" id=1]
[ext_resource path="res://ART/Enviro/Products/RessourcesScenes/SM_Mask_01_A_1.tscn" type="PackedScene" id=2]
[ext_resource path="res://assets/icon_product/mask_01_icon.png" type="Texture" id=3]

[sub_resource type="SphereShape" id=1]
radius = 0.250204

[node name="Mask_01_A_1" groups=[
"common",
] instance=ExtResource( 1 )]
icon = ExtResource( 3 )
product_name = "Mask"

[node name="SM_Mask_01_A_1" parent="." index="1" instance=ExtResource( 2 )]

[node name="CollisionShape" parent="." index="2"]
shape = SubResource( 1 )
