[gd_scene load_steps=5 format=2]

[ext_resource path="res://src/Props/PropBase.tscn" type="PackedScene" id=1]
[ext_resource path="res://ART/Enviro/Products/RessourcesScenes/SM_NewsPaper_01_A_1.tscn" type="PackedScene" id=2]
[ext_resource path="res://assets/icon_product/newspaper_01_icon.png" type="Texture" id=3]

[sub_resource type="BoxShape" id=1]
extents = Vector3( 0.266343, 0.0560585, 0.236863 )

[node name="NewsPaper_01_A_1" groups=[
"cultural",
] instance=ExtResource( 1 )]
icon = ExtResource( 3 )
product_name = "NewsPaper"

[node name="SM_NewsPaper_01_A_1" parent="." index="1" instance=ExtResource( 2 )]

[node name="CollisionShape" parent="." index="2"]
shape = SubResource( 1 )
