[gd_scene load_steps=5 format=2]

[ext_resource path="res://src/Props/PropBase.tscn" type="PackedScene" id=1]
[ext_resource path="res://ART/Enviro/Products/RessourcesScenes/SM_SalmonSteak_01_A_1.tscn" type="PackedScene" id=2]
[ext_resource path="res://assets/icon_product/salmonsteack_01_icon.png" type="Texture" id=3]

[sub_resource type="BoxShape" id=1]
extents = Vector3( 0.209444, 0.101974, 0.355273 )

[node name="SalmonSteak_01_A_1" groups=[
"fisher",
] instance=ExtResource( 1 )]
icon = ExtResource( 3 )
product_name = "SalmonSteack"

[node name="SM_SalmonSteak_01_A_1" parent="." index="1" instance=ExtResource( 2 )]

[node name="CollisionShape" parent="." index="2"]
shape = SubResource( 1 )
