[gd_scene load_steps=4 format=2]

[ext_resource path="res://ART/Enviro/Products/RessourcesScenes/SM_Bread_02_A_1.tscn" type="PackedScene" id=1]
[ext_resource path="res://src/Product.gd" type="Script" id=2]

[sub_resource type="CapsuleShape" id=2]
radius = 0.299786
height = 0.548054

[node name="SM_Bread_02_A_1" type="RigidBody" groups=[
"common",
]]
script = ExtResource( 2 )
product_name = "Bread"

[node name="AnimationPlayer" type="AnimationPlayer" parent="."]

[node name="CollisionShape" type="CollisionShape" parent="."]
shape = SubResource( 2 )

[node name="SM_Bread_02_A_1" parent="." instance=ExtResource( 1 )]
