[gd_scene load_steps=5 format=2]

[ext_resource path="res://src/Props/PropBase.tscn" type="PackedScene" id=1]
[ext_resource path="res://ART/Enviro/Products/RessourcesScenes/SM_Steack_01_A_1.tscn" type="PackedScene" id=2]
[ext_resource path="res://assets/icon_product/steack_01_icon.png" type="Texture" id=3]

[sub_resource type="BoxShape" id=1]
extents = Vector3( 0.198645, 0.0981905, 0.285912 )

[node name="Steack_01_A_1" groups=[
"butcher",
] instance=ExtResource( 1 )]
icon = ExtResource( 3 )
product_name = "Steack"

[node name="SM_Steack_01_A_1" parent="." index="1" instance=ExtResource( 2 )]

[node name="CollisionShape" parent="." index="2"]
transform = Transform( 0.973877, 0, 0.227076, 0, 1, 0, -0.227076, 0, 0.973877, 0, 0, 0 )
shape = SubResource( 1 )
