[gd_scene load_steps=3 format=2]

[sub_resource type="CapsuleMesh" id=5]
radius = 0.05
mid_height = 0.1

[sub_resource type="SpatialMaterial" id=6]
albedo_color = Color( 0.247059, 0.803922, 0.133333, 1 )

[node name="FakeMouth" type="MeshInstance"]
transform = Transform( 1, 0, 0, 0, 1, 0, 0, 0, 1, 0, -0.132177, 0 )
mesh = SubResource( 5 )
material/0 = SubResource( 6 )
