[gd_scene load_steps=3 format=2]

[ext_resource path="res://ART/Character/Ressources/CharacterDoc_Accessory.DAE" type="PackedScene" id=1]
[ext_resource path="res://ART/Material/Character/M_CharacterPlayerColor_B_01.tres" type="Material" id=2]

[node name="CharacterDoc_Accessory" instance=ExtResource( 1 )]

[node name="CharacterDoc_Accessory" parent="." index="0" groups=[
"color_node",
]]
material/0 = ExtResource( 2 )
