[gd_scene load_steps=3 format=2]

[ext_resource path="res://ART/Character/Ressources/CharacterCircle_01.DAE" type="PackedScene" id=1]
[ext_resource path="res://ART/Material/Character/M_CharacterCircular.tres" type="Material" id=2]

[node name="CharacterCircle_01" instance=ExtResource( 1 )]

[node name="CharacterCircle_01" parent="." index="0"]
transform = Transform( 1, 0, 0, 0, -1.62921e-07, 1, 0, -1, -1.62921e-07, 0, 0, 0 )
material/0 = ExtResource( 2 )
