[gd_scene load_steps=3 format=2]

[ext_resource path="res://ART/Material/Character/M_CharacterPlayerColor_A_01.tres" type="Material" id=1]
[ext_resource path="res://ART/Character/Ressources/CharacterBucher_Hand.DAE" type="PackedScene" id=2]

[node name="CharacterBucher_Hand" instance=ExtResource( 2 )]

[node name="CharacterBucher_Hand" parent="." index="0" groups=[
"color_node",
]]
material/0 = ExtResource( 1 )
