[gd_scene load_steps=3 format=2]

[ext_resource path="res://ART/Charac/Ressources/SM_Hero_01_A_2.DAE" type="PackedScene" id=1]
[ext_resource path="res://ART/Material/M_Character_01.tres" type="Material" id=2]

[node name="SM_Hero_01_A_2" instance=ExtResource( 1 )]

[node name="Object006" parent="." index="0"]
transform = Transform( 1, 0, 0, 0, 0, 1, 0, -1, 0, 0, 0, 0 )
material/0 = ExtResource( 2 )

[node name="Object008" parent="." index="1"]
transform = Transform( 0.972708, 0.103358, -0.026608, -0.049587, 0.142827, 0.946616, 0.226674, -0.412287, 0.321262, -0.000865, 0.553747, 0.573077 )
material/0 = ExtResource( 2 )

[node name="Capsule015" parent="." index="2"]
transform = Transform( 0, 0, 1.41282, -5.29473, 0, 0, 0, -0.707803, 0, 0.212801, 0.666005, 0.470149 )
material/0 = ExtResource( 2 )

[node name="Capsule016" parent="." index="3"]
transform = Transform( 0, 0, 1.41282, -5.29473, 0, 0, 0, -0.707803, 0, -0.25362, 0.667202, 0.48093 )
material/0 = ExtResource( 2 )
