[gd_scene load_steps=3 format=2]

[ext_resource path="res://src/states/character/TakeProduct.gd" type="Script" id=1]
[ext_resource path="res://src/states/MultipleStateMachine.tscn" type="PackedScene" id=2]

[node name="TakeProduct" instance=ExtResource( 2 )]
script = ExtResource( 1 )
