[gd_resource type="ShaderMaterial" load_steps=3 format=2]

[ext_resource path="res://ART/Shader/S_EnviroArchi.tres" type="Shader" id=1]
[ext_resource path="res://ART/Textures/T_FloorTile_01_M.tga" type="Texture" id=2]

[resource]
shader = ExtResource( 1 )
shader_param/ColorA = Color( 0.619608, 0.498039, 0.380392, 1 )
shader_param/ColorB = Color( 0.564706, 0.396078, 0.247059, 1 )
shader_param/UVsTilling = Vector3( 1, 1, 1 )
shader_param/RoughnessA = 0.9
shader_param/RoughnessB = 0.5
shader_param/Texture = ExtResource( 2 )
