[gd_resource type="ShaderMaterial" load_steps=2 format=2]

[ext_resource path="res://ART/Shader/S_Translucence.tres" type="Shader" id=1]

[resource]
shader = ExtResource( 1 )
shader_param/Color = Color( 0.384314, 0.384314, 0.384314, 1 )
shader_param/Opacity = 0.5
