[gd_resource type="ShaderMaterial" load_steps=2 format=2]

[ext_resource path="res://ART/Shader/S_CharacterPlayerColor.tres" type="Shader" id=1]

[resource]
shader = ExtResource( 1 )
shader_param/ColorDark = Color( 0.25098, 0.0862745, 0.0862745, 1 )
shader_param/ColorLight = Color( 0.870588, 0.372549, 0.372549, 1 )
shader_param/Metalness = null
shader_param/Roughness = 0.75
