[gd_resource type="ShaderMaterial" load_steps=2 format=2]

[ext_resource path="res://ART/Shader/S_CharacterPlayerColor.tres" type="Shader" id=1]

[resource]
shader = ExtResource( 1 )
shader_param/ColorDark = Color( 0.0705882, 0.223529, 0.0941176, 1 )
shader_param/ColorLight = Color( 0.458824, 0.756863, 0.466667, 1 )
shader_param/Metalness = null
shader_param/Roughness = 0.75
