[gd_resource type="ShaderMaterial" load_steps=2 format=2]

[ext_resource path="res://ART/Shader/S_CharacterPlayerColor.tres" type="Shader" id=1]

[resource]
shader = ExtResource( 1 )
shader_param/ColorDark = Color( 0.196078, 0.513726, 0.501961, 1 )
shader_param/ColorLight = Color( 0.470588, 0.780392, 0.768627, 1 )
shader_param/Metalness = null
shader_param/Roughness = 0.75
