[gd_scene load_steps=3 format=2]

[ext_resource path="res://src/udp/UDPPunch.tscn" type="PackedScene" id=1]
[ext_resource path="res://tests/thibault/TestSessionServer.gd" type="Script" id=2]

[node name="TestSessionServer" type="Node"]
script = ExtResource( 2 )

[node name="UDPPunch" parent="." instance=ExtResource( 1 )]
