[gd_scene load_steps=3 format=2]

[ext_resource path="res://tests/thibault/Zoo.tscn" type="PackedScene" id=1]
[ext_resource path="res://tests/thibault/ZooInViewport.gd" type="Script" id=2]

[node name="ZooInViewport" type="Node"]
script = ExtResource( 2 )

[node name="ViewportContainer" type="ViewportContainer" parent="."]
anchor_right = 1.0
anchor_bottom = 1.0
stretch = true
__meta__ = {
"_edit_use_anchors_": false
}

[node name="Viewport" type="Viewport" parent="ViewportContainer"]
size = Vector2( 1024, 600 )
handle_input_locally = false
render_target_update_mode = 3

[node name="Main" parent="ViewportContainer/Viewport" instance=ExtResource( 1 )]

[node name="ViewportContainer2" type="ViewportContainer" parent="."]
anchor_top = 1.0
anchor_bottom = 1.0
margin_left = 609.0
margin_top = -249.0
margin_right = 1024.0
stretch = true
__meta__ = {
"_edit_use_anchors_": false
}

[node name="Viewport" type="Viewport" parent="ViewportContainer2"]
size = Vector2( 415, 249 )
handle_input_locally = false
render_target_update_mode = 3

[node name="Camera" type="Camera" parent="ViewportContainer2/Viewport"]
