[gd_scene load_steps=4 format=2]

[ext_resource path="res://ART/Material/Enviro/M_FloorTile_01.tres" type="Material" id=2]

[sub_resource type="ArrayMesh" id=1]
resource_name = "SM_Floor_1x1_A_1Mesh"
surfaces/0 = {
"aabb": AABB( 6.1e-07, -0.5, 0, 1, 0.50001, 1 ),
"array_data": PoolByteArray( 225, 190, 35, 53, 0, 0, 0, 0, 0, 0, 0, 128, 0, 0, 129, 0, 129, 0, 0, 127, 250, 55, 0, 56, 237, 55, 45, 52, 5, 0, 128, 63, 253, 255, 255, 190, 0, 0, 0, 128, 0, 0, 129, 0, 129, 0, 0, 127, 24, 16, 254, 57, 185, 36, 254, 55, 225, 190, 35, 53, 0, 0, 0, 191, 0, 0, 0, 128, 0, 0, 129, 0, 129, 0, 0, 127, 250, 55, 254, 57, 237, 55, 254, 55, 5, 0, 128, 63, 0, 0, 0, 0, 0, 0, 0, 128, 0, 0, 129, 0, 129, 0, 0, 127, 24, 16, 0, 56, 185, 36, 45, 52, 225, 190, 35, 53, 0, 0, 0, 191, 0, 0, 0, 128, 129, 0, 0, 0, 0, 0, 127, 127, 24, 16, 250, 55, 20, 58, 235, 59, 225, 190, 35, 53, 253, 255, 255, 190, 0, 0, 128, 63, 129, 0, 0, 0, 0, 0, 127, 127, 250, 55, 250, 55, 20, 58, 26, 56, 225, 190, 35, 53, 0, 0, 0, 0, 0, 0, 0, 128, 129, 0, 0, 0, 0, 0, 127, 127, 24, 16, 252, 51, 43, 56, 235, 59, 225, 190, 35, 53, 0, 0, 0, 0, 0, 0, 128, 63, 129, 0, 0, 0, 0, 0, 127, 127, 250, 55, 252, 51, 43, 56, 26, 56, 225, 190, 35, 53, 0, 0, 0, 0, 0, 0, 0, 128, 0, 127, 0, 0, 127, 0, 0, 127, 24, 16, 24, 16, 26, 56, 254, 55, 225, 190, 35, 53, 0, 0, 0, 0, 0, 0, 128, 63, 0, 127, 0, 0, 127, 0, 0, 127, 24, 16, 104, 50, 235, 59, 254, 55, 5, 0, 128, 63, 0, 0, 0, 0, 0, 0, 0, 128, 0, 127, 0, 0, 127, 0, 0, 127, 104, 50, 24, 16, 26, 56, 206, 37, 5, 0, 128, 63, 0, 0, 0, 0, 0, 0, 128, 63, 0, 127, 0, 0, 127, 0, 0, 127, 104, 50, 104, 50, 235, 59, 206, 37, 5, 0, 128, 63, 251, 255, 255, 190, 0, 0, 128, 63, 127, 0, 0, 0, 0, 0, 129, 127, 2, 56, 254, 59, 4, 56, 235, 59, 5, 0, 128, 63, 0, 0, 0, 0, 0, 0, 0, 128, 127, 0, 0, 0, 0, 0, 129, 127, 254, 59, 0, 58, 55, 52, 26, 56, 5, 0, 128, 63, 0, 0, 0, 0, 0, 0, 128, 63, 127, 0, 0, 0, 0, 0, 129, 127, 2, 56, 0, 58, 55, 52, 235, 59, 5, 0, 128, 63, 253, 255, 255, 190, 0, 0, 0, 128, 127, 0, 0, 0, 0, 0, 129, 127, 254, 59, 254, 59, 4, 56, 26, 56, 225, 190, 35, 53, 0, 0, 0, 0, 0, 0, 128, 63, 0, 0, 127, 0, 129, 0, 0, 127, 250, 55, 254, 59, 243, 51, 26, 56, 5, 0, 128, 63, 251, 255, 255, 190, 0, 0, 128, 63, 0, 0, 127, 0, 129, 0, 0, 127, 35, 16, 0, 58, 30, 33, 235, 59, 5, 0, 128, 63, 0, 0, 0, 0, 0, 0, 128, 63, 0, 0, 127, 0, 129, 0, 0, 127, 24, 16, 254, 59, 243, 51, 235, 59, 225, 190, 35, 53, 253, 255, 255, 190, 0, 0, 128, 63, 0, 0, 127, 0, 129, 0, 0, 127, 250, 55, 0, 58, 32, 33, 26, 56 ),
"array_index_data": PoolByteArray( 0, 0, 2, 0, 1, 0, 1, 0, 3, 0, 0, 0, 4, 0, 6, 0, 5, 0, 7, 0, 5, 0, 6, 0, 8, 0, 10, 0, 9, 0, 10, 0, 11, 0, 9, 0, 12, 0, 14, 0, 13, 0, 13, 0, 15, 0, 12, 0, 16, 0, 18, 0, 17, 0, 17, 0, 19, 0, 16, 0 ),
"blend_shape_data": [  ],
"format": 97591,
"index_count": 30,
"primitive": 4,
"skeleton_aabb": [  ],
"vertex_count": 20
}

[sub_resource type="BoxShape" id=2]
extents = Vector3( 0.5, 0.25, 0.5 )

[node name="SM_Floor_1x1_A_1" type="StaticBody"]

[node name="SM_Floor_1x1_A_1" type="MeshInstance" parent="."]
mesh = SubResource( 1 )
material/0 = ExtResource( 2 )

[node name="AnimationPlayer" type="AnimationPlayer" parent="."]

[node name="CollisionShape" type="CollisionShape" parent="."]
transform = Transform( 1, 0, 0, 0, 1, 0, 0, 0, 1, 0.5, -0.25, 0.5 )
shape = SubResource( 2 )
