[gd_scene load_steps=5 format=2]

[ext_resource path="res://ART/Material/Enviro/M_EnviroProps_01.tres" type="Material" id=1]
[ext_resource path="res://ART/Archi/Ressources/SM_WallBackground_02_A_1.DAE" type="PackedScene" id=2]

[sub_resource type="BoxShape" id=1]
extents = Vector3( 0.25, 2.5, 5.75 )

[sub_resource type="BoxShape" id=2]
extents = Vector3( 0.408172, 2.5, 0.257429 )

[node name="SM_WallBackground_02_A_1" instance=ExtResource( 2 )]

[node name="SM_WallBackground_02_A_1" parent="." index="0"]
material/0 = ExtResource( 1 )

[node name="CollisionShape" type="CollisionShape" parent="." index="2"]
transform = Transform( 1, 0, 0, 0, 1, 0, 0, 0, 1, -0.25, 2.5, -5.75 )
shape = SubResource( 1 )

[node name="CollisionShape2" type="CollisionShape" parent="." index="3"]
transform = Transform( 1, 0, 0, 0, 1, 0, 0, 0, 1, -0.848828, 2.5, -0.249406 )
shape = SubResource( 2 )
