[gd_scene load_steps=4 format=2]

[ext_resource path="res://ART/Material/Enviro/M_WallVP_01.tres" type="Material" id=2]

[sub_resource type="ArrayMesh" id=1]
resource_name = "SM_Wall_1X5_01_A_1Mesh"
surfaces/0 = {
"aabb": AABB( -0.0500003, 0, -6.1e-07, 0.55, 5.00001, 0.999998 ),
"array_data": PoolByteArray( 19, 110, 166, 180, 0, 0, 160, 64, 225, 190, 35, 181, 0, 127, 0, 0, 129, 0, 0, 127, 200, 200, 200, 255, 135, 57, 235, 59, 135, 57, 235, 59, 19, 110, 166, 180, 0, 0, 160, 64, 215, 255, 127, 63, 0, 127, 0, 0, 130, 0, 0, 127, 200, 200, 200, 255, 135, 57, 68, 58, 135, 57, 68, 58, 245, 255, 255, 62, 0, 0, 160, 64, 225, 190, 35, 181, 0, 127, 0, 0, 130, 0, 0, 127, 200, 200, 200, 255, 180, 56, 235, 59, 180, 56, 235, 59, 245, 255, 255, 62, 0, 0, 160, 64, 215, 255, 127, 63, 0, 127, 0, 0, 129, 0, 0, 127, 200, 200, 200, 255, 180, 56, 68, 58, 180, 56, 68, 58, 19, 110, 166, 180, 0, 0, 40, 64, 215, 255, 127, 63, 0, 0, 127, 0, 127, 0, 0, 127, 175, 175, 175, 255, 30, 33, 0, 56, 30, 33, 0, 56, 19, 110, 166, 180, 0, 0, 128, 62, 215, 255, 127, 63, 0, 0, 127, 0, 127, 0, 0, 127, 100, 100, 100, 255, 30, 33, 235, 59, 30, 33, 235, 59, 245, 255, 255, 62, 0, 0, 40, 64, 215, 255, 127, 63, 0, 0, 127, 0, 127, 0, 0, 127, 175, 175, 175, 255, 61, 47, 0, 56, 61, 47, 0, 56, 245, 255, 255, 62, 0, 0, 128, 62, 215, 255, 127, 63, 0, 0, 127, 0, 127, 0, 0, 127, 100, 100, 100, 255, 61, 47, 235, 59, 61, 47, 235, 59, 245, 255, 255, 62, 0, 0, 128, 62, 215, 255, 127, 63, 127, 0, 0, 0, 0, 0, 127, 127, 100, 100, 100, 255, 198, 58, 192, 54, 198, 58, 192, 54, 245, 255, 255, 62, 0, 0, 40, 64, 225, 190, 35, 181, 127, 0, 0, 0, 0, 0, 127, 127, 175, 175, 175, 255, 229, 55, 184, 56, 229, 55, 184, 56, 245, 255, 255, 62, 0, 0, 40, 64, 215, 255, 127, 63, 127, 0, 0, 0, 0, 0, 127, 127, 175, 175, 175, 255, 198, 58, 184, 56, 198, 58, 184, 56, 245, 255, 255, 62, 0, 0, 128, 62, 225, 190, 35, 181, 127, 0, 0, 0, 0, 0, 127, 127, 100, 100, 100, 255, 229, 55, 192, 54, 229, 55, 192, 54, 245, 255, 255, 62, 0, 0, 40, 64, 225, 190, 35, 181, 0, 0, 129, 0, 129, 0, 0, 127, 175, 175, 175, 255, 16, 48, 0, 56, 16, 48, 0, 56, 245, 255, 255, 62, 0, 0, 128, 62, 225, 190, 35, 181, 0, 0, 129, 0, 129, 0, 0, 127, 100, 100, 100, 255, 16, 48, 235, 59, 16, 48, 235, 59, 19, 110, 166, 180, 0, 0, 40, 64, 225, 190, 35, 181, 0, 0, 129, 0, 129, 0, 0, 127, 175, 175, 175, 255, 93, 51, 0, 56, 93, 51, 0, 56, 19, 110, 166, 180, 0, 0, 128, 62, 225, 190, 35, 181, 0, 0, 129, 0, 129, 0, 0, 127, 100, 100, 100, 255, 93, 51, 235, 59, 93, 51, 235, 59, 19, 110, 166, 180, 0, 0, 128, 62, 225, 190, 35, 181, 129, 0, 0, 0, 0, 0, 127, 127, 100, 100, 100, 255, 207, 51, 235, 59, 207, 51, 235, 59, 19, 110, 166, 180, 0, 0, 40, 64, 215, 255, 127, 63, 129, 0, 0, 0, 0, 0, 127, 127, 175, 175, 175, 255, 52, 55, 0, 56, 52, 55, 0, 56, 19, 110, 166, 180, 0, 0, 40, 64, 225, 190, 35, 181, 129, 0, 0, 0, 0, 0, 127, 127, 175, 175, 175, 255, 207, 51, 0, 56, 207, 51, 0, 56, 19, 110, 166, 180, 0, 0, 128, 62, 215, 255, 127, 63, 129, 0, 0, 0, 0, 0, 127, 127, 100, 100, 100, 255, 52, 55, 235, 59, 52, 55, 235, 59, 19, 110, 166, 180, 0, 0, 160, 64, 215, 255, 127, 63, 0, 0, 127, 0, 127, 0, 0, 127, 200, 200, 200, 255, 30, 33, 30, 33, 30, 33, 30, 33, 245, 255, 255, 62, 0, 0, 160, 64, 215, 255, 127, 63, 0, 0, 127, 0, 127, 0, 0, 127, 200, 200, 200, 255, 61, 47, 30, 33, 61, 47, 30, 33, 245, 255, 255, 62, 0, 0, 160, 64, 225, 190, 35, 181, 127, 0, 0, 0, 0, 0, 127, 127, 200, 200, 200, 255, 229, 55, 15, 58, 229, 55, 15, 58, 245, 255, 255, 62, 0, 0, 160, 64, 215, 255, 127, 63, 127, 0, 0, 0, 0, 0, 127, 127, 200, 200, 200, 255, 198, 58, 15, 58, 198, 58, 15, 58, 245, 255, 255, 62, 0, 0, 160, 64, 225, 190, 35, 181, 0, 0, 129, 0, 129, 0, 0, 127, 200, 200, 200, 255, 16, 48, 30, 33, 16, 48, 30, 33, 19, 110, 166, 180, 0, 0, 160, 64, 225, 190, 35, 181, 0, 0, 129, 0, 129, 0, 0, 127, 200, 200, 200, 255, 93, 51, 30, 33, 93, 51, 30, 33, 19, 110, 166, 180, 0, 0, 160, 64, 215, 255, 127, 63, 129, 0, 0, 0, 0, 0, 127, 127, 200, 200, 200, 255, 52, 55, 30, 33, 52, 55, 30, 33, 19, 110, 166, 180, 0, 0, 160, 64, 225, 190, 35, 181, 129, 0, 0, 0, 0, 0, 127, 127, 200, 200, 200, 255, 207, 51, 30, 33, 207, 51, 30, 33, 245, 255, 255, 62, 0, 0, 0, 0, 225, 190, 35, 181, 0, 129, 0, 0, 130, 0, 0, 127, 49, 49, 49, 255, 2, 59, 126, 54, 2, 59, 126, 54, 245, 255, 255, 62, 0, 0, 0, 0, 215, 255, 127, 63, 0, 129, 0, 0, 129, 0, 0, 127, 49, 49, 49, 255, 2, 59, 18, 58, 2, 59, 18, 58, 19, 110, 166, 180, 0, 0, 0, 0, 215, 255, 127, 63, 0, 129, 0, 0, 130, 0, 0, 127, 49, 49, 49, 255, 74, 59, 18, 58, 74, 59, 18, 58, 19, 110, 166, 180, 0, 0, 0, 0, 225, 190, 35, 181, 0, 129, 0, 0, 129, 0, 0, 127, 49, 49, 49, 255, 74, 59, 126, 54, 74, 59, 126, 54, 19, 110, 166, 180, 0, 0, 128, 62, 215, 255, 127, 63, 0, 0, 127, 0, 0, 127, 0, 127, 49, 49, 49, 255, 19, 59, 24, 59, 19, 59, 24, 59, 245, 255, 255, 62, 0, 0, 0, 0, 215, 255, 127, 63, 0, 0, 127, 0, 0, 127, 0, 127, 49, 49, 49, 255, 169, 58, 235, 59, 169, 58, 235, 59, 245, 255, 255, 62, 0, 0, 128, 62, 215, 255, 127, 63, 0, 0, 127, 0, 0, 127, 0, 127, 49, 49, 49, 255, 19, 59, 235, 59, 19, 59, 235, 59, 19, 110, 166, 180, 0, 0, 0, 0, 215, 255, 127, 63, 0, 0, 127, 0, 0, 127, 0, 127, 49, 49, 49, 255, 169, 58, 24, 59, 169, 58, 24, 59, 245, 255, 255, 62, 0, 0, 128, 62, 215, 255, 127, 63, 127, 0, 0, 0, 0, 129, 0, 127, 49, 49, 49, 255, 165, 59, 24, 58, 165, 59, 24, 58, 245, 255, 255, 62, 0, 0, 0, 0, 225, 190, 35, 181, 127, 0, 0, 0, 0, 129, 0, 127, 49, 49, 49, 255, 202, 59, 138, 54, 202, 59, 138, 54, 245, 255, 255, 62, 0, 0, 128, 62, 225, 190, 35, 181, 127, 0, 0, 0, 0, 129, 0, 127, 49, 49, 49, 255, 165, 59, 138, 54, 165, 59, 138, 54, 245, 255, 255, 62, 0, 0, 0, 0, 215, 255, 127, 63, 127, 0, 0, 0, 0, 129, 0, 127, 49, 49, 49, 255, 202, 59, 24, 58, 202, 59, 24, 58, 245, 255, 255, 62, 0, 0, 128, 62, 225, 190, 35, 181, 0, 0, 129, 0, 0, 127, 0, 127, 49, 49, 49, 255, 144, 58, 3, 59, 144, 58, 3, 59, 19, 110, 166, 180, 0, 0, 0, 0, 225, 190, 35, 181, 0, 0, 129, 0, 0, 127, 0, 127, 49, 49, 49, 255, 38, 58, 214, 59, 38, 58, 214, 59, 19, 110, 166, 180, 0, 0, 128, 62, 225, 190, 35, 181, 0, 0, 129, 0, 0, 127, 0, 127, 49, 49, 49, 255, 144, 58, 214, 59, 144, 58, 214, 59, 245, 255, 255, 62, 0, 0, 0, 0, 225, 190, 35, 181, 0, 0, 129, 0, 0, 127, 0, 127, 49, 49, 49, 255, 38, 58, 3, 59, 38, 58, 3, 59, 32, 205, 76, 189, 0, 0, 128, 62, 225, 190, 35, 181, 129, 0, 0, 0, 0, 127, 0, 127, 49, 49, 49, 255, 13, 58, 68, 58, 13, 58, 68, 58, 32, 205, 76, 189, 0, 0, 0, 0, 215, 255, 127, 63, 129, 0, 0, 0, 0, 127, 0, 127, 49, 49, 49, 255, 164, 57, 235, 59, 164, 57, 235, 59, 32, 205, 76, 189, 0, 0, 128, 62, 215, 255, 127, 63, 129, 0, 0, 0, 0, 127, 0, 127, 49, 49, 49, 255, 13, 58, 235, 59, 13, 58, 235, 59, 32, 205, 76, 189, 0, 0, 0, 0, 225, 190, 35, 181, 129, 0, 0, 0, 0, 127, 0, 127, 49, 49, 49, 255, 164, 57, 68, 58, 164, 57, 68, 58, 32, 205, 76, 189, 0, 0, 0, 0, 215, 255, 127, 63, 0, 129, 0, 0, 129, 0, 0, 127, 49, 49, 49, 255, 81, 59, 18, 58, 81, 59, 18, 58, 32, 205, 76, 189, 0, 0, 0, 0, 225, 190, 35, 181, 0, 129, 0, 0, 129, 0, 0, 127, 49, 49, 49, 255, 81, 59, 126, 54, 81, 59, 126, 54, 32, 205, 76, 189, 0, 0, 128, 62, 215, 255, 127, 63, 0, 0, 127, 0, 0, 127, 0, 127, 49, 49, 49, 255, 19, 59, 3, 59, 19, 59, 3, 59, 32, 205, 76, 189, 0, 0, 0, 0, 215, 255, 127, 63, 0, 0, 127, 0, 0, 127, 0, 127, 49, 49, 49, 255, 169, 58, 3, 59, 169, 58, 3, 59, 32, 205, 76, 189, 0, 0, 128, 62, 225, 190, 35, 181, 0, 127, 0, 0, 129, 0, 0, 127, 49, 49, 49, 255, 158, 56, 235, 59, 158, 56, 235, 59, 19, 110, 166, 180, 0, 0, 128, 62, 215, 255, 127, 63, 0, 127, 0, 0, 129, 0, 0, 127, 49, 49, 49, 255, 137, 56, 68, 58, 137, 56, 68, 58, 19, 110, 166, 180, 0, 0, 128, 62, 225, 190, 35, 181, 0, 127, 0, 0, 129, 0, 0, 127, 49, 49, 49, 255, 137, 56, 235, 59, 137, 56, 235, 59, 32, 205, 76, 189, 0, 0, 128, 62, 215, 255, 127, 63, 0, 127, 0, 0, 129, 0, 0, 127, 49, 49, 49, 255, 158, 56, 68, 58, 158, 56, 68, 58, 32, 205, 76, 189, 0, 0, 0, 0, 225, 190, 35, 181, 0, 0, 129, 0, 0, 127, 0, 127, 49, 49, 49, 255, 38, 58, 235, 59, 38, 58, 235, 59, 32, 205, 76, 189, 0, 0, 128, 62, 225, 190, 35, 181, 0, 0, 129, 0, 0, 127, 0, 127, 49, 49, 49, 255, 144, 58, 235, 59, 144, 58, 235, 59, 245, 255, 255, 62, 0, 0, 128, 62, 225, 190, 35, 181, 0, 127, 0, 0, 130, 0, 0, 127, 49, 49, 49, 255, 108, 55, 235, 59, 108, 55, 235, 59, 245, 255, 255, 62, 0, 0, 128, 62, 215, 255, 127, 63, 0, 127, 0, 0, 129, 0, 0, 127, 49, 49, 49, 255, 108, 55, 68, 58, 108, 55, 68, 58 ),
"array_index_data": PoolByteArray( 0, 0, 2, 0, 1, 0, 2, 0, 3, 0, 1, 0, 4, 0, 6, 0, 5, 0, 6, 0, 7, 0, 5, 0, 8, 0, 10, 0, 9, 0, 9, 0, 11, 0, 8, 0, 12, 0, 14, 0, 13, 0, 14, 0, 15, 0, 13, 0, 16, 0, 18, 0, 17, 0, 17, 0, 19, 0, 16, 0, 20, 0, 21, 0, 4, 0, 21, 0, 6, 0, 4, 0, 10, 0, 23, 0, 22, 0, 22, 0, 9, 0, 10, 0, 24, 0, 25, 0, 12, 0, 25, 0, 14, 0, 12, 0, 18, 0, 27, 0, 26, 0, 26, 0, 17, 0, 18, 0, 28, 0, 30, 0, 29, 0, 30, 0, 28, 0, 31, 0, 32, 0, 34, 0, 33, 0, 33, 0, 35, 0, 32, 0, 36, 0, 38, 0, 37, 0, 37, 0, 39, 0, 36, 0, 40, 0, 42, 0, 41, 0, 41, 0, 43, 0, 40, 0, 44, 0, 46, 0, 45, 0, 45, 0, 47, 0, 44, 0, 48, 0, 30, 0, 31, 0, 31, 0, 49, 0, 48, 0, 50, 0, 32, 0, 35, 0, 35, 0, 51, 0, 50, 0, 52, 0, 54, 0, 53, 0, 53, 0, 55, 0, 52, 0, 56, 0, 42, 0, 57, 0, 42, 0, 56, 0, 41, 0, 53, 0, 54, 0, 58, 0, 58, 0, 59, 0, 53, 0 ),
"blend_shape_data": [  ],
"format": 97599,
"index_count": 114,
"primitive": 4,
"skeleton_aabb": [  ],
"vertex_count": 60
}

[sub_resource type="BoxShape" id=2]
extents = Vector3( 0.25, 2.5, 0.5 )

[node name="SM_Wall_1X5_01_A_1" type="StaticBody"]

[node name="SM_Wall_1X5_01_A_1" type="MeshInstance" parent="."]
mesh = SubResource( 1 )
material/0 = ExtResource( 2 )

[node name="AnimationPlayer" type="AnimationPlayer" parent="."]

[node name="CollisionShape" type="CollisionShape" parent="."]
transform = Transform( 1, 0, 0, 0, 1, 0, 0, 0, 1, 0.25, 2.5, 0.5 )
shape = SubResource( 2 )
