<?xml version="1.0" encoding="utf-8"?>
<COLLADA xmlns="http://www.collada.org/2005/11/COLLADASchema" version="1.4.1">
  <asset>
    <contributor>
      <author/>
      <authoring_tool>FBX COLLADA exporter</authoring_tool>
      <comments/>
    </contributor>
    <created>2020-04-24T15:02:47Z</created>
    <keywords/>
    <modified>2020-04-24T15:02:47Z</modified>
    <revision/>
    <subject/>
    <title/>
    <unit meter="0.010000" name="centimeter"/>
    <up_axis>Z_UP</up_axis>
  </asset>
  <library_geometries>
    <geometry id="SM_Beer_01_A_1-lib" name="SM_Beer_01_A_1Mesh">
      <mesh>
        <source id="SM_Beer_01_A_1-POSITION">
          <float_array id="SM_Beer_01_A_1-POSITION-array" count="546">
5.229600 0.000000 -14.073607
3.478863 1.675332 -15.407654
2.407448 3.018844 -15.407654
0.859208 3.764437 -15.407654
-0.859208 3.764437 -15.407654
-2.407448 3.018844 -15.407654
-3.478863 1.675332 -15.407654
-3.861247 0.000001 -15.407654
-3.478863 -1.675331 -15.407654
-2.407449 -3.018844 -15.407654
-0.859208 -3.764437 -15.407654
0.859208 -3.764437 -15.407654
2.407449 -3.018844 -15.407654
4.711709 -2.269036 -14.073607
1.945484 0.000000 14.340569
1.752820 0.844114 14.340569
1.212989 1.521041 14.340569
0.432911 1.896707 14.340569
-0.432911 1.896707 14.340569
-1.212989 1.521041 14.340569
-1.752820 0.844114 14.340569
-1.945484 0.000000 14.340569
-1.752821 -0.844113 14.340569
-1.212990 -1.521040 14.340569
-0.432911 -1.896707 14.340569
0.432911 -1.896707 14.340569
1.212990 -1.521040 14.340569
1.752821 -0.844113 14.340569
5.229600 0.000000 1.533127
4.711707 2.269039 1.533127
3.260602 4.088666 1.533127
1.163695 5.098484 1.533127
-1.163696 5.098484 1.533127
-3.260602 4.088666 1.533127
-4.711707 2.269039 1.533127
-5.229600 0.000001 1.533127
-4.711708 -2.269037 1.533127
-3.260604 -4.088665 1.533127
-1.163696 -5.098484 1.533127
1.163696 -5.098484 1.533127
3.260604 -4.088665 1.533127
4.711709 -2.269036 1.533127
2.644257 0.000000 7.782837
2.382393 1.147300 7.782837
1.648667 2.067363 7.782837
0.588402 2.577960 7.782837
-0.588402 2.577960 7.782837
-1.648667 2.067363 7.782837
-2.382393 1.147300 7.782837
-2.644257 0.000000 7.782837
-2.382393 -1.147299 7.782837
-1.648668 -2.067363 7.782837
-0.588403 -2.577960 7.782837
0.588403 -2.577960 7.782837
1.648668 -2.067363 7.782837
2.382394 -1.147299 7.782837
2.103135 0.000004 15.407654
1.894857 0.912520 15.407654
1.311282 1.644296 15.407654
0.467991 2.050404 15.407654
-0.467991 2.050404 15.407654
-1.311282 1.644296 15.407654
1.894858 -0.912514 15.407654
2.367482 -0.000010 14.340569
2.133020 1.027219 14.340569
1.476100 1.850971 14.340569
0.526814 2.308123 14.340569
-0.526814 2.308123 14.340569
-1.476100 1.850971 14.340569
-2.133024 1.027221 14.340569
-2.367482 -0.000009 14.340569
-2.133026 -1.027211 14.340569
-1.476100 -1.850970 14.340569
-0.526814 -2.308123 14.340569
0.526814 -2.308123 14.340569
1.476100 -1.850970 14.340569
2.133027 -1.027210 14.340569
1.311283 -1.644296 15.407654
0.467991 -2.050404 15.407654
-0.467991 -2.050404 15.407654
-1.311283 -1.644296 15.407654
-1.894858 -0.912515 15.407654
-2.103135 0.000005 15.407654
-1.894855 0.912519 15.407654
4.716935 0.000000 3.391716
4.249811 2.046601 3.391716
2.940961 3.687848 3.391716
1.049616 4.598671 3.391716
-1.049617 4.598671 3.391716
-2.940961 3.687848 3.391716
-4.249811 2.046602 3.391716
-4.716935 0.000001 3.391716
-4.249812 -2.046600 3.391716
-2.940962 -3.687847 3.391716
-1.049617 -4.598671 3.391716
1.049617 -4.598671 3.391716
2.940962 -3.687847 3.391716
4.249813 -2.046599 3.391716
3.204088 0.000000 5.925360
2.886783 1.390202 5.925360
1.997716 2.505057 5.925360
0.712976 3.123755 5.925360
-0.712977 3.123755 5.925360
-1.997716 2.505057 5.925360
-2.886783 1.390202 5.925360
-3.204088 0.000000 5.925360
-2.886783 -1.390201 5.925360
-1.997717 -2.505056 5.925360
-0.712977 -3.123755 5.925360
0.712977 -3.123755 5.925360
1.997717 -2.505056 5.925360
2.886784 -1.390200 5.925360
3.861247 -0.000000 -15.407654
4.711707 2.269039 -14.073607
3.260602 4.088666 -14.073607
1.163695 5.098484 -14.073607
-1.163696 5.098484 -14.073607
-3.260602 4.088666 -14.073607
-4.711707 2.269039 -14.073607
-5.229600 0.000001 -14.073607
-4.711708 -2.269037 -14.073607
-3.260604 -4.088665 -14.073607
-1.163696 -5.098484 -14.073607
1.163696 -5.098484 -14.073607
3.260604 -4.088665 -14.073607
3.478864 -1.675330 -15.407654
4.887512 -0.000000 -15.074142
4.403496 2.120612 -15.074142
3.047314 3.821211 -15.074142
1.087573 4.764972 -15.074142
-1.087574 4.764972 -15.074142
-3.047314 3.821211 -15.074142
-4.403496 2.120612 -15.074142
-4.887512 0.000001 -15.074142
-4.403497 -2.120611 -15.074142
-3.047315 -3.821210 -15.074142
-1.087574 -4.764972 -15.074142
1.087574 -4.764972 -15.074142
3.047315 -3.821210 -15.074142
4.403497 -2.120610 -15.074142
4.711707 2.269039 -11.112823
4.711707 2.269039 0.148997
3.260602 4.088666 -11.112823
3.260602 4.088666 0.148997
1.163695 5.098484 -11.112823
1.163695 5.098484 0.148997
-1.163696 5.098484 -11.112823
-1.163696 5.098484 0.148997
-3.260602 4.088666 -11.112823
-3.260602 4.088666 0.148997
-4.711707 2.269039 -11.112823
-4.711707 2.269039 0.148997
-5.229600 0.000001 -11.112823
-5.229600 0.000001 0.148997
-4.711708 -2.269037 -11.112823
-4.711708 -2.269037 0.148997
-3.260604 -4.088665 -11.112823
-3.260604 -4.088665 0.148997
-1.163696 -5.098484 -11.112823
-1.163696 -5.098484 0.148997
1.163696 -5.098484 -11.112823
1.163696 -5.098484 0.148997
3.260604 -4.088665 -11.112823
3.260604 -4.088665 0.148997
4.711709 -2.269036 -11.112823
4.711709 -2.269036 0.148997
5.229600 0.000000 0.148997
5.229600 0.000000 -11.112823
2.183067 0.000000 12.110939
1.966875 0.947197 12.110939
1.361120 1.706790 12.110939
0.485778 2.128333 12.110939
-0.485778 2.128333 12.110939
-1.361120 1.706790 12.110939
-1.966875 0.947197 12.110939
-2.183067 0.000000 12.110939
-1.966875 -0.947197 12.110939
-1.361120 -1.706790 12.110939
-0.485778 -2.128333 12.110939
0.485778 -2.128333 12.110939
1.361120 -1.706790 12.110939
1.966876 -0.947196 12.110939
</float_array>
          <technique_common>
            <accessor source="#SM_Beer_01_A_1-POSITION-array" count="182" stride="3">
              <param name="X" type="float"/>
              <param name="Y" type="float"/>
              <param name="Z" type="float"/>
            </accessor>
          </technique_common>
        </source>
        <source id="SM_Beer_01_A_1-Normal0">
          <float_array id="SM_Beer_01_A_1-Normal0-array" count="3240">
0.111043 -0.139244 -0.984012
0.039631 -0.173634 -0.984012
-0.039631 -0.173634 -0.984012
-0.039631 -0.173634 -0.984012
-0.111043 -0.139244 -0.984012
-0.160462 -0.077274 -0.984013
-0.160462 -0.077274 -0.984013
-0.178099 0.000000 -0.984012
-0.160462 0.077275 -0.984012
-0.039631 -0.173634 -0.984012
-0.160462 -0.077274 -0.984013
-0.160462 0.077275 -0.984012
-0.160462 0.077275 -0.984012
-0.111043 0.139244 -0.984012
-0.039631 0.173634 -0.984012
-0.039631 0.173634 -0.984012
0.039631 0.173634 -0.984012
0.111043 0.139244 -0.984012
-0.160462 0.077275 -0.984012
-0.039631 0.173634 -0.984012
0.111043 0.139244 -0.984012
0.111043 0.139244 -0.984012
0.160462 0.077274 -0.984012
0.178099 0.000000 -0.984012
-0.160462 0.077275 -0.984012
0.111043 0.139244 -0.984012
0.178099 0.000000 -0.984012
-0.039631 -0.173634 -0.984012
-0.160462 0.077275 -0.984012
0.178099 0.000000 -0.984012
0.111043 -0.139244 -0.984012
-0.039631 -0.173634 -0.984012
0.178099 0.000000 -0.984012
0.160462 -0.077274 -0.984012
0.111043 -0.139244 -0.984012
0.178099 0.000000 -0.984012
0.900969 0.433884 0.000000
1.000000 0.000000 0.000000
1.000000 0.000000 0.000000
1.000000 0.000000 0.000000
0.900969 0.433884 0.000000
0.900969 0.433884 0.000000
0.623490 0.781831 0.000000
0.900969 0.433884 0.000000
0.900969 0.433884 0.000000
0.900969 0.433884 0.000000
0.623490 0.781831 0.000000
0.623490 0.781831 0.000000
0.222521 0.974928 0.000000
0.623490 0.781831 0.000000
0.623490 0.781831 0.000000
0.623490 0.781831 0.000000
0.222521 0.974928 0.000000
0.222521 0.974928 0.000000
-0.222521 0.974928 0.000000
0.222521 0.974928 0.000000
0.222521 0.974928 0.000000
0.222521 0.974928 0.000000
-0.222521 0.974928 0.000000
-0.222521 0.974928 0.000000
-0.623490 0.781831 0.000000
-0.222521 0.974928 0.000000
-0.222521 0.974928 0.000000
-0.222521 0.974928 0.000000
-0.623490 0.781832 0.000000
-0.623490 0.781831 0.000000
-0.900969 0.433884 0.000000
-0.623490 0.781831 0.000000
-0.623490 0.781832 0.000000
-0.623490 0.781832 0.000000
-0.900969 0.433884 0.000000
-0.900969 0.433884 0.000000
-1.000000 0.000000 0.000000
-0.900969 0.433884 0.000000
-0.900969 0.433884 0.000000
-0.900969 0.433884 0.000000
-1.000000 0.000000 0.000000
-1.000000 0.000000 0.000000
-0.900969 -0.433884 0.000000
-1.000000 0.000000 0.000000
-1.000000 0.000000 0.000000
-1.000000 0.000000 0.000000
-0.900969 -0.433884 0.000000
-0.900969 -0.433884 0.000000
-0.623490 -0.781831 0.000000
-0.900969 -0.433884 0.000000
-0.900969 -0.433884 0.000000
-0.900969 -0.433884 0.000000
-0.623490 -0.781831 0.000000
-0.623490 -0.781831 0.000000
-0.222521 -0.974928 0.000000
-0.623490 -0.781831 0.000000
-0.623490 -0.781831 0.000000
-0.623490 -0.781831 0.000000
-0.222521 -0.974928 0.000000
-0.222521 -0.974928 0.000000
0.222521 -0.974928 0.000000
-0.222521 -0.974928 0.000000
-0.222521 -0.974928 0.000000
-0.222521 -0.974928 0.000000
0.222521 -0.974928 0.000000
0.222521 -0.974928 0.000000
0.623490 -0.781831 0.000000
0.222521 -0.974928 0.000000
0.222521 -0.974928 0.000000
0.222521 -0.974928 0.000000
0.623490 -0.781831 0.000000
0.623490 -0.781831 0.000000
0.900969 -0.433883 0.000000
0.623490 -0.781831 0.000000
0.623490 -0.781831 0.000000
0.623490 -0.781831 0.000000
0.900969 -0.433883 0.000000
0.900969 -0.433883 0.000000
1.000000 0.000000 0.000000
0.900969 -0.433883 0.000000
0.900969 -0.433883 0.000000
0.900969 -0.433883 0.000000
1.000000 0.000000 0.000000
1.000000 0.000000 0.000000
0.000000 0.000000 1.000000
0.000000 0.000000 1.000000
0.000000 0.000000 1.000000
0.000000 0.000000 1.000000
0.000000 0.000000 1.000000
0.000000 0.000000 1.000000
0.000000 0.000000 1.000000
0.000000 0.000000 1.000000
0.000000 0.000000 1.000000
0.000000 0.000000 1.000000
0.000000 0.000000 1.000000
0.000000 0.000000 1.000000
0.000000 0.000000 1.000000
0.000000 0.000000 1.000000
0.000000 0.000000 1.000000
0.000000 0.000000 1.000000
0.000000 0.000000 1.000000
0.000000 0.000000 1.000000
0.000000 0.000000 1.000000
0.000000 0.000000 1.000000
0.000000 0.000000 1.000000
0.000000 0.000000 1.000000
0.000000 0.000000 1.000000
0.000000 0.000000 1.000000
0.000000 0.000000 1.000000
0.000000 0.000000 1.000000
0.000000 0.000000 1.000000
0.000000 0.000000 1.000000
0.000000 0.000000 1.000000
0.000000 0.000000 1.000000
0.000000 0.000000 1.000000
0.000000 0.000000 1.000000
0.000000 0.000000 1.000000
0.000000 0.000000 1.000000
0.000000 0.000000 1.000000
0.000000 0.000000 1.000000
0.821673 0.395697 0.410216
0.911988 0.000000 0.410216
0.922447 0.000000 0.386125
0.922447 0.000000 0.386125
0.831096 0.400235 0.386125
0.821673 0.395697 0.410216
0.568615 0.713021 0.410216
0.821673 0.395697 0.410216
0.831096 0.400235 0.386125
0.831096 0.400235 0.386125
0.575136 0.721198 0.386125
0.568615 0.713021 0.410216
0.202936 0.889123 0.410216
0.568615 0.713021 0.410216
0.575136 0.721198 0.386125
0.575136 0.721198 0.386125
0.205264 0.899319 0.386125
0.202936 0.889123 0.410216
-0.202937 0.889123 0.410216
0.202936 0.889123 0.410216
0.205264 0.899319 0.386125
0.205264 0.899319 0.386125
-0.205264 0.899319 0.386125
-0.202937 0.889123 0.410216
-0.568615 0.713021 0.410216
-0.202937 0.889123 0.410216
-0.205264 0.899319 0.386125
-0.205264 0.899319 0.386125
-0.575136 0.721198 0.386125
-0.568615 0.713021 0.410216
-0.821673 0.395697 0.410216
-0.568615 0.713021 0.410216
-0.575136 0.721198 0.386125
-0.575136 0.721198 0.386125
-0.831096 0.400235 0.386125
-0.821673 0.395697 0.410216
-0.911988 0.000000 0.410216
-0.821673 0.395697 0.410216
-0.831096 0.400235 0.386125
-0.831096 0.400235 0.386125
-0.922447 0.000000 0.386125
-0.911988 0.000000 0.410216
-0.821673 -0.395697 0.410216
-0.911988 0.000000 0.410216
-0.922447 0.000000 0.386125
-0.922447 0.000000 0.386125
-0.831096 -0.400234 0.386125
-0.821673 -0.395697 0.410216
-0.568616 -0.713021 0.410216
-0.821673 -0.395697 0.410216
-0.831096 -0.400234 0.386125
-0.831096 -0.400234 0.386125
-0.575136 -0.721198 0.386125
-0.568616 -0.713021 0.410216
-0.202937 -0.889123 0.410216
-0.568616 -0.713021 0.410216
-0.575136 -0.721198 0.386125
-0.575136 -0.721198 0.386125
-0.205264 -0.899319 0.386125
-0.202937 -0.889123 0.410216
0.202937 -0.889123 0.410216
-0.202937 -0.889123 0.410216
-0.205264 -0.899319 0.386125
-0.205264 -0.899319 0.386125
0.205264 -0.899319 0.386125
0.202937 -0.889123 0.410216
0.568616 -0.713021 0.410216
0.202937 -0.889123 0.410216
0.205264 -0.899319 0.386125
0.205264 -0.899319 0.386125
0.575136 -0.721198 0.386125
0.568616 -0.713021 0.410216
0.821673 -0.395697 0.410216
0.568616 -0.713021 0.410216
0.575136 -0.721198 0.386125
0.575136 -0.721198 0.386125
0.831096 -0.400234 0.386125
0.821673 -0.395697 0.410216
0.911988 0.000000 0.410216
0.821673 -0.395697 0.410216
0.831096 -0.400234 0.386125
0.831096 -0.400234 0.386125
0.922447 0.000000 0.386125
0.911988 0.000000 0.410216
0.895897 0.431441 0.105957
0.994371 0.000000 0.105957
0.979645 0.000000 0.200738
0.979645 0.000000 0.200738
0.882630 0.425052 0.200738
0.895897 0.431441 0.105957
0.619980 0.777430 0.105957
0.895897 0.431441 0.105957
0.882630 0.425052 0.200738
0.882630 0.425052 0.200738
0.610799 0.765917 0.200738
0.619980 0.777430 0.105957
0.221268 0.969440 0.105957
0.619980 0.777430 0.105957
0.610799 0.765917 0.200738
0.610799 0.765917 0.200738
0.217991 0.955083 0.200738
0.221268 0.969440 0.105957
-0.221268 0.969440 0.105957
0.221268 0.969440 0.105957
0.217991 0.955083 0.200738
0.217991 0.955083 0.200738
-0.217992 0.955083 0.200738
-0.221268 0.969440 0.105957
-0.619980 0.777430 0.105957
-0.221268 0.969440 0.105957
-0.217992 0.955083 0.200738
-0.217992 0.955083 0.200738
-0.610798 0.765917 0.200738
-0.619980 0.777430 0.105957
-0.895897 0.431441 0.105957
-0.619980 0.777430 0.105957
-0.610798 0.765917 0.200738
-0.610798 0.765917 0.200738
-0.882630 0.425052 0.200738
-0.895897 0.431441 0.105957
-0.994371 0.000000 0.105957
-0.895897 0.431441 0.105957
-0.882630 0.425052 0.200738
-0.882630 0.425052 0.200738
-0.979645 0.000000 0.200738
-0.994371 0.000000 0.105957
-0.895897 -0.431441 0.105957
-0.994371 0.000000 0.105957
-0.979645 0.000000 0.200738
-0.979645 0.000000 0.200738
-0.882630 -0.425052 0.200738
-0.895897 -0.431441 0.105957
-0.619980 -0.777430 0.105957
-0.895897 -0.431441 0.105957
-0.882630 -0.425052 0.200738
-0.882630 -0.425052 0.200738
-0.610799 -0.765917 0.200738
-0.619980 -0.777430 0.105957
-0.221268 -0.969440 0.105957
-0.619980 -0.777430 0.105957
-0.610799 -0.765917 0.200738
-0.610799 -0.765917 0.200738
-0.217992 -0.955083 0.200738
-0.221268 -0.969440 0.105957
0.221268 -0.969440 0.105957
-0.221268 -0.969440 0.105957
-0.217992 -0.955083 0.200738
-0.217992 -0.955083 0.200738
0.217992 -0.955083 0.200738
0.221268 -0.969440 0.105957
0.619980 -0.777430 0.105957
0.221268 -0.969440 0.105957
0.217992 -0.955083 0.200738
0.217992 -0.955083 0.200738
0.610799 -0.765917 0.200738
0.619980 -0.777430 0.105957
0.895897 -0.431441 0.105957
0.619980 -0.777430 0.105957
0.610799 -0.765917 0.200738
0.610799 -0.765917 0.200738
0.882630 -0.425052 0.200738
0.895897 -0.431441 0.105957
0.994371 0.000000 0.105957
0.895897 -0.431441 0.105957
0.882630 -0.425052 0.200738
0.882630 -0.425052 0.200738
0.979645 0.000000 0.200738
0.994371 0.000000 0.105957
0.970659 -0.000002 0.240460
0.874533 0.421156 0.240457
0.874533 0.421155 0.240457
0.874533 0.421155 0.240457
0.970659 0.000002 0.240459
0.970659 -0.000002 0.240460
0.874533 0.421156 0.240457
0.605196 0.758892 0.240460
0.605196 0.758892 0.240459
0.605196 0.758892 0.240459
0.874533 0.421155 0.240457
0.874533 0.421156 0.240457
0.605196 0.758892 0.240460
0.215992 0.946323 0.240459
0.215992 0.946323 0.240459
0.215992 0.946323 0.240459
0.605196 0.758892 0.240459
0.605196 0.758892 0.240460
0.215992 0.946323 0.240459
-0.215992 0.946323 0.240459
-0.215992 0.946323 0.240459
-0.215992 0.946323 0.240459
0.215992 0.946323 0.240459
0.215992 0.946323 0.240459
-0.215992 0.946323 0.240459
-0.605195 0.758892 0.240460
-0.605196 0.758892 0.240459
-0.605196 0.758892 0.240459
-0.215992 0.946323 0.240459
-0.215992 0.946323 0.240459
-0.605195 0.758892 0.240460
-0.874532 0.421156 0.240461
-0.874532 0.421155 0.240461
-0.874532 0.421155 0.240461
-0.605196 0.758892 0.240459
-0.605195 0.758892 0.240460
-0.874532 0.421156 0.240461
-0.970659 -0.000003 0.240459
-0.970659 0.000003 0.240461
-0.970659 0.000003 0.240461
-0.874532 0.421155 0.240461
-0.874532 0.421156 0.240461
-0.970659 -0.000003 0.240459
-0.874533 -0.421155 0.240459
-0.874533 -0.421154 0.240460
-0.874533 -0.421154 0.240460
-0.970659 0.000003 0.240461
-0.970659 -0.000003 0.240459
-0.874533 -0.421155 0.240459
-0.605196 -0.758892 0.240460
-0.605196 -0.758892 0.240459
-0.605196 -0.758892 0.240459
-0.874533 -0.421154 0.240460
-0.874533 -0.421155 0.240459
-0.605196 -0.758892 0.240460
-0.215992 -0.946323 0.240459
-0.215992 -0.946323 0.240459
-0.215992 -0.946323 0.240459
-0.605196 -0.758892 0.240459
-0.605196 -0.758892 0.240460
-0.215992 -0.946323 0.240459
0.215992 -0.946323 0.240459
0.215992 -0.946323 0.240459
0.215992 -0.946323 0.240459
-0.215992 -0.946323 0.240459
-0.215992 -0.946323 0.240459
0.215992 -0.946323 0.240459
0.605196 -0.758892 0.240459
0.605196 -0.758892 0.240460
0.605196 -0.758892 0.240460
0.215992 -0.946323 0.240459
0.215992 -0.946323 0.240459
0.605196 -0.758892 0.240459
0.874533 -0.421154 0.240460
0.874534 -0.421153 0.240459
0.874534 -0.421153 0.240459
0.605196 -0.758892 0.240460
0.605196 -0.758892 0.240459
0.874533 -0.421154 0.240460
0.970659 -0.000002 0.240460
0.970659 0.000002 0.240459
0.970659 0.000002 0.240459
0.874534 -0.421153 0.240459
0.874533 -0.421154 0.240460
0.000000 0.000000 -1.000000
0.000000 0.000000 -1.000000
0.000000 0.000000 -1.000000
0.000000 0.000000 -1.000000
0.000000 0.000000 -1.000000
0.000000 0.000000 -1.000000
0.000000 0.000000 -1.000000
0.000000 0.000000 -1.000000
0.000000 0.000000 -1.000000
0.000000 0.000000 -1.000000
0.000000 0.000000 -1.000000
0.000000 0.000000 -1.000000
0.000000 0.000000 -1.000000
0.000000 0.000000 -1.000000
0.000000 0.000000 -1.000000
0.000000 0.000000 -1.000000
0.000000 0.000000 -1.000000
0.000000 0.000000 -1.000000
0.000000 0.000000 -1.000000
0.000000 0.000000 -1.000000
0.000000 0.000000 -1.000000
0.000000 0.000000 -1.000000
0.000000 0.000000 -1.000000
0.000000 0.000000 -1.000000
0.000000 0.000000 -1.000000
0.000000 0.000000 -1.000000
0.000000 0.000000 -1.000000
0.000000 0.000000 -1.000000
0.000000 0.000000 -1.000000
0.000000 0.000000 -1.000000
0.000000 0.000000 -1.000000
0.000000 0.000000 -1.000000
0.000000 0.000000 -1.000000
0.000000 0.000000 -1.000000
0.000000 0.000000 -1.000000
0.000000 0.000000 -1.000000
0.000000 0.000000 -1.000000
0.000000 0.000000 -1.000000
0.000000 0.000000 -1.000000
0.000000 0.000000 -1.000000
0.000000 0.000000 -1.000000
0.000000 0.000000 -1.000000
0.000000 0.000000 -1.000000
0.000000 0.000000 -1.000000
0.000000 0.000000 -1.000000
0.000000 0.000000 -1.000000
0.000000 0.000000 -1.000000
0.000000 0.000000 -1.000000
0.000000 0.000000 -1.000000
0.000000 0.000000 -1.000000
0.000000 0.000000 -1.000000
0.000000 0.000000 -1.000000
0.000000 0.000000 -1.000000
0.000000 0.000000 -1.000000
0.000000 0.000000 -1.000000
0.000000 0.000000 -1.000000
0.000000 0.000000 -1.000000
0.000000 0.000000 -1.000000
0.000000 0.000000 -1.000000
0.000000 0.000000 -1.000000
0.000000 0.000000 -1.000000
0.000000 0.000000 -1.000000
0.000000 0.000000 -1.000000
0.000000 0.000000 -1.000000
0.000000 0.000000 -1.000000
0.000000 0.000000 -1.000000
0.000000 0.000000 -1.000000
0.000000 0.000000 -1.000000
0.000000 0.000000 -1.000000
0.000000 0.000000 -1.000000
0.000000 0.000000 -1.000000
0.000000 0.000000 -1.000000
0.000000 0.000000 -1.000000
0.000000 0.000000 -1.000000
0.000000 0.000000 -1.000000
0.000000 0.000000 -1.000000
0.000000 0.000000 -1.000000
0.000000 0.000000 -1.000000
0.000000 0.000000 -1.000000
0.000000 0.000000 -1.000000
0.000000 0.000000 -1.000000
0.000000 0.000000 -1.000000
0.000000 0.000000 -1.000000
0.000000 0.000000 -1.000000
0.893120 0.430104 0.131706
0.831096 0.400235 0.386125
0.922447 0.000000 0.386125
0.922447 0.000000 0.386125
0.991289 0.000000 0.131706
0.893120 0.430104 0.131706
0.618059 0.775021 0.131706
0.575136 0.721198 0.386125
0.831096 0.400235 0.386125
0.831096 0.400235 0.386125
0.893120 0.430104 0.131706
0.618059 0.775021 0.131706
0.220583 0.966435 0.131706
0.205264 0.899319 0.386125
0.575136 0.721198 0.386125
0.575136 0.721198 0.386125
0.618059 0.775021 0.131706
0.220583 0.966435 0.131706
-0.220583 0.966435 0.131706
-0.205264 0.899319 0.386125
0.205264 0.899319 0.386125
0.205264 0.899319 0.386125
0.220583 0.966435 0.131706
-0.220583 0.966435 0.131706
-0.618059 0.775021 0.131706
-0.575136 0.721198 0.386125
-0.205264 0.899319 0.386125
-0.205264 0.899319 0.386125
-0.220583 0.966435 0.131706
-0.618059 0.775021 0.131706
-0.893120 0.430104 0.131706
-0.831096 0.400235 0.386125
-0.575136 0.721198 0.386125
-0.575136 0.721198 0.386125
-0.618059 0.775021 0.131706
-0.893120 0.430104 0.131706
-0.991289 0.000000 0.131706
-0.922447 0.000000 0.386125
-0.831096 0.400235 0.386125
-0.831096 0.400235 0.386125
-0.893120 0.430104 0.131706
-0.991289 0.000000 0.131706
-0.893121 -0.430104 0.131706
-0.831096 -0.400234 0.386125
-0.922447 0.000000 0.386125
-0.922447 0.000000 0.386125
-0.991289 0.000000 0.131706
-0.893121 -0.430104 0.131706
-0.618059 -0.775021 0.131706
-0.575136 -0.721198 0.386125
-0.831096 -0.400234 0.386125
-0.831096 -0.400234 0.386125
-0.893121 -0.430104 0.131706
-0.618059 -0.775021 0.131706
-0.220583 -0.966435 0.131706
-0.205264 -0.899319 0.386125
-0.575136 -0.721198 0.386125
-0.575136 -0.721198 0.386125
-0.618059 -0.775021 0.131706
-0.220583 -0.966435 0.131706
0.220583 -0.966435 0.131706
0.205264 -0.899319 0.386125
-0.205264 -0.899319 0.386125
-0.205264 -0.899319 0.386125
-0.220583 -0.966435 0.131706
0.220583 -0.966435 0.131706
0.618059 -0.775021 0.131706
0.575136 -0.721198 0.386125
0.205264 -0.899319 0.386125
0.205264 -0.899319 0.386125
0.220583 -0.966435 0.131706
0.618059 -0.775021 0.131706
0.893121 -0.430104 0.131706
0.831096 -0.400234 0.386125
0.575136 -0.721198 0.386125
0.575136 -0.721198 0.386125
0.618059 -0.775021 0.131706
0.893121 -0.430104 0.131706
0.991289 0.000000 0.131706
0.922447 0.000000 0.386125
0.831096 -0.400234 0.386125
0.831096 -0.400234 0.386125
0.893121 -0.430104 0.131706
0.991289 0.000000 0.131706
0.821673 0.395697 0.410216
0.882630 0.425052 0.200738
0.979645 0.000000 0.200738
0.979645 0.000000 0.200738
0.911988 0.000000 0.410216
0.821673 0.395697 0.410216
0.568615 0.713021 0.410216
0.610799 0.765917 0.200738
0.882630 0.425052 0.200738
0.882630 0.425052 0.200738
0.821673 0.395697 0.410216
0.568615 0.713021 0.410216
0.202936 0.889123 0.410216
0.217991 0.955083 0.200738
0.610799 0.765917 0.200738
0.610799 0.765917 0.200738
0.568615 0.713021 0.410216
0.202936 0.889123 0.410216
-0.202937 0.889123 0.410216
-0.217992 0.955083 0.200738
0.217991 0.955083 0.200738
0.217991 0.955083 0.200738
0.202936 0.889123 0.410216
-0.202937 0.889123 0.410216
-0.568615 0.713021 0.410216
-0.610798 0.765917 0.200738
-0.217992 0.955083 0.200738
-0.217992 0.955083 0.200738
-0.202937 0.889123 0.410216
-0.568615 0.713021 0.410216
-0.821673 0.395697 0.410216
-0.882630 0.425052 0.200738
-0.610798 0.765917 0.200738
-0.610798 0.765917 0.200738
-0.568615 0.713021 0.410216
-0.821673 0.395697 0.410216
-0.911988 0.000000 0.410216
-0.979645 0.000000 0.200738
-0.882630 0.425052 0.200738
-0.882630 0.425052 0.200738
-0.821673 0.395697 0.410216
-0.911988 0.000000 0.410216
-0.821673 -0.395697 0.410216
-0.882630 -0.425052 0.200738
-0.979645 0.000000 0.200738
-0.979645 0.000000 0.200738
-0.911988 0.000000 0.410216
-0.821673 -0.395697 0.410216
-0.568616 -0.713021 0.410216
-0.610799 -0.765917 0.200738
-0.882630 -0.425052 0.200738
-0.882630 -0.425052 0.200738
-0.821673 -0.395697 0.410216
-0.568616 -0.713021 0.410216
-0.202937 -0.889123 0.410216
-0.217992 -0.955083 0.200738
-0.610799 -0.765917 0.200738
-0.610799 -0.765917 0.200738
-0.568616 -0.713021 0.410216
-0.202937 -0.889123 0.410216
0.202937 -0.889123 0.410216
0.217992 -0.955083 0.200738
-0.217992 -0.955083 0.200738
-0.217992 -0.955083 0.200738
-0.202937 -0.889123 0.410216
0.202937 -0.889123 0.410216
0.568616 -0.713021 0.410216
0.610799 -0.765917 0.200738
0.217992 -0.955083 0.200738
0.217992 -0.955083 0.200738
0.202937 -0.889123 0.410216
0.568616 -0.713021 0.410216
0.821673 -0.395697 0.410216
0.882630 -0.425052 0.200738
0.610799 -0.765917 0.200738
0.610799 -0.765917 0.200738
0.568616 -0.713021 0.410216
0.821673 -0.395697 0.410216
0.911988 0.000000 0.410216
0.979645 0.000000 0.200738
0.882630 -0.425052 0.200738
0.882630 -0.425052 0.200738
0.821673 -0.395697 0.410216
0.911988 0.000000 0.410216
0.309065 0.000000 -0.951041
0.178099 0.000000 -0.984012
0.160462 0.077274 -0.984012
0.160462 0.077274 -0.984012
0.278458 0.134098 -0.951041
0.309065 0.000000 -0.951041
0.278458 0.134098 -0.951041
0.160462 0.077274 -0.984012
0.111043 0.139244 -0.984012
0.111043 0.139244 -0.984012
0.192699 0.241637 -0.951041
0.278458 0.134098 -0.951041
0.192699 0.241637 -0.951041
0.111043 0.139244 -0.984012
0.039631 0.173634 -0.984012
0.039631 0.173634 -0.984012
0.068774 0.301317 -0.951041
0.192699 0.241637 -0.951041
0.068774 0.301317 -0.951041
0.039631 0.173634 -0.984012
-0.039631 0.173634 -0.984012
-0.039631 0.173634 -0.984012
-0.068774 0.301317 -0.951041
0.068774 0.301317 -0.951041
-0.068774 0.301317 -0.951041
-0.039631 0.173634 -0.984012
-0.111043 0.139244 -0.984012
-0.111043 0.139244 -0.984012
-0.192699 0.241637 -0.951041
-0.068774 0.301317 -0.951041
-0.192699 0.241637 -0.951041
-0.111043 0.139244 -0.984012
-0.160462 0.077275 -0.984012
-0.160462 0.077275 -0.984012
-0.278458 0.134098 -0.951041
-0.192699 0.241637 -0.951041
-0.278458 0.134098 -0.951041
-0.160462 0.077275 -0.984012
-0.178099 0.000000 -0.984012
-0.178099 0.000000 -0.984012
-0.309065 0.000000 -0.951041
-0.278458 0.134098 -0.951041
-0.309065 0.000000 -0.951041
-0.178099 0.000000 -0.984012
-0.160462 -0.077274 -0.984013
-0.160462 -0.077274 -0.984013
-0.278458 -0.134098 -0.951041
-0.309065 0.000000 -0.951041
-0.278458 -0.134098 -0.951041
-0.160462 -0.077274 -0.984013
-0.111043 -0.139244 -0.984012
-0.111043 -0.139244 -0.984012
-0.192699 -0.241637 -0.951041
-0.278458 -0.134098 -0.951041
-0.192699 -0.241637 -0.951041
-0.111043 -0.139244 -0.984012
-0.039631 -0.173634 -0.984012
-0.039631 -0.173634 -0.984012
-0.068774 -0.301317 -0.951041
-0.192699 -0.241637 -0.951041
-0.068774 -0.301317 -0.951041
-0.039631 -0.173634 -0.984012
0.039631 -0.173634 -0.984012
0.039631 -0.173634 -0.984012
0.068774 -0.301317 -0.951041
-0.068774 -0.301317 -0.951041
0.068774 -0.301317 -0.951041
0.039631 -0.173634 -0.984012
0.111043 -0.139244 -0.984012
0.111043 -0.139244 -0.984012
0.192699 -0.241637 -0.951041
0.068774 -0.301317 -0.951041
0.192699 -0.241637 -0.951041
0.111043 -0.139244 -0.984012
0.160462 -0.077274 -0.984012
0.160462 -0.077274 -0.984012
0.278458 -0.134098 -0.951041
0.192699 -0.241637 -0.951041
0.278458 -0.134098 -0.951041
0.160462 -0.077274 -0.984012
0.178099 0.000000 -0.984012
0.178099 0.000000 -0.984012
0.309065 0.000000 -0.951041
0.278458 -0.134098 -0.951041
0.987062 0.000000 -0.160342
0.946222 0.000000 -0.323518
0.852516 0.410550 -0.323518
0.852516 0.410550 -0.323518
0.889312 0.428270 -0.160342
0.987062 0.000000 -0.160342
0.889312 0.428270 -0.160342
0.852516 0.410550 -0.323518
0.589960 0.739786 -0.323519
0.589960 0.739786 -0.323519
0.615423 0.771716 -0.160342
0.889312 0.428270 -0.160342
0.615423 0.771716 -0.160342
0.589960 0.739786 -0.323519
0.210554 0.922498 -0.323519
0.210554 0.922498 -0.323519
0.219642 0.962314 -0.160342
0.615423 0.771716 -0.160342
0.219642 0.962314 -0.160342
0.210554 0.922498 -0.323519
-0.210554 0.922498 -0.323519
-0.210554 0.922498 -0.323519
-0.219642 0.962314 -0.160342
0.219642 0.962314 -0.160342
-0.219642 0.962314 -0.160342
-0.210554 0.922498 -0.323519
-0.589960 0.739786 -0.323519
-0.589960 0.739786 -0.323519
-0.615423 0.771716 -0.160342
-0.219642 0.962314 -0.160342
-0.615423 0.771716 -0.160342
-0.589960 0.739786 -0.323519
-0.852516 0.410550 -0.323519
-0.852516 0.410550 -0.323519
-0.889312 0.428270 -0.160342
-0.615423 0.771716 -0.160342
-0.889312 0.428270 -0.160342
-0.852516 0.410550 -0.323519
-0.946222 0.000000 -0.323518
-0.946222 0.000000 -0.323518
-0.987062 0.000000 -0.160342
-0.889312 0.428270 -0.160342
-0.987062 0.000000 -0.160342
-0.946222 0.000000 -0.323518
-0.852517 -0.410550 -0.323518
-0.852517 -0.410550 -0.323518
-0.889312 -0.428270 -0.160342
-0.987062 0.000000 -0.160342
-0.889312 -0.428270 -0.160342
-0.852517 -0.410550 -0.323518
-0.589960 -0.739786 -0.323519
-0.589960 -0.739786 -0.323519
-0.615423 -0.771716 -0.160342
-0.889312 -0.428270 -0.160342
-0.615423 -0.771716 -0.160342
-0.589960 -0.739786 -0.323519
-0.210554 -0.922498 -0.323519
-0.210554 -0.922498 -0.323519
-0.219642 -0.962314 -0.160342
-0.615423 -0.771716 -0.160342
-0.219642 -0.962314 -0.160342
-0.210554 -0.922498 -0.323519
0.210554 -0.922498 -0.323519
0.210554 -0.922498 -0.323519
0.219642 -0.962314 -0.160342
-0.219642 -0.962314 -0.160342
0.219642 -0.962314 -0.160342
0.210554 -0.922498 -0.323519
0.589960 -0.739786 -0.323519
0.589960 -0.739786 -0.323519
0.615423 -0.771716 -0.160342
0.219642 -0.962314 -0.160342
0.615423 -0.771716 -0.160342
0.589960 -0.739786 -0.323519
0.852517 -0.410550 -0.323519
0.852517 -0.410550 -0.323519
0.889312 -0.428270 -0.160342
0.615423 -0.771716 -0.160342
0.889312 -0.428270 -0.160342
0.852517 -0.410550 -0.323519
0.946222 0.000000 -0.323518
0.946222 0.000000 -0.323518
0.987062 0.000000 -0.160342
0.889312 -0.428270 -0.160342
0.893120 0.430104 0.131706
0.991289 0.000000 0.131706
1.000000 0.000000 0.000000
1.000000 0.000000 0.000000
0.900969 0.433884 0.000000
0.893120 0.430104 0.131706
0.987062 0.000000 -0.160342
0.889312 0.428270 -0.160342
0.900969 0.433884 0.000000
0.900969 0.433884 0.000000
1.000000 0.000000 0.000000
0.987062 0.000000 -0.160342
0.618059 0.775021 0.131706
0.893120 0.430104 0.131706
0.900969 0.433884 0.000000
0.900969 0.433884 0.000000
0.623490 0.781831 0.000000
0.618059 0.775021 0.131706
0.889312 0.428270 -0.160342
0.615423 0.771716 -0.160342
0.623490 0.781831 0.000000
0.623490 0.781831 0.000000
0.900969 0.433884 0.000000
0.889312 0.428270 -0.160342
0.220583 0.966435 0.131706
0.618059 0.775021 0.131706
0.623490 0.781831 0.000000
0.623490 0.781831 0.000000
0.222521 0.974928 0.000000
0.220583 0.966435 0.131706
0.615423 0.771716 -0.160342
0.219642 0.962314 -0.160342
0.222521 0.974928 0.000000
0.222521 0.974928 0.000000
0.623490 0.781831 0.000000
0.615423 0.771716 -0.160342
-0.220583 0.966435 0.131706
0.220583 0.966435 0.131706
0.222521 0.974928 0.000000
0.222521 0.974928 0.000000
-0.222521 0.974928 0.000000
-0.220583 0.966435 0.131706
0.219642 0.962314 -0.160342
-0.219642 0.962314 -0.160342
-0.222521 0.974928 0.000000
-0.222521 0.974928 0.000000
0.222521 0.974928 0.000000
0.219642 0.962314 -0.160342
-0.618059 0.775021 0.131706
-0.220583 0.966435 0.131706
-0.222521 0.974928 0.000000
-0.222521 0.974928 0.000000
-0.623490 0.781831 0.000000
-0.618059 0.775021 0.131706
-0.219642 0.962314 -0.160342
-0.615423 0.771716 -0.160342
-0.623490 0.781832 0.000000
-0.623490 0.781832 0.000000
-0.222521 0.974928 0.000000
-0.219642 0.962314 -0.160342
-0.893120 0.430104 0.131706
-0.618059 0.775021 0.131706
-0.623490 0.781831 0.000000
-0.623490 0.781831 0.000000
-0.900969 0.433884 0.000000
-0.893120 0.430104 0.131706
-0.615423 0.771716 -0.160342
-0.889312 0.428270 -0.160342
-0.900969 0.433884 0.000000
-0.900969 0.433884 0.000000
-0.623490 0.781832 0.000000
-0.615423 0.771716 -0.160342
-0.991289 0.000000 0.131706
-0.893120 0.430104 0.131706
-0.900969 0.433884 0.000000
-0.900969 0.433884 0.000000
-1.000000 0.000000 0.000000
-0.991289 0.000000 0.131706
-0.889312 0.428270 -0.160342
-0.987062 0.000000 -0.160342
-1.000000 0.000000 0.000000
-1.000000 0.000000 0.000000
-0.900969 0.433884 0.000000
-0.889312 0.428270 -0.160342
-0.893121 -0.430104 0.131706
-0.991289 0.000000 0.131706
-1.000000 0.000000 0.000000
-1.000000 0.000000 0.000000
-0.900969 -0.433884 0.000000
-0.893121 -0.430104 0.131706
-0.987062 0.000000 -0.160342
-0.889312 -0.428270 -0.160342
-0.900969 -0.433884 0.000000
-0.900969 -0.433884 0.000000
-1.000000 0.000000 0.000000
-0.987062 0.000000 -0.160342
-0.618059 -0.775021 0.131706
-0.893121 -0.430104 0.131706
-0.900969 -0.433884 0.000000
-0.900969 -0.433884 0.000000
-0.623490 -0.781831 0.000000
-0.618059 -0.775021 0.131706
-0.889312 -0.428270 -0.160342
-0.615423 -0.771716 -0.160342
-0.623490 -0.781831 0.000000
-0.623490 -0.781831 0.000000
-0.900969 -0.433884 0.000000
-0.889312 -0.428270 -0.160342
-0.220583 -0.966435 0.131706
-0.618059 -0.775021 0.131706
-0.623490 -0.781831 0.000000
-0.623490 -0.781831 0.000000
-0.222521 -0.974928 0.000000
-0.220583 -0.966435 0.131706
-0.615423 -0.771716 -0.160342
-0.219642 -0.962314 -0.160342
-0.222521 -0.974928 0.000000
-0.222521 -0.974928 0.000000
-0.623490 -0.781831 0.000000
-0.615423 -0.771716 -0.160342
0.220583 -0.966435 0.131706
-0.220583 -0.966435 0.131706
-0.222521 -0.974928 0.000000
-0.222521 -0.974928 0.000000
0.222521 -0.974928 0.000000
0.220583 -0.966435 0.131706
-0.219642 -0.962314 -0.160342
0.219642 -0.962314 -0.160342
0.222521 -0.974928 0.000000
0.222521 -0.974928 0.000000
-0.222521 -0.974928 0.000000
-0.219642 -0.962314 -0.160342
0.618059 -0.775021 0.131706
0.220583 -0.966435 0.131706
0.222521 -0.974928 0.000000
0.222521 -0.974928 0.000000
0.623490 -0.781831 0.000000
0.618059 -0.775021 0.131706
0.219642 -0.962314 -0.160342
0.615423 -0.771716 -0.160342
0.623490 -0.781831 0.000000
0.623490 -0.781831 0.000000
0.222521 -0.974928 0.000000
0.219642 -0.962314 -0.160342
0.893121 -0.430104 0.131706
0.618059 -0.775021 0.131706
0.623490 -0.781831 0.000000
0.623490 -0.781831 0.000000
0.900969 -0.433883 0.000000
0.893121 -0.430104 0.131706
0.615423 -0.771716 -0.160342
0.889312 -0.428270 -0.160342
0.900969 -0.433883 0.000000
0.900969 -0.433883 0.000000
0.623490 -0.781831 0.000000
0.615423 -0.771716 -0.160342
0.991289 0.000000 0.131706
0.893121 -0.430104 0.131706
0.900969 -0.433883 0.000000
0.900969 -0.433883 0.000000
1.000000 0.000000 0.000000
0.991289 0.000000 0.131706
0.889312 -0.428270 -0.160342
0.987062 0.000000 -0.160342
1.000000 0.000000 0.000000
1.000000 0.000000 0.000000
0.900969 -0.433883 0.000000
0.889312 -0.428270 -0.160342
0.895897 0.431441 0.105957
0.994371 0.000000 0.105957
0.994371 0.000000 0.105957
0.994371 0.000000 0.105957
0.895897 0.431441 0.105957
0.895897 0.431441 0.105957
0.619980 0.777430 0.105957
0.895897 0.431441 0.105957
0.895897 0.431441 0.105957
0.895897 0.431441 0.105957
0.619980 0.777430 0.105957
0.619980 0.777430 0.105957
0.221268 0.969440 0.105957
0.619980 0.777430 0.105957
0.619980 0.777430 0.105957
0.619980 0.777430 0.105957
0.221268 0.969440 0.105957
0.221268 0.969440 0.105957
-0.221268 0.969440 0.105957
0.221268 0.969440 0.105957
0.221268 0.969440 0.105957
0.221268 0.969440 0.105957
-0.221268 0.969440 0.105957
-0.221268 0.969440 0.105957
-0.619980 0.777430 0.105957
-0.221268 0.969440 0.105957
-0.221268 0.969440 0.105957
-0.221268 0.969440 0.105957
-0.619980 0.777430 0.105957
-0.619980 0.777430 0.105957
-0.895897 0.431441 0.105957
-0.619980 0.777430 0.105957
-0.619980 0.777430 0.105957
-0.619980 0.777430 0.105957
-0.895897 0.431441 0.105957
-0.895897 0.431441 0.105957
-0.994371 0.000000 0.105957
-0.895897 0.431441 0.105957
-0.895897 0.431441 0.105957
-0.895897 0.431441 0.105957
-0.994371 0.000000 0.105957
-0.994371 0.000000 0.105957
-0.895897 -0.431441 0.105957
-0.994371 0.000000 0.105957
-0.994371 0.000000 0.105957
-0.994371 0.000000 0.105957
-0.895897 -0.431441 0.105957
-0.895897 -0.431441 0.105957
-0.619980 -0.777430 0.105957
-0.895897 -0.431441 0.105957
-0.895897 -0.431441 0.105957
-0.895897 -0.431441 0.105957
-0.619980 -0.777430 0.105957
-0.619980 -0.777430 0.105957
-0.221268 -0.969440 0.105957
-0.619980 -0.777430 0.105957
-0.619980 -0.777430 0.105957
-0.619980 -0.777430 0.105957
-0.221268 -0.969440 0.105957
-0.221268 -0.969440 0.105957
0.221268 -0.969440 0.105957
-0.221268 -0.969440 0.105957
-0.221268 -0.969440 0.105957
-0.221268 -0.969440 0.105957
0.221268 -0.969440 0.105957
0.221268 -0.969440 0.105957
0.619980 -0.777430 0.105957
0.221268 -0.969440 0.105957
0.221268 -0.969440 0.105957
0.221268 -0.969440 0.105957
0.619980 -0.777430 0.105957
0.619980 -0.777430 0.105957
0.895897 -0.431441 0.105957
0.619980 -0.777430 0.105957
0.619980 -0.777430 0.105957
0.619980 -0.777430 0.105957
0.895897 -0.431441 0.105957
0.895897 -0.431441 0.105957
0.994371 0.000000 0.105957
0.895897 -0.431441 0.105957
0.895897 -0.431441 0.105957
0.895897 -0.431441 0.105957
0.994371 0.000000 0.105957
0.994371 0.000000 0.105957
</float_array>
          <technique_common>
            <accessor source="#SM_Beer_01_A_1-Normal0-array" count="1080" stride="3">
              <param name="X" type="float"/>
              <param name="Y" type="float"/>
              <param name="Z" type="float"/>
            </accessor>
          </technique_common>
        </source>
        <source id="SM_Beer_01_A_1-UV0">
          <float_array id="SM_Beer_01_A_1-UV0-array" count="496">
0.750000 0.044987
0.796816 0.000000
0.829377 0.000000
0.842803 0.000000
0.035714 0.044987
0.107143 0.044987
0.178571 0.044987
0.250000 0.044987
0.321429 0.044987
0.392857 0.044987
0.464286 0.044987
0.535714 0.044987
0.607143 0.044987
0.678572 0.044987
0.750000 1.000000
0.821429 1.000000
0.892857 1.000000
0.964286 1.000000
0.035714 1.000000
0.107143 1.000000
0.178571 1.000000
0.250000 1.000000
0.321429 1.000000
0.392857 1.000000
0.464286 1.000000
0.535714 1.000000
0.607143 1.000000
0.678572 1.000000
-0.035714 0.044987
-0.035714 1.000000
0.827645 0.000000
0.747594 0.000000
0.640321 0.000000
0.465942 0.000000
0.320126 0.000000
0.209936 0.000000
0.179015 0.000000
0.211282 0.000000
0.323247 0.000000
0.541755 0.000000
0.943757 1.000000
0.835337 1.000000
0.660499 1.000000
0.453872 1.000000
0.256382 1.000000
0.107143 1.000000
0.035714 1.000000
0.056243 1.000000
0.164663 1.000000
0.750000 0.571278
0.821429 0.571278
0.892857 0.571278
0.964286 0.571278
-0.035714 0.571278
0.035714 0.571278
0.107143 0.571278
0.178571 0.571278
0.250000 0.571278
0.321429 0.571278
0.392857 0.571278
0.464286 0.571278
0.535714 0.571278
0.607143 0.571278
0.678572 0.571278
0.750000 0.794723
0.821429 0.794723
0.892857 0.794723
0.964286 0.794723
-0.035714 0.794723
0.035714 0.794723
0.107143 0.794723
0.178571 0.794723
0.250000 0.794723
0.321429 0.794723
0.392857 0.794723
0.464286 0.794723
0.535714 0.794723
0.607143 0.794723
0.678572 0.794723
0.750000 1.000000
0.821429 1.000000
0.892857 1.000000
0.964286 1.000000
0.943757 1.000000
0.835337 1.000000
0.660499 1.000000
0.453872 1.000000
0.256382 1.000000
0.107143 1.000000
0.035714 1.000000
0.056243 1.000000
0.164663 1.000000
0.678572 1.000000
0.750000 1.000000
0.821429 1.000000
0.892857 1.000000
0.964286 1.000000
0.943757 1.000000
0.835337 1.000000
0.660499 1.000000
0.453872 1.000000
0.256382 1.000000
0.107143 1.000000
0.035714 1.000000
0.056243 1.000000
0.164663 1.000000
0.678572 1.000000
0.821429 1.000000
0.750000 1.000000
0.678572 1.000000
0.164663 1.000000
0.056243 1.000000
0.035714 1.000000
0.107143 1.000000
0.256382 1.000000
0.453872 1.000000
0.660499 1.000000
0.835337 1.000000
0.943757 1.000000
0.964286 1.000000
0.892857 1.000000
0.750000 0.636913
0.821429 0.636913
0.892857 0.636913
0.964286 0.636913
-0.035714 0.636913
0.035714 0.636913
0.107143 0.636913
0.178571 0.636913
0.250000 0.636913
0.321429 0.636913
0.392857 0.636913
0.464286 0.636913
0.535714 0.636913
0.607143 0.636913
0.678572 0.636913
0.750000 0.731087
0.821429 0.731087
0.892857 0.731087
0.964286 0.731087
-0.035714 0.731087
0.035714 0.731087
0.107143 0.731087
0.178571 0.731087
0.250000 0.731087
0.321429 0.731087
0.392857 0.731087
0.464286 0.731087
0.535714 0.731087
0.607143 0.731087
0.678572 0.731087
0.706403 0.000000
0.821429 0.044987
0.892857 0.044987
0.964286 0.044987
0.026369 0.027466
-0.026369 0.027466
0.097798 0.027466
0.045059 0.027466
0.169227 0.027466
0.116488 0.027466
0.240655 0.027466
0.187916 0.027466
0.312084 0.027466
0.259345 0.027466
0.383512 0.027466
0.330773 0.027466
0.454941 0.027466
0.402202 0.027466
0.526370 0.027466
0.473631 0.027466
0.597798 0.027466
0.545059 0.027466
0.669227 0.027466
0.616488 0.027466
0.740655 0.027466
0.687916 0.027466
0.745328 0.036226
0.728202 0.022493
0.809122 0.022493
0.861117 0.022493
-0.031042 0.036226
0.903544 0.022493
0.040387 0.036226
0.031042 0.036226
0.111815 0.036226
0.102470 0.036226
0.183244 0.036226
0.173899 0.036226
0.254672 0.036226
0.245328 0.036226
0.326101 0.036226
0.316756 0.036226
0.397530 0.036226
0.388185 0.036226
0.468958 0.036226
0.459613 0.036226
0.540387 0.036226
0.531042 0.036226
0.611815 0.036226
0.602471 0.036226
0.673899 0.036226
0.683244 0.036226
0.821429 0.144831
0.821429 0.524602
0.892857 0.144831
0.892857 0.524602
0.964286 0.144831
0.964286 0.524602
-0.035714 0.144831
-0.035714 0.524602
0.035714 0.144831
0.035714 0.524602
0.107143 0.144831
0.107143 0.524602
0.178571 0.144831
0.178571 0.524602
0.250000 0.144831
0.250000 0.524602
0.321429 0.144831
0.321429 0.524602
0.392857 0.144831
0.392857 0.524602
0.464286 0.144831
0.464286 0.524602
0.535714 0.144831
0.535714 0.524602
0.607143 0.144831
0.607143 0.524602
0.678572 0.144831
0.678572 0.524602
0.750000 0.524602
0.750000 0.144831
0.750000 0.930206
0.821429 0.930206
0.892857 0.930206
0.964286 0.930206
-0.035714 0.930206
0.035714 0.930206
0.107143 0.930206
0.178571 0.930206
0.250000 0.930206
0.321429 0.930206
0.392857 0.930206
0.464286 0.930206
0.535714 0.930206
0.607143 0.930206
0.678572 0.930206
</float_array>
          <technique_common>
            <accessor source="#SM_Beer_01_A_1-UV0-array" count="248" stride="2">
              <param name="S" type="float"/>
              <param name="T" type="float"/>
            </accessor>
          </technique_common>
        </source>
        <source id="SM_Beer_01_A_1-VERTEX_COLOR0">
          <float_array id="SM_Beer_01_A_1-VERTEX_COLOR0-array" count="2800">
0.121569 0.043137 0.000000 1.000000
0.121569 0.043137 0.000000 1.000000
0.121569 0.043137 0.000000 1.000000
0.121569 0.043137 0.000000 1.000000
0.121569 0.043137 0.000000 1.000000
0.121569 0.043137 0.000000 1.000000
0.121569 0.043137 0.000000 1.000000
0.121569 0.043137 0.000000 1.000000
0.121569 0.043137 0.000000 1.000000
0.121569 0.043137 0.000000 1.000000
0.121569 0.043137 0.000000 1.000000
0.121569 0.043137 0.000000 1.000000
0.121569 0.043137 0.000000 1.000000
0.121569 0.043137 0.000000 1.000000
0.219608 0.078431 0.000000 1.000000
0.219608 0.078431 0.000000 1.000000
0.219608 0.078431 0.000000 1.000000
0.219608 0.078431 0.000000 1.000000
0.219608 0.078431 0.000000 1.000000
0.219608 0.078431 0.000000 1.000000
0.219608 0.078431 0.000000 1.000000
0.219608 0.078431 0.000000 1.000000
0.219608 0.078431 0.000000 1.000000
0.219608 0.078431 0.000000 1.000000
0.219608 0.078431 0.000000 1.000000
0.219608 0.078431 0.000000 1.000000
0.219608 0.078431 0.000000 1.000000
0.219608 0.078431 0.000000 1.000000
0.219608 0.078431 0.000000 1.000000
0.219608 0.078431 0.000000 1.000000
0.219608 0.078431 0.000000 1.000000
0.219608 0.078431 0.000000 1.000000
0.219608 0.078431 0.000000 1.000000
0.219608 0.078431 0.000000 1.000000
0.219608 0.078431 0.000000 1.000000
0.219608 0.078431 0.000000 1.000000
0.219608 0.078431 0.000000 1.000000
0.219608 0.078431 0.000000 1.000000
0.776471 0.552941 0.070588 1.000000
0.776471 0.552941 0.070588 1.000000
0.776471 0.552941 0.070588 1.000000
0.776471 0.552941 0.070588 1.000000
0.776471 0.552941 0.070588 1.000000
0.776471 0.552941 0.070588 1.000000
0.776471 0.552941 0.070588 1.000000
0.776471 0.552941 0.070588 1.000000
0.776471 0.552941 0.070588 1.000000
0.776471 0.552941 0.070588 1.000000
0.776471 0.552941 0.070588 1.000000
0.776471 0.552941 0.070588 1.000000
0.219608 0.078431 0.000000 1.000000
0.219608 0.078431 0.000000 1.000000
0.219608 0.078431 0.000000 1.000000
0.219608 0.078431 0.000000 1.000000
0.219608 0.078431 0.000000 1.000000
0.219608 0.078431 0.000000 1.000000
0.219608 0.078431 0.000000 1.000000
0.219608 0.078431 0.000000 1.000000
0.219608 0.078431 0.000000 1.000000
0.219608 0.078431 0.000000 1.000000
0.219608 0.078431 0.000000 1.000000
0.219608 0.078431 0.000000 1.000000
0.219608 0.078431 0.000000 1.000000
0.219608 0.078431 0.000000 1.000000
0.219608 0.078431 0.000000 1.000000
0.219608 0.078431 0.000000 1.000000
0.219608 0.078431 0.000000 1.000000
0.219608 0.078431 0.000000 1.000000
0.219608 0.078431 0.000000 1.000000
0.219608 0.078431 0.000000 1.000000
0.776471 0.552941 0.070588 1.000000
0.776471 0.552941 0.070588 1.000000
0.776471 0.552941 0.070588 1.000000
0.776471 0.552941 0.070588 1.000000
0.776471 0.552941 0.070588 1.000000
0.776471 0.552941 0.070588 1.000000
0.776471 0.552941 0.070588 1.000000
0.776471 0.552941 0.070588 1.000000
0.776471 0.552941 0.070588 1.000000
0.776471 0.552941 0.070588 1.000000
0.776471 0.552941 0.070588 1.000000
0.776471 0.552941 0.070588 1.000000
0.776471 0.552941 0.070588 1.000000
0.776471 0.552941 0.070588 1.000000
0.294118 0.113725 0.015686 1.000000
0.219608 0.078431 0.000000 1.000000
0.219608 0.078431 0.000000 1.000000
0.294118 0.113725 0.015686 1.000000
0.294118 0.113725 0.015686 1.000000
0.219608 0.078431 0.000000 1.000000
0.219608 0.078431 0.000000 1.000000
0.294118 0.113725 0.015686 1.000000
0.294118 0.113725 0.015686 1.000000
0.219608 0.078431 0.000000 1.000000
0.219608 0.078431 0.000000 1.000000
0.294118 0.113725 0.015686 1.000000
0.294118 0.113725 0.015686 1.000000
0.219608 0.078431 0.000000 1.000000
0.219608 0.078431 0.000000 1.000000
0.294118 0.113725 0.015686 1.000000
0.294118 0.113725 0.015686 1.000000
0.219608 0.078431 0.000000 1.000000
0.219608 0.078431 0.000000 1.000000
0.294118 0.113725 0.015686 1.000000
0.294118 0.113725 0.015686 1.000000
0.219608 0.078431 0.000000 1.000000
0.219608 0.078431 0.000000 1.000000
0.294118 0.113725 0.015686 1.000000
0.294118 0.113725 0.015686 1.000000
0.219608 0.078431 0.000000 1.000000
0.219608 0.078431 0.000000 1.000000
0.294118 0.113725 0.015686 1.000000
0.294118 0.113725 0.015686 1.000000
0.219608 0.078431 0.000000 1.000000
0.219608 0.078431 0.000000 1.000000
0.294118 0.113725 0.015686 1.000000
0.294118 0.113725 0.015686 1.000000
0.219608 0.078431 0.000000 1.000000
0.219608 0.078431 0.000000 1.000000
0.294118 0.113725 0.015686 1.000000
0.294118 0.113725 0.015686 1.000000
0.219608 0.078431 0.000000 1.000000
0.219608 0.078431 0.000000 1.000000
0.294118 0.113725 0.015686 1.000000
0.294118 0.113725 0.015686 1.000000
0.219608 0.078431 0.000000 1.000000
0.219608 0.078431 0.000000 1.000000
0.294118 0.113725 0.015686 1.000000
0.294118 0.113725 0.015686 1.000000
0.219608 0.078431 0.000000 1.000000
0.219608 0.078431 0.000000 1.000000
0.294118 0.113725 0.015686 1.000000
0.294118 0.113725 0.015686 1.000000
0.219608 0.078431 0.000000 1.000000
0.219608 0.078431 0.000000 1.000000
0.294118 0.113725 0.015686 1.000000
0.294118 0.113725 0.015686 1.000000
0.219608 0.078431 0.000000 1.000000
0.219608 0.078431 0.000000 1.000000
0.294118 0.113725 0.015686 1.000000
0.776471 0.552941 0.070588 1.000000
0.776471 0.552941 0.070588 1.000000
0.776471 0.552941 0.070588 1.000000
0.776471 0.552941 0.070588 1.000000
0.776471 0.552941 0.070588 1.000000
0.776471 0.552941 0.070588 1.000000
0.776471 0.552941 0.070588 1.000000
0.776471 0.552941 0.070588 1.000000
0.776471 0.552941 0.070588 1.000000
0.776471 0.552941 0.070588 1.000000
0.776471 0.552941 0.070588 1.000000
0.776471 0.552941 0.070588 1.000000
0.776471 0.552941 0.070588 1.000000
0.776471 0.552941 0.070588 1.000000
0.776471 0.552941 0.070588 1.000000
0.776471 0.552941 0.070588 1.000000
0.776471 0.552941 0.070588 1.000000
0.776471 0.552941 0.070588 1.000000
0.776471 0.552941 0.070588 1.000000
0.776471 0.552941 0.070588 1.000000
0.776471 0.552941 0.070588 1.000000
0.776471 0.552941 0.070588 1.000000
0.776471 0.552941 0.070588 1.000000
0.776471 0.552941 0.070588 1.000000
0.776471 0.552941 0.070588 1.000000
0.776471 0.552941 0.070588 1.000000
0.776471 0.552941 0.070588 1.000000
0.776471 0.552941 0.070588 1.000000
0.776471 0.552941 0.070588 1.000000
0.776471 0.552941 0.070588 1.000000
0.776471 0.552941 0.070588 1.000000
0.776471 0.552941 0.070588 1.000000
0.776471 0.552941 0.070588 1.000000
0.776471 0.552941 0.070588 1.000000
0.776471 0.552941 0.070588 1.000000
0.776471 0.552941 0.070588 1.000000
0.776471 0.552941 0.070588 1.000000
0.776471 0.552941 0.070588 1.000000
0.776471 0.552941 0.070588 1.000000
0.776471 0.552941 0.070588 1.000000
0.776471 0.552941 0.070588 1.000000
0.776471 0.552941 0.070588 1.000000
0.776471 0.552941 0.070588 1.000000
0.776471 0.552941 0.070588 1.000000
0.776471 0.552941 0.070588 1.000000
0.776471 0.552941 0.070588 1.000000
0.776471 0.552941 0.070588 1.000000
0.776471 0.552941 0.070588 1.000000
0.776471 0.552941 0.070588 1.000000
0.776471 0.552941 0.070588 1.000000
0.776471 0.552941 0.070588 1.000000
0.776471 0.552941 0.070588 1.000000
0.776471 0.552941 0.070588 1.000000
0.776471 0.552941 0.070588 1.000000
0.776471 0.552941 0.070588 1.000000
0.776471 0.552941 0.070588 1.000000
0.776471 0.552941 0.070588 1.000000
0.776471 0.552941 0.070588 1.000000
0.776471 0.552941 0.070588 1.000000
0.776471 0.552941 0.070588 1.000000
0.776471 0.552941 0.070588 1.000000
0.776471 0.552941 0.070588 1.000000
0.776471 0.552941 0.070588 1.000000
0.776471 0.552941 0.070588 1.000000
0.776471 0.552941 0.070588 1.000000
0.776471 0.552941 0.070588 1.000000
0.776471 0.552941 0.070588 1.000000
0.776471 0.552941 0.070588 1.000000
0.776471 0.552941 0.070588 1.000000
0.776471 0.552941 0.070588 1.000000
0.776471 0.552941 0.070588 1.000000
0.776471 0.552941 0.070588 1.000000
0.776471 0.552941 0.070588 1.000000
0.776471 0.552941 0.070588 1.000000
0.776471 0.552941 0.070588 1.000000
0.776471 0.552941 0.070588 1.000000
0.776471 0.552941 0.070588 1.000000
0.776471 0.552941 0.070588 1.000000
0.776471 0.552941 0.070588 1.000000
0.776471 0.552941 0.070588 1.000000
0.776471 0.552941 0.070588 1.000000
0.776471 0.552941 0.070588 1.000000
0.776471 0.552941 0.070588 1.000000
0.776471 0.552941 0.070588 1.000000
0.776471 0.552941 0.070588 1.000000
0.776471 0.552941 0.070588 1.000000
0.776471 0.552941 0.070588 1.000000
0.776471 0.552941 0.070588 1.000000
0.776471 0.552941 0.070588 1.000000
0.776471 0.552941 0.070588 1.000000
0.776471 0.552941 0.070588 1.000000
0.776471 0.552941 0.070588 1.000000
0.776471 0.552941 0.070588 1.000000
0.776471 0.552941 0.070588 1.000000
0.776471 0.552941 0.070588 1.000000
0.776471 0.552941 0.070588 1.000000
0.776471 0.552941 0.070588 1.000000
0.776471 0.552941 0.070588 1.000000
0.776471 0.552941 0.070588 1.000000
0.776471 0.552941 0.070588 1.000000
0.776471 0.552941 0.070588 1.000000
0.776471 0.552941 0.070588 1.000000
0.776471 0.552941 0.070588 1.000000
0.776471 0.552941 0.070588 1.000000
0.776471 0.552941 0.070588 1.000000
0.776471 0.552941 0.070588 1.000000
0.776471 0.552941 0.070588 1.000000
0.776471 0.552941 0.070588 1.000000
0.776471 0.552941 0.070588 1.000000
0.776471 0.552941 0.070588 1.000000
0.776471 0.552941 0.070588 1.000000
0.776471 0.552941 0.070588 1.000000
0.776471 0.552941 0.070588 1.000000
0.776471 0.552941 0.070588 1.000000
0.776471 0.552941 0.070588 1.000000
0.776471 0.552941 0.070588 1.000000
0.776471 0.552941 0.070588 1.000000
0.776471 0.552941 0.070588 1.000000
0.776471 0.552941 0.070588 1.000000
0.776471 0.552941 0.070588 1.000000
0.776471 0.552941 0.070588 1.000000
0.776471 0.552941 0.070588 1.000000
0.776471 0.552941 0.070588 1.000000
0.776471 0.552941 0.070588 1.000000
0.776471 0.552941 0.070588 1.000000
0.776471 0.552941 0.070588 1.000000
0.776471 0.552941 0.070588 1.000000
0.776471 0.552941 0.070588 1.000000
0.776471 0.552941 0.070588 1.000000
0.776471 0.552941 0.070588 1.000000
0.776471 0.552941 0.070588 1.000000
0.776471 0.552941 0.070588 1.000000
0.776471 0.552941 0.070588 1.000000
0.776471 0.552941 0.070588 1.000000
0.776471 0.552941 0.070588 1.000000
0.776471 0.552941 0.070588 1.000000
0.776471 0.552941 0.070588 1.000000
0.776471 0.552941 0.070588 1.000000
0.776471 0.552941 0.070588 1.000000
0.776471 0.552941 0.070588 1.000000
0.776471 0.552941 0.070588 1.000000
0.776471 0.552941 0.070588 1.000000
0.776471 0.552941 0.070588 1.000000
0.776471 0.552941 0.070588 1.000000
0.776471 0.552941 0.070588 1.000000
0.776471 0.552941 0.070588 1.000000
0.776471 0.552941 0.070588 1.000000
0.776471 0.552941 0.070588 1.000000
0.776471 0.552941 0.070588 1.000000
0.776471 0.552941 0.070588 1.000000
0.776471 0.552941 0.070588 1.000000
0.776471 0.552941 0.070588 1.000000
0.776471 0.552941 0.070588 1.000000
0.776471 0.552941 0.070588 1.000000
0.776471 0.552941 0.070588 1.000000
0.776471 0.552941 0.070588 1.000000
0.776471 0.552941 0.070588 1.000000
0.776471 0.552941 0.070588 1.000000
0.776471 0.552941 0.070588 1.000000
0.776471 0.552941 0.070588 1.000000
0.776471 0.552941 0.070588 1.000000
0.776471 0.552941 0.070588 1.000000
0.776471 0.552941 0.070588 1.000000
0.776471 0.552941 0.070588 1.000000
0.776471 0.552941 0.070588 1.000000
0.776471 0.552941 0.070588 1.000000
0.776471 0.552941 0.070588 1.000000
0.776471 0.552941 0.070588 1.000000
0.219608 0.078431 0.000000 1.000000
0.294118 0.113725 0.015686 1.000000
0.294118 0.113725 0.015686 1.000000
0.219608 0.078431 0.000000 1.000000
0.219608 0.078431 0.000000 1.000000
0.294118 0.113725 0.015686 1.000000
0.294118 0.113725 0.015686 1.000000
0.219608 0.078431 0.000000 1.000000
0.219608 0.078431 0.000000 1.000000
0.294118 0.113725 0.015686 1.000000
0.294118 0.113725 0.015686 1.000000
0.219608 0.078431 0.000000 1.000000
0.219608 0.078431 0.000000 1.000000
0.294118 0.113725 0.015686 1.000000
0.294118 0.113725 0.015686 1.000000
0.219608 0.078431 0.000000 1.000000
0.219608 0.078431 0.000000 1.000000
0.294118 0.113725 0.015686 1.000000
0.294118 0.113725 0.015686 1.000000
0.219608 0.078431 0.000000 1.000000
0.219608 0.078431 0.000000 1.000000
0.294118 0.113725 0.015686 1.000000
0.294118 0.113725 0.015686 1.000000
0.219608 0.078431 0.000000 1.000000
0.219608 0.078431 0.000000 1.000000
0.294118 0.113725 0.015686 1.000000
0.294118 0.113725 0.015686 1.000000
0.219608 0.078431 0.000000 1.000000
0.219608 0.078431 0.000000 1.000000
0.294118 0.113725 0.015686 1.000000
0.294118 0.113725 0.015686 1.000000
0.219608 0.078431 0.000000 1.000000
0.219608 0.078431 0.000000 1.000000
0.294118 0.113725 0.015686 1.000000
0.294118 0.113725 0.015686 1.000000
0.219608 0.078431 0.000000 1.000000
0.219608 0.078431 0.000000 1.000000
0.294118 0.113725 0.015686 1.000000
0.294118 0.113725 0.015686 1.000000
0.219608 0.078431 0.000000 1.000000
0.219608 0.078431 0.000000 1.000000
0.294118 0.113725 0.015686 1.000000
0.294118 0.113725 0.015686 1.000000
0.219608 0.078431 0.000000 1.000000
0.219608 0.078431 0.000000 1.000000
0.294118 0.113725 0.015686 1.000000
0.294118 0.113725 0.015686 1.000000
0.219608 0.078431 0.000000 1.000000
0.219608 0.078431 0.000000 1.000000
0.294118 0.113725 0.015686 1.000000
0.294118 0.113725 0.015686 1.000000
0.219608 0.078431 0.000000 1.000000
0.219608 0.078431 0.000000 1.000000
0.294118 0.113725 0.015686 1.000000
0.294118 0.113725 0.015686 1.000000
0.219608 0.078431 0.000000 1.000000
0.219608 0.078431 0.000000 1.000000
0.219608 0.078431 0.000000 1.000000
0.219608 0.078431 0.000000 1.000000
0.219608 0.078431 0.000000 1.000000
0.219608 0.078431 0.000000 1.000000
0.219608 0.078431 0.000000 1.000000
0.219608 0.078431 0.000000 1.000000
0.219608 0.078431 0.000000 1.000000
0.219608 0.078431 0.000000 1.000000
0.219608 0.078431 0.000000 1.000000
0.219608 0.078431 0.000000 1.000000
0.219608 0.078431 0.000000 1.000000
0.219608 0.078431 0.000000 1.000000
0.219608 0.078431 0.000000 1.000000
0.219608 0.078431 0.000000 1.000000
0.219608 0.078431 0.000000 1.000000
0.219608 0.078431 0.000000 1.000000
0.219608 0.078431 0.000000 1.000000
0.219608 0.078431 0.000000 1.000000
0.219608 0.078431 0.000000 1.000000
0.219608 0.078431 0.000000 1.000000
0.219608 0.078431 0.000000 1.000000
0.219608 0.078431 0.000000 1.000000
0.219608 0.078431 0.000000 1.000000
0.219608 0.078431 0.000000 1.000000
0.219608 0.078431 0.000000 1.000000
0.219608 0.078431 0.000000 1.000000
0.219608 0.078431 0.000000 1.000000
0.219608 0.078431 0.000000 1.000000
0.219608 0.078431 0.000000 1.000000
0.219608 0.078431 0.000000 1.000000
0.219608 0.078431 0.000000 1.000000
0.219608 0.078431 0.000000 1.000000
0.219608 0.078431 0.000000 1.000000
0.219608 0.078431 0.000000 1.000000
0.219608 0.078431 0.000000 1.000000
0.219608 0.078431 0.000000 1.000000
0.219608 0.078431 0.000000 1.000000
0.219608 0.078431 0.000000 1.000000
0.219608 0.078431 0.000000 1.000000
0.219608 0.078431 0.000000 1.000000
0.219608 0.078431 0.000000 1.000000
0.219608 0.078431 0.000000 1.000000
0.219608 0.078431 0.000000 1.000000
0.219608 0.078431 0.000000 1.000000
0.219608 0.078431 0.000000 1.000000
0.219608 0.078431 0.000000 1.000000
0.219608 0.078431 0.000000 1.000000
0.219608 0.078431 0.000000 1.000000
0.219608 0.078431 0.000000 1.000000
0.219608 0.078431 0.000000 1.000000
0.219608 0.078431 0.000000 1.000000
0.219608 0.078431 0.000000 1.000000
0.219608 0.078431 0.000000 1.000000
0.219608 0.078431 0.000000 1.000000
0.219608 0.078431 0.000000 1.000000
0.121569 0.043137 0.000000 1.000000
0.121569 0.043137 0.000000 1.000000
0.121569 0.043137 0.000000 1.000000
0.121569 0.043137 0.000000 1.000000
0.121569 0.043137 0.000000 1.000000
0.121569 0.043137 0.000000 1.000000
0.121569 0.043137 0.000000 1.000000
0.121569 0.043137 0.000000 1.000000
0.121569 0.043137 0.000000 1.000000
0.121569 0.043137 0.000000 1.000000
0.121569 0.043137 0.000000 1.000000
0.121569 0.043137 0.000000 1.000000
0.121569 0.043137 0.000000 1.000000
0.121569 0.043137 0.000000 1.000000
0.121569 0.043137 0.000000 1.000000
0.121569 0.043137 0.000000 1.000000
0.121569 0.043137 0.000000 1.000000
0.121569 0.043137 0.000000 1.000000
0.121569 0.043137 0.000000 1.000000
0.121569 0.043137 0.000000 1.000000
0.121569 0.043137 0.000000 1.000000
0.121569 0.043137 0.000000 1.000000
0.121569 0.043137 0.000000 1.000000
0.121569 0.043137 0.000000 1.000000
0.121569 0.043137 0.000000 1.000000
0.121569 0.043137 0.000000 1.000000
0.121569 0.043137 0.000000 1.000000
0.121569 0.043137 0.000000 1.000000
0.121569 0.043137 0.000000 1.000000
0.121569 0.043137 0.000000 1.000000
0.121569 0.043137 0.000000 1.000000
0.121569 0.043137 0.000000 1.000000
0.121569 0.043137 0.000000 1.000000
0.121569 0.043137 0.000000 1.000000
0.121569 0.043137 0.000000 1.000000
0.121569 0.043137 0.000000 1.000000
0.121569 0.043137 0.000000 1.000000
0.121569 0.043137 0.000000 1.000000
0.121569 0.043137 0.000000 1.000000
0.121569 0.043137 0.000000 1.000000
0.121569 0.043137 0.000000 1.000000
0.121569 0.043137 0.000000 1.000000
0.121569 0.043137 0.000000 1.000000
0.121569 0.043137 0.000000 1.000000
0.121569 0.043137 0.000000 1.000000
0.121569 0.043137 0.000000 1.000000
0.121569 0.043137 0.000000 1.000000
0.121569 0.043137 0.000000 1.000000
0.121569 0.043137 0.000000 1.000000
0.121569 0.043137 0.000000 1.000000
0.121569 0.043137 0.000000 1.000000
0.121569 0.043137 0.000000 1.000000
0.121569 0.043137 0.000000 1.000000
0.121569 0.043137 0.000000 1.000000
0.121569 0.043137 0.000000 1.000000
0.121569 0.043137 0.000000 1.000000
0.121569 0.043137 0.000000 1.000000
0.219608 0.078431 0.000000 1.000000
0.219608 0.078431 0.000000 1.000000
0.121569 0.043137 0.000000 1.000000
0.121569 0.043137 0.000000 1.000000
0.219608 0.078431 0.000000 1.000000
0.219608 0.078431 0.000000 1.000000
0.121569 0.043137 0.000000 1.000000
0.121569 0.043137 0.000000 1.000000
0.219608 0.078431 0.000000 1.000000
0.219608 0.078431 0.000000 1.000000
0.121569 0.043137 0.000000 1.000000
0.121569 0.043137 0.000000 1.000000
0.219608 0.078431 0.000000 1.000000
0.219608 0.078431 0.000000 1.000000
0.121569 0.043137 0.000000 1.000000
0.121569 0.043137 0.000000 1.000000
0.219608 0.078431 0.000000 1.000000
0.219608 0.078431 0.000000 1.000000
0.121569 0.043137 0.000000 1.000000
0.121569 0.043137 0.000000 1.000000
0.219608 0.078431 0.000000 1.000000
0.219608 0.078431 0.000000 1.000000
0.121569 0.043137 0.000000 1.000000
0.121569 0.043137 0.000000 1.000000
0.219608 0.078431 0.000000 1.000000
0.219608 0.078431 0.000000 1.000000
0.121569 0.043137 0.000000 1.000000
0.121569 0.043137 0.000000 1.000000
0.219608 0.078431 0.000000 1.000000
0.219608 0.078431 0.000000 1.000000
0.121569 0.043137 0.000000 1.000000
0.121569 0.043137 0.000000 1.000000
0.219608 0.078431 0.000000 1.000000
0.219608 0.078431 0.000000 1.000000
0.121569 0.043137 0.000000 1.000000
0.121569 0.043137 0.000000 1.000000
0.219608 0.078431 0.000000 1.000000
0.219608 0.078431 0.000000 1.000000
0.121569 0.043137 0.000000 1.000000
0.121569 0.043137 0.000000 1.000000
0.219608 0.078431 0.000000 1.000000
0.219608 0.078431 0.000000 1.000000
0.121569 0.043137 0.000000 1.000000
0.121569 0.043137 0.000000 1.000000
0.219608 0.078431 0.000000 1.000000
0.219608 0.078431 0.000000 1.000000
0.121569 0.043137 0.000000 1.000000
0.121569 0.043137 0.000000 1.000000
0.219608 0.078431 0.000000 1.000000
0.219608 0.078431 0.000000 1.000000
0.121569 0.043137 0.000000 1.000000
0.121569 0.043137 0.000000 1.000000
0.219608 0.078431 0.000000 1.000000
0.219608 0.078431 0.000000 1.000000
0.121569 0.043137 0.000000 1.000000
0.219608 0.078431 0.000000 1.000000
0.219608 0.078431 0.000000 1.000000
0.219608 0.078431 0.000000 1.000000
0.219608 0.078431 0.000000 1.000000
0.219608 0.078431 0.000000 1.000000
0.219608 0.078431 0.000000 1.000000
0.219608 0.078431 0.000000 1.000000
0.219608 0.078431 0.000000 1.000000
0.219608 0.078431 0.000000 1.000000
0.219608 0.078431 0.000000 1.000000
0.219608 0.078431 0.000000 1.000000
0.219608 0.078431 0.000000 1.000000
0.219608 0.078431 0.000000 1.000000
0.219608 0.078431 0.000000 1.000000
0.219608 0.078431 0.000000 1.000000
0.219608 0.078431 0.000000 1.000000
0.219608 0.078431 0.000000 1.000000
0.219608 0.078431 0.000000 1.000000
0.219608 0.078431 0.000000 1.000000
0.219608 0.078431 0.000000 1.000000
0.219608 0.078431 0.000000 1.000000
0.219608 0.078431 0.000000 1.000000
0.219608 0.078431 0.000000 1.000000
0.219608 0.078431 0.000000 1.000000
0.219608 0.078431 0.000000 1.000000
0.219608 0.078431 0.000000 1.000000
0.219608 0.078431 0.000000 1.000000
0.219608 0.078431 0.000000 1.000000
0.219608 0.078431 0.000000 1.000000
0.219608 0.078431 0.000000 1.000000
0.219608 0.078431 0.000000 1.000000
0.219608 0.078431 0.000000 1.000000
0.219608 0.078431 0.000000 1.000000
0.219608 0.078431 0.000000 1.000000
0.219608 0.078431 0.000000 1.000000
0.219608 0.078431 0.000000 1.000000
0.219608 0.078431 0.000000 1.000000
0.219608 0.078431 0.000000 1.000000
0.219608 0.078431 0.000000 1.000000
0.219608 0.078431 0.000000 1.000000
0.219608 0.078431 0.000000 1.000000
0.219608 0.078431 0.000000 1.000000
0.219608 0.078431 0.000000 1.000000
0.219608 0.078431 0.000000 1.000000
0.219608 0.078431 0.000000 1.000000
0.219608 0.078431 0.000000 1.000000
0.219608 0.078431 0.000000 1.000000
0.219608 0.078431 0.000000 1.000000
0.219608 0.078431 0.000000 1.000000
0.219608 0.078431 0.000000 1.000000
0.219608 0.078431 0.000000 1.000000
0.219608 0.078431 0.000000 1.000000
0.219608 0.078431 0.000000 1.000000
0.219608 0.078431 0.000000 1.000000
0.219608 0.078431 0.000000 1.000000
0.219608 0.078431 0.000000 1.000000
0.219608 0.078431 0.000000 1.000000
0.219608 0.078431 0.000000 1.000000
0.219608 0.078431 0.000000 1.000000
0.219608 0.078431 0.000000 1.000000
0.219608 0.078431 0.000000 1.000000
0.219608 0.078431 0.000000 1.000000
0.219608 0.078431 0.000000 1.000000
0.219608 0.078431 0.000000 1.000000
0.219608 0.078431 0.000000 1.000000
0.219608 0.078431 0.000000 1.000000
0.219608 0.078431 0.000000 1.000000
0.219608 0.078431 0.000000 1.000000
0.219608 0.078431 0.000000 1.000000
0.219608 0.078431 0.000000 1.000000
0.219608 0.078431 0.000000 1.000000
0.219608 0.078431 0.000000 1.000000
0.219608 0.078431 0.000000 1.000000
0.219608 0.078431 0.000000 1.000000
0.219608 0.078431 0.000000 1.000000
0.219608 0.078431 0.000000 1.000000
0.219608 0.078431 0.000000 1.000000
0.219608 0.078431 0.000000 1.000000
0.219608 0.078431 0.000000 1.000000
0.219608 0.078431 0.000000 1.000000
0.219608 0.078431 0.000000 1.000000
0.219608 0.078431 0.000000 1.000000
0.219608 0.078431 0.000000 1.000000
0.219608 0.078431 0.000000 1.000000
0.219608 0.078431 0.000000 1.000000
0.219608 0.078431 0.000000 1.000000
0.219608 0.078431 0.000000 1.000000
0.219608 0.078431 0.000000 1.000000
0.219608 0.078431 0.000000 1.000000
0.219608 0.078431 0.000000 1.000000
0.219608 0.078431 0.000000 1.000000
0.219608 0.078431 0.000000 1.000000
0.219608 0.078431 0.000000 1.000000
0.219608 0.078431 0.000000 1.000000
0.219608 0.078431 0.000000 1.000000
0.219608 0.078431 0.000000 1.000000
0.219608 0.078431 0.000000 1.000000
0.219608 0.078431 0.000000 1.000000
0.219608 0.078431 0.000000 1.000000
0.219608 0.078431 0.000000 1.000000
0.219608 0.078431 0.000000 1.000000
0.219608 0.078431 0.000000 1.000000
0.219608 0.078431 0.000000 1.000000
0.219608 0.078431 0.000000 1.000000
0.219608 0.078431 0.000000 1.000000
0.219608 0.078431 0.000000 1.000000
0.219608 0.078431 0.000000 1.000000
0.219608 0.078431 0.000000 1.000000
0.219608 0.078431 0.000000 1.000000
0.219608 0.078431 0.000000 1.000000
0.219608 0.078431 0.000000 1.000000
0.219608 0.078431 0.000000 1.000000
0.219608 0.078431 0.000000 1.000000
0.121569 0.043137 0.000000 1.000000
0.121569 0.043137 0.000000 1.000000
0.219608 0.078431 0.000000 1.000000
0.219608 0.078431 0.000000 1.000000
0.121569 0.043137 0.000000 1.000000
0.121569 0.043137 0.000000 1.000000
0.219608 0.078431 0.000000 1.000000
0.219608 0.078431 0.000000 1.000000
0.121569 0.043137 0.000000 1.000000
0.121569 0.043137 0.000000 1.000000
0.219608 0.078431 0.000000 1.000000
0.219608 0.078431 0.000000 1.000000
0.121569 0.043137 0.000000 1.000000
0.121569 0.043137 0.000000 1.000000
0.219608 0.078431 0.000000 1.000000
0.219608 0.078431 0.000000 1.000000
0.121569 0.043137 0.000000 1.000000
0.121569 0.043137 0.000000 1.000000
0.219608 0.078431 0.000000 1.000000
0.219608 0.078431 0.000000 1.000000
0.121569 0.043137 0.000000 1.000000
0.121569 0.043137 0.000000 1.000000
0.219608 0.078431 0.000000 1.000000
0.219608 0.078431 0.000000 1.000000
0.121569 0.043137 0.000000 1.000000
0.121569 0.043137 0.000000 1.000000
0.219608 0.078431 0.000000 1.000000
0.219608 0.078431 0.000000 1.000000
0.121569 0.043137 0.000000 1.000000
0.121569 0.043137 0.000000 1.000000
0.219608 0.078431 0.000000 1.000000
0.219608 0.078431 0.000000 1.000000
0.121569 0.043137 0.000000 1.000000
0.121569 0.043137 0.000000 1.000000
0.219608 0.078431 0.000000 1.000000
0.219608 0.078431 0.000000 1.000000
0.121569 0.043137 0.000000 1.000000
0.121569 0.043137 0.000000 1.000000
0.219608 0.078431 0.000000 1.000000
0.219608 0.078431 0.000000 1.000000
0.121569 0.043137 0.000000 1.000000
0.121569 0.043137 0.000000 1.000000
0.219608 0.078431 0.000000 1.000000
0.219608 0.078431 0.000000 1.000000
0.121569 0.043137 0.000000 1.000000
0.121569 0.043137 0.000000 1.000000
0.219608 0.078431 0.000000 1.000000
0.219608 0.078431 0.000000 1.000000
0.121569 0.043137 0.000000 1.000000
0.121569 0.043137 0.000000 1.000000
0.219608 0.078431 0.000000 1.000000
0.219608 0.078431 0.000000 1.000000
0.121569 0.043137 0.000000 1.000000
0.121569 0.043137 0.000000 1.000000
0.219608 0.078431 0.000000 1.000000
</float_array>
          <technique_common>
            <accessor source="#SM_Beer_01_A_1-VERTEX_COLOR0-array" count="700" stride="4">
              <param name="R" type="double"/>
              <param name="G" type="double"/>
              <param name="B" type="double"/>
              <param name="A" type="double"/>
            </accessor>
          </technique_common>
        </source>
        <vertices id="SM_Beer_01_A_1-VERTEX">
          <input semantic="POSITION" source="#SM_Beer_01_A_1-POSITION"/>
        </vertices>
        <triangles count="360">
          <input semantic="VERTEX" offset="0" source="#SM_Beer_01_A_1-VERTEX"/>
          <input semantic="NORMAL" offset="1" source="#SM_Beer_01_A_1-Normal0"/>
          <input semantic="TEXCOORD" offset="2" set="0" source="#SM_Beer_01_A_1-UV0"/>
          <input semantic="COLOR" offset="3" set="0" source="#SM_Beer_01_A_1-VERTEX_COLOR0"/>
          <p> 12 0 38 1 11 1 37 2 10 2 36 3 10 3 36 3 9 4 35 4 8 5 34 5 8 6 34 5 7 7 33 6 6 8 32 7 10 9 36 3 8 10 34 5 6 11 32 7 6 12 32 7 5 13 31 8 4 14 30 9 4 15 30 9 3 16 3 10 2 17 2 11 6 18 32 7 4 19 30 9 2 20 2 11 2 21 2 11 1 22 1 12 112 23 151 13 6 24 32 7 2 25 2 11 112 26 151 13 10 27 36 3 6 28 32 7 112 29 151 13 12 30 38 1 10 31 36 3 112 32 151 13 125 33 39 0 12 34 38 1 112 35 151 13 141 36 204 15 166 37 231 16 167 38 232 17 167 39 232 17 140 40 203 14 141 41 204 15 143 42 206 19 141 43 204 20 140 44 203 21 140 45 203 21 142 46 205 18 143 47 206 19 145 48 208 23 143 49 206 24 142 50 205 25 142 51 205 25 144 52 207 22 145 53 208 23 147 54 212 27 145 55 210 28 144 56 209 29 144 57 209 29 146 58 211 26 147 59 212 27 149 60 214 31 147 61 212 32 146 62 211 33 146 63 211 33 148 64 213 30 149 65 214 31 151 66 216 35 149 67 214 36 148 68 213 37 148 69 213 37 150 70 215 34 151 71 216 35 153 72 218 39 151 73 216 40 150 74 215 41 150 75 215 41 152 76 217 38 153 77 218 39 155 78 220 43 153 79 218 44 152 80 217 45 152 81 217 45 154 82 219 42 155 83 220 43 157 84 222 47 155 85 220 48 154 86 219 49 154 87 219 49 156 88 221 46 157 89 222 47 159 90 224 51 157 91 222 52 156 92 221 53 156 93 221 53 158 94 223 50 159 95 224 51 161 96 226 55 159 97 224 56 158 98 223 57 158 99 223 57 160 100 225 54 161 101 226 55 163 102 228 59 161 103 226 60 160 104 225 61 160 105 225 61 162 106 227 58 163 107 228 59 165 108 230 63 163 109 228 64 162 110 227 65 162 111 227 65 164 112 229 62 165 113 230 63 166 114 231 67 165 115 230 68 164 116 229 69 164 117 229 69 167 118 232 66 166 119 231 67 56 120 79 71 57 121 80 72 58 122 81 73 58 123 81 73 59 124 82 74 60 125 83 75 60 126 83 75 61 127 84 76 83 128 85 77 58 129 81 73 60 130 83 75 83 131 85 77 83 132 85 77 82 133 86 78 81 134 87 79 81 135 87 79 80 136 88 80 79 137 89 81 83 138 85 77 81 139 87 79 79 140 89 81 79 141 89 81 78 142 90 82 77 143 91 83 83 144 85 77 79 145 89 81 77 146 91 83 58 147 81 73 83 148 85 77 77 149 91 83 56 150 79 71 58 151 81 73 77 152 91 83 62 153 92 70 56 154 79 71 77 155 91 83 99 156 137 85 98 157 136 86 84 158 121 87 84 159 121 87 85 160 122 84 99 161 137 85 100 162 138 89 99 163 137 90 85 164 122 91 85 165 122 91 86 166 123 88 100 167 138 89 101 168 139 93 100 169 138 94 86 170 123 95 86 171 123 95 87 172 124 92 101 173 139 93 102 174 141 97 101 175 140 98 87 176 125 99 87 177 125 99 88 178 126 96 102 179 141 97 103 180 142 101 102 181 141 102 88 182 126 103 88 183 126 103 89 184 127 100 103 185 142 101 104 186 143 105 103 187 142 106 89 188 127 107 89 189 127 107 90 190 128 104 104 191 143 105 105 192 144 109 104 193 143 110 90 194 128 111 90 195 128 111 91 196 129 108 105 197 144 109 106 198 145 113 105 199 144 114 91 200 129 115 91 201 129 115 92 202 130 112 106 203 145 113 107 204 146 117 106 205 145 118 92 206 130 119 92 207 130 119 93 208 131 116 107 209 146 117 108 210 147 121 107 211 146 122 93 212 131 123 93 213 131 123 94 214 132 120 108 215 147 121 109 216 148 125 108 217 147 126 94 218 132 127 94 219 132 127 95 220 133 124 109 221 148 125 110 222 149 129 109 223 148 130 95 224 133 131 95 225 133 131 96 226 134 128 110 227 149 129 111 228 150 133 110 229 149 134 96 230 134 135 96 231 134 135 97 232 135 132 111 233 150 133 98 234 136 137 111 235 150 138 97 236 135 139 97 237 135 139 84 238 121 136 98 239 136 137 169 240 234 141 168 241 233 142 42 242 64 143 42 243 64 143 43 244 65 140 169 245 234 141 170 246 235 145 169 247 234 146 43 248 65 147 43 249 65 147 44 250 66 144 170 251 235 145 171 252 236 149 170 253 235 150 44 254 66 151 44 255 66 151 45 256 67 148 171 257 236 149 172 258 238 153 171 259 237 154 45 260 68 155 45 261 68 155 46 262 69 152 172 263 238 153 173 264 239 157 172 265 238 158 46 266 69 159 46 267 69 159 47 268 70 156 173 269 239 157 174 270 240 161 173 271 239 162 47 272 70 163 47 273 70 163 48 274 71 160 174 275 240 161 175 276 241 165 174 277 240 166 48 278 71 167 48 279 71 167 49 280 72 164 175 281 241 165 176 282 242 169 175 283 241 170 49 284 72 171 49 285 72 171 50 286 73 168 176 287 242 169 177 288 243 173 176 289 242 174 50 290 73 175 50 291 73 175 51 292 74 172 177 293 243 173 178 294 244 177 177 295 243 178 51 296 74 179 51 297 74 179 52 298 75 176 178 299 244 177 179 300 245 181 178 301 244 182 52 302 75 183 52 303 75 183 53 304 76 180 179 305 245 181 180 306 246 185 179 307 245 186 53 308 76 187 53 309 76 187 54 310 77 184 180 311 246 185 181 312 247 189 180 313 246 190 54 314 77 191 54 315 77 191 55 316 78 188 181 317 247 189 168 318 233 193 181 319 247 194 55 320 78 195 55 321 78 195 42 322 64 192 168 323 233 193 63 324 93 196 64 325 94 197 57 326 107 198 57 327 107 198 56 328 108 199 63 329 93 196 64 330 94 200 65 331 95 201 58 332 120 202 58 333 120 202 57 334 107 203 64 335 94 200 65 336 95 204 66 337 96 205 59 338 119 206 59 339 119 206 58 340 120 207 65 341 95 204 66 342 96 208 67 343 97 209 60 344 118 210 60 345 118 210 59 346 119 211 66 347 96 208 67 348 97 212 68 349 98 213 61 350 117 214 61 351 117 214 60 352 118 215 67 353 97 212 68 354 98 216 69 355 99 217 83 356 116 218 83 357 116 218 61 358 117 219 68 359 98 216 69 360 99 220 70 361 100 221 82 362 115 222 82 363 115 222 83 364 116 223 69 365 99 220 70 366 100 224 71 367 101 225 81 368 114 226 81 369 114 226 82 370 115 227 70 371 100 224 71 372 101 228 72 373 102 229 80 374 113 230 80 375 113 230 81 376 114 231 71 377 101 228 72 378 102 232 73 379 103 233 79 380 112 234 79 381 112 234 80 382 113 235 72 383 102 232 73 384 103 236 74 385 104 237 78 386 111 238 78 387 111 238 79 388 112 239 73 389 103 236 74 390 104 240 75 391 105 241 77 392 110 242 77 393 110 242 78 394 111 243 74 395 104 240 75 396 105 244 76 397 106 245 62 398 109 246 62 399 109 246 77 400 110 247 75 401 105 244 76 402 106 248 63 403 93 249 56 404 108 250 56 405 108 250 62 406 109 251 76 407 106 248 14 408 14 252 15 409 15 253 64 410 94 254 64 411 94 254 63 412 93 255 14 413 14 252 15 414 15 256 16 415 16 257 65 416 95 258 65 417 95 258 64 418 94 259 15 419 15 256 16 420 16 260 17 421 17 261 66 422 96 262 66 423 96 262 65 424 95 263 16 425 16 260 17 426 17 264 18 427 40 265 67 428 97 266 67 429 97 266 66 430 96 267 17 431 17 264 18 432 40 268 19 433 41 269 68 434 98 270 68 435 98 270 67 436 97 271 18 437 40 268 19 438 41 272 20 439 42 273 69 440 99 274 69 441 99 274 68 442 98 275 19 443 41 272 20 444 42 276 21 445 43 277 70 446 100 278 70 447 100 278 69 448 99 279 20 449 42 276 21 450 43 280 22 451 44 281 71 452 101 282 71 453 101 282 70 454 100 283 21 455 43 280 22 456 44 284 23 457 45 285 72 458 102 286 72 459 102 286 71 460 101 287 22 461 44 284 23 462 45 288 24 463 46 289 73 464 103 290 73 465 103 290 72 466 102 291 23 467 45 288 24 468 46 292 25 469 47 293 74 470 104 294 74 471 104 294 73 472 103 295 24 473 46 292 25 474 47 296 26 475 48 297 75 476 105 298 75 477 105 298 74 478 104 299 25 479 47 296 26 480 48 300 27 481 27 301 76 482 106 302 76 483 106 302 75 484 105 303 26 485 48 300 27 486 27 304 14 487 14 305 63 488 93 306 63 489 93 306 76 490 106 307 27 491 27 304 29 492 50 308 85 493 122 309 84 494 121 310 84 495 121 310 28 496 49 311 29 497 50 308 30 498 51 312 86 499 123 313 85 500 122 314 85 501 122 314 29 502 50 315 30 503 51 312 31 504 52 316 87 505 124 317 86 506 123 318 86 507 123 318 30 508 51 319 31 509 52 316 32 510 54 320 88 511 126 321 87 512 125 322 87 513 125 322 31 514 53 323 32 515 54 320 33 516 55 324 89 517 127 325 88 518 126 326 88 519 126 326 32 520 54 327 33 521 55 324 34 522 56 328 90 523 128 329 89 524 127 330 89 525 127 330 33 526 55 331 34 527 56 328 35 528 57 332 91 529 129 333 90 530 128 334 90 531 128 334 34 532 56 335 35 533 57 332 36 534 58 336 92 535 130 337 91 536 129 338 91 537 129 338 35 538 57 339 36 539 58 336 37 540 59 340 93 541 131 341 92 542 130 342 92 543 130 342 36 544 58 343 37 545 59 340 38 546 60 344 94 547 132 345 93 548 131 346 93 549 131 346 37 550 59 347 38 551 60 344 39 552 61 348 95 553 133 349 94 554 132 350 94 555 132 350 38 556 60 351 39 557 61 348 40 558 62 352 96 559 134 353 95 560 133 354 95 561 133 354 39 562 61 355 40 563 62 352 41 564 63 356 97 565 135 357 96 566 134 358 96 567 134 358 40 568 62 359 41 569 63 356 28 570 49 360 84 571 121 361 97 572 135 362 97 573 135 362 41 574 63 363 28 575 49 360 99 576 137 364 43 577 65 365 42 578 64 366 42 579 64 366 98 580 136 367 99 581 137 364 100 582 138 368 44 583 66 369 43 584 65 370 43 585 65 370 99 586 137 371 100 587 138 368 101 588 139 372 45 589 67 373 44 590 66 374 44 591 66 374 100 592 138 375 101 593 139 372 102 594 141 376 46 595 69 377 45 596 68 378 45 597 68 378 101 598 140 379 102 599 141 376 103 600 142 380 47 601 70 381 46 602 69 382 46 603 69 382 102 604 141 383 103 605 142 380 104 606 143 384 48 607 71 385 47 608 70 386 47 609 70 386 103 610 142 387 104 611 143 384 105 612 144 388 49 613 72 389 48 614 71 390 48 615 71 390 104 616 143 391 105 617 144 388 106 618 145 392 50 619 73 393 49 620 72 394 49 621 72 394 105 622 144 395 106 623 145 392 107 624 146 396 51 625 74 397 50 626 73 398 50 627 73 398 106 628 145 399 107 629 146 396 108 630 147 400 52 631 75 401 51 632 74 402 51 633 74 402 107 634 146 403 108 635 147 400 109 636 148 404 53 637 76 405 52 638 75 406 52 639 75 406 108 640 147 407 109 641 148 404 110 642 149 408 54 643 77 409 53 644 76 410 53 645 76 410 109 646 148 411 110 647 149 408 111 648 150 412 55 649 78 413 54 650 77 414 54 651 77 414 110 652 149 415 111 653 150 412 98 654 136 416 42 655 64 417 55 656 78 418 55 657 78 418 111 658 150 419 98 659 136 416 126 660 178 422 112 661 151 423 1 662 1 420 1 663 1 420 127 664 179 421 126 665 178 422 127 666 179 426 1 667 1 427 2 668 2 424 2 669 2 424 128 670 180 425 127 671 179 426 128 672 180 430 2 673 2 431 3 674 3 428 3 675 3 428 129 676 182 429 128 677 180 430 129 678 181 434 3 679 156 435 4 680 155 432 4 681 155 432 130 682 184 433 129 683 181 434 130 684 183 438 4 685 158 439 5 686 157 436 5 687 157 436 131 688 186 437 130 689 183 438 131 690 185 442 5 691 160 443 6 692 159 440 6 693 159 440 132 694 188 441 131 695 185 442 132 696 187 446 6 697 162 447 7 698 161 444 7 699 161 444 133 700 190 445 132 701 187 446 133 702 189 450 7 703 164 451 8 704 163 448 8 705 163 448 134 706 192 449 133 707 189 450 134 708 191 454 8 709 166 455 9 710 165 452 9 711 165 452 135 712 194 453 134 713 191 454 135 714 193 458 9 715 168 459 10 716 167 456 10 717 167 456 136 718 196 457 135 719 193 458 136 720 195 462 10 721 170 463 11 722 169 460 11 723 169 460 137 724 198 461 136 725 195 462 137 726 197 466 11 727 172 467 12 728 171 464 12 729 171 464 138 730 200 465 137 731 197 466 138 732 199 470 12 733 174 471 125 734 173 468 125 735 173 468 139 736 201 469 138 737 199 470 139 738 202 474 125 739 176 475 112 740 175 472 112 741 175 472 126 742 177 473 139 743 202 474 0 744 0 478 126 745 178 479 127 746 179 476 127 747 179 476 113 748 152 477 0 749 0 478 113 750 152 482 127 751 179 483 128 752 180 480 128 753 180 480 114 754 153 481 113 755 152 482 114 756 153 486 128 757 180 487 129 758 182 484 129 759 182 484 115 760 154 485 114 761 153 486 115 762 28 490 129 763 181 491 130 764 184 488 130 765 184 488 116 766 4 489 115 767 28 490 116 768 4 494 130 769 183 495 131 770 186 492 131 771 186 492 117 772 5 493 116 773 4 494 117 774 5 498 131 775 185 499 132 776 188 496 132 777 188 496 118 778 6 497 117 779 5 498 118 780 6 502 132 781 187 503 133 782 190 500 133 783 190 500 119 784 7 501 118 785 6 502 119 786 7 506 133 787 189 507 134 788 192 504 134 789 192 504 120 790 8 505 119 791 7 506 120 792 8 510 134 793 191 511 135 794 194 508 135 795 194 508 121 796 9 509 120 797 8 510 121 798 9 514 135 799 193 515 136 800 196 512 136 801 196 512 122 802 10 513 121 803 9 514 122 804 10 518 136 805 195 519 137 806 198 516 137 807 198 516 123 808 11 517 122 809 10 518 123 810 11 522 137 811 197 523 138 812 200 520 138 813 200 520 124 814 12 521 123 815 11 522 124 816 12 526 138 817 199 527 139 818 201 524 139 819 201 524 13 820 13 525 124 821 12 526 13 822 13 530 139 823 202 531 126 824 177 528 126 825 177 528 0 826 0 529 13 827 13 530 29 828 50 533 28 829 49 534 166 830 231 535 166 831 231 535 141 832 204 532 29 833 50 533 0 834 0 537 113 835 152 538 140 836 203 539 140 837 203 539 167 838 232 536 0 839 0 537 30 840 51 541 29 841 50 542 141 842 204 543 141 843 204 543 143 844 206 540 30 845 51 541 113 846 152 545 114 847 153 546 142 848 205 547 142 849 205 547 140 850 203 544 113 851 152 545 31 852 52 549 30 853 51 550 143 854 206 551 143 855 206 551 145 856 208 548 31 857 52 549 114 858 153 553 115 859 154 554 144 860 207 555 144 861 207 555 142 862 205 552 114 863 153 553 32 864 54 557 31 865 53 558 145 866 210 559 145 867 210 559 147 868 212 556 32 869 54 557 115 870 28 561 116 871 4 562 146 872 211 563 146 873 211 563 144 874 209 560 115 875 28 561 33 876 55 565 32 877 54 566 147 878 212 567 147 879 212 567 149 880 214 564 33 881 55 565 116 882 4 569 117 883 5 570 148 884 213 571 148 885 213 571 146 886 211 568 116 887 4 569 34 888 56 573 33 889 55 574 149 890 214 575 149 891 214 575 151 892 216 572 34 893 56 573 117 894 5 577 118 895 6 578 150 896 215 579 150 897 215 579 148 898 213 576 117 899 5 577 35 900 57 581 34 901 56 582 151 902 216 583 151 903 216 583 153 904 218 580 35 905 57 581 118 906 6 585 119 907 7 586 152 908 217 587 152 909 217 587 150 910 215 584 118 911 6 585 36 912 58 589 35 913 57 590 153 914 218 591 153 915 218 591 155 916 220 588 36 917 58 589 119 918 7 593 120 919 8 594 154 920 219 595 154 921 219 595 152 922 217 592 119 923 7 593 37 924 59 597 36 925 58 598 155 926 220 599 155 927 220 599 157 928 222 596 37 929 59 597 120 930 8 601 121 931 9 602 156 932 221 603 156 933 221 603 154 934 219 600 120 935 8 601 38 936 60 605 37 937 59 606 157 938 222 607 157 939 222 607 159 940 224 604 38 941 60 605 121 942 9 609 122 943 10 610 158 944 223 611 158 945 223 611 156 946 221 608 121 947 9 609 39 948 61 613 38 949 60 614 159 950 224 615 159 951 224 615 161 952 226 612 39 953 61 613 122 954 10 617 123 955 11 618 160 956 225 619 160 957 225 619 158 958 223 616 122 959 10 617 40 960 62 621 39 961 61 622 161 962 226 623 161 963 226 623 163 964 228 620 40 965 62 621 123 966 11 625 124 967 12 626 162 968 227 627 162 969 227 627 160 970 225 624 123 971 11 625 41 972 63 629 40 973 62 630 163 974 228 631 163 975 228 631 165 976 230 628 41 977 63 629 124 978 12 633 13 979 13 634 164 980 229 635 164 981 229 635 162 982 227 632 124 983 12 633 28 984 49 637 41 985 63 638 165 986 230 639 165 987 230 639 166 988 231 636 28 989 49 637 13 990 13 641 0 991 0 642 167 992 232 643 167 993 232 643 164 994 229 640 13 995 13 641 15 996 15 645 14 997 14 646 168 998 233 647 168 999 233 647 169 1000 234 644 15 1001 15 645 16 1002 16 649 15 1003 15 650 169 1004 234 651 169 1005 234 651 170 1006 235 648 16 1007 16 649 17 1008 17 653 16 1009 16 654 170 1010 235 655 170 1011 235 655 171 1012 236 652 17 1013 17 653 18 1014 18 657 17 1015 29 658 171 1016 237 659 171 1017 237 659 172 1018 238 656 18 1019 18 657 19 1020 19 661 18 1021 18 662 172 1022 238 663 172 1023 238 663 173 1024 239 660 19 1025 19 661 20 1026 20 665 19 1027 19 666 173 1028 239 667 173 1029 239 667 174 1030 240 664 20 1031 20 665 21 1032 21 669 20 1033 20 670 174 1034 240 671 174 1035 240 671 175 1036 241 668 21 1037 21 669 22 1038 22 673 21 1039 21 674 175 1040 241 675 175 1041 241 675 176 1042 242 672 22 1043 22 673 23 1044 23 677 22 1045 22 678 176 1046 242 679 176 1047 242 679 177 1048 243 676 23 1049 23 677 24 1050 24 681 23 1051 23 682 177 1052 243 683 177 1053 243 683 178 1054 244 680 24 1055 24 681 25 1056 25 685 24 1057 24 686 178 1058 244 687 178 1059 244 687 179 1060 245 684 25 1061 25 685 26 1062 26 689 25 1063 25 690 179 1064 245 691 179 1065 245 691 180 1066 246 688 26 1067 26 689 27 1068 27 693 26 1069 26 694 180 1070 246 695 180 1071 246 695 181 1072 247 692 27 1073 27 693 14 1074 14 697 27 1075 27 698 181 1076 247 699 181 1077 247 699 168 1078 233 696 14 1079 14 697</p>
        </triangles>
      </mesh>
    </geometry>
  </library_geometries>
  <library_visual_scenes>
    <visual_scene id="SM_Beer_01_A_1" name="SM_Beer_01_A_1">
      <node name="SM_Beer_01_A_1" id="SM_Beer_01_A_1" sid="SM_Beer_01_A_1">
        <matrix sid="matrix">1.808332 0.000000 0.000000 0.000000 0.000000 1.808332 0.000000 0.000000 0.000000 0.000000 2.062939 0.000000 0.000000 0.000000 0.000000 1.000000</matrix>
        <instance_geometry url="#SM_Beer_01_A_1-lib"/>
        <extra>
          <technique profile="FCOLLADA">
            <visibility>1.000000</visibility>
          </technique>
        </extra>
      </node>
      <extra>
        <technique profile="MAX3D">
          <frame_rate>30.000000</frame_rate>
        </technique>
        <technique profile="FCOLLADA">
          <start_time>0.000000</start_time>
          <end_time>3.333333</end_time>
        </technique>
      </extra>
    </visual_scene>
  </library_visual_scenes>
  <scene>
    <instance_visual_scene url="#SM_Beer_01_A_1"/>
  </scene>
</COLLADA>
