<?xml version="1.0" encoding="utf-8"?>
<COLLADA xmlns="http://www.collada.org/2005/11/COLLADASchema" version="1.4.1">
  <asset>
    <contributor>
      <author/>
      <authoring_tool>FBX COLLADA exporter</authoring_tool>
      <comments/>
    </contributor>
    <created>2020-04-24T14:45:48Z</created>
    <keywords/>
    <modified>2020-04-24T14:45:48Z</modified>
    <revision/>
    <subject/>
    <title/>
    <unit meter="0.010000" name="centimeter"/>
    <up_axis>Z_UP</up_axis>
  </asset>
  <library_geometries>
    <geometry id="SM_Banana_01_A_1-lib" name="SM_Banana_01_A_1Mesh">
      <mesh>
        <source id="SM_Banana_01_A_1-POSITION">
          <float_array id="SM_Banana_01_A_1-POSITION-array" count="366">
-3.497839 2.103389 -13.256391
-5.732458 2.103141 -9.797613
-3.497840 -2.103383 -13.256391
-5.732459 -2.103133 -9.797612
9.384272 2.303690 9.833102
5.046828 2.303691 8.482936
9.384267 -2.303696 9.833107
5.046827 -2.303693 8.482935
-3.263548 0.000003 -13.774125
-5.999951 0.000004 -9.257471
4.531396 -0.000002 8.368555
9.929769 -0.000004 9.994191
-4.773842 -2.609970 -11.861088
-4.773840 2.609975 -11.861089
7.191006 2.870410 9.111526
7.191007 -2.870416 9.111521
-8.215017 0.000004 -12.661221
2.994385 -0.000001 14.787920
-5.430810 0.000004 -13.870744
-7.284998 0.000004 -10.387630
-6.520702 1.835004 -12.389151
-6.520703 -1.834997 -12.389152
-5.593532 -1.476577 -13.467231
-7.115985 -1.479790 -10.797126
-7.115985 1.479798 -10.797125
-5.593531 1.476583 -13.467231
-2.769305 2.672163 -7.887428
-0.158463 2.787506 -5.527188
2.283418 2.825410 -2.829739
3.904030 2.825410 0.213626
4.699732 2.825410 3.388616
5.141687 2.651980 6.351346
10.359442 2.651977 6.299543
9.871633 2.825408 1.807908
8.508355 2.825408 -2.386333
6.263625 2.825409 -6.116262
3.512353 2.823795 -9.216309
0.207178 2.681997 -11.969378
-2.769307 -2.672157 -7.887428
-0.158462 -2.787505 -5.527187
2.283415 -2.825412 -2.829738
3.904029 -2.825411 0.213625
4.699728 -2.825411 3.388617
5.141684 -2.651983 6.351344
0.207176 -2.681994 -11.969378
3.512351 -2.823795 -9.216310
6.263621 -2.825410 -6.116262
8.508355 -2.825412 -2.386331
9.871633 -2.825415 1.807909
10.359440 -2.651984 6.299543
-3.192313 0.000003 -7.344453
-0.621007 0.000002 -5.129423
1.704071 0.000001 -2.452568
3.262136 -0.000001 0.487235
4.038383 -0.000000 3.564093
4.513080 -0.000002 6.363398
0.549065 0.000002 -12.509681
3.902422 0.000001 -9.733142
6.752879 -0.000001 -6.644832
9.070306 -0.000001 -2.825478
10.517459 -0.000002 1.482654
11.024575 -0.000004 6.212458
-1.132364 3.338001 -10.054842
1.855184 3.502471 -7.353363
4.136038 3.520475 -4.206141
6.100424 3.520474 -0.869838
7.436235 3.520474 2.701201
7.772755 3.304379 6.393656
-1.132369 -3.337999 -10.054844
1.855184 -3.502470 -7.353362
4.136035 -3.520474 -4.206142
6.100421 -3.520475 -0.869838
7.436230 -3.520477 2.701199
7.772752 -3.304385 6.393657
4.704859 -0.000002 9.770820
5.004129 -0.000001 10.624062
6.661744 2.171392 10.494853
6.276499 1.455128 11.207674
6.661743 -2.171398 10.494853
6.276496 -1.455133 11.207670
5.086102 1.742683 9.894245
5.253200 1.167834 10.730704
8.267051 -1.742689 11.185218
7.313174 -1.167841 11.739563
5.086100 -1.742686 9.894240
5.253199 -1.167840 10.730698
7.569757 -0.000003 11.876401
8.665652 -0.000003 11.356768
7.313181 1.167833 11.739566
8.267053 1.742682 11.185224
4.579873 1.167834 14.954525
3.796156 1.455128 14.143768
3.015180 1.167835 13.440537
2.824265 -0.000001 13.285312
3.015176 -1.167839 13.440542
3.796156 -1.455132 14.143769
4.579875 -1.167840 14.954524
4.772381 -0.000002 15.169036
6.187390 0.822077 12.655039
5.265328 0.828684 13.785134
5.505015 1.024312 12.225293
4.678767 1.032570 13.205790
4.822879 0.822077 11.844711
4.086242 0.828724 12.694037
4.655334 -0.000002 11.759948
3.939836 0.000022 12.579596
4.822881 -0.822082 11.844706
4.086187 -0.828690 12.694154
5.505018 -1.024318 12.225288
4.678698 -1.032575 13.205939
6.187389 -0.822083 12.655033
5.265269 -0.828729 13.785250
6.355148 -0.000003 12.766836
5.408465 -0.000026 13.936898
-7.731242 0.000004 -11.243640
-7.412672 1.170360 -12.471798
-7.651407 -0.943283 -11.517231
-7.651407 0.943291 -11.517230
-6.943949 0.938832 -13.267670
-6.866708 0.000004 -13.536813
-7.412673 -1.170352 -12.471799
-6.943951 -0.938824 -13.267670
</float_array>
          <technique_common>
            <accessor source="#SM_Banana_01_A_1-POSITION-array" count="122" stride="3">
              <param name="X" type="float"/>
              <param name="Y" type="float"/>
              <param name="Z" type="float"/>
            </accessor>
          </technique_common>
        </source>
        <source id="SM_Banana_01_A_1-Normal0">
          <float_array id="SM_Banana_01_A_1-Normal0-array" count="2160">
-0.082508 0.557951 -0.825762
0.044537 -0.000000 -0.999008
-0.089490 0.001340 -0.995987
-0.089490 0.001340 -0.995987
-0.197355 0.576043 -0.793237
-0.082508 0.557951 -0.825762
-0.209618 0.841933 0.497202
-0.297493 0.749084 0.591922
0.164358 0.513958 0.841923
0.164358 0.513958 0.841923
0.346674 0.584415 0.733674
-0.209618 0.841933 0.497202
-0.000765 0.999995 -0.003105
0.217651 0.970425 -0.104421
0.190173 0.971600 -0.140812
0.190173 0.971600 -0.140812
-0.015440 0.999877 0.002665
-0.000765 0.999995 -0.003105
-0.933541 -0.000049 0.358470
-0.905786 0.239244 0.349735
-0.796261 0.238037 0.556154
-0.796261 0.238037 0.556154
-0.822700 -0.002727 0.568469
-0.933541 -0.000049 0.358470
-0.002124 -0.999994 0.002736
-0.244163 -0.964218 0.103286
-0.233945 -0.958481 0.163045
-0.233945 -0.958481 0.163045
-0.011304 -0.999889 0.009659
-0.002124 -0.999994 0.002736
0.906230 0.001728 -0.422782
0.883329 -0.241040 -0.402032
0.782363 -0.243747 -0.573146
0.782363 -0.243747 -0.573146
0.799349 0.003204 -0.600859
0.906230 0.001728 -0.422782
-0.082508 -0.557951 -0.825762
-0.195964 -0.577484 -0.792534
-0.089490 0.001340 -0.995987
-0.089490 0.001340 -0.995987
0.044537 -0.000000 -0.999008
-0.082508 -0.557951 -0.825762
-0.743034 -0.480429 0.465928
-0.943639 0.000000 0.330977
-0.975995 0.000000 0.217792
-0.975995 0.000000 0.217792
-0.739196 -0.574030 0.352247
-0.743034 -0.480429 0.465928
-0.906134 -0.239128 0.348911
-0.933541 -0.000049 0.358470
-0.822700 -0.002727 0.568469
-0.822700 -0.002727 0.568469
-0.799674 -0.233015 0.553376
-0.906134 -0.239128 0.348911
0.885060 0.237278 -0.400460
0.906230 0.001728 -0.422782
0.799349 0.003204 -0.600859
0.799349 0.003204 -0.600859
0.780817 0.237985 -0.577657
0.885060 0.237278 -0.400460
-0.943363 0.000000 -0.331763
-0.865382 0.456517 0.206656
-0.659837 0.691186 -0.294751
-0.743033 0.480430 0.465928
-0.297493 0.749084 0.591922
-0.209618 0.841933 0.497202
-0.209618 0.841933 0.497202
-0.739196 0.574031 0.352248
-0.743033 0.480430 0.465928
-0.257794 0.960881 0.101245
-0.000765 0.999995 -0.003105
-0.015440 0.999877 0.002665
-0.015440 0.999877 0.002665
-0.238943 0.959271 0.150685
-0.257794 0.960881 0.101245
0.217584 -0.970824 -0.100787
-0.002124 -0.999994 0.002736
-0.011304 -0.999889 0.009659
-0.011304 -0.999889 0.009659
0.198700 -0.969938 -0.140493
0.217584 -0.970824 -0.100787
-0.595933 -0.694422 0.403290
-0.660403 0.000000 0.750911
-0.778100 0.000000 0.628141
-0.778100 0.000000 0.628141
-0.709008 -0.612483 0.349531
-0.595933 -0.694422 0.403290
0.170449 -0.511785 0.842035
-0.297496 -0.749083 0.591922
-0.209618 -0.841933 0.497202
-0.209618 -0.841933 0.497202
0.346301 -0.583234 0.734788
0.170449 -0.511785 0.842035
-0.975995 0.000000 0.217792
-0.943639 0.000000 0.330977
-0.743033 0.480430 0.465928
-0.743033 0.480430 0.465928
-0.739196 0.574031 0.352248
-0.975995 0.000000 0.217792
0.425267 -0.004501 0.905057
0.601707 -0.001257 0.798716
0.346674 0.584415 0.733674
0.346674 0.584415 0.733674
0.164358 0.513958 0.841923
0.425267 -0.004501 0.905057
0.601707 -0.001257 0.798716
0.425267 -0.004501 0.905057
0.170449 -0.511785 0.842035
0.170449 -0.511785 0.842035
0.346301 -0.583234 0.734788
0.601707 -0.001257 0.798716
-0.209618 -0.841933 0.497202
-0.297496 -0.749083 0.591922
-0.743034 -0.480429 0.465928
-0.743034 -0.480429 0.465928
-0.739196 -0.574030 0.352247
-0.209618 -0.841933 0.497202
-0.082508 -0.557951 -0.825762
-0.313693 -0.904329 -0.289459
-0.450421 -0.841590 -0.298071
-0.450421 -0.841590 -0.298071
-0.195964 -0.577484 -0.792534
-0.082508 -0.557951 -0.825762
-0.943363 0.000000 -0.331763
-0.655090 -0.703944 -0.274444
-0.852508 -0.483334 0.199042
-0.943363 0.000000 -0.331763
-0.912552 -0.000000 0.408960
-0.865382 0.456517 0.206656
-0.943363 0.000000 -0.331763
-0.659837 0.691186 -0.294751
-0.442400 0.505931 -0.740483
-0.089490 0.001340 -0.995987
-0.376046 0.003045 -0.926596
-0.442400 0.505931 -0.740483
-0.442400 0.505931 -0.740483
-0.197355 0.576043 -0.793237
-0.089490 0.001340 -0.995987
-0.195964 -0.577484 -0.792534
-0.445546 -0.507393 -0.737591
-0.376046 0.003045 -0.926596
-0.376046 0.003045 -0.926596
-0.089490 0.001340 -0.995987
-0.195964 -0.577484 -0.792534
-0.595932 0.694422 0.403289
-0.313692 0.904329 -0.289459
-0.442014 0.844435 -0.302578
-0.442014 0.844435 -0.302578
-0.704524 0.611986 0.359331
-0.595932 0.694422 0.403289
-0.709008 -0.612483 0.349531
-0.778100 0.000000 0.628141
-0.912552 -0.000000 0.408960
-0.912552 -0.000000 0.408960
-0.852508 -0.483334 0.199042
-0.709008 -0.612483 0.349531
-0.195964 -0.577484 -0.792534
-0.450421 -0.841590 -0.298071
-0.655090 -0.703944 -0.274444
-0.655090 -0.703944 -0.274444
-0.445546 -0.507393 -0.737591
-0.195964 -0.577484 -0.792534
-0.595933 -0.694422 0.403290
-0.709008 -0.612483 0.349531
-0.450421 -0.841590 -0.298071
-0.450421 -0.841590 -0.298071
-0.313693 -0.904329 -0.289459
-0.595933 -0.694422 0.403290
-0.595932 0.694422 0.403289
-0.704524 0.611986 0.359331
-0.778100 0.000000 0.628141
-0.778100 0.000000 0.628141
-0.660403 0.000000 0.750911
-0.595932 0.694422 0.403289
-0.082508 0.557951 -0.825762
-0.197355 0.576043 -0.793237
-0.442014 0.844435 -0.302578
-0.442014 0.844435 -0.302578
-0.313692 0.904329 -0.289459
-0.082508 0.557951 -0.825762
-0.017927 0.990172 0.138701
0.200530 0.968019 0.150755
0.236789 0.967395 0.089873
0.236789 0.967395 0.089873
0.024929 0.993568 0.110464
-0.017927 0.990172 0.138701
0.024929 0.993568 0.110464
0.236789 0.967395 0.089873
0.256690 0.965914 -0.033475
0.256690 0.965914 -0.033475
0.038921 0.998856 0.027772
0.024929 0.993568 0.110464
0.038921 0.998856 0.027772
0.256690 0.965914 -0.033475
0.217651 0.970425 -0.104421
0.217651 0.970425 -0.104421
-0.000765 0.999995 -0.003105
0.038921 0.998856 0.027772
-0.017594 0.937179 -0.348405
-0.147912 0.983464 -0.104504
-0.067166 0.993180 -0.095296
-0.067166 0.993180 -0.095296
0.064469 0.957347 -0.281656
-0.017594 0.937179 -0.348405
0.064469 0.957347 -0.281656
-0.067166 0.993180 -0.095296
0.001498 0.999659 -0.026087
0.001498 0.999659 -0.026087
0.170567 0.966429 -0.192151
0.064469 0.957347 -0.281656
0.170567 0.966429 -0.192151
0.001498 0.999659 -0.026087
-0.015440 0.999877 0.002665
-0.015440 0.999877 0.002665
0.190173 0.971600 -0.140812
0.170567 0.966429 -0.192151
-0.999977 0.003952 0.005531
-0.975762 0.218700 -0.007688
-0.970255 0.227147 0.083724
-0.970255 0.227147 0.083724
-0.996232 0.002551 0.086685
-0.999977 0.003952 0.005531
-0.996232 0.002551 0.086685
-0.970255 0.227147 0.083724
-0.951690 0.233672 0.199205
-0.951690 0.233672 0.199205
-0.978809 0.000966 0.204773
-0.996232 0.002551 0.086685
-0.978809 0.000966 0.204773
-0.951690 0.233672 0.199205
-0.905786 0.239244 0.349735
-0.905786 0.239244 0.349735
-0.933541 -0.000049 0.358470
-0.978809 0.000966 0.204773
-0.548727 0.262913 0.793584
-0.567894 0.005463 0.823084
-0.614526 0.006506 0.788869
-0.614526 0.006506 0.788869
-0.605152 0.240859 0.758801
-0.548727 0.262913 0.793584
-0.605152 0.240859 0.758801
-0.614526 0.006506 0.788869
-0.706521 0.001906 0.707689
-0.706521 0.001906 0.707689
-0.697471 0.218125 0.682610
-0.605152 0.240859 0.758801
-0.697471 0.218125 0.682610
-0.706521 0.001906 0.707689
-0.822700 -0.002727 0.568469
-0.822700 -0.002727 0.568469
-0.796261 0.238037 0.556154
-0.697471 0.218125 0.682610
-0.027635 -0.986291 0.162685
-0.291550 -0.946017 0.141600
-0.251927 -0.961945 0.105802
-0.251927 -0.961945 0.105802
0.021205 -0.994378 0.103744
-0.027635 -0.986291 0.162685
0.021205 -0.994378 0.103744
-0.251927 -0.961945 0.105802
-0.232373 -0.970013 0.071251
-0.232373 -0.970013 0.071251
0.031353 -0.999362 0.017126
0.021205 -0.994378 0.103744
0.031353 -0.999362 0.017126
-0.232373 -0.970013 0.071251
-0.244163 -0.964218 0.103286
-0.244163 -0.964218 0.103286
-0.002124 -0.999994 0.002736
0.031353 -0.999362 0.017126
-0.251631 -0.961097 0.113904
-0.150513 -0.983493 -0.100440
-0.068569 -0.993167 -0.094435
-0.068569 -0.993167 -0.094435
-0.222719 -0.965998 0.131318
-0.251631 -0.961097 0.113904
-0.222719 -0.965998 0.131318
-0.068569 -0.993167 -0.094435
-0.002660 -0.999539 -0.030229
-0.002660 -0.999539 -0.030229
-0.203030 -0.965426 0.163501
-0.222719 -0.965998 0.131318
-0.203030 -0.965426 0.163501
-0.002660 -0.999539 -0.030229
-0.011304 -0.999889 0.009659
-0.011304 -0.999889 0.009659
-0.233945 -0.958481 0.163045
-0.203030 -0.965426 0.163501
0.959647 0.002904 0.281192
0.929546 -0.239701 0.280157
0.966128 -0.242124 0.089284
0.966128 -0.242124 0.089284
0.996476 0.002367 0.083847
0.959647 0.002904 0.281192
0.996476 0.002367 0.083847
0.966128 -0.242124 0.089284
0.949674 -0.242256 -0.198575
0.949674 -0.242256 -0.198575
0.976580 0.002410 -0.215139
0.996476 0.002367 0.083847
0.976580 0.002410 -0.215139
0.949674 -0.242256 -0.198575
0.883329 -0.241040 -0.402032
0.883329 -0.241040 -0.402032
0.906230 0.001728 -0.422782
0.976580 0.002410 -0.215139
0.298162 -0.246279 -0.922196
0.307387 -0.007022 -0.951559
0.482477 -0.003344 -0.875902
0.482477 -0.003344 -0.875902
0.470539 -0.230144 -0.851837
0.298162 -0.246279 -0.922196
0.470539 -0.230144 -0.851837
0.482477 -0.003344 -0.875902
0.688619 0.001834 -0.725121
0.688619 0.001834 -0.725121
0.672207 -0.227362 -0.704588
0.470539 -0.230144 -0.851837
0.672207 -0.227362 -0.704588
0.688619 0.001834 -0.725121
0.799349 0.003204 -0.600859
0.799349 0.003204 -0.600859
0.782363 -0.243747 -0.573146
0.672207 -0.227362 -0.704588
-0.974244 -0.225496 0.000249
-0.999977 0.003952 0.005531
-0.996232 0.002551 0.086685
-0.996232 0.002551 0.086685
-0.969231 -0.231792 0.082843
-0.974244 -0.225496 0.000249
-0.969231 -0.231792 0.082843
-0.996232 0.002551 0.086685
-0.978809 0.000966 0.204773
-0.978809 0.000966 0.204773
-0.951464 -0.235436 0.198207
-0.969231 -0.231792 0.082843
-0.951464 -0.235436 0.198207
-0.978809 0.000966 0.204773
-0.933541 -0.000049 0.358470
-0.933541 -0.000049 0.358470
-0.906134 -0.239128 0.348911
-0.951464 -0.235436 0.198207
-0.567894 0.005463 0.823084
-0.557742 -0.272308 0.784074
-0.607509 -0.253415 0.752804
-0.607509 -0.253415 0.752804
-0.614526 0.006506 0.788869
-0.567894 0.005463 0.823084
-0.614526 0.006506 0.788869
-0.607509 -0.253415 0.752804
-0.687761 -0.220927 0.691502
-0.687761 -0.220927 0.691502
-0.706521 0.001906 0.707689
-0.614526 0.006506 0.788869
-0.706521 0.001906 0.707689
-0.687761 -0.220927 0.691502
-0.799674 -0.233015 0.553376
-0.799674 -0.233015 0.553376
-0.822700 -0.002727 0.568469
-0.706521 0.001906 0.707689
0.932897 0.234049 0.273724
0.959647 0.002904 0.281192
0.996476 0.002367 0.083847
0.996476 0.002367 0.083847
0.967329 0.237242 0.089389
0.932897 0.234049 0.273724
0.967329 0.237242 0.089389
0.996476 0.002367 0.083847
0.976580 0.002410 -0.215139
0.976580 0.002410 -0.215139
0.950733 0.237521 -0.199227
0.967329 0.237242 0.089389
0.950733 0.237521 -0.199227
0.976580 0.002410 -0.215139
0.906230 0.001728 -0.422782
0.906230 0.001728 -0.422782
0.885060 0.237278 -0.400460
0.950733 0.237521 -0.199227
0.307387 -0.007022 -0.951559
0.280653 0.258764 -0.924270
0.473272 0.236946 -0.848452
0.473272 0.236946 -0.848452
0.482477 -0.003344 -0.875902
0.307387 -0.007022 -0.951559
0.482477 -0.003344 -0.875902
0.473272 0.236946 -0.848452
0.678272 0.223117 -0.700118
0.678272 0.223117 -0.700118
0.688619 0.001834 -0.725121
0.482477 -0.003344 -0.875902
0.688619 0.001834 -0.725121
0.678272 0.223117 -0.700118
0.780817 0.237985 -0.577657
0.780817 0.237985 -0.577657
0.799349 0.003204 -0.600859
0.688619 0.001834 -0.725121
-0.260690 0.958090 0.118762
-0.017927 0.990172 0.138701
0.024929 0.993568 0.110464
0.024929 0.993568 0.110464
-0.237151 0.964750 0.114092
-0.260690 0.958090 0.118762
-0.237151 0.964750 0.114092
0.024929 0.993568 0.110464
0.038921 0.998856 0.027772
0.038921 0.998856 0.027772
-0.232690 0.968881 0.084408
-0.237151 0.964750 0.114092
-0.232690 0.968881 0.084408
0.038921 0.998856 0.027772
-0.000765 0.999995 -0.003105
-0.000765 0.999995 -0.003105
-0.257794 0.960881 0.101245
-0.232690 0.968881 0.084408
-0.147912 0.983464 -0.104504
-0.258588 0.959066 0.115437
-0.218568 0.966509 0.134497
-0.218568 0.966509 0.134497
-0.067166 0.993180 -0.095296
-0.147912 0.983464 -0.104504
-0.067166 0.993180 -0.095296
-0.218568 0.966509 0.134497
-0.194272 0.967613 0.161195
-0.194272 0.967613 0.161195
0.001498 0.999659 -0.026087
-0.067166 0.993180 -0.095296
0.001498 0.999659 -0.026087
-0.194272 0.967613 0.161195
-0.238943 0.959271 0.150685
-0.238943 0.959271 0.150685
-0.015440 0.999877 0.002665
0.001498 0.999659 -0.026087
0.214679 -0.960184 0.178775
-0.027635 -0.986291 0.162685
0.021205 -0.994378 0.103744
0.021205 -0.994378 0.103744
0.253406 -0.963314 0.088379
0.214679 -0.960184 0.178775
0.253406 -0.963314 0.088379
0.021205 -0.994378 0.103744
0.031353 -0.999362 0.017126
0.031353 -0.999362 0.017126
0.256190 -0.965677 -0.042830
0.253406 -0.963314 0.088379
0.256190 -0.965677 -0.042830
0.031353 -0.999362 0.017126
-0.002124 -0.999994 0.002736
-0.002124 -0.999994 0.002736
0.217584 -0.970824 -0.100787
0.256190 -0.965677 -0.042830
-0.150513 -0.983493 -0.100440
-0.021286 -0.933351 -0.358334
0.067533 -0.956538 -0.283679
0.067533 -0.956538 -0.283679
-0.068569 -0.993167 -0.094435
-0.150513 -0.983493 -0.100440
-0.068569 -0.993167 -0.094435
0.067533 -0.956538 -0.283679
0.171514 -0.964641 -0.200125
0.171514 -0.964641 -0.200125
-0.002660 -0.999539 -0.030229
-0.068569 -0.993167 -0.094435
-0.002660 -0.999539 -0.030229
0.171514 -0.964641 -0.200125
0.198700 -0.969938 -0.140493
0.198700 -0.969938 -0.140493
-0.011304 -0.999889 0.009659
-0.002660 -0.999539 -0.030229
-0.568676 0.574108 0.589074
-0.737736 0.000001 0.675090
-0.360532 0.367144 0.857451
0.346674 0.584415 0.733674
0.458327 0.620628 0.636206
-0.137818 0.904826 0.402860
-0.137818 0.904826 0.402860
-0.209618 0.841933 0.497202
0.346674 0.584415 0.733674
-0.845903 -0.409411 0.341804
-0.737736 0.000001 0.675090
-0.993652 0.000002 0.112498
-0.992912 0.000000 0.118849
-0.724234 -0.633630 0.272027
-0.739196 -0.574030 0.352247
-0.739196 -0.574030 0.352247
-0.975995 0.000000 0.217792
-0.992912 0.000000 0.118849
-0.845904 0.409412 0.341801
-0.737736 0.000001 0.675090
-0.568676 0.574108 0.589074
-0.137818 0.904826 0.402860
-0.724234 0.633629 0.272027
-0.739196 0.574031 0.352248
-0.739196 0.574031 0.352248
-0.209618 0.841933 0.497202
-0.137818 0.904826 0.402860
-0.360532 -0.367144 0.857451
-0.737736 0.000001 0.675090
-0.568675 -0.574107 0.589076
-0.137819 -0.904826 0.402860
0.458324 -0.620627 0.636208
0.346301 -0.583234 0.734788
0.346301 -0.583234 0.734788
-0.209618 -0.841933 0.497202
-0.137819 -0.904826 0.402860
-0.993652 0.000002 0.112498
-0.737736 0.000001 0.675090
-0.845904 0.409412 0.341801
-0.739196 0.574031 0.352248
-0.724234 0.633629 0.272027
-0.992912 0.000000 0.118849
-0.992912 0.000000 0.118849
-0.975995 0.000000 0.217792
-0.739196 0.574031 0.352248
0.728651 -0.000000 0.684886
0.458327 0.620628 0.636206
0.346674 0.584415 0.733674
0.346674 0.584415 0.733674
0.601707 -0.001257 0.798716
0.728651 -0.000000 0.684886
-0.360532 0.367144 0.857451
-0.737736 0.000001 0.675090
-0.209590 -0.000000 0.977789
-0.209590 -0.000000 0.977789
-0.737736 0.000001 0.675090
-0.360532 -0.367144 0.857451
0.346301 -0.583234 0.734788
0.458324 -0.620627 0.636208
0.728651 -0.000000 0.684886
0.728651 -0.000000 0.684886
0.601707 -0.001257 0.798716
0.346301 -0.583234 0.734788
-0.568675 -0.574107 0.589076
-0.737736 0.000001 0.675090
-0.845903 -0.409411 0.341804
-0.739196 -0.574030 0.352247
-0.724234 -0.633630 0.272027
-0.137819 -0.904826 0.402860
-0.137819 -0.904826 0.402860
-0.209618 -0.841933 0.497202
-0.739196 -0.574030 0.352247
0.188502 0.970445 0.150674
0.188502 0.970445 0.150674
0.188502 0.970445 0.150674
0.192190 0.969649 0.151141
0.192190 0.969649 0.151141
0.192190 0.969649 0.151141
-0.186602 0.967718 -0.169417
-0.186602 0.967718 -0.169417
-0.186602 0.967718 -0.169417
-0.191841 0.966625 -0.169802
-0.191841 0.966625 -0.169802
-0.191841 0.966625 -0.169802
-0.735141 0.218499 -0.641736
-0.735141 0.218499 -0.641736
-0.735141 0.218499 -0.641736
-0.736738 0.216210 -0.640679
-0.736738 0.216210 -0.640679
-0.736738 0.216210 -0.640679
-0.735142 -0.218536 -0.641723
-0.735142 -0.218536 -0.641723
-0.735142 -0.218536 -0.641723
-0.736764 -0.216211 -0.640650
-0.736764 -0.216211 -0.640650
-0.736764 -0.216211 -0.640649
-0.186661 -0.967707 -0.169411
-0.186661 -0.967707 -0.169411
-0.186661 -0.967707 -0.169411
-0.191847 -0.966626 -0.169793
-0.191847 -0.966626 -0.169793
-0.191847 -0.966626 -0.169793
0.188475 -0.970456 0.150643
0.188475 -0.970456 0.150643
0.188475 -0.970456 0.150643
0.192207 -0.969650 0.151115
0.192207 -0.969650 0.151115
0.192207 -0.969650 0.151115
0.752476 -0.242110 0.612505
0.752476 -0.242110 0.612505
0.752476 -0.242110 0.612505
0.755223 -0.237218 0.611037
0.755223 -0.237218 0.611037
0.755223 -0.237218 0.611037
0.754291 0.242048 0.610293
0.754291 0.242048 0.610293
0.754291 0.242048 0.610293
0.753393 0.237149 0.613318
0.753393 0.237149 0.613318
0.753393 0.237149 0.613318
0.382925 0.922770 -0.043167
0.382925 0.922770 -0.043167
0.382925 0.922770 -0.043167
0.379305 0.923384 -0.059068
0.379305 0.923384 -0.059068
0.379305 0.923384 -0.059068
0.046718 0.914138 0.402703
0.046718 0.914138 0.402703
0.046718 0.914138 0.402703
0.018437 0.915624 0.401612
0.018437 0.915624 0.401612
0.018437 0.915624 0.401612
0.018780 0.918090 -0.395927
0.018780 0.918090 -0.395927
0.018780 0.918090 -0.395927
0.019865 0.920708 -0.389746
0.019865 0.920708 -0.389746
0.019865 0.920708 -0.389746
-0.329557 0.932918 0.145111
-0.329557 0.932918 0.145111
-0.329557 0.932918 0.145111
-0.356401 0.922436 0.148627
-0.356401 0.922436 0.148627
-0.356401 0.922436 0.148627
-0.518381 0.195400 -0.832526
-0.518381 0.195400 -0.832526
-0.518381 0.195400 -0.832526
-0.523082 0.206600 -0.826862
-0.523082 0.206600 -0.826862
-0.523082 0.206600 -0.826862
-0.930361 0.224868 -0.289590
-0.930361 0.224868 -0.289590
-0.930361 0.224868 -0.289590
-0.932612 0.219599 -0.286376
-0.932612 0.219599 -0.286376
-0.932612 0.219599 -0.286376
-0.524256 -0.195857 -0.828731
-0.524256 -0.195857 -0.828731
-0.524256 -0.195857 -0.828731
-0.514763 -0.205951 -0.832228
-0.514763 -0.205951 -0.832228
-0.514763 -0.205951 -0.832228
-0.930363 -0.224865 -0.289588
-0.930363 -0.224865 -0.289588
-0.930363 -0.224865 -0.289588
-0.932612 -0.219600 -0.286376
-0.932612 -0.219600 -0.286376
-0.932612 -0.219600 -0.286376
0.018810 -0.918077 -0.395956
0.018810 -0.918077 -0.395956
0.018810 -0.918077 -0.395956
0.019889 -0.920682 -0.389807
0.019889 -0.920682 -0.389807
0.019889 -0.920682 -0.389807
-0.329557 -0.932917 0.145112
-0.329557 -0.932917 0.145112
-0.329557 -0.932917 0.145112
-0.356402 -0.922436 0.148628
-0.356402 -0.922436 0.148628
-0.356402 -0.922436 0.148628
0.382920 -0.922773 -0.043165
0.382920 -0.922773 -0.043165
0.382920 -0.922773 -0.043165
0.379288 -0.923388 -0.059123
0.379288 -0.923388 -0.059123
0.379288 -0.923388 -0.059123
0.046716 -0.914138 0.402704
0.046716 -0.914138 0.402704
0.046716 -0.914138 0.402704
0.018437 -0.915624 0.401613
0.018437 -0.915624 0.401613
0.018437 -0.915624 0.401613
0.865829 -0.224826 0.446984
0.865828 -0.224826 0.446984
0.865828 -0.224826 0.446984
0.867159 -0.230619 0.441419
0.867159 -0.230619 0.441419
0.867159 -0.230619 0.441419
0.576897 -0.218955 0.786923
0.576897 -0.218955 0.786923
0.576897 -0.218955 0.786923
0.572514 -0.224092 0.788676
0.572514 -0.224092 0.788676
0.572514 -0.224092 0.788676
0.865832 0.224827 0.446976
0.865832 0.224827 0.446976
0.865832 0.224827 0.446976
0.867161 0.230616 0.441415
0.867161 0.230616 0.441415
0.867161 0.230616 0.441415
0.576898 0.218949 0.786924
0.576898 0.218949 0.786924
0.576898 0.218949 0.786924
0.572516 0.224086 0.788677
0.572516 0.224086 0.788677
0.572516 0.224086 0.788677
-0.704524 0.611986 0.359331
-0.442014 0.844435 -0.302578
-0.659837 0.691186 -0.294751
-0.659837 0.691186 -0.294751
-0.865382 0.456517 0.206656
-0.704524 0.611986 0.359331
-0.450421 -0.841590 -0.298071
-0.709008 -0.612483 0.349531
-0.852508 -0.483334 0.199042
-0.852508 -0.483334 0.199042
-0.655090 -0.703944 -0.274444
-0.450421 -0.841590 -0.298071
-0.704524 0.611986 0.359331
-0.865382 0.456517 0.206656
-0.912552 -0.000000 0.408960
-0.912552 -0.000000 0.408960
-0.778100 0.000000 0.628141
-0.704524 0.611986 0.359331
-0.197355 0.576043 -0.793237
-0.442400 0.505931 -0.740483
-0.659837 0.691186 -0.294751
-0.659837 0.691186 -0.294751
-0.442014 0.844435 -0.302578
-0.197355 0.576043 -0.793237
-0.376046 0.003045 -0.926596
-0.943363 0.000000 -0.331763
-0.442400 0.505931 -0.740483
-0.445546 -0.507393 -0.737591
-0.943363 0.000000 -0.331763
-0.376046 0.003045 -0.926596
-0.912552 -0.000000 0.408960
-0.943363 0.000000 -0.331763
-0.852508 -0.483334 0.199042
-0.655090 -0.703944 -0.274444
-0.943363 0.000000 -0.331763
-0.445546 -0.507393 -0.737591
</float_array>
          <technique_common>
            <accessor source="#SM_Banana_01_A_1-Normal0-array" count="720" stride="3">
              <param name="X" type="float"/>
              <param name="Y" type="float"/>
              <param name="Z" type="float"/>
            </accessor>
          </technique_common>
        </source>
        <source id="SM_Banana_01_A_1-UV0">
          <float_array id="SM_Banana_01_A_1-UV0-array" count="340">
1.000000 0.000000
0.000000 0.000000
1.000000 1.000000
0.000000 1.000000
0.000000 0.000000
1.000000 0.000000
0.000000 1.000000
1.000000 1.000000
0.000000 0.000000
1.000000 0.000000
0.000000 1.000000
1.000000 1.000000
0.000000 0.000000
1.000000 0.000000
0.000000 1.000000
1.000000 1.000000
0.000000 0.000000
1.000000 0.000000
0.000000 1.000000
1.000000 1.000000
0.000000 0.000000
1.000000 0.000000
0.000000 1.000000
1.000000 1.000000
1.000000 0.500000
0.500000 0.000000
0.000000 0.500000
0.500000 0.000000
1.000000 0.500000
0.500000 1.000000
0.000000 0.500000
0.500000 1.000000
0.500000 1.000000
0.500000 0.000000
0.500000 0.000000
0.500000 0.000000
0.500000 0.000000
0.500000 1.000000
0.500000 1.000000
0.500000 1.000000
0.500000 0.500000
0.500000 0.500000
0.750000 0.500000
0.250000 0.500000
0.500000 0.250000
0.500000 0.750000
0.750000 0.750000
0.250000 0.750000
0.250000 0.250000
0.750000 0.250000
1.000000 0.142857
1.000000 0.285714
1.000000 0.428571
1.000000 0.571429
1.000000 0.714286
1.000000 0.857143
0.000000 0.142857
0.000000 0.285714
0.000000 0.428571
0.000000 0.571429
0.000000 0.714286
0.000000 0.857143
0.000000 0.857143
0.000000 0.714286
0.000000 0.571429
0.000000 0.428571
0.000000 0.285714
0.000000 0.142857
1.000000 0.857143
1.000000 0.714286
1.000000 0.571429
1.000000 0.428571
1.000000 0.285714
1.000000 0.142857
1.000000 0.142857
1.000000 0.285714
1.000000 0.428571
1.000000 0.571429
1.000000 0.714286
1.000000 0.857143
0.000000 0.142857
0.000000 0.285714
0.000000 0.428571
0.000000 0.571429
0.000000 0.714286
0.000000 0.857143
1.000000 0.142857
1.000000 0.285714
1.000000 0.428571
1.000000 0.571429
1.000000 0.714286
1.000000 0.857143
0.000000 0.142857
0.000000 0.285714
0.000000 0.428571
0.000000 0.571429
0.000000 0.714286
0.000000 0.857143
0.500000 0.142857
0.500000 0.285714
0.500000 0.428571
0.500000 0.571429
0.500000 0.714286
0.500000 0.857143
0.500000 0.142857
0.500000 0.285714
0.500000 0.428571
0.500000 0.571429
0.500000 0.714286
0.500000 0.857143
0.500000 0.142857
0.500000 0.285714
0.500000 0.428571
0.500000 0.571429
0.500000 0.714286
0.500000 0.857143
0.500000 0.142857
0.500000 0.285714
0.500000 0.428571
0.500000 0.571429
0.500000 0.714286
0.500000 0.857143
0.873333 0.500000
0.706667 0.500000
0.500000 0.126667
0.500000 0.293333
0.500000 0.873333
0.500000 0.706667
0.873333 0.126667
0.706667 0.293333
0.126667 0.873333
0.293333 0.706667
0.873333 0.873333
0.706667 0.706667
0.293333 0.500000
0.126667 0.500000
0.293333 0.293333
0.126667 0.126667
0.293333 0.293333
0.500000 0.293333
0.706667 0.293333
0.706667 0.500000
0.706667 0.706667
0.500000 0.706667
0.293333 0.706667
0.293333 0.500000
0.293333 0.293333
0.293333 0.293333
0.500000 0.293333
0.500000 0.293333
0.706667 0.293333
0.706667 0.293333
0.706667 0.500000
0.706667 0.500000
0.706667 0.706667
0.706667 0.706667
0.500000 0.706667
0.500000 0.706667
0.293333 0.706667
0.293333 0.706667
0.293333 0.500000
0.293333 0.500000
0.375000 0.500000
0.500000 0.375000
0.375000 0.625000
0.375000 0.375000
0.625000 0.375000
0.625000 0.500000
0.500000 0.625000
0.625000 0.625000
</float_array>
          <technique_common>
            <accessor source="#SM_Banana_01_A_1-UV0-array" count="170" stride="2">
              <param name="S" type="float"/>
              <param name="T" type="float"/>
            </accessor>
          </technique_common>
        </source>
        <source id="SM_Banana_01_A_1-VERTEX_COLOR0">
          <float_array id="SM_Banana_01_A_1-VERTEX_COLOR0-array" count="1984">
1.000000 0.760784 0.188235 1.000000
0.905882 0.639216 0.058824 1.000000
0.552941 0.733333 0.058824 1.000000
0.552941 0.733333 0.058824 1.000000
0.905882 0.639216 0.058824 1.000000
0.552941 0.733333 0.058824 1.000000
0.552941 0.733333 0.058824 1.000000
1.000000 0.760784 0.188235 1.000000
0.905882 0.639216 0.058824 1.000000
0.905882 0.639216 0.058824 1.000000
1.000000 0.760784 0.188235 1.000000
1.000000 0.760784 0.188235 1.000000
0.905882 0.639216 0.058824 1.000000
0.905882 0.639216 0.058824 1.000000
1.000000 0.760784 0.188235 1.000000
1.000000 0.760784 0.188235 1.000000
0.905882 0.639216 0.058824 1.000000
0.905882 0.639216 0.058824 1.000000
1.000000 0.760784 0.188235 1.000000
1.000000 0.760784 0.188235 1.000000
0.905882 0.639216 0.058824 1.000000
0.905882 0.639216 0.058824 1.000000
1.000000 0.760784 0.188235 1.000000
1.000000 0.760784 0.188235 1.000000
0.905882 0.639216 0.058824 1.000000
1.000000 0.760784 0.188235 1.000000
0.552941 0.733333 0.058824 1.000000
0.552941 0.733333 0.058824 1.000000
1.000000 0.760784 0.188235 1.000000
0.552941 0.733333 0.058824 1.000000
0.552941 0.733333 0.058824 1.000000
0.905882 0.639216 0.058824 1.000000
1.000000 0.760784 0.188235 1.000000
1.000000 0.760784 0.188235 1.000000
0.905882 0.639216 0.058824 1.000000
0.905882 0.639216 0.058824 1.000000
1.000000 0.760784 0.188235 1.000000
1.000000 0.760784 0.188235 1.000000
0.905882 0.639216 0.058824 1.000000
0.905882 0.639216 0.058824 1.000000
0.054902 0.035294 0.003922 1.000000
0.552941 0.733333 0.058824 1.000000
0.552941 0.733333 0.058824 1.000000
1.000000 0.760784 0.188235 1.000000
0.552941 0.733333 0.058824 1.000000
0.552941 0.733333 0.058824 1.000000
0.905882 0.639216 0.058824 1.000000
1.000000 0.760784 0.188235 1.000000
1.000000 0.760784 0.188235 1.000000
0.905882 0.639216 0.058824 1.000000
0.905882 0.639216 0.058824 1.000000
1.000000 0.760784 0.188235 1.000000
1.000000 0.760784 0.188235 1.000000
0.905882 0.639216 0.058824 1.000000
0.905882 0.639216 0.058824 1.000000
1.000000 0.760784 0.188235 1.000000
0.905882 0.639216 0.058824 1.000000
0.552941 0.733333 0.058824 1.000000
0.552941 0.733333 0.058824 1.000000
1.000000 0.760784 0.188235 1.000000
0.552941 0.733333 0.058824 1.000000
0.552941 0.733333 0.058824 1.000000
0.905882 0.639216 0.058824 1.000000
0.905882 0.639216 0.058824 1.000000
0.552941 0.733333 0.058824 1.000000
0.552941 0.733333 0.058824 1.000000
1.000000 0.760784 0.188235 1.000000
0.552941 0.733333 0.058824 1.000000
0.905882 0.639216 0.058824 1.000000
1.000000 0.760784 0.188235 1.000000
0.552941 0.733333 0.058824 1.000000
0.905882 0.639216 0.058824 1.000000
0.552941 0.733333 0.058824 1.000000
0.552941 0.733333 0.058824 1.000000
1.000000 0.760784 0.188235 1.000000
0.905882 0.639216 0.058824 1.000000
0.552941 0.733333 0.058824 1.000000
0.552941 0.733333 0.058824 1.000000
1.000000 0.760784 0.188235 1.000000
1.000000 0.760784 0.188235 1.000000
0.905882 0.639216 0.058824 1.000000
0.552941 0.733333 0.058824 1.000000
0.552941 0.733333 0.058824 1.000000
0.054902 0.035294 0.003922 1.000000
0.552941 0.733333 0.058824 1.000000
0.552941 0.733333 0.058824 1.000000
0.054902 0.035294 0.003922 1.000000
0.552941 0.733333 0.058824 1.000000
0.552941 0.733333 0.058824 1.000000
0.054902 0.035294 0.003922 1.000000
0.552941 0.733333 0.058824 1.000000
0.552941 0.733333 0.058824 1.000000
0.552941 0.733333 0.058824 1.000000
0.552941 0.733333 0.058824 1.000000
0.552941 0.733333 0.058824 1.000000
0.552941 0.733333 0.058824 1.000000
0.552941 0.733333 0.058824 1.000000
0.552941 0.733333 0.058824 1.000000
0.552941 0.733333 0.058824 1.000000
0.552941 0.733333 0.058824 1.000000
0.552941 0.733333 0.058824 1.000000
1.000000 0.760784 0.188235 1.000000
0.905882 0.639216 0.058824 1.000000
0.552941 0.733333 0.058824 1.000000
0.552941 0.733333 0.058824 1.000000
0.552941 0.733333 0.058824 1.000000
0.552941 0.733333 0.058824 1.000000
0.552941 0.733333 0.058824 1.000000
0.552941 0.733333 0.058824 1.000000
0.552941 0.733333 0.058824 1.000000
0.552941 0.733333 0.058824 1.000000
0.552941 0.733333 0.058824 1.000000
0.552941 0.733333 0.058824 1.000000
0.905882 0.639216 0.058824 1.000000
1.000000 0.760784 0.188235 1.000000
0.552941 0.733333 0.058824 1.000000
0.552941 0.733333 0.058824 1.000000
0.905882 0.639216 0.058824 1.000000
1.000000 0.760784 0.188235 1.000000
0.552941 0.733333 0.058824 1.000000
0.552941 0.733333 0.058824 1.000000
0.905882 0.639216 0.058824 1.000000
1.000000 0.760784 0.188235 1.000000
0.552941 0.733333 0.058824 1.000000
0.905882 0.639216 0.058824 1.000000
0.905882 0.639216 0.058824 1.000000
1.000000 0.760784 0.188235 1.000000
1.000000 0.760784 0.188235 1.000000
0.905882 0.639216 0.058824 1.000000
0.905882 0.639216 0.058824 1.000000
1.000000 0.760784 0.188235 1.000000
1.000000 0.760784 0.188235 1.000000
0.905882 0.639216 0.058824 1.000000
0.905882 0.639216 0.058824 1.000000
1.000000 0.760784 0.188235 1.000000
1.000000 0.760784 0.188235 1.000000
1.000000 0.760784 0.188235 1.000000
1.000000 0.760784 0.188235 1.000000
0.905882 0.639216 0.058824 1.000000
0.905882 0.639216 0.058824 1.000000
1.000000 0.760784 0.188235 1.000000
1.000000 0.760784 0.188235 1.000000
0.905882 0.639216 0.058824 1.000000
0.905882 0.639216 0.058824 1.000000
1.000000 0.760784 0.188235 1.000000
1.000000 0.760784 0.188235 1.000000
0.905882 0.639216 0.058824 1.000000
0.905882 0.639216 0.058824 1.000000
0.905882 0.639216 0.058824 1.000000
0.905882 0.639216 0.058824 1.000000
1.000000 0.760784 0.188235 1.000000
1.000000 0.760784 0.188235 1.000000
0.905882 0.639216 0.058824 1.000000
0.905882 0.639216 0.058824 1.000000
1.000000 0.760784 0.188235 1.000000
1.000000 0.760784 0.188235 1.000000
0.905882 0.639216 0.058824 1.000000
0.905882 0.639216 0.058824 1.000000
1.000000 0.760784 0.188235 1.000000
1.000000 0.760784 0.188235 1.000000
1.000000 0.760784 0.188235 1.000000
1.000000 0.760784 0.188235 1.000000
0.905882 0.639216 0.058824 1.000000
0.905882 0.639216 0.058824 1.000000
1.000000 0.760784 0.188235 1.000000
1.000000 0.760784 0.188235 1.000000
0.905882 0.639216 0.058824 1.000000
0.905882 0.639216 0.058824 1.000000
1.000000 0.760784 0.188235 1.000000
1.000000 0.760784 0.188235 1.000000
0.905882 0.639216 0.058824 1.000000
0.905882 0.639216 0.058824 1.000000
0.905882 0.639216 0.058824 1.000000
0.905882 0.639216 0.058824 1.000000
1.000000 0.760784 0.188235 1.000000
1.000000 0.760784 0.188235 1.000000
0.905882 0.639216 0.058824 1.000000
0.905882 0.639216 0.058824 1.000000
1.000000 0.760784 0.188235 1.000000
1.000000 0.760784 0.188235 1.000000
0.905882 0.639216 0.058824 1.000000
0.905882 0.639216 0.058824 1.000000
1.000000 0.760784 0.188235 1.000000
1.000000 0.760784 0.188235 1.000000
1.000000 0.760784 0.188235 1.000000
1.000000 0.760784 0.188235 1.000000
0.905882 0.639216 0.058824 1.000000
0.905882 0.639216 0.058824 1.000000
1.000000 0.760784 0.188235 1.000000
1.000000 0.760784 0.188235 1.000000
0.905882 0.639216 0.058824 1.000000
0.905882 0.639216 0.058824 1.000000
1.000000 0.760784 0.188235 1.000000
1.000000 0.760784 0.188235 1.000000
0.905882 0.639216 0.058824 1.000000
0.905882 0.639216 0.058824 1.000000
0.905882 0.639216 0.058824 1.000000
0.905882 0.639216 0.058824 1.000000
1.000000 0.760784 0.188235 1.000000
1.000000 0.760784 0.188235 1.000000
0.905882 0.639216 0.058824 1.000000
0.905882 0.639216 0.058824 1.000000
1.000000 0.760784 0.188235 1.000000
1.000000 0.760784 0.188235 1.000000
0.905882 0.639216 0.058824 1.000000
0.905882 0.639216 0.058824 1.000000
1.000000 0.760784 0.188235 1.000000
1.000000 0.760784 0.188235 1.000000
1.000000 0.760784 0.188235 1.000000
1.000000 0.760784 0.188235 1.000000
0.905882 0.639216 0.058824 1.000000
0.905882 0.639216 0.058824 1.000000
1.000000 0.760784 0.188235 1.000000
1.000000 0.760784 0.188235 1.000000
0.905882 0.639216 0.058824 1.000000
0.905882 0.639216 0.058824 1.000000
1.000000 0.760784 0.188235 1.000000
1.000000 0.760784 0.188235 1.000000
0.905882 0.639216 0.058824 1.000000
0.905882 0.639216 0.058824 1.000000
1.000000 0.760784 0.188235 1.000000
1.000000 0.760784 0.188235 1.000000
0.905882 0.639216 0.058824 1.000000
0.905882 0.639216 0.058824 1.000000
1.000000 0.760784 0.188235 1.000000
1.000000 0.760784 0.188235 1.000000
0.905882 0.639216 0.058824 1.000000
0.905882 0.639216 0.058824 1.000000
1.000000 0.760784 0.188235 1.000000
1.000000 0.760784 0.188235 1.000000
0.905882 0.639216 0.058824 1.000000
0.905882 0.639216 0.058824 1.000000
0.905882 0.639216 0.058824 1.000000
0.905882 0.639216 0.058824 1.000000
1.000000 0.760784 0.188235 1.000000
1.000000 0.760784 0.188235 1.000000
0.905882 0.639216 0.058824 1.000000
0.905882 0.639216 0.058824 1.000000
1.000000 0.760784 0.188235 1.000000
1.000000 0.760784 0.188235 1.000000
0.905882 0.639216 0.058824 1.000000
0.905882 0.639216 0.058824 1.000000
1.000000 0.760784 0.188235 1.000000
1.000000 0.760784 0.188235 1.000000
1.000000 0.760784 0.188235 1.000000
1.000000 0.760784 0.188235 1.000000
0.905882 0.639216 0.058824 1.000000
0.905882 0.639216 0.058824 1.000000
1.000000 0.760784 0.188235 1.000000
1.000000 0.760784 0.188235 1.000000
0.905882 0.639216 0.058824 1.000000
0.905882 0.639216 0.058824 1.000000
1.000000 0.760784 0.188235 1.000000
1.000000 0.760784 0.188235 1.000000
0.905882 0.639216 0.058824 1.000000
0.905882 0.639216 0.058824 1.000000
0.905882 0.639216 0.058824 1.000000
0.905882 0.639216 0.058824 1.000000
1.000000 0.760784 0.188235 1.000000
1.000000 0.760784 0.188235 1.000000
0.905882 0.639216 0.058824 1.000000
0.905882 0.639216 0.058824 1.000000
1.000000 0.760784 0.188235 1.000000
1.000000 0.760784 0.188235 1.000000
0.905882 0.639216 0.058824 1.000000
0.905882 0.639216 0.058824 1.000000
1.000000 0.760784 0.188235 1.000000
1.000000 0.760784 0.188235 1.000000
1.000000 0.760784 0.188235 1.000000
1.000000 0.760784 0.188235 1.000000
0.905882 0.639216 0.058824 1.000000
0.905882 0.639216 0.058824 1.000000
1.000000 0.760784 0.188235 1.000000
1.000000 0.760784 0.188235 1.000000
0.905882 0.639216 0.058824 1.000000
0.905882 0.639216 0.058824 1.000000
1.000000 0.760784 0.188235 1.000000
1.000000 0.760784 0.188235 1.000000
0.905882 0.639216 0.058824 1.000000
0.905882 0.639216 0.058824 1.000000
0.905882 0.639216 0.058824 1.000000
0.905882 0.639216 0.058824 1.000000
1.000000 0.760784 0.188235 1.000000
1.000000 0.760784 0.188235 1.000000
0.905882 0.639216 0.058824 1.000000
0.905882 0.639216 0.058824 1.000000
1.000000 0.760784 0.188235 1.000000
1.000000 0.760784 0.188235 1.000000
0.905882 0.639216 0.058824 1.000000
0.905882 0.639216 0.058824 1.000000
1.000000 0.760784 0.188235 1.000000
1.000000 0.760784 0.188235 1.000000
1.000000 0.760784 0.188235 1.000000
1.000000 0.760784 0.188235 1.000000
0.905882 0.639216 0.058824 1.000000
0.905882 0.639216 0.058824 1.000000
1.000000 0.760784 0.188235 1.000000
1.000000 0.760784 0.188235 1.000000
0.905882 0.639216 0.058824 1.000000
0.905882 0.639216 0.058824 1.000000
1.000000 0.760784 0.188235 1.000000
1.000000 0.760784 0.188235 1.000000
0.905882 0.639216 0.058824 1.000000
0.905882 0.639216 0.058824 1.000000
0.905882 0.639216 0.058824 1.000000
0.905882 0.639216 0.058824 1.000000
1.000000 0.760784 0.188235 1.000000
1.000000 0.760784 0.188235 1.000000
0.905882 0.639216 0.058824 1.000000
0.905882 0.639216 0.058824 1.000000
1.000000 0.760784 0.188235 1.000000
1.000000 0.760784 0.188235 1.000000
0.905882 0.639216 0.058824 1.000000
0.905882 0.639216 0.058824 1.000000
1.000000 0.760784 0.188235 1.000000
1.000000 0.760784 0.188235 1.000000
0.215686 0.156863 0.031373 1.000000
0.215686 0.156863 0.031373 1.000000
0.215686 0.156863 0.031373 1.000000
1.000000 0.760784 0.188235 1.000000
1.000000 0.760784 0.188235 1.000000
0.905882 0.639216 0.058824 1.000000
0.905882 0.639216 0.058824 1.000000
0.215686 0.156863 0.031373 1.000000
0.215686 0.156863 0.031373 1.000000
0.215686 0.156863 0.031373 1.000000
0.905882 0.639216 0.058824 1.000000
0.905882 0.639216 0.058824 1.000000
1.000000 0.760784 0.188235 1.000000
1.000000 0.760784 0.188235 1.000000
0.215686 0.156863 0.031373 1.000000
0.215686 0.156863 0.031373 1.000000
0.215686 0.156863 0.031373 1.000000
0.905882 0.639216 0.058824 1.000000
0.905882 0.639216 0.058824 1.000000
1.000000 0.760784 0.188235 1.000000
1.000000 0.760784 0.188235 1.000000
0.215686 0.156863 0.031373 1.000000
0.215686 0.156863 0.031373 1.000000
0.215686 0.156863 0.031373 1.000000
0.905882 0.639216 0.058824 1.000000
0.905882 0.639216 0.058824 1.000000
1.000000 0.760784 0.188235 1.000000
1.000000 0.760784 0.188235 1.000000
0.215686 0.156863 0.031373 1.000000
0.215686 0.156863 0.031373 1.000000
0.215686 0.156863 0.031373 1.000000
1.000000 0.760784 0.188235 1.000000
1.000000 0.760784 0.188235 1.000000
0.905882 0.639216 0.058824 1.000000
0.905882 0.639216 0.058824 1.000000
0.905882 0.639216 0.058824 1.000000
0.905882 0.639216 0.058824 1.000000
1.000000 0.760784 0.188235 1.000000
1.000000 0.760784 0.188235 1.000000
0.215686 0.156863 0.031373 1.000000
0.215686 0.156863 0.031373 1.000000
0.215686 0.156863 0.031373 1.000000
0.215686 0.156863 0.031373 1.000000
0.215686 0.156863 0.031373 1.000000
0.215686 0.156863 0.031373 1.000000
1.000000 0.760784 0.188235 1.000000
1.000000 0.760784 0.188235 1.000000
0.905882 0.639216 0.058824 1.000000
0.905882 0.639216 0.058824 1.000000
0.215686 0.156863 0.031373 1.000000
0.215686 0.156863 0.031373 1.000000
0.215686 0.156863 0.031373 1.000000
1.000000 0.760784 0.188235 1.000000
1.000000 0.760784 0.188235 1.000000
0.905882 0.639216 0.058824 1.000000
0.905882 0.639216 0.058824 1.000000
0.552941 0.733333 0.058824 1.000000
0.552941 0.733333 0.058824 1.000000
0.552941 0.733333 0.058824 1.000000
0.552941 0.733333 0.058824 1.000000
0.552941 0.733333 0.058824 1.000000
0.552941 0.733333 0.058824 1.000000
0.552941 0.733333 0.058824 1.000000
0.552941 0.733333 0.058824 1.000000
0.552941 0.733333 0.058824 1.000000
0.552941 0.733333 0.058824 1.000000
0.552941 0.733333 0.058824 1.000000
0.552941 0.733333 0.058824 1.000000
0.552941 0.733333 0.058824 1.000000
0.552941 0.733333 0.058824 1.000000
0.552941 0.733333 0.058824 1.000000
0.552941 0.733333 0.058824 1.000000
0.552941 0.733333 0.058824 1.000000
0.552941 0.733333 0.058824 1.000000
0.552941 0.733333 0.058824 1.000000
0.552941 0.733333 0.058824 1.000000
0.552941 0.733333 0.058824 1.000000
0.552941 0.733333 0.058824 1.000000
0.552941 0.733333 0.058824 1.000000
0.552941 0.733333 0.058824 1.000000
0.552941 0.733333 0.058824 1.000000
0.552941 0.733333 0.058824 1.000000
0.552941 0.733333 0.058824 1.000000
0.552941 0.733333 0.058824 1.000000
0.552941 0.733333 0.058824 1.000000
0.552941 0.733333 0.058824 1.000000
0.552941 0.733333 0.058824 1.000000
0.552941 0.733333 0.058824 1.000000
0.552941 0.733333 0.058824 1.000000
0.552941 0.733333 0.058824 1.000000
0.552941 0.733333 0.058824 1.000000
0.552941 0.733333 0.058824 1.000000
0.552941 0.733333 0.058824 1.000000
0.552941 0.733333 0.058824 1.000000
0.552941 0.733333 0.058824 1.000000
0.552941 0.733333 0.058824 1.000000
0.552941 0.733333 0.058824 1.000000
0.552941 0.733333 0.058824 1.000000
0.552941 0.733333 0.058824 1.000000
0.552941 0.733333 0.058824 1.000000
0.552941 0.733333 0.058824 1.000000
0.552941 0.733333 0.058824 1.000000
0.552941 0.733333 0.058824 1.000000
0.552941 0.733333 0.058824 1.000000
0.552941 0.733333 0.058824 1.000000
0.552941 0.733333 0.058824 1.000000
0.552941 0.733333 0.058824 1.000000
0.552941 0.733333 0.058824 1.000000
0.552941 0.733333 0.058824 1.000000
0.552941 0.733333 0.058824 1.000000
0.552941 0.733333 0.058824 1.000000
0.552941 0.733333 0.058824 1.000000
0.552941 0.733333 0.058824 1.000000
0.552941 0.733333 0.058824 1.000000
0.552941 0.733333 0.058824 1.000000
0.552941 0.733333 0.058824 1.000000
0.552941 0.733333 0.058824 1.000000
0.552941 0.733333 0.058824 1.000000
0.552941 0.733333 0.058824 1.000000
0.552941 0.733333 0.058824 1.000000
0.552941 0.733333 0.058824 1.000000
0.552941 0.733333 0.058824 1.000000
0.552941 0.733333 0.058824 1.000000
0.552941 0.733333 0.058824 1.000000
0.552941 0.733333 0.058824 1.000000
0.552941 0.733333 0.058824 1.000000
0.552941 0.733333 0.058824 1.000000
0.552941 0.733333 0.058824 1.000000
0.552941 0.733333 0.058824 1.000000
0.552941 0.733333 0.058824 1.000000
0.552941 0.733333 0.058824 1.000000
0.552941 0.733333 0.058824 1.000000
0.552941 0.733333 0.058824 1.000000
0.552941 0.733333 0.058824 1.000000
0.552941 0.733333 0.058824 1.000000
0.552941 0.733333 0.058824 1.000000
0.552941 0.733333 0.058824 1.000000
0.552941 0.733333 0.058824 1.000000
0.552941 0.733333 0.058824 1.000000
0.552941 0.733333 0.058824 1.000000
0.552941 0.733333 0.058824 1.000000
0.552941 0.733333 0.058824 1.000000
0.552941 0.733333 0.058824 1.000000
0.552941 0.733333 0.058824 1.000000
0.552941 0.733333 0.058824 1.000000
0.552941 0.733333 0.058824 1.000000
0.552941 0.733333 0.058824 1.000000
0.552941 0.733333 0.058824 1.000000
0.552941 0.733333 0.058824 1.000000
0.552941 0.733333 0.058824 1.000000
0.552941 0.733333 0.058824 1.000000
0.552941 0.733333 0.058824 1.000000
0.552941 0.733333 0.058824 1.000000
0.552941 0.733333 0.058824 1.000000
0.552941 0.733333 0.058824 1.000000
0.552941 0.733333 0.058824 1.000000
0.552941 0.733333 0.058824 1.000000
0.552941 0.733333 0.058824 1.000000
0.552941 0.733333 0.058824 1.000000
0.552941 0.733333 0.058824 1.000000
0.552941 0.733333 0.058824 1.000000
0.552941 0.733333 0.058824 1.000000
0.552941 0.733333 0.058824 1.000000
0.552941 0.733333 0.058824 1.000000
0.552941 0.733333 0.058824 1.000000
0.552941 0.733333 0.058824 1.000000
0.552941 0.733333 0.058824 1.000000
0.552941 0.733333 0.058824 1.000000
0.552941 0.733333 0.058824 1.000000
0.054902 0.035294 0.003922 1.000000
0.552941 0.733333 0.058824 1.000000
0.552941 0.733333 0.058824 1.000000
0.054902 0.035294 0.003922 1.000000
0.552941 0.733333 0.058824 1.000000
0.552941 0.733333 0.058824 1.000000
0.054902 0.035294 0.003922 1.000000
0.552941 0.733333 0.058824 1.000000
0.552941 0.733333 0.058824 1.000000
0.054902 0.035294 0.003922 1.000000
0.552941 0.733333 0.058824 1.000000
</float_array>
          <technique_common>
            <accessor source="#SM_Banana_01_A_1-VERTEX_COLOR0-array" count="496" stride="4">
              <param name="R" type="double"/>
              <param name="G" type="double"/>
              <param name="B" type="double"/>
              <param name="A" type="double"/>
            </accessor>
          </technique_common>
        </source>
        <vertices id="SM_Banana_01_A_1-VERTEX">
          <input semantic="POSITION" source="#SM_Banana_01_A_1-POSITION"/>
        </vertices>
        <triangles count="240">
          <input semantic="VERTEX" offset="0" source="#SM_Banana_01_A_1-VERTEX"/>
          <input semantic="NORMAL" offset="1" source="#SM_Banana_01_A_1-Normal0"/>
          <input semantic="TEXCOORD" offset="2" set="0" source="#SM_Banana_01_A_1-UV0"/>
          <input semantic="COLOR" offset="3" set="0" source="#SM_Banana_01_A_1-VERTEX_COLOR0"/>
          <p> 0 0 0 0 8 1 24 1 18 2 42 2 18 3 42 2 25 4 49 3 0 5 0 0 76 6 124 4 77 7 125 5 88 8 136 6 88 9 136 6 89 10 137 7 76 11 124 4 65 12 113 9 34 13 64 10 35 14 65 11 35 15 65 11 64 16 112 8 65 17 113 9 53 18 101 13 29 19 59 14 28 20 58 15 28 21 58 15 52 22 100 12 53 23 101 13 71 24 119 17 41 25 83 18 40 26 82 19 40 27 82 19 70 28 118 16 71 29 119 17 59 30 107 21 47 31 95 22 46 32 94 23 46 33 94 23 58 34 106 20 59 35 107 21 2 36 2 25 22 37 46 26 18 38 42 27 18 39 42 27 8 40 24 24 2 41 2 25 85 42 133 29 75 43 123 30 74 44 122 31 74 45 122 31 84 46 132 28 85 47 133 29 41 48 77 33 53 49 101 34 52 50 100 35 52 51 100 35 40 52 76 32 41 53 77 33 34 54 70 37 59 55 107 38 58 56 106 39 58 57 106 39 35 58 71 36 34 59 70 37 16 60 40 40 117 61 165 41 115 62 163 42 81 63 129 44 77 64 125 45 76 65 124 46 76 66 124 46 80 67 128 43 81 68 129 44 29 69 53 48 65 70 113 49 64 71 112 50 64 72 112 50 28 73 52 47 29 74 53 48 47 75 89 52 71 76 119 53 70 77 118 54 70 78 118 54 46 79 88 51 47 80 89 52 3 81 3 55 9 82 26 56 19 83 43 57 19 84 43 57 23 85 47 58 3 86 3 55 83 87 131 60 79 88 127 61 78 89 126 62 78 90 126 62 82 91 130 59 83 92 131 60 74 93 122 63 75 94 123 64 81 95 129 65 81 96 129 65 80 97 128 66 74 98 122 63 86 99 134 67 87 100 135 68 89 101 137 69 89 102 137 69 88 103 136 70 86 104 134 67 87 105 135 71 86 106 134 72 83 107 131 73 83 108 131 73 82 109 130 74 87 110 135 71 78 111 126 75 79 112 127 76 85 113 133 77 85 114 133 77 84 115 132 78 78 116 126 75 2 117 2 79 12 118 32 80 21 119 45 81 21 120 45 81 22 121 46 82 2 122 2 79 16 123 40 83 120 124 168 84 116 125 164 85 16 126 40 86 114 127 162 87 117 128 165 88 16 129 40 89 115 130 163 90 118 131 166 91 18 132 42 92 119 133 167 93 118 134 166 94 118 135 166 94 25 136 49 95 18 137 42 92 22 138 46 96 121 139 169 97 119 140 167 98 119 141 167 98 18 142 42 99 22 143 46 96 1 144 1 101 13 145 34 102 20 146 44 103 20 147 44 103 24 148 48 100 1 149 1 101 23 150 47 107 19 151 43 104 114 152 162 105 114 153 162 105 116 154 164 106 23 155 47 107 22 156 46 111 21 157 45 108 120 158 168 109 120 159 168 109 121 160 169 110 22 161 46 111 3 162 3 114 23 163 47 115 21 164 45 112 21 165 45 112 12 166 32 113 3 167 3 114 1 168 1 118 24 169 48 119 19 170 43 116 19 171 43 116 9 172 26 117 1 173 1 118 0 174 0 122 25 175 49 123 20 176 44 120 20 177 44 120 13 178 34 121 0 179 0 122 14 180 37 125 4 181 10 126 32 182 62 127 32 183 62 127 67 184 115 124 14 185 37 125 67 186 115 129 32 187 62 130 33 188 63 131 33 189 63 131 66 190 114 128 67 191 115 129 66 192 114 133 33 193 63 134 34 194 64 135 34 195 64 135 65 196 113 132 66 197 114 133 0 198 8 137 13 199 35 138 62 200 110 139 62 201 110 139 37 202 67 136 0 203 8 137 37 204 67 141 62 205 110 142 63 206 111 143 63 207 111 143 36 208 66 140 37 209 67 141 36 210 66 145 63 211 111 146 64 212 112 147 64 213 112 147 35 214 65 144 36 215 66 145 10 216 29 149 5 217 14 150 31 218 61 151 31 219 61 151 55 220 103 148 10 221 29 149 55 222 103 153 31 223 61 154 30 224 60 155 30 225 60 155 54 226 102 152 55 227 103 153 54 228 102 157 30 229 60 158 29 230 59 159 29 231 59 159 53 232 101 156 54 233 102 157 1 234 12 161 9 235 27 162 50 236 98 163 50 237 98 163 26 238 56 160 1 239 12 161 26 240 56 165 50 241 98 166 51 242 99 167 51 243 99 167 27 244 57 164 26 245 56 165 27 246 57 169 51 247 99 170 52 248 100 171 52 249 100 171 28 250 58 168 27 251 57 169 15 252 39 173 7 253 18 174 43 254 85 175 43 255 85 175 73 256 121 172 15 257 39 173 73 258 121 177 43 259 85 178 42 260 84 179 42 261 84 179 72 262 120 176 73 263 121 177 72 264 120 181 42 265 84 182 41 266 83 183 41 267 83 183 71 268 119 180 72 269 120 181 3 270 16 185 12 271 33 186 68 272 116 187 68 273 116 187 38 274 80 184 3 275 16 185 38 276 80 189 68 277 116 190 69 278 117 191 69 279 117 191 39 280 81 188 38 281 80 189 39 282 81 193 69 283 117 194 70 284 118 195 70 285 118 195 40 286 82 192 39 287 81 193 11 288 31 197 6 289 22 198 49 290 97 199 49 291 97 199 61 292 109 196 11 293 31 197 61 294 109 201 49 295 97 202 48 296 96 203 48 297 96 203 60 298 108 200 61 299 109 201 60 300 108 205 48 301 96 206 47 302 95 207 47 303 95 207 59 304 107 204 60 305 108 205 2 306 20 209 8 307 25 210 56 308 104 211 56 309 104 211 44 310 92 208 2 311 20 209 44 312 92 213 56 313 104 214 57 314 105 215 57 315 105 215 45 316 93 212 44 317 92 213 45 318 93 217 57 319 105 218 58 320 106 219 58 321 106 219 46 322 94 216 45 323 93 217 7 324 15 221 10 325 29 222 55 326 103 223 55 327 103 223 43 328 79 220 7 329 15 221 43 330 79 225 55 331 103 226 54 332 102 227 54 333 102 227 42 334 78 224 43 335 79 225 42 336 78 229 54 337 102 230 53 338 101 231 53 339 101 231 41 340 77 228 42 341 78 229 9 342 27 233 3 343 13 234 38 344 74 235 38 345 74 235 50 346 98 232 9 347 27 233 50 348 98 237 38 349 74 238 39 350 75 239 39 351 75 239 51 352 99 236 50 353 98 237 51 354 99 241 39 355 75 242 40 356 76 243 40 357 76 243 52 358 100 240 51 359 99 241 4 360 23 245 11 361 31 246 61 362 109 247 61 363 109 247 32 364 68 244 4 365 23 245 32 366 68 249 61 367 109 250 60 368 108 251 60 369 108 251 33 370 69 248 32 371 68 249 33 372 69 253 60 373 108 254 59 374 107 255 59 375 107 255 34 376 70 252 33 377 69 253 8 378 25 257 0 379 21 258 37 380 73 259 37 381 73 259 56 382 104 256 8 383 25 257 56 384 104 261 37 385 73 262 36 386 72 263 36 387 72 263 57 388 105 260 56 389 104 261 57 390 105 265 36 391 72 266 35 392 71 267 35 393 71 267 58 394 106 264 57 395 105 265 5 396 11 269 14 397 37 270 67 398 115 271 67 399 115 271 31 400 55 268 5 401 11 269 31 402 55 273 67 403 115 274 66 404 114 275 66 405 114 275 30 406 54 272 31 407 55 273 30 408 54 277 66 409 114 278 65 410 113 279 65 411 113 279 29 412 53 276 30 413 54 277 13 414 35 281 1 415 9 282 26 416 50 283 26 417 50 283 62 418 110 280 13 419 35 281 62 420 110 285 26 421 50 286 27 422 51 287 27 423 51 287 63 424 111 284 62 425 110 285 63 426 111 289 27 427 51 290 28 428 52 291 28 429 52 291 64 430 112 288 63 431 111 289 6 432 19 293 15 433 39 294 73 434 121 295 73 435 121 295 49 436 91 292 6 437 19 293 49 438 91 297 73 439 121 298 72 440 120 299 72 441 120 299 48 442 90 296 49 443 91 297 48 444 90 301 72 445 120 302 71 446 119 303 71 447 119 303 47 448 89 300 48 449 90 301 12 450 33 305 2 451 17 306 44 452 86 307 44 453 86 307 68 454 116 304 12 455 33 305 68 456 116 309 44 457 86 310 45 458 87 311 45 459 87 311 69 460 117 308 68 461 116 309 69 462 117 313 45 463 87 314 46 464 88 315 46 465 88 315 70 466 118 312 69 467 117 313 91 468 139 316 17 469 41 317 90 470 138 318 89 471 137 319 4 472 4 320 14 473 36 321 14 474 36 321 76 475 124 322 89 476 137 319 94 477 142 323 17 478 41 324 93 479 141 325 10 480 28 327 7 481 7 328 84 482 132 329 84 483 132 329 74 484 122 326 10 485 28 327 92 486 140 330 17 487 41 331 91 488 139 332 14 489 36 334 5 490 5 335 80 491 128 336 80 492 128 336 76 493 124 333 14 494 36 334 96 495 144 337 17 496 41 338 95 497 143 339 15 498 38 341 6 499 6 342 82 500 130 343 82 501 130 343 78 502 126 340 15 503 38 341 93 504 141 344 17 505 41 345 92 506 140 346 80 507 128 347 5 508 5 348 10 509 28 349 10 510 28 349 74 511 122 350 80 512 128 347 11 513 30 352 4 514 4 353 89 515 137 354 89 516 137 354 87 517 135 351 11 518 30 352 90 519 138 355 17 520 41 356 97 521 145 357 97 522 145 358 17 523 41 359 96 524 144 360 82 525 130 361 6 526 6 362 11 527 30 363 11 528 30 363 87 529 135 364 82 530 130 361 95 531 143 365 17 532 41 366 94 533 142 367 84 534 132 368 7 535 7 369 15 536 38 370 15 537 38 370 78 538 126 371 84 539 132 368 100 540 148 372 101 541 149 373 99 542 147 374 99 543 147 374 98 544 146 375 100 545 148 372 102 546 150 376 103 547 151 377 101 548 149 378 101 549 149 378 100 550 148 379 102 551 150 376 104 552 152 380 105 553 153 381 103 554 151 382 103 555 151 382 102 556 150 383 104 557 152 380 107 558 155 385 105 559 153 386 104 560 152 387 104 561 152 387 106 562 154 384 107 563 155 385 109 564 157 389 107 565 155 390 106 566 154 391 106 567 154 391 108 568 156 388 109 569 157 389 111 570 159 393 109 571 157 394 108 572 156 395 108 573 156 395 110 574 158 392 111 575 159 393 113 576 161 397 111 577 159 398 110 578 158 399 110 579 158 399 112 580 160 396 113 581 161 397 99 582 147 401 113 583 161 402 112 584 160 403 112 585 160 403 98 586 146 400 99 587 147 401 91 588 139 405 90 589 138 406 99 590 147 407 99 591 147 407 101 592 149 404 91 593 139 405 98 594 146 408 88 595 136 409 77 596 125 410 77 597 125 410 100 598 148 411 98 599 146 408 92 600 140 413 91 601 139 414 101 602 149 415 101 603 149 415 103 604 151 412 92 605 140 413 100 606 148 416 77 607 125 417 81 608 129 418 81 609 129 418 102 610 150 419 100 611 148 416 93 612 141 421 92 613 140 422 103 614 151 423 103 615 151 423 105 616 153 420 93 617 141 421 102 618 150 424 81 619 129 425 75 620 123 426 75 621 123 426 104 622 152 427 102 623 150 424 94 624 142 429 93 625 141 430 105 626 153 431 105 627 153 431 107 628 155 428 94 629 142 429 75 630 123 433 85 631 133 434 106 632 154 435 106 633 154 435 104 634 152 432 75 635 123 433 109 636 157 436 95 637 143 437 94 638 142 438 94 639 142 438 107 640 155 439 109 641 157 436 85 642 133 441 79 643 127 442 108 644 156 443 108 645 156 443 106 646 154 440 85 647 133 441 111 648 159 444 96 649 144 445 95 650 143 446 95 651 143 446 109 652 157 447 111 653 159 444 79 654 127 449 83 655 131 450 110 656 158 451 110 657 158 451 108 658 156 448 79 659 127 449 113 660 161 452 97 661 145 453 96 662 144 454 96 663 144 454 111 664 159 455 113 665 161 452 83 666 131 457 86 667 134 458 112 668 160 459 112 669 160 459 110 670 158 456 83 671 131 457 90 672 138 461 97 673 145 462 113 674 161 463 113 675 161 463 99 676 147 460 90 677 138 461 112 678 160 464 86 679 134 465 88 680 136 466 88 681 136 466 98 682 146 467 112 683 160 464 24 684 48 469 20 685 44 470 115 686 163 471 115 687 163 471 117 688 165 468 24 689 48 469 21 690 45 473 23 691 47 474 116 692 164 475 116 693 164 475 120 694 168 472 21 695 45 473 24 696 48 478 117 697 165 479 114 698 162 476 114 699 162 476 19 700 43 477 24 701 48 478 25 702 49 482 118 703 166 483 115 704 163 480 115 705 163 480 20 706 44 481 25 707 49 482 119 708 167 484 16 709 40 485 118 710 166 486 121 711 169 487 16 712 40 488 119 713 167 489 114 714 162 490 16 715 40 491 116 716 164 492 120 717 168 493 16 718 40 494 121 719 169 495</p>
        </triangles>
      </mesh>
    </geometry>
  </library_geometries>
  <library_visual_scenes>
    <visual_scene id="SM_Banana_01_A_1" name="SM_Banana_01_A_1">
      <node name="SM_Banana_01_A_1" id="SM_Banana_01_A_1" sid="SM_Banana_01_A_1">
        <matrix sid="matrix">2.115627 -0.000001 0.050573 0.000001 0.000001 2.116231 -0.000000 -0.000000 -0.050573 0.000000 2.115627 -0.000008 0.000000 0.000000 0.000000 1.000000</matrix>
        <instance_geometry url="#SM_Banana_01_A_1-lib"/>
        <extra>
          <technique profile="FCOLLADA">
            <visibility>1.000000</visibility>
          </technique>
        </extra>
      </node>
      <extra>
        <technique profile="MAX3D">
          <frame_rate>30.000000</frame_rate>
        </technique>
        <technique profile="FCOLLADA">
          <start_time>0.000000</start_time>
          <end_time>3.333333</end_time>
        </technique>
      </extra>
    </visual_scene>
  </library_visual_scenes>
  <scene>
    <instance_visual_scene url="#SM_Banana_01_A_1"/>
  </scene>
</COLLADA>
