<?xml version="1.0" encoding="utf-8"?>
<COLLADA xmlns="http://www.collada.org/2005/11/COLLADASchema" version="1.4.1">
  <asset>
    <contributor>
      <author/>
      <authoring_tool>FBX COLLADA exporter</authoring_tool>
      <comments/>
    </contributor>
    <created>2020-04-27T16:01:50Z</created>
    <keywords/>
    <modified>2020-04-27T16:01:50Z</modified>
    <revision/>
    <subject/>
    <title/>
    <unit meter="0.010000" name="centimeter"/>
    <up_axis>Z_UP</up_axis>
  </asset>
  <library_geometries>
    <geometry id="SM_IceCream_01_A_1-lib" name="SM_IceCream_01_A_1Mesh">
      <mesh>
        <source id="SM_IceCream_01_A_1-POSITION">
          <float_array id="SM_IceCream_01_A_1-POSITION-array" count="252">
0.236582 0.000000 -18.400183
0.204886 0.118291 -18.400183
0.118291 0.204886 -18.400183
-0.000000 0.236582 -18.400183
-0.118291 0.204886 -18.400183
-0.204886 0.118291 -18.400183
-0.236582 0.000000 -18.400183
-0.204886 -0.118291 -18.400183
-0.118291 -0.204886 -18.400183
-0.000000 -0.236582 -18.400183
0.118291 -0.204886 -18.400183
0.204886 -0.118291 -18.400183
6.296945 0.000000 9.184145
5.453315 3.148473 9.184145
3.148472 5.453315 9.184145
-0.000000 6.296945 9.184145
-3.148473 5.453315 9.184145
-5.453315 3.148473 9.184145
-6.296945 0.000001 9.184145
-5.453315 -3.148471 9.184145
-3.148474 -5.453313 9.184145
-0.000003 -6.296945 9.184145
3.148469 -5.453316 9.184145
5.453312 -3.148476 9.184145
4.842458 0.000000 2.563906
4.193692 2.421229 2.563908
2.421229 4.193692 2.563908
-0.000000 4.842458 2.563908
-2.421229 4.193692 2.563908
-4.193692 2.421229 2.563908
-4.842458 0.000001 2.563908
-4.193692 -2.421228 2.563908
-2.421231 -4.193691 2.563908
-0.000002 -4.842458 2.563908
2.421227 -4.193693 2.563908
4.193690 -2.421232 2.563908
0.240997 -0.000000 18.400183
0.294842 0.170228 18.400183
0.120498 0.208711 18.400183
-0.000001 0.340455 18.400183
-0.120500 0.208711 18.400183
-0.294844 0.170228 18.400183
-0.240999 -0.000000 18.400183
-0.294844 -0.170228 18.400183
-0.120500 -0.208711 18.400183
-0.000001 -0.340456 18.400183
0.120498 -0.208711 18.400183
0.294842 -0.170228 18.400183
3.650569 -0.000000 12.675638
4.466196 2.578559 12.675640
1.825284 3.161486 12.675640
-0.000000 5.157118 12.675640
-1.825285 3.161486 12.675640
-4.466196 2.578559 12.675640
-3.650570 0.000001 12.675642
-4.466197 -2.578558 12.675640
-1.825286 -3.161485 12.675640
-0.000002 -5.157119 12.675640
1.825283 -3.161487 12.675640
4.466193 -2.578562 12.675640
0.942815 0.544334 -14.521826
0.544334 0.942815 -14.521826
-0.000000 1.088669 -14.521826
-0.544335 0.942815 -14.521826
-0.942815 0.544335 -14.521826
-1.088669 0.000000 -14.521826
-0.942815 -0.544334 -14.521826
-0.544335 -0.942815 -14.521826
-0.000000 -1.088669 -14.521826
0.544334 -0.942815 -14.521826
0.942814 -0.544335 -14.521826
1.088669 0.000000 -14.521826
5.009724 0.000000 3.325233
4.338549 2.504862 3.325235
2.504862 4.338549 3.325235
-0.000000 5.009724 3.325235
-2.504862 4.338549 3.325235
-4.338549 2.504862 3.325235
-5.009724 0.000001 3.325235
-4.338549 -2.504861 3.325235
-2.504864 -4.338547 3.325235
-0.000002 -5.009724 3.325235
2.504860 -4.338550 3.325235
4.338546 -2.504865 3.325235
</float_array>
          <technique_common>
            <accessor source="#SM_IceCream_01_A_1-POSITION-array" count="84" stride="3">
              <param name="X" type="float"/>
              <param name="Y" type="float"/>
              <param name="Z" type="float"/>
            </accessor>
          </technique_common>
        </source>
        <source id="SM_IceCream_01_A_1-Normal0">
          <float_array id="SM_IceCream_01_A_1-Normal0-array" count="1476">
0.000000 0.000000 -1.000000
0.000000 0.000000 -1.000000
0.000000 0.000000 -1.000000
0.000000 0.000000 -1.000000
0.000000 0.000000 -1.000000
0.000000 0.000000 -1.000000
0.000000 0.000000 -1.000000
0.000000 0.000000 -1.000000
0.000000 0.000000 -1.000000
0.000000 0.000000 -1.000000
0.000000 0.000000 -1.000000
0.000000 0.000000 -1.000000
0.000000 0.000000 -1.000000
0.000000 0.000000 -1.000000
0.000000 0.000000 -1.000000
0.000000 0.000000 -1.000000
0.000000 0.000000 -1.000000
0.000000 0.000000 -1.000000
0.000000 0.000000 -1.000000
0.000000 0.000000 -1.000000
0.000000 0.000000 -1.000000
0.000000 0.000000 -1.000000
0.000000 0.000000 -1.000000
0.000000 0.000000 -1.000000
0.000000 0.000000 -1.000000
0.000000 0.000000 -1.000000
0.000000 0.000000 -1.000000
0.000000 0.000000 -1.000000
0.000000 0.000000 -1.000000
0.000000 0.000000 -1.000000
0.845852 0.488353 -0.214585
0.845852 0.488352 -0.214585
0.976705 -0.000000 -0.214585
0.976705 -0.000000 -0.214585
0.976705 -0.000000 -0.214585
0.845852 0.488353 -0.214585
0.488353 0.845852 -0.214585
0.488353 0.845852 -0.214585
0.845852 0.488352 -0.214585
0.845852 0.488352 -0.214585
0.845852 0.488353 -0.214585
0.488353 0.845852 -0.214585
-0.000000 0.976705 -0.214585
0.000000 0.976705 -0.214585
0.488353 0.845852 -0.214585
0.488353 0.845852 -0.214585
0.488353 0.845852 -0.214585
-0.000000 0.976705 -0.214585
-0.488353 0.845852 -0.214585
-0.488353 0.845852 -0.214585
0.000000 0.976705 -0.214585
0.000000 0.976705 -0.214585
-0.000000 0.976705 -0.214585
-0.488353 0.845852 -0.214585
-0.845852 0.488353 -0.214585
-0.845852 0.488353 -0.214585
-0.488353 0.845852 -0.214585
-0.488353 0.845852 -0.214585
-0.488353 0.845852 -0.214585
-0.845852 0.488353 -0.214585
-0.976705 0.000000 -0.214585
-0.976705 0.000000 -0.214585
-0.845852 0.488353 -0.214585
-0.845852 0.488353 -0.214585
-0.845852 0.488353 -0.214585
-0.976705 0.000000 -0.214585
-0.845852 -0.488352 -0.214585
-0.845852 -0.488353 -0.214585
-0.976705 0.000000 -0.214585
-0.976705 0.000000 -0.214585
-0.976705 0.000000 -0.214585
-0.845852 -0.488352 -0.214585
-0.488353 -0.845851 -0.214585
-0.488353 -0.845851 -0.214585
-0.845852 -0.488353 -0.214585
-0.845852 -0.488353 -0.214585
-0.845852 -0.488352 -0.214585
-0.488353 -0.845851 -0.214585
-0.000000 -0.976705 -0.214585
-0.000000 -0.976705 -0.214585
-0.488353 -0.845851 -0.214585
-0.488353 -0.845851 -0.214585
-0.488353 -0.845851 -0.214585
-0.000000 -0.976705 -0.214585
0.488352 -0.845852 -0.214585
0.488352 -0.845852 -0.214585
-0.000000 -0.976705 -0.214585
-0.000000 -0.976705 -0.214585
-0.000000 -0.976705 -0.214585
0.488352 -0.845852 -0.214585
0.845851 -0.488353 -0.214585
0.845852 -0.488353 -0.214585
0.488352 -0.845852 -0.214585
0.488352 -0.845852 -0.214585
0.488352 -0.845852 -0.214585
0.845851 -0.488353 -0.214585
0.976705 -0.000000 -0.214585
0.976705 -0.000000 -0.214585
0.845852 -0.488353 -0.214585
0.845852 -0.488353 -0.214585
0.845851 -0.488353 -0.214585
0.976705 -0.000000 -0.214585
0.000000 0.000000 1.000000
0.000000 0.000000 1.000000
0.000000 0.000000 1.000000
0.000000 0.000000 1.000000
0.000000 0.000000 1.000000
0.000000 0.000000 1.000000
0.000000 0.000000 1.000000
0.000000 0.000000 1.000000
0.000000 0.000000 1.000000
0.000000 0.000000 1.000000
0.000000 0.000000 1.000000
0.000000 0.000000 1.000000
0.000000 0.000000 1.000000
0.000000 0.000000 1.000000
0.000000 0.000000 1.000000
0.000000 0.000000 1.000000
0.000000 0.000000 1.000000
0.000000 0.000000 1.000000
0.000000 0.000000 1.000000
0.000000 0.000000 1.000000
0.000000 0.000000 1.000000
0.000000 0.000000 1.000000
0.000000 0.000000 1.000000
0.000000 0.000000 1.000000
0.000000 0.000000 1.000000
0.000000 0.000000 1.000000
0.000000 0.000000 1.000000
0.000000 0.000000 1.000000
0.000000 0.000000 1.000000
0.000000 0.000000 1.000000
0.845852 0.488353 -0.214585
0.976705 -0.000000 -0.214585
0.976705 -0.000000 -0.214585
0.976705 -0.000000 -0.214585
0.845852 0.488353 -0.214585
0.845852 0.488353 -0.214585
0.488353 0.845852 -0.214585
0.845852 0.488353 -0.214585
0.845852 0.488353 -0.214585
0.845852 0.488353 -0.214585
0.488352 0.845852 -0.214585
0.488353 0.845852 -0.214585
0.000000 0.976705 -0.214585
0.488353 0.845852 -0.214585
0.488352 0.845852 -0.214585
0.488352 0.845852 -0.214585
-0.000000 0.976705 -0.214585
0.000000 0.976705 -0.214585
-0.488353 0.845852 -0.214585
0.000000 0.976705 -0.214585
-0.000000 0.976705 -0.214585
-0.000000 0.976705 -0.214585
-0.488353 0.845852 -0.214585
-0.488353 0.845852 -0.214585
-0.845852 0.488353 -0.214585
-0.488353 0.845852 -0.214585
-0.488353 0.845852 -0.214585
-0.488353 0.845852 -0.214585
-0.845852 0.488352 -0.214585
-0.845852 0.488353 -0.214585
-0.976705 0.000000 -0.214585
-0.845852 0.488353 -0.214585
-0.845852 0.488352 -0.214585
-0.845852 0.488352 -0.214585
-0.976705 -0.000000 -0.214585
-0.976705 0.000000 -0.214585
-0.845852 -0.488352 -0.214585
-0.976705 0.000000 -0.214585
-0.976705 -0.000000 -0.214585
-0.976705 -0.000000 -0.214585
-0.845852 -0.488353 -0.214585
-0.845852 -0.488352 -0.214585
-0.488353 -0.845851 -0.214585
-0.845852 -0.488352 -0.214585
-0.845852 -0.488353 -0.214585
-0.845852 -0.488353 -0.214585
-0.488353 -0.845851 -0.214585
-0.488353 -0.845851 -0.214585
-0.000000 -0.976705 -0.214585
-0.488353 -0.845851 -0.214585
-0.488353 -0.845851 -0.214585
-0.488353 -0.845851 -0.214585
-0.000000 -0.976705 -0.214585
-0.000000 -0.976705 -0.214585
0.488352 -0.845852 -0.214585
-0.000000 -0.976705 -0.214585
-0.000000 -0.976705 -0.214585
-0.000000 -0.976705 -0.214585
0.488352 -0.845852 -0.214585
0.488352 -0.845852 -0.214585
0.845851 -0.488353 -0.214585
0.488352 -0.845852 -0.214585
0.488352 -0.845852 -0.214585
0.488352 -0.845852 -0.214585
0.845851 -0.488353 -0.214585
0.845851 -0.488353 -0.214585
0.976705 -0.000000 -0.214585
0.845851 -0.488353 -0.214585
0.845851 -0.488353 -0.214585
0.845851 -0.488353 -0.214585
0.976705 -0.000000 -0.214585
0.976705 -0.000000 -0.214585
0.931107 -0.294519 0.215169
0.931107 -0.294519 0.215169
0.931107 -0.294519 0.215169
0.779377 0.208833 0.590728
0.779377 0.208833 0.590728
0.779377 0.208833 0.590728
0.174699 0.791460 0.585723
0.174699 0.791460 0.585723
0.174699 0.791460 0.585723
0.674373 0.674373 0.300737
0.674373 0.674373 0.300737
0.674373 0.674373 0.300737
0.720615 0.659103 0.215169
0.720615 0.659103 0.215169
0.720615 0.659103 0.215169
0.208833 0.779377 0.590728
0.208833 0.779377 0.590728
0.208833 0.779377 0.590728
-0.598075 0.547023 0.585723
-0.598075 0.547023 0.585723
-0.598075 0.547023 0.585723
-0.246837 0.921210 0.300737
-0.246837 0.921210 0.300737
-0.246838 0.921210 0.300737
-0.210492 0.953622 0.215169
-0.210492 0.953622 0.215169
-0.210492 0.953622 0.215169
-0.570544 0.570544 0.590728
-0.570544 0.570544 0.590728
-0.570544 0.570544 0.590728
-0.772774 -0.244436 0.585723
-0.772774 -0.244436 0.585723
-0.772774 -0.244436 0.585723
-0.921210 0.246838 0.300737
-0.921211 0.246838 0.300737
-0.921210 0.246838 0.300737
-0.931107 0.294519 0.215169
-0.931107 0.294519 0.215169
-0.931107 0.294519 0.215169
-0.779377 -0.208833 0.590728
-0.779377 -0.208833 0.590728
-0.779377 -0.208833 0.590728
-0.174699 -0.791460 0.585723
-0.174699 -0.791460 0.585723
-0.174699 -0.791460 0.585723
-0.674373 -0.674373 0.300737
-0.674373 -0.674373 0.300737
-0.674373 -0.674373 0.300737
-0.720615 -0.659102 0.215169
-0.720615 -0.659102 0.215169
-0.720615 -0.659102 0.215169
-0.208834 -0.779377 0.590728
-0.208834 -0.779377 0.590728
-0.208834 -0.779377 0.590728
0.598075 -0.547023 0.585723
0.598075 -0.547023 0.585723
0.598075 -0.547023 0.585723
0.246837 -0.921211 0.300736
0.246837 -0.921211 0.300736
0.246837 -0.921211 0.300736
0.210492 -0.953622 0.215169
0.210492 -0.953622 0.215169
0.210492 -0.953622 0.215169
0.570543 -0.570544 0.590728
0.570543 -0.570544 0.590728
0.570543 -0.570544 0.590728
0.772774 0.244436 0.585723
0.772774 0.244436 0.585723
0.772774 0.244436 0.585723
0.921210 -0.246838 0.300737
0.921210 -0.246838 0.300737
0.921210 -0.246838 0.300737
0.829084 -0.262249 0.493807
0.829084 -0.262249 0.493807
0.829084 -0.262249 0.493807
0.829084 -0.262249 0.493807
0.829084 -0.262249 0.493807
0.829084 -0.262249 0.493807
0.187429 0.849132 0.493808
0.187429 0.849132 0.493808
0.187429 0.849132 0.493808
0.187428 0.849132 0.493807
0.187428 0.849132 0.493807
0.187428 0.849132 0.493807
0.641656 0.586884 0.493807
0.641656 0.586884 0.493807
0.641656 0.586884 0.493807
0.641656 0.586884 0.493807
0.641656 0.586884 0.493807
0.641656 0.586884 0.493807
-0.641654 0.586884 0.493808
-0.641654 0.586884 0.493808
-0.641654 0.586884 0.493808
-0.641656 0.586884 0.493807
-0.641655 0.586884 0.493807
-0.641656 0.586884 0.493807
-0.187429 0.849132 0.493807
-0.187429 0.849132 0.493807
-0.187429 0.849132 0.493807
-0.187428 0.849132 0.493807
-0.187428 0.849132 0.493807
-0.187428 0.849132 0.493807
-0.829084 -0.262248 0.493807
-0.829084 -0.262248 0.493807
-0.829084 -0.262248 0.493807
-0.829084 -0.262248 0.493807
-0.829084 -0.262248 0.493807
-0.829084 -0.262248 0.493807
-0.829084 0.262248 0.493807
-0.829084 0.262248 0.493807
-0.829084 0.262248 0.493807
-0.829084 0.262248 0.493807
-0.829084 0.262248 0.493807
-0.829084 0.262248 0.493807
-0.187429 -0.849132 0.493807
-0.187429 -0.849132 0.493807
-0.187429 -0.849132 0.493807
-0.187429 -0.849132 0.493807
-0.187429 -0.849132 0.493807
-0.187429 -0.849132 0.493807
-0.641656 -0.586884 0.493807
-0.641656 -0.586884 0.493807
-0.641656 -0.586884 0.493807
-0.641656 -0.586883 0.493807
-0.641656 -0.586883 0.493807
-0.641656 -0.586883 0.493807
0.641656 -0.586883 0.493807
0.641656 -0.586883 0.493807
0.641656 -0.586883 0.493807
0.641655 -0.586884 0.493807
0.641655 -0.586884 0.493807
0.641655 -0.586884 0.493807
0.187427 -0.849132 0.493807
0.187427 -0.849132 0.493807
0.187427 -0.849132 0.493807
0.187428 -0.849132 0.493807
0.187428 -0.849132 0.493807
0.187428 -0.849132 0.493807
0.829084 0.262248 0.493807
0.829084 0.262248 0.493807
0.829084 0.262248 0.493807
0.829084 0.262248 0.493807
0.829084 0.262248 0.493807
0.829084 0.262248 0.493807
0.845852 0.488353 -0.214585
0.976705 -0.000000 -0.214585
0.976705 -0.000000 -0.214585
0.976705 -0.000000 -0.214585
0.845852 0.488352 -0.214585
0.845852 0.488353 -0.214585
0.488352 0.845852 -0.214585
0.845852 0.488353 -0.214585
0.845852 0.488352 -0.214585
0.845852 0.488352 -0.214585
0.488353 0.845852 -0.214585
0.488352 0.845852 -0.214585
-0.000000 0.976705 -0.214585
0.488352 0.845852 -0.214585
0.488353 0.845852 -0.214585
0.488353 0.845852 -0.214585
0.000000 0.976705 -0.214585
-0.000000 0.976705 -0.214585
-0.488353 0.845852 -0.214585
-0.000000 0.976705 -0.214585
0.000000 0.976705 -0.214585
0.000000 0.976705 -0.214585
-0.488353 0.845852 -0.214585
-0.488353 0.845852 -0.214585
-0.845852 0.488352 -0.214585
-0.488353 0.845852 -0.214585
-0.488353 0.845852 -0.214585
-0.488353 0.845852 -0.214585
-0.845852 0.488353 -0.214585
-0.845852 0.488352 -0.214585
-0.976705 -0.000000 -0.214585
-0.845852 0.488352 -0.214585
-0.845852 0.488353 -0.214585
-0.845852 0.488353 -0.214585
-0.976705 0.000000 -0.214585
-0.976705 -0.000000 -0.214585
-0.845852 -0.488353 -0.214585
-0.976705 -0.000000 -0.214585
-0.976705 0.000000 -0.214585
-0.976705 0.000000 -0.214585
-0.845852 -0.488353 -0.214585
-0.845852 -0.488353 -0.214585
-0.488353 -0.845851 -0.214585
-0.845852 -0.488353 -0.214585
-0.845852 -0.488353 -0.214585
-0.845852 -0.488353 -0.214585
-0.488353 -0.845851 -0.214585
-0.488353 -0.845851 -0.214585
-0.000000 -0.976705 -0.214585
-0.488353 -0.845851 -0.214585
-0.488353 -0.845851 -0.214585
-0.488353 -0.845851 -0.214585
-0.000000 -0.976705 -0.214585
-0.000000 -0.976705 -0.214585
0.488352 -0.845852 -0.214585
-0.000000 -0.976705 -0.214585
-0.000000 -0.976705 -0.214585
-0.000000 -0.976705 -0.214585
0.488352 -0.845852 -0.214585
0.488352 -0.845852 -0.214585
0.845851 -0.488353 -0.214585
0.488352 -0.845852 -0.214585
0.488352 -0.845852 -0.214585
0.488352 -0.845852 -0.214585
0.845852 -0.488353 -0.214585
0.845851 -0.488353 -0.214585
0.976705 -0.000000 -0.214585
0.845851 -0.488353 -0.214585
0.845852 -0.488353 -0.214585
0.845852 -0.488353 -0.214585
0.976705 -0.000000 -0.214585
0.976705 -0.000000 -0.214585
0.845852 0.488353 -0.214585
0.976705 -0.000000 -0.214585
0.976705 -0.000000 -0.214585
0.976705 -0.000000 -0.214585
0.845852 0.488353 -0.214585
0.845852 0.488353 -0.214585
0.488353 0.845852 -0.214585
0.845852 0.488353 -0.214585
0.845852 0.488353 -0.214585
0.845852 0.488353 -0.214585
0.488353 0.845852 -0.214585
0.488353 0.845852 -0.214585
-0.000000 0.976705 -0.214585
0.488353 0.845852 -0.214585
0.488353 0.845852 -0.214585
0.488353 0.845852 -0.214585
0.000000 0.976705 -0.214585
-0.000000 0.976705 -0.214585
-0.488353 0.845852 -0.214585
-0.000000 0.976705 -0.214585
0.000000 0.976705 -0.214585
0.000000 0.976705 -0.214585
-0.488353 0.845852 -0.214585
-0.488353 0.845852 -0.214585
-0.845852 0.488353 -0.214585
-0.488353 0.845852 -0.214585
-0.488353 0.845852 -0.214585
-0.488353 0.845852 -0.214585
-0.845852 0.488353 -0.214585
-0.845852 0.488353 -0.214585
-0.976705 0.000000 -0.214585
-0.845852 0.488353 -0.214585
-0.845852 0.488353 -0.214585
-0.845852 0.488353 -0.214585
-0.976705 0.000000 -0.214585
-0.976705 0.000000 -0.214585
-0.845852 -0.488352 -0.214585
-0.976705 0.000000 -0.214585
-0.976705 0.000000 -0.214585
-0.976705 0.000000 -0.214585
-0.845852 -0.488352 -0.214585
-0.845852 -0.488352 -0.214585
-0.488353 -0.845851 -0.214585
-0.845852 -0.488352 -0.214585
-0.845852 -0.488352 -0.214585
-0.845852 -0.488352 -0.214585
-0.488353 -0.845851 -0.214585
-0.488353 -0.845851 -0.214585
-0.000000 -0.976705 -0.214585
-0.488353 -0.845851 -0.214585
-0.488353 -0.845851 -0.214585
-0.488353 -0.845851 -0.214585
-0.000000 -0.976705 -0.214585
-0.000000 -0.976705 -0.214585
0.488352 -0.845852 -0.214585
-0.000000 -0.976705 -0.214585
-0.000000 -0.976705 -0.214585
-0.000000 -0.976705 -0.214585
0.488352 -0.845852 -0.214585
0.488352 -0.845852 -0.214585
0.845851 -0.488353 -0.214585
0.488352 -0.845852 -0.214585
0.488352 -0.845852 -0.214585
0.488352 -0.845852 -0.214585
0.845851 -0.488353 -0.214585
0.845851 -0.488353 -0.214585
0.976705 -0.000000 -0.214585
0.845851 -0.488353 -0.214585
0.845851 -0.488353 -0.214585
0.845851 -0.488353 -0.214585
0.976705 -0.000000 -0.214585
0.976705 -0.000000 -0.214585
</float_array>
          <technique_common>
            <accessor source="#SM_IceCream_01_A_1-Normal0-array" count="492" stride="3">
              <param name="X" type="float"/>
              <param name="Y" type="float"/>
              <param name="Z" type="float"/>
            </accessor>
          </technique_common>
        </source>
        <source id="SM_IceCream_01_A_1-UV0">
          <float_array id="SM_IceCream_01_A_1-UV0-array" count="212">
0.750000 0.000000
0.833333 0.000000
0.916667 0.000000
0.000000 0.000000
0.083333 0.000000
0.166667 0.000000
0.250000 0.000000
0.333333 0.000000
0.416667 0.000000
0.500000 0.000000
0.583333 0.000000
0.666667 0.000000
0.750000 1.000000
0.833333 1.000000
0.916667 1.000000
0.000000 1.000000
0.083333 1.000000
0.166667 1.000000
0.250000 1.000000
0.333333 1.000000
0.416667 1.000000
0.500000 1.000000
0.583333 1.000000
0.666667 1.000000
-0.083333 0.000000
-0.083333 1.000000
0.888354 0.000000
0.755983 0.000000
0.555021 0.000000
0.339316 0.000000
0.166667 0.000000
0.083334 0.000000
0.111646 0.000000
0.244017 0.000000
0.444979 0.000000
0.888354 1.000000
0.755983 1.000000
0.555021 1.000000
0.339316 1.000000
0.166667 1.000000
0.083333 1.000000
0.111645 1.000000
0.244017 1.000000
0.750000 0.760000
0.833333 0.760000
0.916667 0.760000
-0.083333 0.760000
0.000000 0.760000
0.083333 0.760000
0.166667 0.760000
0.250000 0.760000
0.333333 0.760000
0.416667 0.760000
0.500000 0.760000
0.583333 0.760000
0.666667 0.760000
0.750000 1.000000
0.833333 1.000000
0.916667 1.000000
0.888354 1.000000
0.755983 1.000000
0.555021 1.000000
0.339316 1.000000
0.166667 1.000000
0.083333 1.000000
0.111645 1.000000
0.244017 1.000000
0.666667 1.000000
0.750000 1.000000
0.833333 1.000000
0.916667 1.000000
0.888354 1.000000
0.755983 1.000000
0.555021 1.000000
0.339316 1.000000
0.166667 1.000000
0.083333 1.000000
0.111645 1.000000
0.244017 1.000000
0.666667 1.000000
0.833333 0.140600
0.916667 0.140600
-0.083333 0.140600
0.000000 0.140600
0.083333 0.140600
0.166667 0.140600
0.250000 0.140600
0.333333 0.140600
0.416667 0.140600
0.500000 0.140600
0.583333 0.140600
0.666667 0.140600
0.750000 0.140600
0.750000 0.787600
0.833333 0.787600
0.916667 0.787600
-0.083333 0.787600
0.000000 0.787600
0.083333 0.787600
0.166667 0.787600
0.250000 0.787600
0.333333 0.787600
0.416667 0.787600
0.500000 0.787600
0.583333 0.787600
0.666667 0.787600
</float_array>
          <technique_common>
            <accessor source="#SM_IceCream_01_A_1-UV0-array" count="106" stride="2">
              <param name="S" type="float"/>
              <param name="T" type="float"/>
            </accessor>
          </technique_common>
        </source>
        <source id="SM_IceCream_01_A_1-VERTEX_COLOR0">
          <float_array id="SM_IceCream_01_A_1-VERTEX_COLOR0-array" count="1248">
0.050980 0.019608 0.000000 1.000000
0.050980 0.019608 0.000000 1.000000
0.050980 0.019608 0.000000 1.000000
0.050980 0.019608 0.000000 1.000000
0.050980 0.019608 0.000000 1.000000
0.050980 0.019608 0.000000 1.000000
0.050980 0.019608 0.000000 1.000000
0.050980 0.019608 0.000000 1.000000
0.050980 0.019608 0.000000 1.000000
0.050980 0.019608 0.000000 1.000000
0.050980 0.019608 0.000000 1.000000
0.050980 0.019608 0.000000 1.000000
0.050980 0.019608 0.000000 1.000000
0.050980 0.019608 0.000000 1.000000
0.050980 0.019608 0.000000 1.000000
0.050980 0.019608 0.000000 1.000000
0.050980 0.019608 0.000000 1.000000
0.050980 0.019608 0.000000 1.000000
0.050980 0.019608 0.000000 1.000000
0.050980 0.019608 0.000000 1.000000
0.050980 0.019608 0.000000 1.000000
0.050980 0.019608 0.000000 1.000000
0.050980 0.019608 0.000000 1.000000
0.050980 0.019608 0.000000 1.000000
0.050980 0.019608 0.000000 1.000000
0.050980 0.019608 0.000000 1.000000
0.050980 0.019608 0.000000 1.000000
0.050980 0.019608 0.000000 1.000000
0.050980 0.019608 0.000000 1.000000
0.050980 0.019608 0.000000 1.000000
0.050980 0.019608 0.000000 1.000000
0.050980 0.019608 0.000000 1.000000
0.050980 0.019608 0.000000 1.000000
0.050980 0.019608 0.000000 1.000000
0.050980 0.019608 0.000000 1.000000
0.050980 0.019608 0.000000 1.000000
0.050980 0.019608 0.000000 1.000000
0.050980 0.019608 0.000000 1.000000
0.050980 0.019608 0.000000 1.000000
0.050980 0.019608 0.000000 1.000000
0.050980 0.019608 0.000000 1.000000
0.050980 0.019608 0.000000 1.000000
0.050980 0.019608 0.000000 1.000000
0.050980 0.019608 0.000000 1.000000
0.050980 0.019608 0.000000 1.000000
0.050980 0.019608 0.000000 1.000000
0.050980 0.019608 0.000000 1.000000
0.050980 0.019608 0.000000 1.000000
0.050980 0.019608 0.000000 1.000000
0.050980 0.019608 0.000000 1.000000
0.050980 0.019608 0.000000 1.000000
0.050980 0.019608 0.000000 1.000000
0.050980 0.019608 0.000000 1.000000
0.050980 0.019608 0.000000 1.000000
0.050980 0.019608 0.000000 1.000000
0.050980 0.019608 0.000000 1.000000
0.050980 0.019608 0.000000 1.000000
0.050980 0.019608 0.000000 1.000000
0.050980 0.019608 0.000000 1.000000
0.050980 0.019608 0.000000 1.000000
1.000000 0.152941 0.219608 1.000000
1.000000 0.152941 0.219608 1.000000
1.000000 0.152941 0.219608 1.000000
1.000000 0.152941 0.219608 1.000000
1.000000 0.152941 0.219608 1.000000
1.000000 0.152941 0.219608 1.000000
1.000000 0.152941 0.219608 1.000000
1.000000 0.152941 0.219608 1.000000
1.000000 0.152941 0.219608 1.000000
1.000000 0.152941 0.219608 1.000000
1.000000 0.152941 0.219608 1.000000
1.000000 0.152941 0.219608 1.000000
0.050980 0.019608 0.000000 1.000000
0.050980 0.019608 0.000000 1.000000
0.050980 0.019608 0.000000 1.000000
0.050980 0.019608 0.000000 1.000000
0.050980 0.019608 0.000000 1.000000
0.050980 0.019608 0.000000 1.000000
0.050980 0.019608 0.000000 1.000000
0.050980 0.019608 0.000000 1.000000
0.050980 0.019608 0.000000 1.000000
0.050980 0.019608 0.000000 1.000000
0.050980 0.019608 0.000000 1.000000
0.050980 0.019608 0.000000 1.000000
0.050980 0.019608 0.000000 1.000000
0.050980 0.019608 0.000000 1.000000
0.050980 0.019608 0.000000 1.000000
0.050980 0.019608 0.000000 1.000000
0.050980 0.019608 0.000000 1.000000
0.050980 0.019608 0.000000 1.000000
0.050980 0.019608 0.000000 1.000000
0.050980 0.019608 0.000000 1.000000
0.050980 0.019608 0.000000 1.000000
0.050980 0.019608 0.000000 1.000000
0.050980 0.019608 0.000000 1.000000
0.050980 0.019608 0.000000 1.000000
0.050980 0.019608 0.000000 1.000000
0.050980 0.019608 0.000000 1.000000
0.050980 0.019608 0.000000 1.000000
0.050980 0.019608 0.000000 1.000000
0.050980 0.019608 0.000000 1.000000
0.050980 0.019608 0.000000 1.000000
0.050980 0.019608 0.000000 1.000000
0.050980 0.019608 0.000000 1.000000
0.050980 0.019608 0.000000 1.000000
0.050980 0.019608 0.000000 1.000000
0.050980 0.019608 0.000000 1.000000
0.050980 0.019608 0.000000 1.000000
0.050980 0.019608 0.000000 1.000000
0.050980 0.019608 0.000000 1.000000
0.050980 0.019608 0.000000 1.000000
0.050980 0.019608 0.000000 1.000000
0.050980 0.019608 0.000000 1.000000
0.050980 0.019608 0.000000 1.000000
0.050980 0.019608 0.000000 1.000000
0.050980 0.019608 0.000000 1.000000
0.050980 0.019608 0.000000 1.000000
0.050980 0.019608 0.000000 1.000000
0.050980 0.019608 0.000000 1.000000
0.050980 0.019608 0.000000 1.000000
1.000000 0.262745 0.313726 1.000000
1.000000 0.262745 0.313726 1.000000
1.000000 0.376471 0.419608 1.000000
1.000000 0.376471 0.419608 1.000000
1.000000 0.262745 0.313726 1.000000
1.000000 0.262745 0.313726 1.000000
1.000000 0.376471 0.419608 1.000000
1.000000 0.376471 0.419608 1.000000
1.000000 0.262745 0.313726 1.000000
1.000000 0.262745 0.313726 1.000000
1.000000 0.376471 0.419608 1.000000
1.000000 0.376471 0.419608 1.000000
1.000000 0.788235 0.572549 1.000000
1.000000 0.788235 0.572549 1.000000
1.000000 0.788235 0.572549 1.000000
1.000000 0.788235 0.572549 1.000000
1.000000 0.788235 0.572549 1.000000
1.000000 0.788235 0.572549 1.000000
1.000000 0.788235 0.572549 1.000000
1.000000 0.788235 0.572549 1.000000
1.000000 0.788235 0.572549 1.000000
1.000000 0.788235 0.572549 1.000000
1.000000 0.788235 0.572549 1.000000
1.000000 0.788235 0.572549 1.000000
1.000000 0.262745 0.313726 1.000000
1.000000 0.262745 0.313726 1.000000
1.000000 0.376471 0.419608 1.000000
1.000000 0.376471 0.419608 1.000000
1.000000 0.262745 0.313726 1.000000
1.000000 0.262745 0.313726 1.000000
1.000000 0.376471 0.419608 1.000000
1.000000 0.376471 0.419608 1.000000
1.000000 0.262745 0.313726 1.000000
1.000000 0.262745 0.313726 1.000000
1.000000 0.376471 0.419608 1.000000
1.000000 0.376471 0.419608 1.000000
1.000000 0.788235 0.572549 1.000000
1.000000 0.788235 0.572549 1.000000
1.000000 0.788235 0.572549 1.000000
1.000000 0.788235 0.572549 1.000000
1.000000 0.788235 0.572549 1.000000
1.000000 0.788235 0.572549 1.000000
1.000000 0.788235 0.572549 1.000000
1.000000 0.788235 0.572549 1.000000
1.000000 0.788235 0.572549 1.000000
1.000000 0.788235 0.572549 1.000000
1.000000 0.788235 0.572549 1.000000
1.000000 0.788235 0.572549 1.000000
1.000000 0.376471 0.419608 1.000000
1.000000 0.376471 0.419608 1.000000
1.000000 0.376471 0.419608 1.000000
1.000000 0.376471 0.419608 1.000000
1.000000 0.376471 0.419608 1.000000
1.000000 0.376471 0.419608 1.000000
1.000000 0.376471 0.419608 1.000000
1.000000 0.376471 0.419608 1.000000
1.000000 0.376471 0.419608 1.000000
1.000000 0.376471 0.419608 1.000000
1.000000 0.376471 0.419608 1.000000
1.000000 0.376471 0.419608 1.000000
1.000000 0.823529 0.650980 1.000000
1.000000 0.823529 0.650980 1.000000
1.000000 0.823529 0.650980 1.000000
1.000000 0.823529 0.650980 1.000000
1.000000 0.823529 0.650980 1.000000
1.000000 0.823529 0.650980 1.000000
1.000000 0.823529 0.650980 1.000000
1.000000 0.823529 0.650980 1.000000
1.000000 0.823529 0.650980 1.000000
1.000000 0.823529 0.650980 1.000000
1.000000 0.823529 0.650980 1.000000
1.000000 0.823529 0.650980 1.000000
1.000000 0.376471 0.419608 1.000000
1.000000 0.376471 0.419608 1.000000
1.000000 0.376471 0.419608 1.000000
1.000000 0.376471 0.419608 1.000000
1.000000 0.376471 0.419608 1.000000
1.000000 0.376471 0.419608 1.000000
1.000000 0.376471 0.419608 1.000000
1.000000 0.376471 0.419608 1.000000
1.000000 0.376471 0.419608 1.000000
1.000000 0.376471 0.419608 1.000000
1.000000 0.376471 0.419608 1.000000
1.000000 0.376471 0.419608 1.000000
1.000000 0.823529 0.650980 1.000000
1.000000 0.823529 0.650980 1.000000
1.000000 0.823529 0.650980 1.000000
1.000000 0.823529 0.650980 1.000000
1.000000 0.823529 0.650980 1.000000
1.000000 0.823529 0.650980 1.000000
1.000000 0.823529 0.650980 1.000000
1.000000 0.823529 0.650980 1.000000
1.000000 0.823529 0.650980 1.000000
1.000000 0.823529 0.650980 1.000000
1.000000 0.823529 0.650980 1.000000
1.000000 0.823529 0.650980 1.000000
1.000000 0.631373 0.239216 1.000000
1.000000 0.631373 0.239216 1.000000
1.000000 0.631373 0.239216 1.000000
1.000000 0.631373 0.239216 1.000000
1.000000 0.631373 0.239216 1.000000
1.000000 0.631373 0.239216 1.000000
1.000000 0.631373 0.239216 1.000000
1.000000 0.631373 0.239216 1.000000
1.000000 0.631373 0.239216 1.000000
1.000000 0.631373 0.239216 1.000000
1.000000 0.631373 0.239216 1.000000
1.000000 0.631373 0.239216 1.000000
1.000000 0.631373 0.239216 1.000000
1.000000 0.631373 0.239216 1.000000
1.000000 0.631373 0.239216 1.000000
1.000000 0.631373 0.239216 1.000000
1.000000 0.631373 0.239216 1.000000
1.000000 0.631373 0.239216 1.000000
1.000000 0.631373 0.239216 1.000000
1.000000 0.631373 0.239216 1.000000
1.000000 0.631373 0.239216 1.000000
1.000000 0.631373 0.239216 1.000000
1.000000 0.631373 0.239216 1.000000
1.000000 0.631373 0.239216 1.000000
1.000000 0.631373 0.239216 1.000000
1.000000 0.631373 0.239216 1.000000
1.000000 0.631373 0.239216 1.000000
1.000000 0.631373 0.239216 1.000000
1.000000 0.631373 0.239216 1.000000
1.000000 0.631373 0.239216 1.000000
1.000000 0.631373 0.239216 1.000000
1.000000 0.631373 0.239216 1.000000
1.000000 0.631373 0.239216 1.000000
1.000000 0.631373 0.239216 1.000000
1.000000 0.631373 0.239216 1.000000
1.000000 0.631373 0.239216 1.000000
1.000000 0.631373 0.239216 1.000000
1.000000 0.631373 0.239216 1.000000
1.000000 0.631373 0.239216 1.000000
1.000000 0.631373 0.239216 1.000000
1.000000 0.631373 0.239216 1.000000
1.000000 0.631373 0.239216 1.000000
1.000000 0.631373 0.239216 1.000000
1.000000 0.631373 0.239216 1.000000
1.000000 0.631373 0.239216 1.000000
1.000000 0.631373 0.239216 1.000000
1.000000 0.631373 0.239216 1.000000
1.000000 0.631373 0.239216 1.000000
1.000000 0.262745 0.313726 1.000000
1.000000 0.262745 0.313726 1.000000
1.000000 0.262745 0.313726 1.000000
1.000000 0.262745 0.313726 1.000000
1.000000 0.262745 0.313726 1.000000
1.000000 0.262745 0.313726 1.000000
1.000000 0.262745 0.313726 1.000000
1.000000 0.262745 0.313726 1.000000
1.000000 0.262745 0.313726 1.000000
1.000000 0.262745 0.313726 1.000000
1.000000 0.262745 0.313726 1.000000
1.000000 0.262745 0.313726 1.000000
1.000000 0.788235 0.572549 1.000000
1.000000 0.788235 0.572549 1.000000
1.000000 0.788235 0.572549 1.000000
1.000000 0.788235 0.572549 1.000000
1.000000 0.788235 0.572549 1.000000
1.000000 0.788235 0.572549 1.000000
1.000000 0.788235 0.572549 1.000000
1.000000 0.788235 0.572549 1.000000
1.000000 0.788235 0.572549 1.000000
1.000000 0.788235 0.572549 1.000000
1.000000 0.788235 0.572549 1.000000
1.000000 0.788235 0.572549 1.000000
1.000000 0.262745 0.313726 1.000000
1.000000 0.262745 0.313726 1.000000
1.000000 0.262745 0.313726 1.000000
1.000000 0.262745 0.313726 1.000000
1.000000 0.262745 0.313726 1.000000
1.000000 0.262745 0.313726 1.000000
1.000000 0.262745 0.313726 1.000000
1.000000 0.262745 0.313726 1.000000
1.000000 0.262745 0.313726 1.000000
1.000000 0.262745 0.313726 1.000000
1.000000 0.262745 0.313726 1.000000
1.000000 0.262745 0.313726 1.000000
1.000000 0.788235 0.572549 1.000000
1.000000 0.788235 0.572549 1.000000
1.000000 0.788235 0.572549 1.000000
1.000000 0.788235 0.572549 1.000000
1.000000 0.788235 0.572549 1.000000
1.000000 0.788235 0.572549 1.000000
1.000000 0.788235 0.572549 1.000000
1.000000 0.788235 0.572549 1.000000
1.000000 0.788235 0.572549 1.000000
1.000000 0.788235 0.572549 1.000000
1.000000 0.788235 0.572549 1.000000
1.000000 0.788235 0.572549 1.000000
</float_array>
          <technique_common>
            <accessor source="#SM_IceCream_01_A_1-VERTEX_COLOR0-array" count="312" stride="4">
              <param name="R" type="double"/>
              <param name="G" type="double"/>
              <param name="B" type="double"/>
              <param name="A" type="double"/>
            </accessor>
          </technique_common>
        </source>
        <vertices id="SM_IceCream_01_A_1-VERTEX">
          <input semantic="POSITION" source="#SM_IceCream_01_A_1-POSITION"/>
        </vertices>
        <triangles count="164">
          <input semantic="VERTEX" offset="0" source="#SM_IceCream_01_A_1-VERTEX"/>
          <input semantic="NORMAL" offset="1" source="#SM_IceCream_01_A_1-Normal0"/>
          <input semantic="TEXCOORD" offset="2" set="0" source="#SM_IceCream_01_A_1-UV0"/>
          <input semantic="COLOR" offset="3" set="0" source="#SM_IceCream_01_A_1-VERTEX_COLOR0"/>
          <p> 10 0 33 1 9 1 32 2 8 2 31 3 8 3 31 3 7 4 30 4 6 5 29 5 6 6 29 5 5 7 28 6 4 8 27 7 8 9 31 3 6 10 29 5 4 11 27 7 4 12 27 7 3 13 26 8 2 14 2 9 2 15 2 9 1 16 1 10 0 17 0 11 4 18 27 7 2 19 2 9 0 20 0 11 8 21 31 3 4 22 27 7 0 23 0 11 10 24 33 1 8 25 31 3 0 26 0 11 11 27 34 0 10 28 33 1 0 29 0 11 1 30 1 13 60 31 80 14 71 32 92 15 71 33 92 15 0 34 0 12 1 35 1 13 2 36 2 17 61 37 81 18 60 38 80 19 60 39 80 19 1 40 1 16 2 41 2 17 3 42 3 21 62 43 83 22 61 44 82 23 61 45 82 23 2 46 24 20 3 47 3 21 4 48 4 25 63 49 84 26 62 50 83 27 62 51 83 27 3 52 3 24 4 53 4 25 5 54 5 29 64 55 85 30 63 56 84 31 63 57 84 31 4 58 4 28 5 59 5 29 6 60 6 33 65 61 86 34 64 62 85 35 64 63 85 35 5 64 5 32 6 65 6 33 7 66 7 37 66 67 87 38 65 68 86 39 65 69 86 39 6 70 6 36 7 71 7 37 8 72 8 41 67 73 88 42 66 74 87 43 66 75 87 43 7 76 7 40 8 77 8 41 9 78 9 45 68 79 89 46 67 80 88 47 67 81 88 47 8 82 8 44 9 83 9 45 10 84 10 49 69 85 90 50 68 86 89 51 68 87 89 51 9 88 9 48 10 89 10 49 11 90 11 53 70 91 91 54 69 92 90 55 69 93 90 55 10 94 10 52 11 95 11 53 0 96 0 57 71 97 92 58 70 98 91 59 70 99 91 59 11 100 11 56 0 101 0 57 36 102 56 61 37 103 57 62 38 104 58 63 38 105 58 63 39 106 59 64 40 107 60 65 40 108 60 65 41 109 61 66 42 110 62 67 38 111 58 63 40 112 60 65 42 113 62 67 42 114 62 67 43 115 63 68 44 116 64 69 44 117 64 69 45 118 65 70 46 119 66 71 42 120 62 67 44 121 64 69 46 122 66 71 38 123 58 63 42 124 62 67 46 125 66 71 36 126 56 61 38 127 58 63 46 128 66 71 47 129 67 60 36 130 56 61 46 131 66 71 73 132 94 73 72 133 93 74 24 134 43 75 24 135 43 75 25 136 44 72 73 137 94 73 74 138 95 77 73 139 94 78 25 140 44 79 25 141 44 79 26 142 45 76 74 143 95 77 75 144 97 81 74 145 96 82 26 146 46 83 26 147 46 83 27 148 47 80 75 149 97 81 76 150 98 85 75 151 97 86 27 152 47 87 27 153 47 87 28 154 48 84 76 155 98 85 77 156 99 89 76 157 98 90 28 158 48 91 28 159 48 91 29 160 49 88 77 161 99 89 78 162 100 93 77 163 99 94 29 164 49 95 29 165 49 95 30 166 50 92 78 167 100 93 79 168 101 97 78 169 100 98 30 170 50 99 30 171 50 99 31 172 51 96 79 173 101 97 80 174 102 101 79 175 101 102 31 176 51 103 31 177 51 103 32 178 52 100 80 179 102 101 81 180 103 105 80 181 102 106 32 182 52 107 32 183 52 107 33 184 53 104 81 185 103 105 82 186 104 109 81 187 103 110 33 188 53 111 33 189 53 111 34 190 54 108 82 191 104 109 83 192 105 113 82 193 104 114 34 194 54 115 34 195 54 115 35 196 55 112 83 197 105 113 72 198 93 117 83 199 105 118 35 200 55 119 35 201 55 119 24 202 43 116 72 203 93 117 13 204 13 121 49 205 69 122 48 206 68 123 48 207 68 123 12 208 12 120 13 209 13 121 14 210 14 125 50 211 70 126 49 212 69 127 49 213 69 127 13 214 13 124 14 215 14 125 15 216 35 129 51 217 71 130 50 218 70 131 50 219 70 131 14 220 14 128 15 221 35 129 16 222 36 133 52 223 72 134 51 224 71 135 51 225 71 135 15 226 35 132 16 227 36 133 17 228 37 137 53 229 73 138 52 230 72 139 52 231 72 139 16 232 36 136 17 233 37 137 18 234 38 141 54 235 74 142 53 236 73 143 53 237 73 143 17 238 37 140 18 239 38 141 19 240 39 145 55 241 75 146 54 242 74 147 54 243 74 147 18 244 38 144 19 245 39 145 20 246 40 149 56 247 76 150 55 248 75 151 55 249 75 151 19 250 39 148 20 251 40 149 21 252 41 153 57 253 77 154 56 254 76 155 56 255 76 155 20 256 40 152 21 257 41 153 22 258 42 157 58 259 78 158 57 260 77 159 57 261 77 159 21 262 41 156 22 263 42 157 23 264 23 161 59 265 79 162 58 266 78 163 58 267 78 163 22 268 42 160 23 269 23 161 12 270 12 165 48 271 68 166 59 272 79 167 59 273 79 167 23 274 23 164 12 275 12 165 37 276 57 169 36 277 56 170 48 278 68 171 48 279 68 171 49 280 69 168 37 281 57 169 38 282 58 173 37 283 57 174 49 284 69 175 49 285 69 175 50 286 70 172 38 287 58 173 39 288 59 177 38 289 58 178 50 290 70 179 50 291 70 179 51 292 71 176 39 293 59 177 40 294 60 181 39 295 59 182 51 296 71 183 51 297 71 183 52 298 72 180 40 299 60 181 41 300 61 185 40 301 60 186 52 302 72 187 52 303 72 187 53 304 73 184 41 305 61 185 42 306 62 189 41 307 61 190 53 308 73 191 53 309 73 191 54 310 74 188 42 311 62 189 43 312 63 193 42 313 62 194 54 314 74 195 54 315 74 195 55 316 75 192 43 317 63 193 44 318 64 197 43 319 63 198 55 320 75 199 55 321 75 199 56 322 76 196 44 323 64 197 45 324 65 201 44 325 64 202 56 326 76 203 56 327 76 203 57 328 77 200 45 329 65 201 46 330 66 205 45 331 65 206 57 332 77 207 57 333 77 207 58 334 78 204 46 335 66 205 47 336 67 209 46 337 66 210 58 338 78 211 58 339 78 211 59 340 79 208 47 341 67 209 36 342 56 213 47 343 67 214 59 344 79 215 59 345 79 215 48 346 68 212 36 347 56 213 25 348 44 217 24 349 43 218 71 350 92 219 71 351 92 219 60 352 80 216 25 353 44 217 26 354 45 221 25 355 44 222 60 356 80 223 60 357 80 223 61 358 81 220 26 359 45 221 27 360 47 225 26 361 46 226 61 362 82 227 61 363 82 227 62 364 83 224 27 365 47 225 28 366 48 229 27 367 47 230 62 368 83 231 62 369 83 231 63 370 84 228 28 371 48 229 29 372 49 233 28 373 48 234 63 374 84 235 63 375 84 235 64 376 85 232 29 377 49 233 30 378 50 237 29 379 49 238 64 380 85 239 64 381 85 239 65 382 86 236 30 383 50 237 31 384 51 241 30 385 50 242 65 386 86 243 65 387 86 243 66 388 87 240 31 389 51 241 32 390 52 245 31 391 51 246 66 392 87 247 66 393 87 247 67 394 88 244 32 395 52 245 33 396 53 249 32 397 52 250 67 398 88 251 67 399 88 251 68 400 89 248 33 401 53 249 34 402 54 253 33 403 53 254 68 404 89 255 68 405 89 255 69 406 90 252 34 407 54 253 35 408 55 257 34 409 54 258 69 410 90 259 69 411 90 259 70 412 91 256 35 413 55 257 24 414 43 261 35 415 55 262 70 416 91 263 70 417 91 263 71 418 92 260 24 419 43 261 13 420 13 265 12 421 12 266 72 422 93 267 72 423 93 267 73 424 94 264 13 425 13 265 14 426 14 269 13 427 13 270 73 428 94 271 73 429 94 271 74 430 95 268 14 431 14 269 15 432 15 273 14 433 25 274 74 434 96 275 74 435 96 275 75 436 97 272 15 437 15 273 16 438 16 277 15 439 15 278 75 440 97 279 75 441 97 279 76 442 98 276 16 443 16 277 17 444 17 281 16 445 16 282 76 446 98 283 76 447 98 283 77 448 99 280 17 449 17 281 18 450 18 285 17 451 17 286 77 452 99 287 77 453 99 287 78 454 100 284 18 455 18 285 19 456 19 289 18 457 18 290 78 458 100 291 78 459 100 291 79 460 101 288 19 461 19 289 20 462 20 293 19 463 19 294 79 464 101 295 79 465 101 295 80 466 102 292 20 467 20 293 21 468 21 297 20 469 20 298 80 470 102 299 80 471 102 299 81 472 103 296 21 473 21 297 22 474 22 301 21 475 21 302 81 476 103 303 81 477 103 303 82 478 104 300 22 479 22 301 23 480 23 305 22 481 22 306 82 482 104 307 82 483 104 307 83 484 105 304 23 485 23 305 12 486 12 309 23 487 23 310 83 488 105 311 83 489 105 311 72 490 93 308 12 491 12 309</p>
        </triangles>
      </mesh>
    </geometry>
  </library_geometries>
  <library_visual_scenes>
    <visual_scene id="SM_IceCream_01_A_1" name="SM_IceCream_01_A_1">
      <node name="SM_IceCream_01_A_1" id="SM_IceCream_01_A_1" sid="SM_IceCream_01_A_1">
        <matrix sid="matrix">1.920882 0.000000 0.000000 0.000000 0.000000 1.920882 0.000000 0.000000 0.000000 0.000000 1.920882 0.000000 0.000000 0.000000 0.000000 1.000000</matrix>
        <instance_geometry url="#SM_IceCream_01_A_1-lib"/>
        <extra>
          <technique profile="FCOLLADA">
            <visibility>1.000000</visibility>
          </technique>
        </extra>
      </node>
      <extra>
        <technique profile="MAX3D">
          <frame_rate>30.000000</frame_rate>
        </technique>
        <technique profile="FCOLLADA">
          <start_time>0.000000</start_time>
          <end_time>3.333333</end_time>
        </technique>
      </extra>
    </visual_scene>
  </library_visual_scenes>
  <scene>
    <instance_visual_scene url="#SM_IceCream_01_A_1"/>
  </scene>
</COLLADA>
