<?xml version="1.0" encoding="utf-8"?>
<COLLADA xmlns="http://www.collada.org/2005/11/COLLADASchema" version="1.4.1">
  <asset>
    <contributor>
      <author/>
      <authoring_tool>FBX COLLADA exporter</authoring_tool>
      <comments/>
    </contributor>
    <created>2020-04-27T16:32:21Z</created>
    <keywords/>
    <modified>2020-04-27T16:32:21Z</modified>
    <revision/>
    <subject/>
    <title/>
    <unit meter="0.010000" name="centimeter"/>
    <up_axis>Z_UP</up_axis>
  </asset>
  <library_geometries>
    <geometry id="SM_Mask_01_A_1-lib" name="SM_Mask_01_A_1Mesh">
      <mesh>
        <source id="SM_Mask_01_A_1-POSITION">
          <float_array id="SM_Mask_01_A_1-POSITION-array" count="510">
-1.843525 -1.243749 -2.403251
1.843525 -1.243748 -2.403251
-1.577202 -0.995165 -2.102095
1.577202 -0.995165 -2.102095
-1.795200 -1.208002 1.469680
1.795201 -1.208002 1.469680
-1.535859 -0.939313 1.202080
1.535859 -0.939314 1.202080
0.000000 -0.970141 -2.652575
0.000000 -1.166655 -3.056837
0.000000 -1.166655 3.056838
-0.000000 -0.882960 2.559952
-0.842063 -0.991103 -2.527352
0.984253 -1.215462 -2.899972
-0.984252 -1.180814 2.415514
0.842063 -0.908869 2.005312
0.842063 -0.991103 -2.527352
-0.984252 -1.215463 -2.899972
0.984252 -1.180813 2.415515
-0.842063 -0.908869 2.005311
2.314295 -1.203332 -1.483077
2.501399 -1.166655 -0.498825
2.314295 -1.192063 0.485427
-2.314295 -1.192063 0.485427
-2.501399 -1.166655 -0.498825
-2.314295 -1.203332 -1.483077
1.979963 -0.966980 -1.324109
2.140038 -0.936959 -0.482047
1.979963 -0.940896 0.360017
-1.979963 -0.966980 -1.324109
-2.140037 -0.936959 -0.482047
-1.979963 -0.940896 0.360017
0.000000 -3.189816 -1.877070
0.000001 -3.745822 -0.186552
0.000000 -3.351564 1.668851
0.000001 -2.623610 -1.877070
0.000000 -3.109316 -0.062105
0.000000 -2.698660 1.668850
-1.074277 -2.893885 -1.780797
-1.143529 -3.084757 -0.252598
-1.074277 -2.741226 1.102106
1.074279 -2.331561 -1.780797
1.074278 -2.485788 -0.252598
1.074278 -2.201480 1.102107
1.074279 -2.893885 -1.780796
1.143529 -3.084757 -0.252599
1.074277 -2.741227 1.102106
-1.074277 -2.331561 -1.780797
-1.074277 -2.485788 -0.252599
-1.074277 -2.201481 1.102105
0.850939 -2.151078 -2.496485
1.593609 -2.159929 -2.086856
1.940716 -2.087510 -1.325931
2.082355 -2.030723 -0.504169
1.993486 -2.085815 0.333642
1.563635 -2.123031 1.256412
0.740499 -2.076624 2.139966
0.000000 -2.107275 2.720401
-0.740499 -2.076623 2.139967
-1.563634 -2.123031 1.256409
-1.993486 -2.085815 0.333641
-2.082354 -2.030723 -0.504168
-1.940715 -2.087510 -1.325932
-1.593608 -2.159929 -2.086856
-0.850939 -2.151078 -2.496484
-0.000000 -2.127650 -2.661762
-0.560328 -3.435043 -0.245320
-0.487886 -3.342116 -1.221729
0.000000 -3.519783 -1.253935
0.487886 -3.342116 -1.221729
0.560328 -3.435043 -0.245321
0.561520 -3.367275 0.702768
0.000000 -3.629834 1.018466
-0.561519 -3.367275 0.702767
-1.871000 -2.271436 -0.447534
-1.789934 -2.320066 -0.180749
-1.573391 -2.530480 -0.025113
-1.129747 -3.021988 0.017008
-0.560701 -3.419596 0.051609
-0.000000 -3.726558 0.081758
0.560704 -3.419438 0.054112
1.129494 -3.020797 0.021947
1.386616 -2.753200 0.000158
1.607664 -2.529159 -0.146405
1.699326 -2.466613 -0.401531
1.616340 -2.534129 -0.575145
1.395852 -2.778407 -0.560143
1.131635 -3.069387 -0.515050
0.543934 -3.423958 -0.466294
0.000000 -3.709371 -0.420278
-0.542669 -3.422896 -0.483344
-1.130031 -3.066879 -0.550442
-1.551027 -2.602577 -0.634604
-1.760273 -2.375387 -0.597884
-1.110262 -2.926765 0.398156
-0.932630 -3.044244 0.592633
-0.561411 -3.375157 0.616607
0.000000 -3.673022 0.632318
0.561365 -3.378504 0.579346
0.928951 -3.057343 0.531867
1.112558 -2.938288 0.353244
0.960626 -3.082465 0.238934
0.560996 -3.403037 0.286432
0.000000 -3.703512 0.337635
-0.561024 -3.401308 0.308656
-0.929220 -3.113605 0.280465
-1.488030 -2.689387 -1.074360
-1.386263 -2.800970 -0.924665
-1.248200 -2.928671 -0.859674
-1.116575 -3.041214 -0.847407
-0.518402 -3.396032 -0.810420
0.000000 -3.639896 -0.781295
0.517713 -3.395077 -0.819706
1.115669 -3.039173 -0.867374
1.245743 -2.898886 -0.886015
1.393626 -2.731239 -0.960660
1.500033 -2.595834 -1.098985
1.419607 -2.665900 -1.186024
1.272111 -2.820141 -1.196126
1.101659 -3.001890 -1.176573
0.494167 -3.355249 -1.137072
-0.000000 -3.560265 -1.109823
-0.494998 -3.356902 -1.125886
-1.102786 -3.005304 -1.151684
-1.272173 -2.836470 -1.166014
-1.421233 -2.714381 -1.135035
-2.263217 -1.126650 -0.418291
-2.176470 -1.132046 -0.418291
2.196135 -1.126650 -0.418291
2.109388 -1.132046 -0.418291
-2.263217 -1.126650 -0.011817
-2.176470 -1.132046 -0.011817
2.196135 -1.126650 -0.011817
2.109388 -1.132046 -0.011817
-0.033541 3.745822 -0.418291
-0.033541 3.591975 -0.418291
-0.033541 3.591975 -0.011817
-0.033541 3.745822 -0.011817
-2.030211 2.014369 -0.418291
1.894346 1.860522 -0.418291
-1.961428 1.860522 -0.011817
1.963129 2.014369 -0.011817
1.963129 2.014369 -0.418291
-1.961428 1.860522 -0.418291
1.894346 1.860522 -0.011817
-2.030211 2.014369 -0.011817
1.307732 3.139684 -0.418291
-1.328609 2.985837 -0.418291
1.261527 2.985837 -0.011817
-1.374814 3.139684 -0.011817
-1.374814 3.139684 -0.418291
1.261526 2.985837 -0.418291
-1.328609 2.985837 -0.011817
1.307732 3.139684 -0.011817
-2.427450 0.443860 -0.418291
2.272272 0.364238 -0.418291
-2.339354 0.364238 -0.011817
2.360368 0.443859 -0.011817
2.360368 0.443859 -0.418291
-2.339354 0.364238 -0.418291
2.272272 0.364238 -0.011817
-2.427450 0.443860 -0.011817
-0.893034 -1.513605 2.312397
-1.031754 -1.658467 2.082518
-0.828935 -1.749134 2.239940
0.000000 -1.764974 2.842203
0.831562 -1.739451 2.242907
1.083378 -1.619941 2.033267
0.895445 -1.504775 2.315124
-0.000000 -1.539124 2.922999
</float_array>
          <technique_common>
            <accessor source="#SM_Mask_01_A_1-POSITION-array" count="170" stride="3">
              <param name="X" type="float"/>
              <param name="Y" type="float"/>
              <param name="Z" type="float"/>
            </accessor>
          </technique_common>
        </source>
        <source id="SM_Mask_01_A_1-Normal0">
          <float_array id="SM_Mask_01_A_1-Normal0-array" count="2952">
-0.277080 0.853387 -0.441539
-0.172052 0.871553 -0.459122
-0.184654 0.872230 -0.452899
-0.184654 0.872230 -0.452899
-0.286124 0.847703 -0.446691
-0.277080 0.853387 -0.441539
-0.368644 0.828921 0.420703
-0.404666 0.818845 0.407110
-0.459290 0.807767 0.369549
-0.459290 0.807767 0.369549
-0.457480 0.809051 0.368982
-0.368644 0.828921 0.420703
0.536425 0.843895 -0.009477
0.540320 0.841360 -0.012967
0.495878 0.842824 -0.209171
0.495878 0.842824 -0.209171
0.501925 0.841822 -0.198509
0.536425 0.843895 -0.009477
-0.527613 0.704408 0.474798
-0.655092 0.755504 -0.008227
-0.836271 0.548050 -0.017067
-0.836271 0.548050 -0.017067
-0.844159 0.481165 0.236383
-0.527613 0.704408 0.474798
-0.536532 0.843848 -0.007389
-0.540694 0.841218 -0.001324
-0.501131 0.842511 -0.197592
-0.501131 0.842511 -0.197592
-0.497316 0.842048 -0.208880
-0.536532 0.843848 -0.007389
0.180599 0.875221 -0.448745
0.193794 0.868329 -0.456562
-0.008140 0.895843 -0.444297
-0.008140 0.895843 -0.444297
-0.010753 0.895932 -0.444061
0.180599 0.875221 -0.448745
0.376073 0.824698 0.422424
0.404567 0.821030 0.402784
-0.007852 0.870261 0.492528
-0.007852 0.870261 0.492528
-0.002902 0.870667 0.491864
0.376073 0.824698 0.422424
0.443326 -0.890334 -0.103763
0.000434 -0.986750 -0.162249
0.000045 -0.980283 -0.197596
0.000045 -0.980283 -0.197596
0.401197 -0.905599 -0.137590
0.443326 -0.890334 -0.103763
0.655092 0.755504 -0.008227
-0.000000 0.999999 -0.001298
-0.000000 0.816107 0.577901
-0.000000 0.816107 0.577901
0.527613 0.704408 0.474798
0.655092 0.755504 -0.008227
-0.010753 0.895932 -0.444061
-0.008140 0.895843 -0.444297
-0.184654 0.872230 -0.452899
-0.184654 0.872230 -0.452899
-0.172052 0.871553 -0.459122
-0.010753 0.895932 -0.444061
-0.002902 0.870667 0.491864
-0.007852 0.870261 0.492528
-0.404666 0.818845 0.407110
-0.404666 0.818845 0.407110
-0.368644 0.828921 0.420703
-0.002902 0.870667 0.491864
0.000045 -0.980283 -0.197596
0.000434 -0.986750 -0.162249
-0.442619 -0.890584 -0.104634
-0.442619 -0.890584 -0.104634
-0.401408 -0.905590 -0.137034
0.000045 -0.980283 -0.197596
-0.000000 0.816107 0.577901
-0.000000 0.999999 -0.001298
-0.655092 0.755504 -0.008227
-0.655092 0.755504 -0.008227
-0.527613 0.704408 0.474798
-0.000000 0.816107 0.577901
0.277079 0.853388 -0.441538
0.286124 0.847703 -0.446690
0.193794 0.868329 -0.456562
0.193794 0.868329 -0.456562
0.180599 0.875221 -0.448745
0.277079 0.853388 -0.441538
0.460428 0.807720 0.368230
0.459817 0.808850 0.366511
0.404567 0.821030 0.402784
0.404567 0.821030 0.402784
0.376073 0.824698 0.422424
0.460428 0.807720 0.368230
0.836271 0.548050 -0.017067
0.655092 0.755504 -0.008227
0.527613 0.704408 0.474798
0.527613 0.704408 0.474798
0.844158 0.481165 0.236383
0.836271 0.548050 -0.017067
-0.655287 -0.627766 0.420130
-0.567638 -0.563204 0.600489
-0.655818 -0.624870 0.423603
-0.655818 -0.624870 0.423603
-0.672804 -0.728507 0.128890
-0.655287 -0.627766 0.420130
-0.602270 -0.630389 -0.489776
-0.256397 -0.601349 -0.756730
-0.516964 -0.678871 -0.521424
-0.516964 -0.678871 -0.521424
-0.750491 -0.636324 -0.178481
-0.602270 -0.630389 -0.489776
0.523764 0.802451 0.285909
0.527076 0.798475 0.290910
0.541570 0.815586 0.203765
0.541570 0.815586 0.203765
0.536788 0.820760 0.195479
0.523764 0.802451 0.285909
0.536788 0.820760 0.195479
0.541570 0.815586 0.203765
0.540320 0.841360 -0.012967
0.540320 0.841360 -0.012967
0.536425 0.843895 -0.009477
0.536788 0.820760 0.195479
0.469361 0.839230 -0.274580
0.471676 0.837943 -0.274543
0.501925 0.841822 -0.198509
0.501925 0.841822 -0.198509
0.495878 0.842824 -0.209171
0.469361 0.839230 -0.274580
-0.693483 0.592572 -0.409805
-0.589452 0.365668 -0.720301
-0.782072 0.327980 -0.529899
-0.782072 0.327980 -0.529899
-0.841674 0.488045 -0.231078
-0.693483 0.592572 -0.409805
-0.655092 0.755504 -0.008227
-0.693483 0.592572 -0.409805
-0.841674 0.488045 -0.231078
-0.841674 0.488045 -0.231078
-0.836271 0.548050 -0.017067
-0.655092 0.755504 -0.008227
-0.675698 0.402732 0.617445
-0.277397 0.411889 0.867985
-0.527613 0.704408 0.474798
-0.527613 0.704408 0.474798
-0.844159 0.481165 0.236383
-0.675698 0.402732 0.617445
-0.527103 0.802059 0.280827
-0.535408 0.796521 0.280877
-0.544159 0.815713 0.196222
-0.544159 0.815713 0.196222
-0.534827 0.820823 0.200523
-0.527103 0.802059 0.280827
-0.534827 0.820823 0.200523
-0.544159 0.815713 0.196222
-0.540694 0.841218 -0.001324
-0.540694 0.841218 -0.001324
-0.536532 0.843848 -0.007389
-0.534827 0.820823 0.200523
-0.468572 0.839302 -0.275704
-0.469388 0.838429 -0.276969
-0.497316 0.842048 -0.208880
-0.497316 0.842048 -0.208880
-0.501131 0.842511 -0.197592
-0.468572 0.839302 -0.275704
0.567638 -0.563204 0.600489
0.000000 -0.645473 0.763783
0.000000 -0.683887 0.729588
0.000000 -0.683887 0.729588
0.649461 -0.628804 0.427559
0.567638 -0.563204 0.600489
0.468234 -0.879511 0.084954
0.000000 -0.993804 0.111148
0.000185 -0.994371 0.105950
0.000185 -0.994371 0.105950
0.471687 -0.878258 0.078575
0.468234 -0.879511 0.084954
0.000000 -0.627996 -0.778217
0.000000 -0.594201 -0.804316
0.256396 -0.601349 -0.756730
0.256396 -0.601349 -0.756730
0.523554 -0.678178 -0.515719
0.000000 -0.627996 -0.778217
0.589452 0.365669 -0.720301
0.000000 0.440577 -0.897715
0.000000 0.776374 -0.630273
0.000000 0.776374 -0.630273
0.693483 0.592572 -0.409805
0.589452 0.365669 -0.720301
0.693483 0.592572 -0.409805
0.000000 0.776374 -0.630273
-0.000000 0.999999 -0.001298
-0.000000 0.999999 -0.001298
0.655092 0.755504 -0.008227
0.693483 0.592572 -0.409805
-0.000000 0.816107 0.577901
0.000000 0.424632 0.905366
0.277397 0.411889 0.867985
0.277397 0.411889 0.867985
0.527613 0.704408 0.474798
-0.000000 0.816107 0.577901
0.000000 -0.683887 0.729588
0.000000 -0.645473 0.763783
-0.567638 -0.563204 0.600489
-0.567638 -0.563204 0.600489
-0.655287 -0.627766 0.420130
0.000000 -0.683887 0.729588
0.000185 -0.994371 0.105950
0.000000 -0.993804 0.111148
-0.468191 -0.879504 0.085265
-0.468191 -0.879504 0.085265
-0.471399 -0.878353 0.079234
0.000185 -0.994371 0.105950
-0.256397 -0.601349 -0.756730
0.000000 -0.594201 -0.804316
0.000000 -0.627996 -0.778217
0.000000 -0.627996 -0.778217
-0.516964 -0.678871 -0.521424
-0.256397 -0.601349 -0.756730
0.000000 0.776374 -0.630273
0.000000 0.440577 -0.897715
-0.589452 0.365668 -0.720301
-0.589452 0.365668 -0.720301
-0.693483 0.592572 -0.409805
0.000000 0.776374 -0.630273
-0.000000 0.999999 -0.001298
0.000000 0.776374 -0.630273
-0.693483 0.592572 -0.409805
-0.693483 0.592572 -0.409805
-0.655092 0.755504 -0.008227
-0.000000 0.999999 -0.001298
-0.277397 0.411889 0.867985
0.000000 0.424632 0.905366
-0.000000 0.816107 0.577901
-0.000000 0.816107 0.577901
-0.527613 0.704408 0.474798
-0.277397 0.411889 0.867985
0.655816 -0.624872 0.423603
0.567638 -0.563204 0.600489
0.649461 -0.628804 0.427559
0.649461 -0.628804 0.427559
0.712973 -0.685257 0.148639
0.655816 -0.624872 0.423603
0.523554 -0.678178 -0.515719
0.256396 -0.601349 -0.756730
0.602270 -0.630389 -0.489776
0.602270 -0.630389 -0.489776
0.731859 -0.664214 -0.152325
0.523554 -0.678178 -0.515719
0.782071 0.327981 -0.529899
0.589452 0.365669 -0.720301
0.693483 0.592572 -0.409805
0.693483 0.592572 -0.409805
0.841674 0.488045 -0.231078
0.782071 0.327981 -0.529899
0.841674 0.488045 -0.231078
0.693483 0.592572 -0.409805
0.655092 0.755504 -0.008227
0.655092 0.755504 -0.008227
0.836271 0.548050 -0.017067
0.841674 0.488045 -0.231078
0.527613 0.704408 0.474798
0.277397 0.411889 0.867985
0.675699 0.402732 0.617445
0.675699 0.402732 0.617445
0.844158 0.481165 0.236383
0.527613 0.704408 0.474798
0.449110 -0.398648 -0.799612
0.449110 -0.398648 -0.799613
0.449110 -0.398648 -0.799612
0.437220 -0.407951 -0.801508
0.437220 -0.407951 -0.801508
0.437220 -0.407951 -0.801508
0.816795 -0.416130 -0.399602
0.816795 -0.416130 -0.399602
0.816795 -0.416130 -0.399602
0.861603 -0.358961 -0.358870
0.861603 -0.358961 -0.358870
0.861603 -0.358961 -0.358870
0.889542 -0.430451 -0.153059
0.889542 -0.430451 -0.153059
0.889542 -0.430451 -0.153059
0.905212 -0.405219 -0.128020
0.905212 -0.405219 -0.128020
0.905212 -0.405219 -0.128020
0.918963 -0.357957 0.165452
0.918963 -0.357957 0.165452
0.918963 -0.357957 0.165452
0.897615 -0.435725 0.066560
0.897615 -0.435725 0.066560
0.897615 -0.435725 0.066560
0.841526 -0.315217 0.438715
0.841526 -0.315217 0.438715
0.841527 -0.315217 0.438715
0.848114 -0.368995 0.380192
0.848114 -0.368995 0.380192
0.848114 -0.368995 0.380192
0.691702 -0.377712 0.615534
0.691702 -0.377712 0.615534
0.691702 -0.377712 0.615534
0.548742 -0.378724 0.745286
0.548742 -0.378724 0.745286
0.548742 -0.378724 0.745286
0.546226 -0.282147 0.788689
0.546226 -0.282147 0.788689
0.546226 -0.282147 0.788689
-0.548751 -0.378632 0.745326
-0.548751 -0.378631 0.745326
-0.548751 -0.378631 0.745326
-0.546992 -0.281979 0.788218
-0.546992 -0.281979 0.788218
-0.546992 -0.281979 0.788218
-0.667170 -0.378874 0.641357
-0.667170 -0.378874 0.641357
-0.667170 -0.378874 0.641357
-0.824611 -0.368835 0.428926
-0.824611 -0.368835 0.428926
-0.824611 -0.368836 0.428926
-0.866425 -0.310418 0.391086
-0.866425 -0.310418 0.391086
-0.866425 -0.310418 0.391086
-0.888132 -0.431690 0.157688
-0.888132 -0.431690 0.157688
-0.888132 -0.431690 0.157688
-0.934282 -0.348298 0.076198
-0.934282 -0.348298 0.076198
-0.934282 -0.348298 0.076198
-0.899667 -0.407819 -0.155828
-0.899667 -0.407819 -0.155828
-0.899667 -0.407819 -0.155828
-0.893122 -0.432368 -0.124060
-0.893122 -0.432368 -0.124060
-0.893122 -0.432368 -0.124060
-0.833841 -0.369179 -0.410385
-0.833841 -0.369179 -0.410385
-0.833841 -0.369179 -0.410385
-0.841393 -0.416669 -0.344159
-0.841393 -0.416669 -0.344159
-0.841393 -0.416669 -0.344159
-0.447018 -0.407178 -0.796480
-0.447018 -0.407178 -0.796480
-0.447018 -0.407178 -0.796480
-0.439433 -0.397974 -0.805304
-0.439433 -0.397974 -0.805304
-0.439433 -0.397974 -0.805304
-0.127501 -0.377130 -0.917342
-0.127501 -0.377130 -0.917342
-0.127501 -0.377130 -0.917342
-0.162991 -0.410194 -0.897315
-0.162991 -0.410194 -0.897315
-0.162991 -0.410194 -0.897315
0.123954 -0.407784 -0.904626
0.123954 -0.407784 -0.904626
0.123954 -0.407784 -0.904626
0.166802 -0.374906 -0.911933
0.166802 -0.374906 -0.911933
0.166802 -0.374906 -0.911933
-0.503319 -0.858638 -0.097013
-0.503319 -0.858638 -0.097013
-0.503319 -0.858638 -0.097013
-0.506283 -0.855598 -0.107835
-0.506283 -0.855599 -0.107835
-0.506283 -0.855599 -0.107835
-0.274427 -0.849817 -0.450001
-0.274427 -0.849817 -0.450001
-0.274427 -0.849817 -0.450001
-0.341291 -0.874941 -0.343511
-0.341291 -0.874941 -0.343511
-0.341291 -0.874941 -0.343510
0.276274 -0.870216 -0.407916
0.276274 -0.870216 -0.407916
0.276274 -0.870217 -0.407916
0.332629 -0.833423 -0.441320
0.332629 -0.833424 -0.441320
0.332629 -0.833424 -0.441320
0.507036 -0.855194 -0.107507
0.507036 -0.855194 -0.107507
0.507036 -0.855194 -0.107507
0.503388 -0.858661 -0.096450
0.503388 -0.858661 -0.096450
0.503388 -0.858661 -0.096450
0.672481 -0.706565 0.220307
0.672481 -0.706565 0.220307
0.672481 -0.706565 0.220307
0.685768 -0.696466 0.211323
0.685768 -0.696466 0.211323
0.685768 -0.696466 0.211323
0.661371 -0.747048 0.067139
0.661371 -0.747048 0.067139
0.661371 -0.747048 0.067139
0.589537 -0.742624 0.317735
0.589537 -0.742624 0.317735
0.589537 -0.742624 0.317735
0.564019 -0.719936 0.404444
0.564019 -0.719936 0.404444
0.564019 -0.719936 0.404444
-0.596935 -0.717672 0.358629
-0.596935 -0.717672 0.358629
-0.596935 -0.717672 0.358629
-0.545606 -0.770482 0.329654
-0.545606 -0.770482 0.329654
-0.545606 -0.770482 0.329654
-0.750469 -0.635221 0.182459
-0.736459 -0.648136 0.193773
-0.737490 -0.643732 0.204247
-0.750469 -0.635221 0.182459
-0.737490 -0.643732 0.204247
-0.655287 -0.627766 0.420130
-0.749521 -0.661969 -0.003982
-0.750361 -0.660760 0.018814
-0.716874 -0.691027 0.092596
-0.672804 -0.728507 0.128890
-0.749521 -0.661969 -0.003982
-0.716874 -0.691027 0.092596
-0.655287 -0.627766 0.420130
-0.672804 -0.728507 0.128890
-0.716874 -0.691027 0.092596
-0.750469 -0.635221 0.182459
-0.655287 -0.627766 0.420130
-0.716874 -0.691027 0.092596
-0.750469 -0.635221 0.182459
-0.716874 -0.691027 0.092596
-0.750361 -0.660760 0.018814
-0.750469 -0.635221 0.182459
-0.750361 -0.660760 0.018814
-0.743855 -0.665589 0.060591
-0.750469 -0.635221 0.182459
-0.743855 -0.665589 0.060591
-0.736459 -0.648136 0.193773
-0.504273 -0.835002 0.220182
-0.504273 -0.835002 0.220182
-0.504273 -0.835002 0.220182
-0.573969 -0.817808 0.041824
-0.573969 -0.817808 0.041824
-0.573969 -0.817808 0.041824
-0.484241 -0.873182 0.055358
-0.475169 -0.879501 -0.026301
-0.000000 -0.999328 -0.036649
-0.000000 -0.999328 -0.036649
0.000034 -0.996921 0.078406
-0.484241 -0.873182 0.055358
-0.000000 -0.999328 -0.036649
0.475103 -0.879548 -0.025942
0.484219 -0.873206 0.055169
0.484219 -0.873206 0.055169
0.000034 -0.996921 0.078406
-0.000000 -0.999328 -0.036649
0.504259 -0.834979 0.220301
0.504259 -0.834979 0.220301
0.504259 -0.834979 0.220301
0.575017 -0.817070 0.041859
0.575017 -0.817070 0.041859
0.575017 -0.817070 0.041859
0.717715 -0.664276 0.208862
0.714817 -0.670720 0.197917
0.720181 -0.675293 0.159116
0.649461 -0.628804 0.427559
0.717715 -0.664276 0.208862
0.720181 -0.675293 0.159116
0.712973 -0.685257 0.148639
0.649461 -0.628804 0.427559
0.720181 -0.675293 0.159116
0.712973 -0.685257 0.148639
0.720181 -0.675293 0.159116
0.742033 -0.665647 0.079375
0.740621 -0.671555 -0.022242
0.712973 -0.685257 0.148639
0.742033 -0.665647 0.079375
0.749939 -0.661391 0.012376
0.740621 -0.671555 -0.022242
0.742033 -0.665647 0.079375
0.720181 -0.675293 0.159116
0.714817 -0.670720 0.197917
0.737560 -0.673156 0.053537
0.742033 -0.665647 0.079375
0.720181 -0.675293 0.159116
0.737560 -0.673156 0.053537
0.742033 -0.665647 0.079375
0.737560 -0.673156 0.053537
0.749939 -0.661391 0.012376
0.735155 -0.671996 -0.089266
0.749939 -0.661391 0.012376
0.737560 -0.673156 0.053537
0.737560 -0.673156 0.053537
0.731595 -0.676887 -0.081197
0.736064 -0.671931 -0.081968
0.735155 -0.671996 -0.089266
0.737560 -0.673156 0.053537
0.736064 -0.671931 -0.081968
0.512460 -0.854891 -0.080902
0.512460 -0.854891 -0.080902
0.512460 -0.854891 -0.080902
0.510728 -0.856611 -0.073311
0.510728 -0.856611 -0.073311
0.510728 -0.856611 -0.073311
0.475103 -0.879548 -0.025942
-0.000000 -0.999328 -0.036649
0.000434 -0.986750 -0.162249
0.000434 -0.986750 -0.162249
0.443326 -0.890334 -0.103763
0.475103 -0.879548 -0.025942
0.000434 -0.986750 -0.162249
-0.000000 -0.999328 -0.036649
-0.475169 -0.879501 -0.026301
-0.475169 -0.879501 -0.026301
-0.442619 -0.890584 -0.104634
0.000434 -0.986750 -0.162249
-0.512423 -0.854843 -0.081643
-0.512423 -0.854843 -0.081643
-0.512423 -0.854843 -0.081643
-0.510659 -0.856545 -0.074556
-0.510659 -0.856545 -0.074556
-0.510659 -0.856545 -0.074556
-0.736137 -0.676801 -0.006587
-0.715575 -0.696330 -0.055471
-0.743855 -0.665589 0.060591
-0.736137 -0.676801 -0.006587
-0.743855 -0.665589 0.060591
-0.750361 -0.660760 0.018814
-0.734909 -0.677840 -0.021029
-0.736137 -0.676801 -0.006587
-0.750361 -0.660760 0.018814
-0.692437 -0.688144 0.216769
-0.692437 -0.688144 0.216769
-0.692437 -0.688144 0.216769
-0.676880 -0.699870 0.228068
-0.676880 -0.699870 0.228068
-0.676880 -0.699870 0.228068
-0.666331 -0.742631 0.067100
-0.666331 -0.742631 0.067100
-0.666331 -0.742631 0.067100
-0.628350 -0.746574 0.218640
-0.628350 -0.746574 0.218640
-0.628350 -0.746574 0.218640
-0.572134 -0.805297 0.155431
-0.572134 -0.805297 0.155431
-0.572134 -0.805297 0.155431
-0.617390 -0.784728 0.055056
-0.617390 -0.784728 0.055056
-0.617390 -0.784728 0.055056
-0.478175 -0.875487 0.069784
-0.484241 -0.873182 0.055358
0.000034 -0.996921 0.078406
0.000034 -0.996921 0.078406
0.000183 -0.995607 0.093625
-0.478175 -0.875487 0.069784
0.000034 -0.996921 0.078406
0.484219 -0.873206 0.055169
0.478341 -0.875460 0.068985
0.478341 -0.875460 0.068985
0.000183 -0.995607 0.093625
0.000034 -0.996921 0.078406
0.576202 -0.785689 0.225131
0.576202 -0.785689 0.225131
0.576202 -0.785689 0.225131
0.568469 -0.793608 0.216863
0.568469 -0.793608 0.216863
0.568469 -0.793608 0.216863
0.628711 -0.775764 0.053977
0.628711 -0.775764 0.053977
0.628711 -0.775764 0.053977
0.659548 -0.726219 0.193913
0.659548 -0.726219 0.193913
0.659548 -0.726219 0.193913
0.645278 -0.757643 0.097947
0.645278 -0.757643 0.097947
0.645278 -0.757642 0.097947
0.629065 -0.774706 0.064091
0.629065 -0.774706 0.064091
0.629065 -0.774706 0.064091
0.471687 -0.878258 0.078575
0.000185 -0.994371 0.105950
0.000183 -0.995607 0.093625
0.000183 -0.995607 0.093625
0.478341 -0.875460 0.068985
0.471687 -0.878258 0.078575
0.000183 -0.995607 0.093625
0.000185 -0.994371 0.105950
-0.471399 -0.878353 0.079234
-0.471399 -0.878353 0.079234
-0.478175 -0.875487 0.069784
0.000183 -0.995607 0.093625
-0.658258 -0.736362 0.156421
-0.658258 -0.736362 0.156421
-0.658258 -0.736362 0.156421
-0.662903 -0.732382 0.155486
-0.662903 -0.732382 0.155486
-0.662903 -0.732382 0.155486
-0.617499 -0.783816 0.065784
-0.617499 -0.783816 0.065784
-0.617499 -0.783816 0.065784
-0.644226 -0.756553 -0.112253
-0.649163 -0.750982 -0.120885
-0.715575 -0.696330 -0.055471
-0.734909 -0.677840 -0.021029
-0.750361 -0.660760 0.018814
-0.749521 -0.661969 -0.003982
-0.749521 -0.661969 -0.003982
-0.750491 -0.636324 -0.178481
-0.692969 -0.690428 -0.207610
-0.734909 -0.677840 -0.021029
-0.749521 -0.661969 -0.003982
-0.692969 -0.690428 -0.207610
-0.734909 -0.677840 -0.021029
-0.692969 -0.690428 -0.207610
-0.687560 -0.722867 -0.068734
-0.736137 -0.676801 -0.006587
-0.734909 -0.677840 -0.021029
-0.687560 -0.722867 -0.068734
-0.715575 -0.696330 -0.055471
-0.736137 -0.676801 -0.006587
-0.687560 -0.722867 -0.068734
-0.644226 -0.756553 -0.112253
-0.715575 -0.696330 -0.055471
-0.687560 -0.722867 -0.068734
-0.663018 -0.676704 -0.320122
-0.692969 -0.690428 -0.207610
-0.750491 -0.636324 -0.178481
-0.663018 -0.676704 -0.320122
-0.750491 -0.636324 -0.178481
-0.516964 -0.678871 -0.521424
-0.653494 -0.739888 -0.159722
-0.663018 -0.676704 -0.320122
-0.516964 -0.678871 -0.521424
-0.653494 -0.739888 -0.159722
-0.516964 -0.678871 -0.521424
-0.693864 -0.707519 -0.134055
-0.488247 -0.855265 -0.173597
-0.488247 -0.855265 -0.173597
-0.488247 -0.855265 -0.173597
-0.488229 -0.856327 -0.168334
-0.488229 -0.856327 -0.168334
-0.488229 -0.856327 -0.168334
-0.360976 -0.918319 -0.162437
-0.347084 -0.922647 -0.168093
-0.000798 -0.965392 -0.260803
-0.000798 -0.965392 -0.260803
-0.000588 -0.971395 -0.237470
-0.360976 -0.918319 -0.162437
-0.000798 -0.965392 -0.260803
0.347084 -0.922506 -0.168865
0.360780 -0.918186 -0.163622
0.360780 -0.918186 -0.163622
-0.000588 -0.971395 -0.237470
-0.000798 -0.965392 -0.260803
0.487152 -0.855601 -0.175014
0.487152 -0.855601 -0.175014
0.487152 -0.855601 -0.175014
0.487323 -0.856700 -0.169061
0.487323 -0.856700 -0.169061
0.487323 -0.856700 -0.169061
0.740621 -0.671555 -0.022242
0.749939 -0.661391 0.012376
0.735155 -0.671996 -0.089266
0.736064 -0.671931 -0.081968
0.731595 -0.676887 -0.081197
0.725619 -0.681031 -0.098357
0.735155 -0.671996 -0.089266
0.736064 -0.671931 -0.081968
0.725619 -0.681031 -0.098357
0.735155 -0.671996 -0.089266
0.725619 -0.681031 -0.098357
0.726113 -0.682327 -0.084785
0.740621 -0.671555 -0.022242
0.735155 -0.671996 -0.089266
0.726113 -0.682327 -0.084785
0.740621 -0.671555 -0.022242
0.726113 -0.682327 -0.084785
0.727736 -0.679675 -0.091878
0.731859 -0.664214 -0.152325
0.740621 -0.671555 -0.022242
0.727736 -0.679675 -0.091878
0.724857 -0.679837 -0.111371
0.731859 -0.664214 -0.152325
0.727736 -0.679675 -0.091878
0.719116 -0.681817 -0.134158
0.724857 -0.679837 -0.111371
0.727736 -0.679675 -0.091878
0.727736 -0.679675 -0.091878
0.726113 -0.682327 -0.084785
0.725619 -0.681031 -0.098357
0.719116 -0.681817 -0.134158
0.727736 -0.679675 -0.091878
0.725619 -0.681031 -0.098357
0.718611 -0.682093 -0.135450
0.719116 -0.681817 -0.134158
0.725619 -0.681031 -0.098357
0.718611 -0.682093 -0.135450
0.725619 -0.681031 -0.098357
0.715748 -0.685572 -0.133026
0.497595 -0.855330 -0.144256
0.497595 -0.855330 -0.144256
0.497595 -0.855330 -0.144256
0.492639 -0.861042 -0.126143
0.492640 -0.861042 -0.126143
0.492639 -0.861042 -0.126143
0.401197 -0.905599 -0.137590
0.000045 -0.980283 -0.197596
-0.000588 -0.971395 -0.237470
-0.000588 -0.971395 -0.237470
0.360780 -0.918186 -0.163622
0.401197 -0.905599 -0.137590
-0.000588 -0.971395 -0.237470
0.000045 -0.980283 -0.197596
-0.401408 -0.905590 -0.137034
-0.401408 -0.905590 -0.137034
-0.360976 -0.918319 -0.162437
-0.000588 -0.971395 -0.237470
-0.498366 -0.855085 -0.143039
-0.498366 -0.855085 -0.143039
-0.498366 -0.855085 -0.143039
-0.492927 -0.861193 -0.123976
-0.492927 -0.861193 -0.123976
-0.492927 -0.861193 -0.123976
-0.649163 -0.750982 -0.120885
-0.644226 -0.756553 -0.112253
-0.687560 -0.722867 -0.068734
-0.692969 -0.690428 -0.207610
-0.663018 -0.676704 -0.320122
-0.653494 -0.739888 -0.159722
-0.687560 -0.722867 -0.068734
-0.692969 -0.690428 -0.207610
-0.653494 -0.739888 -0.159722
-0.649163 -0.750982 -0.120885
-0.687560 -0.722867 -0.068734
-0.653494 -0.739888 -0.159722
-0.693864 -0.707519 -0.134055
-0.649163 -0.750982 -0.120885
-0.653494 -0.739888 -0.159722
0.718611 -0.682093 -0.135450
0.715748 -0.685572 -0.133026
0.523554 -0.678178 -0.515719
0.719116 -0.681817 -0.134158
0.718611 -0.682093 -0.135450
0.523554 -0.678178 -0.515719
0.719116 -0.681817 -0.134158
0.523554 -0.678178 -0.515719
0.731859 -0.664214 -0.152325
0.724857 -0.679837 -0.111371
0.719116 -0.681817 -0.134158
0.731859 -0.664214 -0.152325
0.000000 0.000000 -1.000000
0.000000 0.000000 -1.000000
0.000000 0.000000 -1.000000
0.000000 0.000000 -1.000000
0.000000 0.000000 -1.000000
0.000000 0.000000 -1.000000
0.000000 0.000000 1.000000
0.000000 0.000000 1.000000
0.000000 0.000000 1.000000
0.000000 0.000000 1.000000
0.000000 0.000000 1.000000
0.000000 0.000000 1.000000
0.997587 -0.069429 0.000000
0.997587 -0.069429 0.000000
0.994127 0.108220 0.000000
0.994127 0.108220 0.000000
0.994127 0.108220 0.000000
0.997587 -0.069429 0.000000
0.997425 0.071711 0.000000
0.997425 0.071711 0.000000
0.994577 -0.104006 0.000000
0.994577 -0.104006 0.000000
0.994577 -0.104006 0.000000
0.997425 0.071711 0.000000
0.000000 0.000000 -1.000000
0.000000 0.000000 -1.000000
0.000000 0.000000 -1.000000
0.000000 0.000000 -1.000000
0.000000 0.000000 -1.000000
0.000000 0.000000 -1.000000
0.000000 0.000000 1.000000
0.000000 0.000000 1.000000
0.000000 0.000000 1.000000
0.000000 0.000000 1.000000
0.000000 0.000000 1.000000
0.000000 0.000000 1.000000
-0.680274 -0.732958 0.000000
-0.680274 -0.732958 0.000000
-0.000000 -1.000000 0.000000
-0.000000 -1.000000 0.000000
-0.000000 -1.000000 0.000000
-0.680274 -0.732958 0.000000
-0.669790 0.742550 0.000000
-0.669790 0.742550 0.000000
0.000000 1.000000 0.000000
0.000000 1.000000 0.000000
-0.000000 1.000000 0.000000
-0.669790 0.742550 0.000000
0.000000 0.000000 -1.000000
0.000000 0.000000 -1.000000
0.000000 0.000000 -1.000000
0.000000 0.000000 -1.000000
0.000000 0.000000 -1.000000
0.000000 0.000000 -1.000000
0.000000 0.000000 1.000000
0.000000 0.000000 1.000000
0.000000 0.000000 1.000000
0.000000 0.000000 1.000000
0.000000 0.000000 1.000000
0.000000 0.000000 1.000000
0.680274 -0.732958 0.000000
0.680274 -0.732958 0.000000
0.928725 -0.370770 0.000000
0.928725 -0.370770 0.000000
0.928725 -0.370770 0.000000
0.680274 -0.732958 0.000000
0.669790 0.742550 0.000000
0.669790 0.742550 0.000000
0.925833 0.377934 0.000000
0.925833 0.377934 0.000000
0.925833 0.377934 0.000000
0.669790 0.742550 0.000000
0.000000 0.000000 -1.000000
0.000000 0.000000 -1.000000
0.000000 0.000000 -1.000000
0.000000 0.000000 -1.000000
0.000000 0.000000 -1.000000
0.000000 0.000000 -1.000000
0.000000 0.000000 1.000000
0.000000 0.000000 1.000000
0.000000 0.000000 1.000000
0.000000 0.000000 1.000000
0.000000 0.000000 1.000000
0.000000 0.000000 1.000000
-0.997587 -0.069429 0.000001
-0.997587 -0.069429 0.000000
-0.928725 -0.370770 0.000001
-0.928725 -0.370770 0.000001
-0.928725 -0.370770 0.000001
-0.997587 -0.069429 0.000001
-0.997425 0.071711 0.000000
-0.997425 0.071711 0.000000
-0.925833 0.377934 0.000000
-0.925833 0.377934 0.000000
-0.925833 0.377934 0.000000
-0.997425 0.071711 0.000000
0.000000 0.000000 -1.000000
0.000000 0.000000 -1.000000
0.000000 0.000000 -1.000000
0.000000 0.000000 -1.000000
0.000000 0.000000 -1.000000
0.000000 0.000000 -1.000000
0.000000 0.000000 1.000000
0.000000 0.000000 1.000000
0.000000 0.000000 1.000000
0.000000 0.000000 1.000000
0.000000 0.000000 1.000000
0.000000 0.000000 1.000000
-0.928725 -0.370770 0.000001
-0.928725 -0.370770 0.000001
-0.680274 -0.732958 0.000000
-0.680274 -0.732958 0.000000
-0.680274 -0.732958 0.000000
-0.928725 -0.370770 0.000001
-0.925833 0.377934 0.000000
-0.925833 0.377934 0.000000
-0.669790 0.742550 0.000000
-0.669790 0.742550 0.000000
-0.669790 0.742550 0.000000
-0.925833 0.377934 0.000000
0.000000 0.000000 -1.000000
0.000000 0.000000 -1.000000
0.000000 0.000000 -1.000000
0.000000 0.000000 -1.000000
0.000000 0.000000 -1.000000
0.000000 0.000000 -1.000000
0.000000 0.000000 1.000000
0.000000 0.000000 1.000000
0.000000 0.000000 1.000000
0.000000 0.000000 1.000000
0.000000 0.000000 1.000000
0.000000 0.000000 1.000000
-0.000000 -1.000000 0.000000
-0.000000 -1.000000 0.000000
0.680274 -0.732958 0.000000
0.680274 -0.732958 0.000000
0.680274 -0.732958 0.000000
-0.000000 -1.000000 0.000000
-0.000000 1.000000 0.000000
0.000000 1.000000 0.000000
0.669790 0.742550 0.000000
0.669790 0.742550 0.000000
0.669790 0.742550 0.000000
-0.000000 1.000000 0.000000
0.000000 0.000000 -1.000000
0.000000 0.000000 -1.000000
0.000000 0.000000 -1.000000
0.000000 0.000000 -1.000000
0.000000 0.000000 -1.000000
0.000000 0.000000 -1.000000
0.000000 0.000000 1.000000
0.000000 0.000000 1.000000
0.000000 0.000000 1.000000
0.000000 0.000000 1.000000
0.000000 0.000000 1.000000
0.000000 0.000000 1.000000
0.928725 -0.370770 0.000000
0.928725 -0.370770 0.000000
0.997587 -0.069429 0.000000
0.997587 -0.069429 0.000000
0.997587 -0.069429 0.000000
0.928725 -0.370770 0.000000
0.925833 0.377934 0.000000
0.925833 0.377934 0.000000
0.997425 0.071711 0.000000
0.997425 0.071711 0.000000
0.997425 0.071711 0.000000
0.925833 0.377934 0.000000
0.000000 0.000000 -1.000000
0.000000 0.000000 -1.000000
0.000000 0.000000 -1.000000
0.000000 0.000000 -1.000000
0.000000 0.000000 -1.000000
0.000000 0.000000 -1.000000
0.000000 0.000000 1.000000
0.000000 0.000000 1.000000
0.000000 0.000000 1.000000
0.000000 0.000000 1.000000
0.000000 0.000000 1.000000
0.000000 0.000000 1.000000
-0.994127 0.108220 0.000000
-0.994127 0.108220 0.000000
-0.997587 -0.069429 0.000000
-0.997587 -0.069429 0.000000
-0.997587 -0.069429 0.000001
-0.994127 0.108220 0.000000
-0.994577 -0.104006 0.000000
-0.994577 -0.104006 0.000000
-0.997425 0.071711 0.000000
-0.997425 0.071711 0.000000
-0.997425 0.071711 0.000000
-0.994577 -0.104006 0.000000
-0.696934 -0.379562 0.608454
-0.696934 -0.379562 0.608454
-0.696934 -0.379562 0.608454
-0.667183 -0.376395 0.642802
-0.667183 -0.376395 0.642802
-0.667183 -0.376395 0.642802
-0.667761 -0.376922 0.641892
-0.667760 -0.376922 0.641892
-0.667760 -0.376922 0.641892
-0.701209 -0.325319 0.634408
-0.701209 -0.325319 0.634408
-0.701209 -0.325319 0.634408
-0.701651 -0.330112 0.631436
-0.701651 -0.330112 0.631436
-0.701651 -0.330112 0.631436
-0.580988 -0.377080 0.721293
-0.580988 -0.377080 0.721293
-0.580988 -0.377080 0.721293
-0.568434 -0.275812 0.775120
-0.568434 -0.275812 0.775120
-0.568434 -0.275812 0.775120
0.580980 -0.377121 0.721278
0.580980 -0.377121 0.721278
0.580980 -0.377121 0.721278
0.567519 -0.276023 0.775715
0.567519 -0.276023 0.775715
0.567519 -0.276023 0.775715
0.667926 -0.376406 0.642023
0.667926 -0.376406 0.642023
0.667926 -0.376406 0.642023
0.691572 -0.331097 0.641952
0.691572 -0.331097 0.641952
0.691572 -0.331097 0.641952
0.695506 -0.325329 0.640650
0.695506 -0.325329 0.640649
0.695506 -0.325329 0.640650
0.698978 -0.373227 0.610025
0.698978 -0.373227 0.610025
0.698978 -0.373227 0.610025
0.690382 -0.380018 0.615597
0.690382 -0.380018 0.615597
0.690382 -0.380018 0.615597
0.519721 -0.288902 0.804006
0.519721 -0.288902 0.804006
0.519721 -0.288902 0.804006
0.529431 -0.380153 0.758411
0.529431 -0.380153 0.758411
0.529431 -0.380153 0.758411
-0.519722 -0.288902 0.804006
-0.519722 -0.288902 0.804006
-0.519722 -0.288902 0.804006
-0.529429 -0.380119 0.758429
-0.529429 -0.380119 0.758429
-0.529429 -0.380119 0.758429
</float_array>
          <technique_common>
            <accessor source="#SM_Mask_01_A_1-Normal0-array" count="984" stride="3">
              <param name="X" type="float"/>
              <param name="Y" type="float"/>
              <param name="Z" type="float"/>
            </accessor>
          </technique_common>
        </source>
        <source id="SM_Mask_01_A_1-UV0">
          <float_array id="SM_Mask_01_A_1-UV0-array" count="492">
1.000000 0.000000
0.000000 0.000000
1.000000 1.000000
0.000000 1.000000
0.000000 0.000000
1.000000 0.000000
0.000000 1.000000
1.000000 1.000000
0.000000 0.000000
1.000000 0.000000
0.000000 1.000000
1.000000 1.000000
0.000000 0.000000
1.000000 0.000000
0.000000 1.000000
1.000000 1.000000
0.000000 0.000000
1.000000 0.000000
0.000000 1.000000
1.000000 1.000000
0.000000 0.000000
1.000000 0.000000
0.000000 1.000000
1.000000 1.000000
0.500000 1.000000
0.500000 0.000000
0.500000 0.000000
0.500000 0.000000
0.500000 0.000000
0.500000 1.000000
0.500000 1.000000
0.500000 1.000000
0.750000 1.000000
0.750000 0.000000
0.250000 0.000000
0.750000 0.000000
0.250000 0.000000
0.250000 1.000000
0.750000 1.000000
0.250000 1.000000
0.250000 1.000000
0.250000 0.000000
0.750000 0.000000
0.250000 0.000000
0.750000 0.000000
0.750000 1.000000
0.250000 1.000000
0.750000 1.000000
1.000000 0.250000
1.000000 0.500000
1.000000 0.750000
0.000000 0.250000
0.000000 0.500000
0.000000 0.750000
0.000000 0.750000
0.000000 0.500000
0.000000 0.250000
1.000000 0.750000
1.000000 0.500000
1.000000 0.250000
1.000000 0.250000
1.000000 0.500000
1.000000 0.750000
0.000000 0.250000
0.000000 0.500000
0.000000 0.750000
1.000000 0.250000
1.000000 0.500000
1.000000 0.750000
0.000000 0.250000
0.000000 0.500000
0.000000 0.750000
0.500000 0.250000
0.500000 0.500000
0.500000 0.750000
0.500000 0.250000
0.500000 0.500000
0.500000 0.750000
0.250000 0.250000
0.250000 0.500000
0.250000 0.750000
0.250000 0.250000
0.250000 0.500000
0.250000 0.750000
0.750000 0.250000
0.750000 0.500000
0.750000 0.750000
0.750000 0.250000
0.750000 0.500000
0.750000 0.750000
0.750000 0.000000
1.000000 0.000000
1.000000 0.250000
1.000000 0.500000
1.000000 0.750000
1.000000 1.000000
0.750000 1.000000
0.500000 1.000000
0.250000 1.000000
0.000000 1.000000
0.000000 0.750000
0.000000 0.500000
0.000000 0.250000
0.000000 0.000000
0.250000 0.000000
0.500000 0.000000
0.250000 0.500000
0.250000 0.250000
0.500000 0.250000
0.750000 0.250000
0.750000 0.500000
0.750000 0.750000
0.500000 0.750000
0.250000 0.750000
0.056281 0.500000
0.067221 0.576865
0.132119 0.563699
0.250000 0.549754
0.250000 0.578297
0.500000 0.555665
0.750000 0.578957
0.750000 0.550665
0.825437 0.589686
0.881292 0.565408
0.898003 0.500000
0.878240 0.468345
0.820052 0.461220
0.750000 0.457065
0.750000 0.443422
0.500000 0.445257
0.250000 0.439056
0.250000 0.451275
0.138808 0.455874
0.083454 0.468817
0.250000 0.620091
0.250000 0.679159
0.250000 0.727281
0.500000 0.669888
0.750000 0.717455
0.750000 0.668365
0.750000 0.611804
0.750000 0.603709
0.750000 0.640217
0.500000 0.608751
0.250000 0.646077
0.250000 0.606039
0.160138 0.380676
0.185674 0.400870
0.218877 0.405919
0.250000 0.402694
0.250000 0.355312
0.500000 0.360701
0.750000 0.352934
0.750000 0.399428
0.784052 0.402027
0.829088 0.375524
0.863676 0.338166
0.841658 0.328454
0.799327 0.335505
0.750000 0.348846
0.750000 0.271676
0.500000 0.283753
0.250000 0.274540
0.250000 0.352917
0.207368 0.357202
0.170305 0.360313
1.000000 0.000000
0.000000 0.000000
1.000000 1.000000
0.000000 1.000000
0.000000 0.000000
1.000000 0.000000
0.000000 1.000000
1.000000 1.000000
0.000000 0.000000
1.000000 0.000000
0.000000 1.000000
1.000000 1.000000
0.000000 0.000000
1.000000 0.000000
0.000000 1.000000
1.000000 1.000000
1.000000 0.500000
0.500000 0.000000
0.000000 0.500000
0.500000 0.000000
1.000000 0.500000
0.500000 1.000000
0.000000 0.500000
0.500000 1.000000
1.000000 0.250000
0.750000 0.000000
0.000000 0.750000
0.750000 0.000000
1.000000 0.250000
0.250000 1.000000
0.000000 0.750000
0.250000 1.000000
1.000000 0.750000
0.250000 0.000000
0.000000 0.250000
0.250000 0.000000
1.000000 0.750000
0.750000 1.000000
0.000000 0.250000
0.750000 1.000000
1.000000 0.625000
0.375000 0.000000
0.000000 0.375000
0.375000 0.000000
1.000000 0.625000
0.625000 1.000000
0.000000 0.375000
0.625000 1.000000
1.000000 0.375000
0.625000 0.000000
0.000000 0.625000
0.625000 0.000000
1.000000 0.375000
0.375000 1.000000
0.000000 0.625000
0.375000 1.000000
1.000000 0.125000
0.875000 0.000000
0.000000 0.875000
0.875000 0.000000
1.000000 0.125000
0.125000 1.000000
0.000000 0.875000
0.125000 1.000000
1.000000 0.875000
0.125000 0.000000
0.000000 0.125000
0.125000 0.000000
1.000000 0.875000
0.875000 1.000000
0.000000 0.125000
0.875000 1.000000
0.250000 1.000000
0.196709 1.000000
0.250000 1.000000
0.500000 1.000000
0.750000 1.000000
0.816328 1.000000
0.750000 1.000000
0.500000 1.000000
</float_array>
          <technique_common>
            <accessor source="#SM_Mask_01_A_1-UV0-array" count="246" stride="2">
              <param name="S" type="float"/>
              <param name="T" type="float"/>
            </accessor>
          </technique_common>
        </source>
        <source id="SM_Mask_01_A_1-VERTEX_COLOR0">
          <float_array id="SM_Mask_01_A_1-VERTEX_COLOR0-array" count="2448">
0.831373 0.831373 0.831373 1.000000
0.831373 0.831373 0.831373 1.000000
0.831373 0.831373 0.831373 1.000000
0.831373 0.831373 0.831373 1.000000
0.831373 0.831373 0.831373 1.000000
0.831373 0.831373 0.831373 1.000000
0.831373 0.831373 0.831373 1.000000
0.831373 0.831373 0.831373 1.000000
0.831373 0.831373 0.831373 1.000000
0.831373 0.831373 0.831373 1.000000
0.831373 0.831373 0.831373 1.000000
0.831373 0.831373 0.831373 1.000000
0.564706 0.564706 0.564706 1.000000
0.564706 0.564706 0.564706 1.000000
0.831373 0.831373 0.831373 1.000000
0.831373 0.831373 0.831373 1.000000
0.831373 0.831373 0.831373 1.000000
0.831373 0.831373 0.831373 1.000000
0.831373 0.831373 0.831373 1.000000
0.831373 0.831373 0.831373 1.000000
0.831373 0.831373 0.831373 1.000000
0.831373 0.831373 0.831373 1.000000
0.831373 0.831373 0.831373 1.000000
0.831373 0.831373 0.831373 1.000000
0.831373 0.831373 0.831373 1.000000
0.831373 0.831373 0.831373 1.000000
0.831373 0.831373 0.831373 1.000000
0.831373 0.831373 0.831373 1.000000
0.831373 0.831373 0.831373 1.000000
0.831373 0.831373 0.831373 1.000000
0.831373 0.831373 0.831373 1.000000
0.831373 0.831373 0.831373 1.000000
0.564706 0.564706 0.564706 1.000000
0.564706 0.564706 0.564706 1.000000
0.564706 0.564706 0.564706 1.000000
0.564706 0.564706 0.564706 1.000000
0.831373 0.831373 0.831373 1.000000
0.831373 0.831373 0.831373 1.000000
0.831373 0.831373 0.831373 1.000000
0.831373 0.831373 0.831373 1.000000
0.831373 0.831373 0.831373 1.000000
0.831373 0.831373 0.831373 1.000000
0.831373 0.831373 0.831373 1.000000
0.831373 0.831373 0.831373 1.000000
0.831373 0.831373 0.831373 1.000000
0.831373 0.831373 0.831373 1.000000
0.831373 0.831373 0.831373 1.000000
0.831373 0.831373 0.831373 1.000000
0.564706 0.564706 0.564706 1.000000
0.564706 0.564706 0.564706 1.000000
0.564706 0.564706 0.564706 1.000000
0.564706 0.564706 0.564706 1.000000
0.831373 0.831373 0.831373 1.000000
0.831373 0.831373 0.831373 1.000000
0.831373 0.831373 0.831373 1.000000
0.831373 0.831373 0.831373 1.000000
0.831373 0.831373 0.831373 1.000000
0.831373 0.831373 0.831373 1.000000
0.831373 0.831373 0.831373 1.000000
0.831373 0.831373 0.831373 1.000000
0.831373 0.831373 0.831373 1.000000
0.831373 0.831373 0.831373 1.000000
0.564706 0.564706 0.564706 1.000000
0.564706 0.564706 0.564706 1.000000
0.831373 0.831373 0.831373 1.000000
0.831373 0.831373 0.831373 1.000000
0.831373 0.831373 0.831373 1.000000
0.831373 0.831373 0.831373 1.000000
0.831373 0.831373 0.831373 1.000000
0.831373 0.831373 0.831373 1.000000
0.831373 0.831373 0.831373 1.000000
0.831373 0.831373 0.831373 1.000000
0.831373 0.831373 0.831373 1.000000
0.831373 0.831373 0.831373 1.000000
0.831373 0.831373 0.831373 1.000000
0.831373 0.831373 0.831373 1.000000
0.831373 0.831373 0.831373 1.000000
0.831373 0.831373 0.831373 1.000000
0.831373 0.831373 0.831373 1.000000
0.831373 0.831373 0.831373 1.000000
0.831373 0.831373 0.831373 1.000000
0.831373 0.831373 0.831373 1.000000
0.831373 0.831373 0.831373 1.000000
0.831373 0.831373 0.831373 1.000000
0.564706 0.564706 0.564706 1.000000
0.831373 0.831373 0.831373 1.000000
0.831373 0.831373 0.831373 1.000000
0.831373 0.831373 0.831373 1.000000
0.564706 0.564706 0.564706 1.000000
0.564706 0.564706 0.564706 1.000000
0.831373 0.831373 0.831373 1.000000
0.831373 0.831373 0.831373 1.000000
0.831373 0.831373 0.831373 1.000000
0.831373 0.831373 0.831373 1.000000
0.831373 0.831373 0.831373 1.000000
0.564706 0.564706 0.564706 1.000000
0.831373 0.831373 0.831373 1.000000
0.831373 0.831373 0.831373 1.000000
0.831373 0.831373 0.831373 1.000000
0.831373 0.831373 0.831373 1.000000
0.831373 0.831373 0.831373 1.000000
0.831373 0.831373 0.831373 1.000000
0.831373 0.831373 0.831373 1.000000
0.831373 0.831373 0.831373 1.000000
0.831373 0.831373 0.831373 1.000000
0.831373 0.831373 0.831373 1.000000
0.831373 0.831373 0.831373 1.000000
0.831373 0.831373 0.831373 1.000000
0.831373 0.831373 0.831373 1.000000
0.831373 0.831373 0.831373 1.000000
0.831373 0.831373 0.831373 1.000000
0.831373 0.831373 0.831373 1.000000
0.831373 0.831373 0.831373 1.000000
0.831373 0.831373 0.831373 1.000000
0.831373 0.831373 0.831373 1.000000
0.831373 0.831373 0.831373 1.000000
0.831373 0.831373 0.831373 1.000000
0.831373 0.831373 0.831373 1.000000
0.831373 0.831373 0.831373 1.000000
0.831373 0.831373 0.831373 1.000000
0.564706 0.564706 0.564706 1.000000
0.831373 0.831373 0.831373 1.000000
0.831373 0.831373 0.831373 1.000000
0.564706 0.564706 0.564706 1.000000
0.564706 0.564706 0.564706 1.000000
0.564706 0.564706 0.564706 1.000000
0.564706 0.564706 0.564706 1.000000
0.564706 0.564706 0.564706 1.000000
0.564706 0.564706 0.564706 1.000000
0.831373 0.831373 0.831373 1.000000
0.831373 0.831373 0.831373 1.000000
0.564706 0.564706 0.564706 1.000000
0.831373 0.831373 0.831373 1.000000
0.831373 0.831373 0.831373 1.000000
0.831373 0.831373 0.831373 1.000000
0.831373 0.831373 0.831373 1.000000
0.831373 0.831373 0.831373 1.000000
0.831373 0.831373 0.831373 1.000000
0.831373 0.831373 0.831373 1.000000
0.831373 0.831373 0.831373 1.000000
0.831373 0.831373 0.831373 1.000000
0.831373 0.831373 0.831373 1.000000
0.831373 0.831373 0.831373 1.000000
0.831373 0.831373 0.831373 1.000000
0.564706 0.564706 0.564706 1.000000
0.831373 0.831373 0.831373 1.000000
0.831373 0.831373 0.831373 1.000000
0.564706 0.564706 0.564706 1.000000
0.564706 0.564706 0.564706 1.000000
0.564706 0.564706 0.564706 1.000000
0.564706 0.564706 0.564706 1.000000
0.564706 0.564706 0.564706 1.000000
0.564706 0.564706 0.564706 1.000000
0.831373 0.831373 0.831373 1.000000
0.831373 0.831373 0.831373 1.000000
0.564706 0.564706 0.564706 1.000000
0.831373 0.831373 0.831373 1.000000
0.831373 0.831373 0.831373 1.000000
0.831373 0.831373 0.831373 1.000000
0.831373 0.831373 0.831373 1.000000
0.831373 0.831373 0.831373 1.000000
0.831373 0.831373 0.831373 1.000000
0.831373 0.831373 0.831373 1.000000
0.831373 0.831373 0.831373 1.000000
0.831373 0.831373 0.831373 1.000000
0.831373 0.831373 0.831373 1.000000
0.831373 0.831373 0.831373 1.000000
0.564706 0.564706 0.564706 1.000000
0.831373 0.831373 0.831373 1.000000
0.831373 0.831373 0.831373 1.000000
0.564706 0.564706 0.564706 1.000000
0.564706 0.564706 0.564706 1.000000
0.564706 0.564706 0.564706 1.000000
0.831373 0.831373 0.831373 1.000000
0.831373 0.831373 0.831373 1.000000
0.831373 0.831373 0.831373 1.000000
0.831373 0.831373 0.831373 1.000000
0.831373 0.831373 0.831373 1.000000
0.831373 0.831373 0.831373 1.000000
0.831373 0.831373 0.831373 1.000000
0.831373 0.831373 0.831373 1.000000
0.831373 0.831373 0.831373 1.000000
0.831373 0.831373 0.831373 1.000000
0.831373 0.831373 0.831373 1.000000
0.831373 0.831373 0.831373 1.000000
0.831373 0.831373 0.831373 1.000000
0.831373 0.831373 0.831373 1.000000
0.831373 0.831373 0.831373 1.000000
0.831373 0.831373 0.831373 1.000000
0.831373 0.831373 0.831373 1.000000
0.831373 0.831373 0.831373 1.000000
0.831373 0.831373 0.831373 1.000000
0.831373 0.831373 0.831373 1.000000
0.831373 0.831373 0.831373 1.000000
0.831373 0.831373 0.831373 1.000000
0.831373 0.831373 0.831373 1.000000
0.564706 0.564706 0.564706 1.000000
0.564706 0.564706 0.564706 1.000000
0.564706 0.564706 0.564706 1.000000
0.564706 0.564706 0.564706 1.000000
0.564706 0.564706 0.564706 1.000000
0.564706 0.564706 0.564706 1.000000
0.564706 0.564706 0.564706 1.000000
0.564706 0.564706 0.564706 1.000000
0.564706 0.564706 0.564706 1.000000
0.564706 0.564706 0.564706 1.000000
0.564706 0.564706 0.564706 1.000000
0.564706 0.564706 0.564706 1.000000
0.564706 0.564706 0.564706 1.000000
0.564706 0.564706 0.564706 1.000000
0.831373 0.831373 0.831373 1.000000
0.831373 0.831373 0.831373 1.000000
0.831373 0.831373 0.831373 1.000000
0.831373 0.831373 0.831373 1.000000
0.831373 0.831373 0.831373 1.000000
0.831373 0.831373 0.831373 1.000000
0.831373 0.831373 0.831373 1.000000
0.831373 0.831373 0.831373 1.000000
0.831373 0.831373 0.831373 1.000000
0.831373 0.831373 0.831373 1.000000
0.831373 0.831373 0.831373 1.000000
0.831373 0.831373 0.831373 1.000000
0.831373 0.831373 0.831373 1.000000
0.831373 0.831373 0.831373 1.000000
0.831373 0.831373 0.831373 1.000000
0.831373 0.831373 0.831373 1.000000
0.831373 0.831373 0.831373 1.000000
0.831373 0.831373 0.831373 1.000000
0.831373 0.831373 0.831373 1.000000
0.831373 0.831373 0.831373 1.000000
0.831373 0.831373 0.831373 1.000000
0.831373 0.831373 0.831373 1.000000
0.831373 0.831373 0.831373 1.000000
0.831373 0.831373 0.831373 1.000000
0.831373 0.831373 0.831373 1.000000
0.831373 0.831373 0.831373 1.000000
0.831373 0.831373 0.831373 1.000000
0.831373 0.831373 0.831373 1.000000
0.831373 0.831373 0.831373 1.000000
0.831373 0.831373 0.831373 1.000000
0.831373 0.831373 0.831373 1.000000
0.831373 0.831373 0.831373 1.000000
0.831373 0.831373 0.831373 1.000000
0.831373 0.831373 0.831373 1.000000
0.831373 0.831373 0.831373 1.000000
0.831373 0.831373 0.831373 1.000000
0.831373 0.831373 0.831373 1.000000
0.831373 0.831373 0.831373 1.000000
0.831373 0.831373 0.831373 1.000000
0.831373 0.831373 0.831373 1.000000
0.831373 0.831373 0.831373 1.000000
0.831373 0.831373 0.831373 1.000000
0.831373 0.831373 0.831373 1.000000
0.831373 0.831373 0.831373 1.000000
0.831373 0.831373 0.831373 1.000000
0.831373 0.831373 0.831373 1.000000
0.831373 0.831373 0.831373 1.000000
0.831373 0.831373 0.831373 1.000000
0.831373 0.831373 0.831373 1.000000
0.831373 0.831373 0.831373 1.000000
0.831373 0.831373 0.831373 1.000000
0.831373 0.831373 0.831373 1.000000
0.831373 0.831373 0.831373 1.000000
0.831373 0.831373 0.831373 1.000000
0.831373 0.831373 0.831373 1.000000
0.831373 0.831373 0.831373 1.000000
0.831373 0.831373 0.831373 1.000000
0.831373 0.831373 0.831373 1.000000
0.831373 0.831373 0.831373 1.000000
0.831373 0.831373 0.831373 1.000000
0.831373 0.831373 0.831373 1.000000
0.831373 0.831373 0.831373 1.000000
0.831373 0.831373 0.831373 1.000000
0.831373 0.831373 0.831373 1.000000
0.831373 0.831373 0.831373 1.000000
0.564706 0.564706 0.564706 1.000000
0.564706 0.564706 0.564706 1.000000
0.564706 0.564706 0.564706 1.000000
0.564706 0.564706 0.564706 1.000000
0.564706 0.564706 0.564706 1.000000
0.564706 0.564706 0.564706 1.000000
0.564706 0.564706 0.564706 1.000000
0.564706 0.564706 0.564706 1.000000
0.564706 0.564706 0.564706 1.000000
0.564706 0.564706 0.564706 1.000000
0.564706 0.564706 0.564706 1.000000
0.564706 0.564706 0.564706 1.000000
0.564706 0.564706 0.564706 1.000000
0.564706 0.564706 0.564706 1.000000
0.564706 0.564706 0.564706 1.000000
0.564706 0.564706 0.564706 1.000000
0.564706 0.564706 0.564706 1.000000
0.564706 0.564706 0.564706 1.000000
0.564706 0.564706 0.564706 1.000000
0.564706 0.564706 0.564706 1.000000
0.564706 0.564706 0.564706 1.000000
0.831373 0.831373 0.831373 1.000000
0.831373 0.831373 0.831373 1.000000
0.831373 0.831373 0.831373 1.000000
0.831373 0.831373 0.831373 1.000000
0.831373 0.831373 0.831373 1.000000
0.831373 0.831373 0.831373 1.000000
0.831373 0.831373 0.831373 1.000000
0.831373 0.831373 0.831373 1.000000
0.564706 0.564706 0.564706 1.000000
0.564706 0.564706 0.564706 1.000000
0.564706 0.564706 0.564706 1.000000
0.564706 0.564706 0.564706 1.000000
0.564706 0.564706 0.564706 1.000000
0.564706 0.564706 0.564706 1.000000
0.564706 0.564706 0.564706 1.000000
0.564706 0.564706 0.564706 1.000000
0.564706 0.564706 0.564706 1.000000
0.564706 0.564706 0.564706 1.000000
0.564706 0.564706 0.564706 1.000000
0.564706 0.564706 0.564706 1.000000
0.564706 0.564706 0.564706 1.000000
0.564706 0.564706 0.564706 1.000000
0.564706 0.564706 0.564706 1.000000
0.564706 0.564706 0.564706 1.000000
0.564706 0.564706 0.564706 1.000000
0.564706 0.564706 0.564706 1.000000
0.564706 0.564706 0.564706 1.000000
0.564706 0.564706 0.564706 1.000000
0.564706 0.564706 0.564706 1.000000
0.564706 0.564706 0.564706 1.000000
0.564706 0.564706 0.564706 1.000000
0.564706 0.564706 0.564706 1.000000
0.564706 0.564706 0.564706 1.000000
0.564706 0.564706 0.564706 1.000000
0.564706 0.564706 0.564706 1.000000
0.564706 0.564706 0.564706 1.000000
0.564706 0.564706 0.564706 1.000000
0.564706 0.564706 0.564706 1.000000
0.564706 0.564706 0.564706 1.000000
0.831373 0.831373 0.831373 1.000000
0.831373 0.831373 0.831373 1.000000
0.831373 0.831373 0.831373 1.000000
0.831373 0.831373 0.831373 1.000000
0.831373 0.831373 0.831373 1.000000
0.831373 0.831373 0.831373 1.000000
0.831373 0.831373 0.831373 1.000000
0.831373 0.831373 0.831373 1.000000
0.831373 0.831373 0.831373 1.000000
0.831373 0.831373 0.831373 1.000000
0.831373 0.831373 0.831373 1.000000
0.831373 0.831373 0.831373 1.000000
0.831373 0.831373 0.831373 1.000000
0.831373 0.831373 0.831373 1.000000
0.831373 0.831373 0.831373 1.000000
0.831373 0.831373 0.831373 1.000000
0.831373 0.831373 0.831373 1.000000
0.831373 0.831373 0.831373 1.000000
0.831373 0.831373 0.831373 1.000000
0.831373 0.831373 0.831373 1.000000
0.831373 0.831373 0.831373 1.000000
0.831373 0.831373 0.831373 1.000000
0.831373 0.831373 0.831373 1.000000
0.564706 0.564706 0.564706 1.000000
0.564706 0.564706 0.564706 1.000000
0.564706 0.564706 0.564706 1.000000
0.564706 0.564706 0.564706 1.000000
0.564706 0.564706 0.564706 1.000000
0.564706 0.564706 0.564706 1.000000
0.564706 0.564706 0.564706 1.000000
0.564706 0.564706 0.564706 1.000000
0.564706 0.564706 0.564706 1.000000
0.564706 0.564706 0.564706 1.000000
0.564706 0.564706 0.564706 1.000000
0.564706 0.564706 0.564706 1.000000
0.564706 0.564706 0.564706 1.000000
0.564706 0.564706 0.564706 1.000000
0.564706 0.564706 0.564706 1.000000
0.564706 0.564706 0.564706 1.000000
0.564706 0.564706 0.564706 1.000000
0.564706 0.564706 0.564706 1.000000
0.831373 0.831373 0.831373 1.000000
0.831373 0.831373 0.831373 1.000000
0.831373 0.831373 0.831373 1.000000
0.831373 0.831373 0.831373 1.000000
0.831373 0.831373 0.831373 1.000000
0.831373 0.831373 0.831373 1.000000
0.831373 0.831373 0.831373 1.000000
0.831373 0.831373 0.831373 1.000000
0.831373 0.831373 0.831373 1.000000
0.831373 0.831373 0.831373 1.000000
0.831373 0.831373 0.831373 1.000000
0.831373 0.831373 0.831373 1.000000
0.831373 0.831373 0.831373 1.000000
0.831373 0.831373 0.831373 1.000000
0.831373 0.831373 0.831373 1.000000
0.831373 0.831373 0.831373 1.000000
0.831373 0.831373 0.831373 1.000000
0.831373 0.831373 0.831373 1.000000
0.831373 0.831373 0.831373 1.000000
0.831373 0.831373 0.831373 1.000000
0.831373 0.831373 0.831373 1.000000
0.831373 0.831373 0.831373 1.000000
0.831373 0.831373 0.831373 1.000000
0.831373 0.831373 0.831373 1.000000
0.831373 0.831373 0.831373 1.000000
0.831373 0.831373 0.831373 1.000000
0.831373 0.831373 0.831373 1.000000
0.831373 0.831373 0.831373 1.000000
0.831373 0.831373 0.831373 1.000000
0.831373 0.831373 0.831373 1.000000
0.831373 0.831373 0.831373 1.000000
0.831373 0.831373 0.831373 1.000000
0.831373 0.831373 0.831373 1.000000
0.831373 0.831373 0.831373 1.000000
0.831373 0.831373 0.831373 1.000000
0.831373 0.831373 0.831373 1.000000
0.831373 0.831373 0.831373 1.000000
0.831373 0.831373 0.831373 1.000000
0.831373 0.831373 0.831373 1.000000
0.831373 0.831373 0.831373 1.000000
0.831373 0.831373 0.831373 1.000000
0.831373 0.831373 0.831373 1.000000
0.564706 0.564706 0.564706 1.000000
0.564706 0.564706 0.564706 1.000000
0.564706 0.564706 0.564706 1.000000
0.564706 0.564706 0.564706 1.000000
0.564706 0.564706 0.564706 1.000000
0.564706 0.564706 0.564706 1.000000
0.564706 0.564706 0.564706 1.000000
0.564706 0.564706 0.564706 1.000000
0.564706 0.564706 0.564706 1.000000
0.564706 0.564706 0.564706 1.000000
0.564706 0.564706 0.564706 1.000000
0.564706 0.564706 0.564706 1.000000
0.564706 0.564706 0.564706 1.000000
0.564706 0.564706 0.564706 1.000000
0.564706 0.564706 0.564706 1.000000
0.564706 0.564706 0.564706 1.000000
0.564706 0.564706 0.564706 1.000000
0.564706 0.564706 0.564706 1.000000
0.564706 0.564706 0.564706 1.000000
0.564706 0.564706 0.564706 1.000000
0.564706 0.564706 0.564706 1.000000
0.564706 0.564706 0.564706 1.000000
0.564706 0.564706 0.564706 1.000000
0.564706 0.564706 0.564706 1.000000
0.564706 0.564706 0.564706 1.000000
0.564706 0.564706 0.564706 1.000000
0.564706 0.564706 0.564706 1.000000
0.564706 0.564706 0.564706 1.000000
0.564706 0.564706 0.564706 1.000000
0.564706 0.564706 0.564706 1.000000
0.831373 0.831373 0.831373 1.000000
0.831373 0.831373 0.831373 1.000000
0.831373 0.831373 0.831373 1.000000
0.831373 0.831373 0.831373 1.000000
0.831373 0.831373 0.831373 1.000000
0.831373 0.831373 0.831373 1.000000
0.831373 0.831373 0.831373 1.000000
0.831373 0.831373 0.831373 1.000000
1.000000 0.839216 0.286275 1.000000
1.000000 0.839216 0.286275 1.000000
1.000000 0.839216 0.286275 1.000000
1.000000 0.839216 0.286275 1.000000
1.000000 0.839216 0.286275 1.000000
1.000000 0.839216 0.286275 1.000000
1.000000 0.839216 0.286275 1.000000
1.000000 0.839216 0.286275 1.000000
1.000000 0.839216 0.286275 1.000000
1.000000 0.839216 0.286275 1.000000
1.000000 0.839216 0.286275 1.000000
1.000000 0.839216 0.286275 1.000000
1.000000 0.839216 0.286275 1.000000
1.000000 0.839216 0.286275 1.000000
1.000000 0.839216 0.286275 1.000000
1.000000 0.839216 0.286275 1.000000
1.000000 0.839216 0.286275 1.000000
1.000000 0.839216 0.286275 1.000000
1.000000 0.839216 0.286275 1.000000
1.000000 0.839216 0.286275 1.000000
1.000000 0.839216 0.286275 1.000000
1.000000 0.839216 0.286275 1.000000
1.000000 0.839216 0.286275 1.000000
1.000000 0.839216 0.286275 1.000000
1.000000 0.839216 0.286275 1.000000
1.000000 0.839216 0.286275 1.000000
1.000000 0.839216 0.286275 1.000000
1.000000 0.839216 0.286275 1.000000
1.000000 0.839216 0.286275 1.000000
1.000000 0.839216 0.286275 1.000000
1.000000 0.839216 0.286275 1.000000
1.000000 0.839216 0.286275 1.000000
1.000000 0.839216 0.286275 1.000000
1.000000 0.839216 0.286275 1.000000
1.000000 0.839216 0.286275 1.000000
1.000000 0.839216 0.286275 1.000000
1.000000 0.839216 0.286275 1.000000
1.000000 0.839216 0.286275 1.000000
1.000000 0.839216 0.286275 1.000000
1.000000 0.839216 0.286275 1.000000
1.000000 0.839216 0.286275 1.000000
1.000000 0.839216 0.286275 1.000000
1.000000 0.839216 0.286275 1.000000
1.000000 0.839216 0.286275 1.000000
1.000000 0.839216 0.286275 1.000000
1.000000 0.839216 0.286275 1.000000
1.000000 0.839216 0.286275 1.000000
1.000000 0.839216 0.286275 1.000000
1.000000 0.839216 0.286275 1.000000
1.000000 0.839216 0.286275 1.000000
1.000000 0.839216 0.286275 1.000000
1.000000 0.839216 0.286275 1.000000
1.000000 0.839216 0.286275 1.000000
1.000000 0.839216 0.286275 1.000000
1.000000 0.839216 0.286275 1.000000
1.000000 0.839216 0.286275 1.000000
1.000000 0.839216 0.286275 1.000000
1.000000 0.839216 0.286275 1.000000
1.000000 0.839216 0.286275 1.000000
1.000000 0.839216 0.286275 1.000000
1.000000 0.839216 0.286275 1.000000
1.000000 0.839216 0.286275 1.000000
1.000000 0.839216 0.286275 1.000000
1.000000 0.839216 0.286275 1.000000
1.000000 0.839216 0.286275 1.000000
1.000000 0.839216 0.286275 1.000000
1.000000 0.839216 0.286275 1.000000
1.000000 0.839216 0.286275 1.000000
1.000000 0.839216 0.286275 1.000000
1.000000 0.839216 0.286275 1.000000
1.000000 0.839216 0.286275 1.000000
1.000000 0.839216 0.286275 1.000000
1.000000 0.839216 0.286275 1.000000
1.000000 0.839216 0.286275 1.000000
1.000000 0.839216 0.286275 1.000000
1.000000 0.839216 0.286275 1.000000
1.000000 0.839216 0.286275 1.000000
1.000000 0.839216 0.286275 1.000000
1.000000 0.839216 0.286275 1.000000
1.000000 0.839216 0.286275 1.000000
1.000000 0.839216 0.286275 1.000000
1.000000 0.839216 0.286275 1.000000
1.000000 0.839216 0.286275 1.000000
1.000000 0.839216 0.286275 1.000000
1.000000 0.839216 0.286275 1.000000
1.000000 0.839216 0.286275 1.000000
1.000000 0.839216 0.286275 1.000000
1.000000 0.839216 0.286275 1.000000
1.000000 0.839216 0.286275 1.000000
1.000000 0.839216 0.286275 1.000000
1.000000 0.839216 0.286275 1.000000
1.000000 0.839216 0.286275 1.000000
1.000000 0.839216 0.286275 1.000000
1.000000 0.839216 0.286275 1.000000
1.000000 0.839216 0.286275 1.000000
1.000000 0.839216 0.286275 1.000000
1.000000 0.839216 0.286275 1.000000
1.000000 0.839216 0.286275 1.000000
1.000000 0.839216 0.286275 1.000000
1.000000 0.839216 0.286275 1.000000
1.000000 0.839216 0.286275 1.000000
1.000000 0.839216 0.286275 1.000000
1.000000 0.839216 0.286275 1.000000
1.000000 0.839216 0.286275 1.000000
1.000000 0.839216 0.286275 1.000000
1.000000 0.839216 0.286275 1.000000
1.000000 0.839216 0.286275 1.000000
1.000000 0.839216 0.286275 1.000000
1.000000 0.839216 0.286275 1.000000
1.000000 0.839216 0.286275 1.000000
1.000000 0.839216 0.286275 1.000000
1.000000 0.839216 0.286275 1.000000
1.000000 0.839216 0.286275 1.000000
1.000000 0.839216 0.286275 1.000000
1.000000 0.839216 0.286275 1.000000
1.000000 0.839216 0.286275 1.000000
1.000000 0.839216 0.286275 1.000000
1.000000 0.839216 0.286275 1.000000
1.000000 0.839216 0.286275 1.000000
1.000000 0.839216 0.286275 1.000000
1.000000 0.839216 0.286275 1.000000
1.000000 0.839216 0.286275 1.000000
1.000000 0.839216 0.286275 1.000000
1.000000 0.839216 0.286275 1.000000
1.000000 0.839216 0.286275 1.000000
1.000000 0.839216 0.286275 1.000000
0.831373 0.831373 0.831373 1.000000
0.831373 0.831373 0.831373 1.000000
0.831373 0.831373 0.831373 1.000000
0.831373 0.831373 0.831373 1.000000
0.831373 0.831373 0.831373 1.000000
0.831373 0.831373 0.831373 1.000000
0.831373 0.831373 0.831373 1.000000
0.831373 0.831373 0.831373 1.000000
0.831373 0.831373 0.831373 1.000000
0.831373 0.831373 0.831373 1.000000
0.831373 0.831373 0.831373 1.000000
0.831373 0.831373 0.831373 1.000000
0.831373 0.831373 0.831373 1.000000
0.831373 0.831373 0.831373 1.000000
0.831373 0.831373 0.831373 1.000000
0.831373 0.831373 0.831373 1.000000
0.831373 0.831373 0.831373 1.000000
0.831373 0.831373 0.831373 1.000000
0.831373 0.831373 0.831373 1.000000
0.831373 0.831373 0.831373 1.000000
0.831373 0.831373 0.831373 1.000000
0.831373 0.831373 0.831373 1.000000
0.831373 0.831373 0.831373 1.000000
0.831373 0.831373 0.831373 1.000000
0.831373 0.831373 0.831373 1.000000
0.831373 0.831373 0.831373 1.000000
0.831373 0.831373 0.831373 1.000000
0.831373 0.831373 0.831373 1.000000
0.831373 0.831373 0.831373 1.000000
0.831373 0.831373 0.831373 1.000000
</float_array>
          <technique_common>
            <accessor source="#SM_Mask_01_A_1-VERTEX_COLOR0-array" count="612" stride="4">
              <param name="R" type="double"/>
              <param name="G" type="double"/>
              <param name="B" type="double"/>
              <param name="A" type="double"/>
            </accessor>
          </technique_common>
        </source>
        <vertices id="SM_Mask_01_A_1-VERTEX">
          <input semantic="POSITION" source="#SM_Mask_01_A_1-POSITION"/>
        </vertices>
        <triangles count="328">
          <input semantic="VERTEX" offset="0" source="#SM_Mask_01_A_1-VERTEX"/>
          <input semantic="NORMAL" offset="1" source="#SM_Mask_01_A_1-Normal0"/>
          <input semantic="TEXCOORD" offset="2" set="0" source="#SM_Mask_01_A_1-UV0"/>
          <input semantic="COLOR" offset="3" set="0" source="#SM_Mask_01_A_1-VERTEX_COLOR0"/>
          <p> 2 0 2 1 12 1 32 2 17 2 42 3 17 3 42 3 0 4 0 0 2 5 2 1 14 6 36 5 19 7 46 6 6 8 6 7 6 9 6 7 4 10 4 4 14 11 36 5 27 12 61 9 21 13 52 10 20 14 51 11 20 15 51 11 26 16 60 8 27 17 61 9 41 18 81 12 42 19 82 13 27 20 64 14 27 21 64 14 26 22 63 15 41 23 81 12 24 24 58 17 30 25 70 18 29 26 69 19 29 27 69 19 25 28 59 16 24 29 58 17 16 30 40 21 13 31 34 22 9 32 26 23 9 33 26 23 8 34 24 20 16 35 40 21 18 36 44 25 15 37 38 26 11 38 30 27 11 39 30 27 10 40 28 24 18 41 44 25 88 42 128 29 89 43 129 30 111 44 151 31 111 45 151 31 112 46 152 28 88 47 128 29 48 48 88 33 36 49 76 34 35 50 75 35 35 51 75 35 47 52 87 32 48 53 88 33 8 54 24 37 9 55 26 38 17 56 42 39 17 57 42 39 12 58 32 36 8 59 24 37 10 60 28 41 11 61 30 42 19 62 46 43 19 63 46 43 14 64 36 40 10 65 28 41 111 66 151 44 89 67 129 45 90 68 130 46 90 69 130 46 110 70 150 47 111 71 151 44 35 72 75 48 36 73 76 49 42 74 82 50 42 75 82 50 41 76 81 51 35 77 75 48 3 78 3 53 1 79 1 54 13 80 34 55 13 81 34 55 16 82 40 52 3 83 3 53 5 84 5 57 7 85 7 58 15 86 38 59 15 87 38 59 18 88 44 56 5 89 5 57 30 90 67 61 48 91 88 62 47 92 87 63 47 93 87 63 29 94 66 60 30 95 67 61 40 96 80 64 58 97 98 65 59 98 99 66 59 99 99 66 60 100 100 67 40 101 80 64 63 102 103 69 64 103 104 70 38 104 78 71 38 105 78 71 62 106 102 68 63 107 103 69 7 108 15 73 5 109 14 74 22 110 53 75 22 111 53 75 28 112 62 72 7 113 15 73 28 114 62 77 22 115 53 78 21 116 52 79 21 117 52 79 27 118 61 76 28 119 62 77 1 120 12 81 3 121 13 82 26 122 60 83 26 123 60 83 20 124 51 80 1 125 12 81 43 126 83 84 15 127 39 85 7 128 18 86 7 129 18 86 28 130 65 87 43 131 83 84 42 132 82 88 43 133 83 89 28 134 65 90 28 135 65 90 27 136 64 91 42 137 82 88 3 138 16 93 16 139 41 94 41 140 81 95 41 141 81 95 26 142 63 92 3 143 16 93 4 144 23 97 6 145 22 98 31 146 71 99 31 147 71 99 23 148 57 96 4 149 23 97 23 150 57 101 31 151 71 102 30 152 70 103 30 153 70 103 24 154 58 100 23 155 57 101 2 156 20 105 0 157 21 106 25 158 59 107 25 159 59 107 29 160 69 104 2 161 20 105 56 162 96 109 57 163 97 110 34 164 74 111 34 165 74 111 46 166 86 108 56 167 96 109 71 168 111 113 72 169 112 114 97 170 137 115 97 171 137 115 98 172 138 112 71 173 111 113 32 174 72 116 65 175 105 117 50 176 90 118 50 177 90 118 44 178 84 119 32 179 72 116 19 180 47 121 11 181 31 122 37 182 77 123 37 183 77 123 49 184 89 120 19 185 47 121 49 186 89 125 37 187 77 126 36 188 76 127 36 189 76 127 48 190 88 124 49 191 89 125 35 192 75 128 8 193 25 129 12 194 33 130 12 195 33 130 47 196 87 131 35 197 75 128 34 198 74 132 57 199 97 133 58 200 98 134 58 201 98 134 40 202 80 135 34 203 74 132 97 204 137 136 72 205 112 137 73 206 113 138 73 207 113 138 96 208 136 139 97 209 137 136 64 210 104 141 65 211 105 142 32 212 72 143 32 213 72 143 38 214 78 140 64 215 104 141 37 216 77 144 11 217 31 145 15 218 39 146 15 219 39 146 43 220 83 147 37 221 77 144 36 222 76 148 37 223 77 149 43 224 83 150 43 225 83 150 42 226 82 151 36 227 76 148 16 228 41 153 8 229 25 154 35 230 75 155 35 231 75 155 41 232 81 152 16 233 41 153 55 234 95 157 56 235 96 158 46 236 86 159 46 237 86 159 54 238 94 156 55 239 95 157 44 240 84 160 50 241 90 161 51 242 91 162 51 243 91 162 52 244 92 163 44 245 84 160 6 246 19 165 19 247 47 166 49 248 89 167 49 249 89 167 31 250 68 164 6 251 19 165 31 252 68 169 49 253 89 170 48 254 88 171 48 255 88 171 30 256 67 168 31 257 68 169 47 258 87 172 12 259 33 173 2 260 17 174 2 261 17 174 29 262 66 175 47 263 87 172 13 264 35 176 1 265 9 177 51 266 91 178 51 267 91 178 50 268 90 179 13 269 35 176 1 270 9 180 20 271 48 181 52 272 92 182 52 273 92 182 51 274 91 183 1 275 9 180 20 276 48 184 21 277 49 185 53 278 93 186 53 279 93 186 52 280 92 187 20 281 48 184 21 282 49 188 22 283 50 189 54 284 94 190 54 285 94 190 53 286 93 191 21 287 49 188 22 288 50 192 5 289 11 193 55 290 95 194 55 291 95 194 54 292 94 195 22 293 50 192 168 294 244 196 166 295 242 197 167 296 243 198 165 297 241 200 166 298 242 201 168 299 244 202 168 300 244 202 169 301 245 199 165 302 241 200 162 303 238 203 164 304 240 204 165 305 241 205 165 306 241 205 169 307 245 206 162 308 238 203 163 309 239 207 164 310 240 208 162 311 238 209 4 312 10 210 23 313 54 211 60 314 100 212 60 315 100 212 59 316 99 213 4 317 10 210 23 318 54 214 24 319 55 215 61 320 101 216 61 321 101 216 60 322 100 217 23 323 54 214 24 324 55 218 25 325 56 219 62 326 102 220 62 327 102 220 61 328 101 221 24 329 55 218 25 330 56 222 0 331 8 223 63 332 103 224 63 333 103 224 62 334 102 225 25 335 56 222 0 336 8 226 17 337 43 227 64 338 104 228 64 339 104 228 63 340 103 229 0 341 8 226 17 342 43 230 9 343 27 231 65 344 105 232 65 345 105 232 64 346 104 233 17 347 43 230 9 348 27 234 13 349 35 235 50 350 90 236 50 351 90 236 65 352 105 237 9 353 27 234 91 354 131 238 109 355 149 239 110 356 150 240 110 357 150 240 90 358 130 241 91 359 131 238 38 360 78 242 32 361 72 243 68 362 108 244 68 363 108 244 67 364 107 245 38 365 78 242 32 366 72 246 44 367 84 247 69 368 109 248 69 369 109 248 68 370 108 249 32 371 72 246 87 372 127 251 88 373 128 252 112 374 152 253 112 375 152 253 113 376 153 250 87 377 127 251 99 378 139 254 100 379 140 255 46 380 86 256 99 381 139 254 46 382 86 256 71 383 111 257 99 384 139 254 71 385 111 257 98 386 138 258 46 387 86 259 34 388 74 260 72 389 112 261 72 390 112 261 71 391 111 262 46 392 86 259 34 393 74 263 40 394 80 264 73 395 113 265 73 396 113 265 72 397 112 266 34 398 74 263 76 399 116 267 77 400 117 268 94 401 134 269 76 402 116 267 94 403 134 269 40 404 80 270 61 405 101 272 74 406 114 273 75 407 115 274 60 408 100 271 61 409 101 272 75 410 115 274 40 411 80 270 60 412 100 271 75 413 115 274 76 414 116 267 40 415 80 270 75 416 115 274 76 417 116 275 75 418 115 276 74 419 114 277 76 420 116 275 74 421 114 277 39 422 79 278 76 423 116 275 39 424 79 278 77 425 117 279 77 426 117 280 39 427 79 281 66 428 106 282 66 429 106 282 78 430 118 283 77 431 117 280 78 432 118 284 66 433 106 285 33 434 73 286 33 435 73 286 79 436 119 287 78 437 118 284 33 438 73 289 70 439 110 290 80 440 120 291 80 441 120 291 79 442 119 288 33 443 73 289 70 444 110 293 45 445 85 294 81 446 121 295 81 447 121 295 80 448 120 292 70 449 110 293 100 450 140 300 81 451 121 301 82 452 122 302 46 453 86 299 100 454 140 300 82 455 122 302 54 456 94 298 46 457 86 299 82 458 122 302 54 459 94 298 82 460 122 302 83 461 123 303 53 462 93 297 54 463 94 298 83 464 123 303 84 465 124 296 53 466 93 297 83 467 123 303 82 468 122 305 81 469 121 306 45 470 85 307 83 471 123 304 82 472 122 305 45 473 85 307 83 474 123 304 45 475 85 307 84 476 124 308 85 477 125 309 84 478 124 310 45 479 85 311 45 480 85 311 87 481 127 312 86 482 126 313 85 483 125 309 45 484 85 311 86 485 126 313 45 486 85 315 70 487 110 316 88 488 128 317 88 489 128 317 87 490 127 314 45 491 85 315 70 492 110 319 33 493 73 320 89 494 129 321 89 495 129 321 88 496 128 318 70 497 110 319 89 498 129 322 33 499 73 323 66 500 106 324 66 501 106 324 90 502 130 325 89 503 129 322 90 504 130 326 66 505 106 327 39 506 79 328 39 507 79 328 91 508 131 329 90 509 130 326 92 510 132 331 91 511 131 332 39 512 79 333 92 513 132 331 39 514 79 333 74 515 114 334 93 516 133 330 92 517 132 331 74 518 114 334 40 519 80 337 94 520 134 338 95 521 135 339 73 522 113 336 40 523 80 337 95 524 135 339 96 525 136 335 73 526 113 336 95 527 135 339 105 528 145 340 94 529 134 341 77 530 117 342 105 531 145 340 77 532 117 342 78 533 118 343 105 534 145 340 78 535 118 343 104 536 144 344 104 537 144 345 78 538 118 346 79 539 119 347 79 540 119 347 103 541 143 348 104 542 144 345 79 543 119 350 80 544 120 351 102 545 142 352 102 546 142 352 103 547 143 349 79 548 119 350 81 549 121 355 100 550 140 356 101 551 141 357 80 552 120 354 81 553 121 355 101 554 141 357 102 555 142 353 80 556 120 354 101 557 141 357 100 558 140 359 99 559 139 360 98 560 138 361 101 561 141 358 100 562 140 359 98 563 138 361 101 564 141 358 98 565 138 361 102 566 142 362 98 567 138 364 97 568 137 365 103 569 143 366 103 570 143 366 102 571 142 363 98 572 138 364 103 573 143 367 97 574 137 368 96 575 136 369 96 576 136 369 104 577 144 370 103 578 143 367 95 579 135 373 94 580 134 374 105 581 145 375 96 582 136 372 95 583 135 373 105 584 145 375 104 585 144 371 96 586 136 372 105 587 145 375 108 588 148 376 109 589 149 377 91 590 131 378 93 591 133 380 74 592 114 381 61 593 101 382 61 594 101 382 62 595 102 383 106 596 146 384 93 597 133 380 61 598 101 382 106 599 146 384 93 600 133 380 106 601 146 384 107 602 147 385 92 603 132 379 93 604 133 380 107 605 147 385 91 606 131 378 92 607 132 379 107 608 147 385 108 609 148 376 91 610 131 378 107 611 147 385 125 612 165 387 106 613 146 388 62 614 102 389 125 615 165 387 62 616 102 389 38 617 78 390 124 618 164 386 125 619 165 387 38 620 78 390 124 621 164 386 38 622 78 390 123 623 163 391 123 624 163 392 38 625 78 393 67 626 107 394 67 627 107 394 122 628 162 395 123 629 163 392 122 630 162 396 67 631 107 397 68 632 108 398 68 633 108 398 121 634 161 399 122 635 162 396 68 636 108 401 69 637 109 402 120 638 160 403 120 639 160 403 121 640 161 400 68 641 108 401 69 642 109 405 44 643 84 406 119 644 159 407 119 645 159 407 120 646 160 404 69 647 109 405 53 648 93 410 84 649 124 411 85 650 125 412 86 651 126 413 87 652 127 414 113 653 153 415 85 654 125 412 86 655 126 413 113 656 153 415 85 657 125 412 113 658 153 415 114 659 154 416 53 660 93 410 85 661 125 412 114 662 154 416 53 663 93 410 114 664 154 416 115 665 155 417 52 666 92 409 53 667 93 410 115 668 155 417 116 669 156 408 52 670 92 409 115 671 155 417 117 672 157 419 116 673 156 420 115 674 155 421 115 675 155 421 114 676 154 422 113 677 153 423 117 678 157 419 115 679 155 421 113 680 153 423 118 681 158 418 117 682 157 419 113 683 153 423 118 684 158 418 113 685 153 423 119 686 159 424 113 687 153 426 112 688 152 427 120 689 160 428 120 690 160 428 119 691 159 425 113 692 153 426 112 693 152 430 111 694 151 431 121 695 161 432 121 696 161 432 120 697 160 429 112 698 152 430 121 699 161 433 111 700 151 434 110 701 150 435 110 702 150 435 122 703 162 436 121 704 161 433 122 705 162 437 110 706 150 438 109 707 149 439 109 708 149 439 123 709 163 440 122 710 162 437 109 711 149 442 108 712 148 443 107 713 147 444 106 714 146 445 125 715 165 446 124 716 164 447 107 717 147 444 106 718 146 445 124 719 164 447 109 720 149 442 107 721 147 444 124 722 164 447 123 723 163 441 109 724 149 442 124 725 164 447 118 726 158 450 119 727 159 451 44 728 84 452 117 729 157 449 118 730 158 450 44 731 84 452 117 732 157 449 44 733 84 452 52 734 92 453 116 735 156 448 117 736 157 449 52 737 92 453 126 738 166 454 154 739 222 455 159 740 232 456 159 741 232 456 127 742 167 457 126 743 166 454 130 744 170 458 131 745 171 459 156 746 226 460 156 747 226 460 161 748 236 461 130 749 170 458 159 750 233 463 156 751 227 464 131 752 176 465 131 753 176 465 127 754 174 462 159 755 233 463 158 756 231 467 157 757 229 468 132 758 180 469 132 759 180 469 128 760 178 466 158 761 231 467 146 762 206 471 151 763 216 472 135 764 184 473 135 765 184 473 134 766 182 470 146 767 206 471 136 768 186 474 148 769 210 475 153 770 220 476 153 771 220 476 137 772 188 477 136 773 186 474 151 774 217 479 148 775 211 480 136 776 187 481 136 777 187 481 135 778 185 478 151 779 217 479 150 780 215 483 149 781 213 484 137 782 189 485 137 783 189 485 134 784 183 482 150 785 215 483 138 786 190 486 150 787 214 487 147 788 208 488 147 789 208 488 143 790 200 489 138 791 190 486 152 792 218 491 149 793 212 492 145 794 204 493 145 795 204 493 140 796 194 490 152 797 218 491 147 798 209 495 152 799 219 496 140 800 195 497 140 801 195 497 143 802 201 494 147 803 209 495 146 804 207 499 153 805 221 500 141 806 197 501 141 807 197 501 142 808 199 498 146 809 207 499 158 810 230 503 155 811 224 504 139 812 192 505 139 813 192 505 142 814 198 502 158 815 230 503 144 816 202 506 160 817 234 507 157 818 228 508 157 819 228 508 141 820 196 509 144 821 202 506 155 822 225 511 160 823 235 512 144 824 203 513 144 825 203 513 139 826 193 510 155 827 225 511 154 828 223 515 161 829 237 516 145 830 205 517 145 831 205 517 138 832 191 514 154 833 223 515 142 834 198 519 139 835 192 520 151 836 216 521 151 837 216 521 146 838 206 518 142 839 198 519 148 840 210 522 144 841 202 523 141 842 196 524 141 843 196 524 153 844 220 525 148 845 210 522 139 846 193 527 144 847 203 528 148 848 211 529 148 849 211 529 151 850 217 526 139 851 193 527 138 852 191 531 145 853 205 532 149 854 213 533 149 855 213 533 150 856 215 530 138 857 191 531 150 858 214 534 134 859 182 535 135 860 184 536 135 861 184 536 147 862 208 537 150 863 214 534 136 864 186 539 137 865 188 540 149 866 212 541 149 867 212 541 152 868 218 538 136 869 186 539 135 870 185 543 136 871 187 544 152 872 219 545 152 873 219 545 147 874 209 542 135 875 185 543 134 876 183 547 137 877 189 548 153 878 221 549 153 879 221 549 146 880 207 546 134 881 183 547 154 882 222 550 138 883 190 551 143 884 200 552 143 885 200 552 159 886 232 553 154 887 222 550 140 888 194 555 145 889 204 556 161 890 236 557 161 891 236 557 156 892 226 554 140 893 194 555 143 894 201 559 140 895 195 560 156 896 227 561 156 897 227 561 159 898 233 558 143 899 201 559 142 900 199 563 141 901 197 564 157 902 229 565 157 903 229 565 158 904 231 562 142 905 199 563 128 906 168 567 129 907 169 568 155 908 224 569 155 909 224 569 158 910 230 566 128 911 168 567 160 912 234 570 133 913 173 571 132 914 172 572 132 915 172 572 157 916 228 573 160 917 234 570 129 918 175 575 133 919 177 576 160 920 235 577 160 921 235 577 155 922 225 574 129 923 175 575 126 924 179 579 130 925 181 580 161 926 237 581 161 927 237 581 154 928 223 578 126 929 179 579 162 930 238 582 14 931 37 583 4 932 10 584 58 933 98 586 164 934 240 587 163 935 239 588 59 936 99 585 58 937 98 586 163 938 239 588 4 939 10 584 59 940 99 585 163 941 239 588 162 942 238 582 4 943 10 584 163 944 239 588 164 945 240 589 58 946 98 590 57 947 97 591 57 948 97 591 165 949 241 592 164 950 240 589 57 951 97 594 56 952 96 595 166 953 242 596 166 954 242 596 165 955 241 593 57 956 97 594 166 957 242 598 56 958 96 599 55 959 95 600 167 960 243 597 166 961 242 598 55 962 95 600 167 963 243 597 55 964 95 600 5 965 11 601 167 966 243 597 5 967 11 601 18 968 45 602 167 969 243 597 18 970 45 602 168 971 244 603 18 972 45 605 10 973 29 606 169 974 245 607 169 975 245 607 168 976 244 604 18 977 45 605 169 978 245 608 10 979 29 609 14 980 37 610 14 981 37 610 162 982 238 611 169 983 245 608</p>
        </triangles>
      </mesh>
    </geometry>
  </library_geometries>
  <library_visual_scenes>
    <visual_scene id="SM_Mask_01_A_1" name="SM_Mask_01_A_1">
      <node name="SM_Mask_01_A_1" id="SM_Mask_01_A_1" sid="SM_Mask_01_A_1">
        <matrix sid="matrix">-0.000000 6.255398 0.000000 0.000000 -8.062716 -0.000000 0.000000 0.000000 0.000000 0.000000 6.255398 0.000000 0.000000 0.000000 0.000000 1.000000</matrix>
        <instance_geometry url="#SM_Mask_01_A_1-lib"/>
        <extra>
          <technique profile="FCOLLADA">
            <visibility>1.000000</visibility>
          </technique>
        </extra>
      </node>
      <extra>
        <technique profile="MAX3D">
          <frame_rate>30.000000</frame_rate>
        </technique>
        <technique profile="FCOLLADA">
          <start_time>0.000000</start_time>
          <end_time>3.333333</end_time>
        </technique>
      </extra>
    </visual_scene>
  </library_visual_scenes>
  <scene>
    <instance_visual_scene url="#SM_Mask_01_A_1"/>
  </scene>
</COLLADA>
