<?xml version="1.0" encoding="utf-8"?>
<COLLADA xmlns="http://www.collada.org/2005/11/COLLADASchema" version="1.4.1">
  <asset>
    <contributor>
      <author/>
      <authoring_tool>FBX COLLADA exporter</authoring_tool>
      <comments/>
    </contributor>
    <created>2020-04-24T15:04:56Z</created>
    <keywords/>
    <modified>2020-04-24T15:04:56Z</modified>
    <revision/>
    <subject/>
    <title/>
    <unit meter="0.010000" name="centimeter"/>
    <up_axis>Z_UP</up_axis>
  </asset>
  <library_geometries>
    <geometry id="SM_OliveOil_01_A_1-lib" name="SM_OliveOil_01_A_1Mesh">
      <mesh>
        <source id="SM_OliveOil_01_A_1-POSITION">
          <float_array id="SM_OliveOil_01_A_1-POSITION-array" count="588">
-3.937008 -3.069352 -19.439694
3.069352 -3.937008 -19.439694
-3.069352 3.937008 -19.439694
3.937008 3.069352 -19.439694
-3.069352 -3.937008 8.946175
3.937008 -3.069352 8.946175
-3.937008 3.069352 8.946175
3.069352 3.937008 8.946175
-1.491501 -1.491502 13.349480
1.491502 -1.491501 13.349480
1.491502 1.491502 13.349480
-1.491501 1.491501 13.349480
-1.352794 -1.352794 18.108719
1.352793 -1.352794 18.108719
1.352794 1.352793 18.108719
-1.352794 1.352793 18.108719
-1.352794 -1.352794 20.657143
1.352793 -1.352794 20.657143
1.352794 1.352793 20.657143
-1.352794 1.352793 20.657143
-1.519838 -1.519838 18.108719
1.519838 -1.519838 18.108719
1.519838 1.519838 18.108719
-1.519838 1.519837 18.108719
1.519838 -1.519838 20.657143
-1.519838 -1.519838 20.657143
-1.519838 1.519838 20.657143
1.519838 1.519838 20.657143
-3.937008 -1.312336 -19.439694
-2.719560 1.312336 -20.657143
3.937008 1.312336 -19.439694
2.719560 -1.312336 -20.657143
3.937008 -1.312336 8.946175
3.937008 1.312336 8.946175
-3.937008 1.312336 8.946175
-3.937008 -1.312336 8.946175
1.929312 -0.497167 13.349480
1.929312 0.497167 13.349480
-1.929312 0.497167 13.349480
-1.929311 -0.497167 13.349480
1.591931 -0.450931 18.108719
1.591931 0.450932 18.108719
-1.591931 0.450931 18.108719
-1.591931 -0.450932 18.108719
1.591931 0.450931 20.657143
1.591931 -0.450932 20.657143
-1.591931 -0.450931 20.657143
-1.591930 0.450931 20.657143
2.057706 -0.506613 18.108719
2.057706 0.506613 18.108719
-2.057705 0.506612 18.108719
-2.057705 -0.506613 18.108719
-2.057705 -0.506613 20.657143
-2.057705 0.506612 20.657143
2.057706 0.506613 20.657143
2.057706 -0.506613 20.657143
-1.312336 3.937008 -19.439694
1.312336 2.719560 -20.657143
1.312336 -3.937008 -19.439694
-1.312336 -2.719560 -20.657143
-1.312336 -3.937008 8.946175
1.312336 -3.937008 8.946175
1.312336 3.937008 8.946175
-1.312336 3.937008 8.946175
-0.497167 -1.929312 13.349480
0.497168 -1.929312 13.349480
0.497168 1.929312 13.349480
-0.497167 1.929312 13.349480
-0.450931 -1.591931 18.108719
0.450931 -1.591931 18.108719
0.450932 1.591930 18.108719
-0.450931 1.591931 18.108719
0.450931 -1.591931 20.657143
-0.450932 -1.591931 20.657143
-0.450931 1.591930 20.657143
0.450932 1.591930 20.657143
-0.506613 -2.057706 18.108719
0.506612 -2.057706 18.108719
0.506613 2.057706 18.108719
-0.506613 2.057705 18.108719
0.506613 -2.057706 20.657143
-0.506613 -2.057706 20.657143
-0.506613 2.057706 20.657143
0.506613 2.057706 20.657143
-1.312336 1.312336 -20.657143
1.312336 1.312336 -20.657143
1.312336 -1.312336 -20.657143
-1.312336 -1.312336 -20.657143
0.530643 0.530644 20.657143
-0.530643 0.530644 20.657143
-0.530643 -0.530643 20.657143
0.530644 -0.530643 20.657143
-1.851904 -2.719560 -20.657143
2.719560 -1.851904 -20.657143
-2.719560 1.851904 -20.657143
1.851904 2.719560 -20.657143
-2.719560 -1.312336 -20.657143
-3.937008 1.312336 -19.439694
2.719560 1.312336 -20.657143
3.937008 -1.312336 -19.439694
-1.312336 2.719560 -20.657143
1.312336 3.937008 -19.439694
1.312336 -2.719560 -20.657143
-1.312336 -3.937008 -19.439694
-3.632646 -2.764990 -20.352781
2.764990 -3.632646 -20.352781
-2.764990 3.632646 -20.352781
3.632646 2.764990 -20.352781
-3.632646 -1.312336 -20.352781
-3.632646 1.312336 -20.352781
3.632646 1.312336 -20.352781
3.632646 -1.312336 -20.352781
-1.312336 3.632646 -20.352781
1.312336 3.632646 -20.352781
1.312336 -3.632646 -20.352781
-1.312336 -3.632646 -20.352781
-2.519865 -3.387521 10.413942
-1.956492 -1.956492 11.881710
3.387521 -2.519865 10.413942
1.956493 -1.956492 11.881710
2.519865 3.387521 10.413942
1.956493 1.956492 11.881710
-3.387521 2.519865 10.413942
-1.956492 1.956493 11.881710
3.387521 1.129174 10.413942
2.612736 0.478018 11.881710
2.612736 -0.478018 11.881710
3.387521 -1.129174 10.413942
-3.387521 -1.129174 10.413942
-2.612736 -0.478018 11.881710
-2.612736 0.478018 11.881710
-3.387521 1.129174 10.413942
1.129174 -3.387521 10.413942
0.478018 -2.612736 11.881710
-0.478017 -2.612736 11.881710
-1.129174 -3.387521 10.413942
-1.129174 3.387521 10.413942
-0.478018 2.612735 11.881710
0.478018 2.612736 11.881710
1.129174 3.387521 10.413942
-3.069352 -3.937008 -19.439694
3.937008 -3.069352 -19.439694
-3.937008 3.069352 -19.439694
3.069352 3.937008 -19.439694
-3.937008 -3.069352 8.946175
3.069352 -3.937008 8.946175
-3.069352 3.937008 8.946175
3.937008 3.069352 8.946175
-2.719560 -1.851904 -20.657143
1.851904 -2.719560 -20.657143
-1.851904 2.719560 -20.657143
2.719560 1.851904 -20.657143
-2.764990 -3.632646 -20.352781
3.632646 -2.764990 -20.352781
-3.632646 2.764990 -20.352781
2.764990 3.632646 -20.352781
-2.890866 -2.890866 10.923347
-3.387521 -2.519865 10.413942
2.890866 -2.890866 10.923347
2.519865 -3.387521 10.413942
2.890866 2.890866 10.923347
3.387521 2.519865 10.413942
-2.890865 2.890866 10.923347
-2.519865 3.387521 10.413942
3.069352 -3.937008 -16.104355
3.069352 -3.937008 5.610836
-3.069352 -3.937008 5.610836
-3.069352 -3.937008 -16.104355
3.937008 3.069352 -16.104355
3.937008 3.069352 5.610836
-3.069352 3.937008 -16.104355
-3.069352 3.937008 5.610836
3.937008 1.312336 -16.104355
3.937008 1.312336 5.610836
3.937008 -1.312336 5.610836
3.937008 -1.312336 -16.104355
-3.937008 -1.312336 -16.104355
-3.937008 -1.312336 5.610836
-3.937008 1.312336 5.610836
-3.937008 1.312336 -16.104355
1.312336 -3.937008 -16.104355
1.312336 -3.937008 5.610836
-1.312336 -3.937008 5.610836
-1.312336 -3.937008 -16.104355
-1.312336 3.937008 -16.104355
-1.312336 3.937008 5.610836
1.312336 3.937008 5.610836
1.312336 3.937008 -16.104355
3.937008 -3.069352 -16.104355
3.937008 -3.069352 5.610836
-3.937008 -3.069352 5.610836
-3.937008 -3.069352 -16.104355
3.069352 3.937008 -16.104355
3.069352 3.937008 5.610836
-3.937008 3.069352 -16.104355
-3.937008 3.069352 5.610836
</float_array>
          <technique_common>
            <accessor source="#SM_OliveOil_01_A_1-POSITION-array" count="196" stride="3">
              <param name="X" type="float"/>
              <param name="Y" type="float"/>
              <param name="Z" type="float"/>
            </accessor>
          </technique_common>
        </source>
        <source id="SM_OliveOil_01_A_1-Normal0">
          <float_array id="SM_OliveOil_01_A_1-Normal0-array" count="3492">
0.000000 0.000000 -1.000000
0.000000 0.000000 -1.000000
0.000000 0.000000 -1.000000
0.000000 0.000000 -1.000000
0.000000 0.000000 -1.000000
0.000000 0.000000 -1.000000
0.000000 0.000000 1.000000
0.000000 0.000000 1.000000
0.000000 0.000000 1.000000
0.000000 0.000000 1.000000
0.000000 0.000000 1.000000
0.000000 0.000000 1.000000
0.000000 -1.000000 0.000000
0.000000 -1.000000 0.000000
0.000000 -1.000000 0.000000
0.000000 -1.000000 0.000000
0.000000 -1.000000 0.000000
0.000000 -1.000000 0.000000
1.000000 0.000000 0.000000
1.000000 0.000000 0.000000
1.000000 0.000000 0.000000
1.000000 0.000000 0.000000
1.000000 0.000000 0.000000
1.000000 0.000000 0.000000
0.000000 1.000000 0.000000
0.000000 1.000000 0.000000
0.000000 1.000000 0.000000
0.000000 1.000000 0.000000
0.000000 1.000000 0.000000
0.000000 1.000000 0.000000
-1.000000 0.000000 0.000000
-1.000000 0.000000 0.000000
-1.000000 0.000000 0.000000
-1.000000 0.000000 0.000000
-1.000000 0.000000 0.000000
-1.000000 0.000000 0.000000
0.160401 -0.870139 0.465971
-0.160401 -0.870139 0.465971
-0.043981 -0.880176 0.472605
-0.043981 -0.880176 0.472605
0.043981 -0.880176 0.472605
0.160401 -0.870139 0.465971
0.870139 0.160401 0.465971
0.870139 -0.160401 0.465971
0.880176 -0.043981 0.472605
0.880176 -0.043981 0.472605
0.880176 0.043981 0.472605
0.870139 0.160401 0.465971
-0.160401 0.870139 0.465971
0.160400 0.870139 0.465971
0.043981 0.880176 0.472605
0.043981 0.880176 0.472605
-0.043981 0.880176 0.472605
-0.160401 0.870139 0.465971
-0.870139 -0.160401 0.465971
-0.870139 0.160401 0.465971
-0.880176 0.043981 0.472605
-0.880176 0.043981 0.472605
-0.880176 -0.043981 0.472605
-0.870139 -0.160401 0.465971
0.201385 -0.948556 0.244308
0.128866 -0.989091 0.071368
-0.128866 -0.989091 0.071368
-0.128866 -0.989091 0.071368
-0.201384 -0.948556 0.244308
0.201385 -0.948556 0.244308
0.948556 0.201384 0.244308
0.989090 0.128867 0.071368
0.989090 -0.128867 0.071368
0.989090 -0.128867 0.071368
0.948556 -0.201384 0.244308
0.948556 0.201384 0.244308
-0.201385 0.948556 0.244308
-0.128867 0.989091 0.071368
0.128867 0.989090 0.071368
0.128867 0.989090 0.071368
0.201384 0.948556 0.244308
-0.201385 0.948556 0.244308
-0.948556 -0.201384 0.244308
-0.989090 -0.128866 0.071368
-0.989091 0.128866 0.071368
-0.989091 0.128866 0.071368
-0.948556 0.201384 0.244308
-0.948556 -0.201384 0.244308
0.241596 -0.970377 -0.000000
0.241596 -0.970377 -0.000000
-0.241596 -0.970377 -0.000000
-0.241596 -0.970377 -0.000000
-0.241596 -0.970377 -0.000000
0.241596 -0.970377 -0.000000
0.970377 0.241596 0.000000
0.970377 0.241596 -0.000000
0.970377 -0.241596 0.000000
0.970377 -0.241596 0.000000
0.970377 -0.241596 0.000000
0.970377 0.241596 0.000000
-0.241596 0.970377 -0.000000
-0.241596 0.970377 -0.000000
0.241596 0.970377 -0.000000
0.241596 0.970377 -0.000000
0.241596 0.970377 -0.000000
-0.241596 0.970377 -0.000000
-0.970377 -0.241595 0.000000
-0.970377 -0.241596 0.000000
-0.970377 0.241595 0.000000
-0.970377 0.241595 0.000000
-0.970377 0.241596 -0.000000
-0.970377 -0.241595 0.000000
0.000000 0.000000 -1.000000
0.000000 0.000000 -1.000000
0.000000 0.000000 -1.000000
0.000000 0.000000 -1.000000
0.000000 0.000000 -1.000000
0.000000 0.000000 -1.000000
0.000000 0.000000 -1.000000
0.000000 0.000000 -1.000000
0.000000 0.000000 -1.000000
0.000000 0.000000 -1.000000
0.000000 0.000000 -1.000000
0.000000 0.000000 -1.000000
0.000000 0.000000 -1.000000
0.000000 0.000000 -1.000000
0.000000 0.000000 -1.000000
0.000000 0.000000 -1.000000
0.000000 0.000000 -1.000000
0.000000 0.000000 -1.000000
0.000000 0.000000 -1.000000
0.000000 0.000000 -1.000000
0.000000 0.000000 -1.000000
0.000000 0.000000 -1.000000
0.000000 0.000000 -1.000000
0.000000 0.000000 -1.000000
0.000000 0.000000 1.000000
0.000000 0.000000 1.000000
0.000000 0.000000 1.000000
0.000000 0.000000 1.000000
0.000000 0.000000 1.000000
0.000000 0.000000 1.000000
0.000000 0.000000 1.000000
0.000000 0.000000 1.000000
0.000000 0.000000 1.000000
0.000000 0.000000 1.000000
0.000000 0.000000 1.000000
0.000000 0.000000 1.000000
0.000000 0.000000 1.000000
0.000000 0.000000 1.000000
0.000000 0.000000 1.000000
0.000000 0.000000 1.000000
0.000000 0.000000 1.000000
0.000000 0.000000 1.000000
0.000000 0.000000 1.000000
0.000000 0.000000 1.000000
0.000000 0.000000 1.000000
0.000000 0.000000 1.000000
0.000000 0.000000 1.000000
0.000000 0.000000 1.000000
0.000000 0.160182 -0.987087
0.000000 0.000000 -1.000000
0.000000 0.000000 -1.000000
0.000000 0.000000 -1.000000
0.000000 0.160182 -0.987087
0.000000 0.160182 -0.987087
0.000000 -0.160182 -0.987087
0.000000 0.000000 -1.000000
0.000000 0.000000 -1.000000
0.000000 0.000000 -1.000000
0.000000 -0.160182 -0.987087
0.000000 -0.160182 -0.987087
0.000000 0.000000 1.000000
0.000000 0.000000 1.000000
0.000000 0.000000 1.000000
0.000000 0.000000 1.000000
0.000000 0.000000 1.000000
0.000000 0.000000 1.000000
0.000000 0.000000 1.000000
0.000000 0.000000 1.000000
0.000000 0.000000 1.000000
0.000000 0.000000 1.000000
0.000000 0.000000 1.000000
0.000000 0.000000 1.000000
1.000000 0.000000 0.000000
1.000000 0.000000 0.000000
1.000000 0.000000 0.000000
1.000000 0.000000 0.000000
1.000000 0.000000 0.000000
1.000000 0.000000 0.000000
1.000000 0.000000 0.000000
1.000000 0.000000 0.000000
1.000000 0.000000 0.000000
1.000000 0.000000 0.000000
1.000000 0.000000 0.000000
1.000000 0.000000 0.000000
-1.000000 0.000000 0.000000
-1.000000 0.000000 0.000000
-1.000000 0.000000 0.000000
-1.000000 0.000000 0.000000
-1.000000 0.000000 0.000000
-1.000000 0.000000 0.000000
-1.000000 0.000000 0.000000
-1.000000 0.000000 0.000000
-1.000000 0.000000 0.000000
-1.000000 0.000000 0.000000
-1.000000 0.000000 0.000000
-1.000000 0.000000 0.000000
0.802347 0.259239 0.537619
0.870139 0.160401 0.465971
0.880176 0.043981 0.472605
0.716011 0.000000 0.698089
0.802347 0.259239 0.537619
0.880176 0.043981 0.472605
0.840229 0.000000 0.542231
0.716011 0.000000 0.698089
0.880176 0.043981 0.472605
0.802347 -0.259239 0.537619
0.716011 -0.000001 0.698089
0.840230 -0.000000 0.542231
0.802347 -0.259239 0.537619
0.840230 -0.000000 0.542231
0.880176 -0.043981 0.472605
0.802347 -0.259239 0.537619
0.880176 -0.043981 0.472605
0.870139 -0.160401 0.465971
-0.802347 -0.259239 0.537619
-0.870139 -0.160401 0.465971
-0.880176 -0.043981 0.472605
-0.716011 -0.000000 0.698089
-0.802347 -0.259239 0.537619
-0.880176 -0.043981 0.472605
-0.840229 0.000000 0.542231
-0.716011 -0.000000 0.698089
-0.880176 -0.043981 0.472605
-0.802347 0.259239 0.537620
-0.716011 0.000001 0.698089
-0.840230 0.000000 0.542231
-0.802347 0.259239 0.537620
-0.840230 0.000000 0.542231
-0.880176 0.043981 0.472605
-0.802347 0.259239 0.537620
-0.880176 0.043981 0.472605
-0.870139 0.160401 0.465971
0.948556 0.201384 0.244308
0.891468 0.393321 0.224907
0.958626 0.276826 0.066356
0.958626 0.276826 0.066356
0.989090 0.128867 0.071368
0.948556 0.201384 0.244308
0.958626 -0.276827 0.066356
0.891468 -0.393321 0.224907
0.948556 -0.201384 0.244308
0.948556 -0.201384 0.244308
0.989090 -0.128867 0.071368
0.958626 -0.276827 0.066356
-0.948556 -0.201384 0.244308
-0.891468 -0.393321 0.224907
-0.958626 -0.276826 0.066356
-0.958626 -0.276826 0.066356
-0.989090 -0.128866 0.071368
-0.948556 -0.201384 0.244308
-0.958626 0.276826 0.066356
-0.891468 0.393322 0.224907
-0.948556 0.201384 0.244308
-0.948556 0.201384 0.244308
-0.989091 0.128866 0.071368
-0.958626 0.276826 0.066356
0.883263 0.468878 -0.000000
0.883263 0.468878 -0.000000
0.970377 0.241596 -0.000000
0.970377 0.241596 -0.000000
0.970377 0.241596 0.000000
0.883263 0.468878 -0.000000
0.883263 -0.468878 0.000000
0.883263 -0.468878 -0.000000
0.970377 -0.241596 0.000000
0.970377 -0.241596 0.000000
0.970377 -0.241596 0.000000
0.883263 -0.468878 0.000000
-0.883263 -0.468878 0.000000
-0.883263 -0.468878 0.000000
-0.970377 -0.241596 0.000000
-0.970377 -0.241596 0.000000
-0.970377 -0.241595 0.000000
-0.883263 -0.468878 0.000000
-0.883263 0.468878 0.000000
-0.883263 0.468878 -0.000000
-0.970377 0.241596 -0.000000
-0.970377 0.241596 -0.000000
-0.970377 0.241595 0.000000
-0.883263 0.468878 0.000000
0.000000 0.000000 -1.000000
0.000000 0.000000 -1.000000
0.000000 0.000000 -1.000000
0.000000 0.000000 -1.000000
0.000000 0.000000 -1.000000
0.000000 0.000000 -1.000000
0.000000 0.000000 -1.000000
0.000000 0.000000 -1.000000
0.000000 0.000000 -1.000000
0.000000 0.000000 -1.000000
0.000000 0.000000 -1.000000
0.000000 0.000000 -1.000000
0.000000 0.000000 -1.000000
0.000000 0.000000 -1.000000
0.000000 0.000000 -1.000000
0.000000 0.000000 -1.000000
0.000000 0.000000 -1.000000
0.000000 0.000000 -1.000000
0.000000 0.000000 -1.000000
0.000000 0.000000 -1.000000
0.000000 0.000000 -1.000000
0.000000 0.000000 -1.000000
0.000000 0.000000 -1.000000
0.000000 0.000000 -1.000000
0.000000 0.000000 1.000000
0.000000 0.000000 1.000000
0.000000 0.000000 1.000000
0.000000 0.000000 1.000000
0.000000 0.000000 1.000000
0.000000 0.000000 1.000000
0.000000 0.000000 1.000000
0.000000 0.000000 1.000000
0.000000 0.000000 1.000000
0.000000 0.000000 1.000000
0.000000 0.000000 1.000000
0.000000 0.000000 1.000000
0.000000 0.000000 1.000000
0.000000 0.000000 1.000000
0.000000 0.000000 1.000000
0.000000 0.000000 1.000000
0.000000 0.000000 1.000000
0.000000 0.000000 1.000000
0.000000 0.000000 1.000000
0.000000 0.000000 1.000000
0.000000 0.000000 1.000000
0.000000 0.000000 1.000000
0.000000 0.000000 1.000000
0.000000 0.000000 1.000000
0.160182 0.000000 -0.987087
0.160182 0.000000 -0.987087
0.000000 0.000000 -1.000000
0.000000 0.000000 -1.000000
0.000000 0.000000 -1.000000
0.160182 0.000000 -0.987087
-0.160182 0.000000 -0.987087
-0.160182 0.000000 -0.987087
0.000000 0.000000 -1.000000
0.000000 0.000000 -1.000000
0.000000 0.000000 -1.000000
-0.160182 0.000000 -0.987087
0.000000 0.000000 1.000000
0.000000 0.000000 1.000000
0.000000 0.000000 1.000000
0.000000 0.000000 1.000000
0.000000 0.000000 1.000000
0.000000 0.000000 1.000000
0.000000 0.000000 1.000000
0.000000 0.000000 1.000000
0.000000 0.000000 1.000000
0.000000 0.000000 1.000000
0.000000 0.000000 1.000000
0.000000 0.000000 1.000000
0.000000 -1.000000 0.000000
0.000000 -1.000000 0.000000
0.000000 -1.000000 0.000000
0.000000 -1.000000 0.000000
0.000000 -1.000000 0.000000
0.000000 -1.000000 0.000000
0.000000 -1.000000 0.000000
0.000000 -1.000000 0.000000
0.000000 -1.000000 0.000000
0.000000 -1.000000 0.000000
0.000000 -1.000000 0.000000
0.000000 -1.000000 0.000000
0.000000 1.000000 0.000000
0.000000 1.000000 0.000000
0.000000 1.000000 0.000000
0.000000 1.000000 0.000000
0.000000 1.000000 0.000000
0.000000 1.000000 0.000000
0.000000 1.000000 0.000000
0.000000 1.000000 0.000000
0.000000 1.000000 0.000000
0.000000 1.000000 0.000000
0.000000 1.000000 0.000000
0.000000 1.000000 0.000000
0.259239 -0.802347 0.537619
0.160401 -0.870139 0.465971
0.043981 -0.880176 0.472605
0.000000 -0.716011 0.698089
0.259239 -0.802347 0.537619
0.043981 -0.880176 0.472605
0.000000 -0.840229 0.542231
0.000000 -0.716011 0.698089
0.043981 -0.880176 0.472605
-0.259240 -0.802347 0.537619
-0.000001 -0.716011 0.698089
-0.000000 -0.840230 0.542231
-0.259240 -0.802347 0.537619
-0.000000 -0.840230 0.542231
-0.043981 -0.880176 0.472605
-0.259240 -0.802347 0.537619
-0.043981 -0.880176 0.472605
-0.160401 -0.870139 0.465971
-0.259239 0.802347 0.537620
-0.160401 0.870139 0.465971
-0.043981 0.880176 0.472605
-0.000000 0.716011 0.698089
-0.259239 0.802347 0.537620
-0.043981 0.880176 0.472605
0.000000 0.840230 0.542231
-0.000000 0.716011 0.698089
-0.043981 0.880176 0.472605
0.259239 0.802347 0.537619
0.000001 0.716011 0.698089
0.000000 0.840229 0.542231
0.259239 0.802347 0.537619
0.000000 0.840229 0.542231
0.043981 0.880176 0.472605
0.259239 0.802347 0.537619
0.043981 0.880176 0.472605
0.160400 0.870139 0.465971
0.201385 -0.948556 0.244308
0.393322 -0.891468 0.224907
0.276826 -0.958626 0.066356
0.276826 -0.958626 0.066356
0.128866 -0.989091 0.071368
0.201385 -0.948556 0.244308
-0.276826 -0.958626 0.066356
-0.393321 -0.891468 0.224907
-0.201384 -0.948556 0.244308
-0.201384 -0.948556 0.244308
-0.128866 -0.989091 0.071368
-0.276826 -0.958626 0.066356
-0.201385 0.948556 0.244308
-0.393322 0.891468 0.224907
-0.276827 0.958626 0.066356
-0.276827 0.958626 0.066356
-0.128867 0.989091 0.071368
-0.201385 0.948556 0.244308
0.276826 0.958626 0.066356
0.393321 0.891468 0.224907
0.201384 0.948556 0.244308
0.201384 0.948556 0.244308
0.128867 0.989090 0.071368
0.276826 0.958626 0.066356
0.468878 -0.883263 -0.000000
0.468878 -0.883263 -0.000000
0.241596 -0.970377 -0.000000
0.241596 -0.970377 -0.000000
0.241596 -0.970377 -0.000000
0.468878 -0.883263 -0.000000
-0.468878 -0.883263 -0.000000
-0.468878 -0.883263 0.000000
-0.241596 -0.970377 -0.000000
-0.241596 -0.970377 -0.000000
-0.241596 -0.970377 -0.000000
-0.468878 -0.883263 -0.000000
-0.468878 0.883263 -0.000000
-0.468878 0.883263 -0.000000
-0.241596 0.970377 -0.000000
-0.241596 0.970377 -0.000000
-0.241596 0.970377 -0.000000
-0.468878 0.883263 -0.000000
0.468878 0.883263 -0.000000
0.468878 0.883263 -0.000000
0.241596 0.970377 -0.000000
0.241596 0.970377 -0.000000
0.241596 0.970377 -0.000000
0.468878 0.883263 -0.000000
0.000000 0.000000 -1.000000
0.000000 0.000000 -1.000000
0.000000 0.000000 -1.000000
0.000000 0.000000 -1.000000
0.000000 0.000000 -1.000000
0.000000 0.000000 -1.000000
0.000000 0.000000 -1.000000
0.000000 0.000000 -1.000000
0.000000 0.000000 -1.000000
0.000000 0.000000 -1.000000
0.000000 0.000000 -1.000000
0.000000 0.000000 -1.000000
0.000000 0.000000 -1.000000
0.000000 0.000000 -1.000000
0.000000 0.000000 -1.000000
0.000000 0.000000 -1.000000
0.000000 0.000000 -1.000000
0.000000 0.000000 -1.000000
0.000000 0.000000 -1.000000
0.000000 0.000000 -1.000000
0.000000 0.000000 -1.000000
0.000000 0.000000 -1.000000
0.000000 0.000000 -1.000000
0.000000 0.000000 -1.000000
0.000000 0.000000 1.000000
0.000000 0.000000 1.000000
0.000000 0.000000 1.000000
0.000000 0.000000 1.000000
0.000000 0.000000 1.000000
0.000000 0.000000 1.000000
0.000000 0.000000 1.000000
0.000000 0.000000 1.000000
0.000000 0.000000 1.000000
0.000000 0.000000 1.000000
0.000000 0.000000 1.000000
0.000000 0.000000 1.000000
0.000000 0.000000 1.000000
0.000000 0.000000 1.000000
0.000000 0.000000 1.000000
0.000000 0.000000 1.000000
0.000000 0.000000 1.000000
0.000000 0.000000 1.000000
0.000000 0.000000 1.000000
0.000000 0.000000 1.000000
0.000000 0.000000 1.000000
0.000000 0.000000 1.000000
0.000000 0.000000 1.000000
0.000000 0.000000 1.000000
0.000000 0.160182 -0.987087
0.041227 0.160430 -0.986186
0.160430 0.041227 -0.986186
0.160430 0.041227 -0.986186
0.160182 0.000000 -0.987087
0.000000 0.000000 -1.000000
0.000000 0.160182 -0.987087
0.160430 0.041227 -0.986186
0.000000 0.000000 -1.000000
-0.160182 0.000000 -0.987087
-0.160430 0.041227 -0.986186
-0.041227 0.160430 -0.986186
-0.160182 0.000000 -0.987087
-0.041227 0.160430 -0.986186
0.000000 0.160182 -0.987087
0.000000 0.000000 -1.000000
-0.160182 0.000000 -0.987087
0.000000 0.160182 -0.987087
0.000000 -0.160182 -0.987087
-0.041227 -0.160430 -0.986186
-0.160430 -0.041227 -0.986186
-0.160430 -0.041227 -0.986186
-0.160182 0.000000 -0.987087
0.000000 0.000000 -1.000000
0.000000 -0.160182 -0.987087
-0.160430 -0.041227 -0.986186
0.000000 0.000000 -1.000000
0.160182 0.000000 -0.987087
0.160430 -0.041227 -0.986186
0.041227 -0.160430 -0.986186
0.160182 0.000000 -0.987087
0.041227 -0.160430 -0.986186
0.000000 -0.160182 -0.987087
0.000000 0.000000 -1.000000
0.160182 0.000000 -0.987087
0.000000 -0.160182 -0.987087
0.000000 0.000000 1.000000
0.000000 0.000000 1.000000
0.000000 0.000000 1.000000
0.000000 0.000000 1.000000
0.000000 0.000000 1.000000
0.000000 0.000000 1.000000
0.000000 0.000000 1.000000
0.000000 0.000000 1.000000
0.000000 0.000000 1.000000
0.000000 0.000000 1.000000
0.000000 0.000000 1.000000
0.000000 0.000000 1.000000
0.000000 0.000000 1.000000
0.000000 0.000000 1.000000
0.000000 0.000000 1.000000
0.000000 0.000000 1.000000
0.000000 0.000000 1.000000
0.000000 0.000000 1.000000
0.000000 0.000000 1.000000
0.000000 0.000000 1.000000
0.000000 0.000000 1.000000
0.000000 0.000000 1.000000
0.000000 0.000000 1.000000
0.000000 0.000000 1.000000
-0.316228 0.000000 -0.948683
-0.160182 0.000000 -0.987087
-0.160430 -0.041227 -0.986186
-0.160430 -0.041227 -0.986186
-0.215923 -0.107566 -0.970467
-0.316228 0.000000 -0.948683
0.000000 0.316228 -0.948683
0.000000 0.160182 -0.987087
-0.041227 0.160430 -0.986186
-0.041227 0.160430 -0.986186
-0.107566 0.215923 -0.970467
0.000000 0.316228 -0.948683
0.316228 0.000000 -0.948683
0.160182 0.000000 -0.987087
0.160430 0.041227 -0.986186
0.160430 0.041227 -0.986186
0.215923 0.107566 -0.970467
0.316228 0.000000 -0.948683
0.000000 -0.316228 -0.948683
0.000000 -0.160182 -0.987087
0.041227 -0.160430 -0.986186
0.041227 -0.160430 -0.986186
0.107566 -0.215923 -0.970467
0.000000 -0.316228 -0.948683
-0.316228 0.000000 -0.948683
-0.160182 0.000000 -0.987087
-0.160182 0.000000 -0.987087
-0.160182 0.000000 -0.987087
-0.316228 0.000000 -0.948683
-0.316228 0.000000 -0.948683
-0.215923 0.107566 -0.970467
-0.160430 0.041227 -0.986186
-0.160182 0.000000 -0.987087
-0.160182 0.000000 -0.987087
-0.316228 0.000000 -0.948683
-0.215923 0.107566 -0.970467
0.316228 0.000000 -0.948683
0.160182 0.000000 -0.987087
0.160182 0.000000 -0.987087
0.160182 0.000000 -0.987087
0.316228 0.000000 -0.948683
0.316228 0.000000 -0.948683
0.215923 -0.107566 -0.970467
0.160430 -0.041227 -0.986186
0.160182 0.000000 -0.987087
0.160182 0.000000 -0.987087
0.316228 0.000000 -0.948683
0.215923 -0.107566 -0.970467
0.000000 0.316228 -0.948683
0.000000 0.160182 -0.987087
0.000000 0.160182 -0.987087
0.000000 0.160182 -0.987087
0.000000 0.316228 -0.948683
0.000000 0.316228 -0.948683
0.107566 0.215923 -0.970467
0.041227 0.160430 -0.986186
0.000000 0.160182 -0.987087
0.000000 0.160182 -0.987087
0.000000 0.316228 -0.948683
0.107566 0.215923 -0.970467
0.000000 -0.316228 -0.948683
0.000000 -0.160182 -0.987087
0.000000 -0.160182 -0.987087
0.000000 -0.160182 -0.987087
0.000000 -0.316228 -0.948683
0.000000 -0.316228 -0.948683
-0.107566 -0.215923 -0.970467
-0.041227 -0.160430 -0.986186
0.000000 -0.160182 -0.987087
0.000000 -0.160182 -0.987087
0.000000 -0.316228 -0.948683
-0.107566 -0.215923 -0.970467
-0.987087 0.000000 -0.160182
-0.948683 0.000000 -0.316228
-0.948683 0.000000 -0.316228
-0.948683 0.000000 -0.316228
-0.989743 0.000000 -0.142857
-0.987087 0.000000 -0.160182
0.000000 0.987087 -0.160182
0.000000 0.948683 -0.316228
0.000000 0.948683 -0.316228
0.000000 0.948683 -0.316228
0.000000 0.989743 -0.142857
0.000000 0.987087 -0.160182
0.987087 0.000000 -0.160182
0.948683 0.000000 -0.316228
0.948683 0.000000 -0.316228
0.948683 0.000000 -0.316228
0.989743 0.000000 -0.142857
0.987087 0.000000 -0.160182
0.000000 -0.987087 -0.160182
0.000000 -0.948683 -0.316228
0.000000 -0.948683 -0.316228
0.000000 -0.948683 -0.316228
0.000000 -0.989743 -0.142857
0.000000 -0.987087 -0.160182
-0.987087 0.000000 -0.160182
-0.948683 0.000000 -0.316228
-0.948683 0.000000 -0.316228
-0.948683 0.000000 -0.316228
-0.987087 0.000000 -0.160182
-0.987087 0.000000 -0.160182
-0.989743 0.000000 -0.142857
-0.948683 0.000000 -0.316228
-0.948683 0.000000 -0.316228
-0.948683 0.000000 -0.316228
-0.987087 0.000000 -0.160182
-0.989743 0.000000 -0.142857
0.987087 0.000000 -0.160182
0.948683 0.000000 -0.316228
0.948683 0.000000 -0.316228
0.948683 0.000000 -0.316228
0.987087 0.000000 -0.160182
0.987087 0.000000 -0.160182
0.989743 0.000000 -0.142857
0.948683 0.000000 -0.316228
0.948683 0.000000 -0.316228
0.948683 0.000000 -0.316228
0.987087 0.000000 -0.160182
0.989743 0.000000 -0.142857
0.000000 0.987087 -0.160182
0.000000 0.948683 -0.316228
0.000000 0.948683 -0.316228
0.000000 0.948683 -0.316228
0.000000 0.987087 -0.160182
0.000000 0.987087 -0.160182
0.000000 0.989743 -0.142857
0.000000 0.948683 -0.316228
0.000000 0.948683 -0.316228
0.000000 0.948683 -0.316228
0.000000 0.987087 -0.160182
0.000000 0.989743 -0.142857
0.000000 -0.987087 -0.160182
0.000000 -0.948683 -0.316228
0.000000 -0.948683 -0.316228
0.000000 -0.948683 -0.316228
0.000000 -0.987087 -0.160182
0.000000 -0.987087 -0.160182
0.000000 -0.989743 -0.142857
0.000000 -0.948683 -0.316228
0.000000 -0.948683 -0.316228
0.000000 -0.948683 -0.316228
0.000000 -0.987087 -0.160182
0.000000 -0.989743 -0.142857
0.201385 -0.948556 0.244308
-0.201384 -0.948556 0.244308
-0.160401 -0.870139 0.465971
-0.160401 -0.870139 0.465971
0.160401 -0.870139 0.465971
0.201385 -0.948556 0.244308
0.000000 -0.984003 0.178153
0.000000 -0.984003 0.178153
0.043981 -0.880176 0.472605
0.043981 -0.880176 0.472605
-0.043981 -0.880176 0.472605
0.000000 -0.984003 0.178153
0.948556 0.201384 0.244308
0.948556 -0.201384 0.244308
0.870139 -0.160401 0.465971
0.870139 -0.160401 0.465971
0.870139 0.160401 0.465971
0.948556 0.201384 0.244308
0.984003 0.000000 0.178153
0.984003 0.000000 0.178153
0.880176 0.043981 0.472605
0.880176 0.043981 0.472605
0.880176 -0.043981 0.472605
0.984003 0.000000 0.178153
-0.201385 0.948556 0.244308
0.201384 0.948556 0.244308
0.160400 0.870139 0.465971
0.160400 0.870139 0.465971
-0.160401 0.870139 0.465971
-0.201385 0.948556 0.244308
0.000000 0.984003 0.178153
0.000000 0.984003 0.178153
-0.043981 0.880176 0.472605
-0.043981 0.880176 0.472605
0.043981 0.880176 0.472605
0.000000 0.984003 0.178153
-0.948556 -0.201384 0.244308
-0.948556 0.201384 0.244308
-0.870139 0.160401 0.465971
-0.870139 0.160401 0.465971
-0.870139 -0.160401 0.465971
-0.948556 -0.201384 0.244308
-0.984003 0.000000 0.178153
-0.984003 0.000000 0.178153
-0.880176 -0.043981 0.472605
-0.880176 -0.043981 0.472605
-0.880176 0.043981 0.472605
-0.984003 0.000000 0.178153
0.891468 0.393321 0.224907
0.948556 0.201384 0.244308
0.870139 0.160401 0.465971
0.870139 0.160401 0.465971
0.802347 0.259239 0.537619
0.891468 0.393321 0.224907
0.984003 0.000000 0.178153
0.987647 0.000000 0.156694
0.840229 0.000000 0.542231
0.840229 0.000000 0.542231
0.880176 0.043981 0.472605
0.984003 0.000000 0.178153
0.840230 -0.000000 0.542231
0.987647 0.000000 0.156694
0.984003 0.000000 0.178153
0.984003 0.000000 0.178153
0.880176 -0.043981 0.472605
0.840230 -0.000000 0.542231
0.870139 -0.160401 0.465971
0.948556 -0.201384 0.244308
0.891468 -0.393321 0.224907
0.891468 -0.393321 0.224907
0.802347 -0.259239 0.537619
0.870139 -0.160401 0.465971
-0.891468 -0.393321 0.224907
-0.948556 -0.201384 0.244308
-0.870139 -0.160401 0.465971
-0.870139 -0.160401 0.465971
-0.802347 -0.259239 0.537619
-0.891468 -0.393321 0.224907
-0.984003 0.000000 0.178153
-0.987647 0.000000 0.156694
-0.840229 0.000000 0.542231
-0.840229 0.000000 0.542231
-0.880176 -0.043981 0.472605
-0.984003 0.000000 0.178153
-0.840230 0.000000 0.542231
-0.987647 0.000000 0.156694
-0.984003 0.000000 0.178153
-0.984003 0.000000 0.178153
-0.880176 0.043981 0.472605
-0.840230 0.000000 0.542231
-0.870139 0.160401 0.465971
-0.948556 0.201384 0.244308
-0.891468 0.393322 0.224907
-0.891468 0.393322 0.224907
-0.802347 0.259239 0.537620
-0.870139 0.160401 0.465971
0.393322 -0.891468 0.224907
0.201385 -0.948556 0.244308
0.160401 -0.870139 0.465971
0.160401 -0.870139 0.465971
0.259239 -0.802347 0.537619
0.393322 -0.891468 0.224907
0.000000 -0.984003 0.178153
0.000000 -0.987647 0.156694
0.000000 -0.840229 0.542231
0.000000 -0.840229 0.542231
0.043981 -0.880176 0.472605
0.000000 -0.984003 0.178153
-0.000000 -0.840230 0.542231
0.000000 -0.987647 0.156694
0.000000 -0.984003 0.178153
0.000000 -0.984003 0.178153
-0.043981 -0.880176 0.472605
-0.000000 -0.840230 0.542231
-0.160401 -0.870139 0.465971
-0.201384 -0.948556 0.244308
-0.393321 -0.891468 0.224907
-0.393321 -0.891468 0.224907
-0.259240 -0.802347 0.537619
-0.160401 -0.870139 0.465971
-0.393322 0.891468 0.224907
-0.201385 0.948556 0.244308
-0.160401 0.870139 0.465971
-0.160401 0.870139 0.465971
-0.259239 0.802347 0.537620
-0.393322 0.891468 0.224907
0.000000 0.984003 0.178153
0.000000 0.987647 0.156694
0.000000 0.840230 0.542231
0.000000 0.840230 0.542231
-0.043981 0.880176 0.472605
0.000000 0.984003 0.178153
0.000000 0.840229 0.542231
0.000000 0.987647 0.156694
0.000000 0.984003 0.178153
0.000000 0.984003 0.178153
0.043981 0.880176 0.472605
0.000000 0.840229 0.542231
0.160400 0.870139 0.465971
0.201384 0.948556 0.244308
0.393321 0.891468 0.224907
0.393321 0.891468 0.224907
0.259239 0.802347 0.537619
0.160400 0.870139 0.465971
-0.653889 -0.653889 0.380603
-0.696590 -0.696590 0.171827
-0.653889 -0.653889 0.380603
0.653889 -0.653889 0.380603
0.696590 -0.696590 0.171827
0.653889 -0.653889 0.380603
0.653889 0.653889 0.380603
0.696590 0.696590 0.171827
0.653889 0.653889 0.380603
-0.653889 0.653889 0.380603
-0.696590 0.696590 0.171827
-0.653889 0.653889 0.380603
0.707107 -0.707107 0.000000
0.707107 -0.707107 0.000000
0.707107 -0.707107 0.000000
0.707107 -0.707107 0.000000
0.707107 -0.707107 0.000000
0.707107 -0.707107 0.000000
-0.707107 -0.707107 0.000000
-0.707107 -0.707107 0.000000
-0.707107 -0.707107 0.000000
-0.707107 -0.707107 0.000000
-0.707107 -0.707107 0.000000
-0.707107 -0.707107 0.000000
0.707107 0.707107 0.000000
0.707107 0.707107 0.000000
0.707107 0.707107 0.000000
0.707107 0.707107 0.000000
0.707107 0.707107 0.000000
0.707107 0.707107 0.000000
-0.707107 0.707107 0.000000
-0.707107 0.707107 0.000000
-0.707107 0.707107 0.000000
-0.707107 0.707107 0.000000
-0.707107 0.707107 0.000000
-0.707107 0.707107 0.000000
-0.686254 -0.686254 0.241062
-0.686254 -0.686254 0.241062
-0.653889 -0.653889 0.380603
-0.653889 -0.653889 0.380603
-0.653889 -0.653889 0.380603
-0.686254 -0.686254 0.241062
0.686254 -0.686254 0.241062
0.686254 -0.686254 0.241062
0.653889 -0.653889 0.380603
0.653889 -0.653889 0.380603
0.653889 -0.653889 0.380603
0.686254 -0.686254 0.241062
0.686254 0.686254 0.241062
0.686254 0.686254 0.241062
0.653889 0.653889 0.380603
0.653889 0.653889 0.380603
0.653889 0.653889 0.380603
0.686254 0.686254 0.241062
-0.686254 0.686254 0.241062
-0.686254 0.686254 0.241062
-0.653889 0.653889 0.380603
-0.653889 0.653889 0.380603
-0.653889 0.653889 0.380603
-0.686254 0.686254 0.241062
-0.160430 -0.041227 -0.986186
-0.041227 -0.160430 -0.986186
-0.107566 -0.215923 -0.970467
-0.107566 -0.215923 -0.970467
-0.215923 -0.107566 -0.970467
-0.160430 -0.041227 -0.986186
0.041227 -0.160430 -0.986186
0.160430 -0.041227 -0.986186
0.215923 -0.107566 -0.970467
0.215923 -0.107566 -0.970467
0.107566 -0.215923 -0.970467
0.041227 -0.160430 -0.986186
-0.041227 0.160430 -0.986186
-0.160430 0.041227 -0.986186
-0.215923 0.107566 -0.970467
-0.215923 0.107566 -0.970467
-0.107566 0.215923 -0.970467
-0.041227 0.160430 -0.986186
0.160430 0.041227 -0.986186
0.041227 0.160430 -0.986186
0.107566 0.215923 -0.970467
0.107566 0.215923 -0.970467
0.215923 0.107566 -0.970467
0.160430 0.041227 -0.986186
-0.639602 -0.639602 -0.426401
-0.639602 -0.639602 -0.426401
-0.690024 -0.690024 -0.218479
-0.690024 -0.690024 -0.218479
-0.690024 -0.690024 -0.218479
-0.639602 -0.639602 -0.426401
0.639602 -0.639602 -0.426401
0.639602 -0.639602 -0.426401
0.690024 -0.690024 -0.218479
0.690024 -0.690024 -0.218479
0.690024 -0.690024 -0.218479
0.639602 -0.639602 -0.426401
-0.639602 0.639602 -0.426401
-0.639602 0.639602 -0.426401
-0.690024 0.690024 -0.218479
-0.690024 0.690024 -0.218479
-0.690024 0.690024 -0.218479
-0.639602 0.639602 -0.426401
0.639602 0.639602 -0.426401
0.639602 0.639602 -0.426401
0.690024 0.690024 -0.218479
0.690024 0.690024 -0.218479
0.690024 0.690024 -0.218479
0.639602 0.639602 -0.426401
0.000000 -0.984003 0.178153
0.000000 -0.984003 0.178153
0.000000 -1.000000 0.000000
0.000000 -1.000000 0.000000
0.000000 -1.000000 0.000000
0.000000 -0.984003 0.178153
0.000000 -0.987087 -0.160182
0.000000 -0.987087 -0.160182
0.000000 -1.000000 0.000000
0.000000 -1.000000 0.000000
0.000000 -1.000000 0.000000
0.000000 -0.987087 -0.160182
0.984003 0.000000 0.178153
0.984003 0.000000 0.178153
1.000000 0.000000 0.000000
1.000000 0.000000 0.000000
1.000000 0.000000 0.000000
0.984003 0.000000 0.178153
0.987087 0.000000 -0.160182
0.987087 0.000000 -0.160182
1.000000 0.000000 0.000000
1.000000 0.000000 0.000000
1.000000 0.000000 0.000000
0.987087 0.000000 -0.160182
0.000000 0.984003 0.178153
0.000000 0.984003 0.178153
0.000000 1.000000 0.000000
0.000000 1.000000 0.000000
0.000000 1.000000 0.000000
0.000000 0.984003 0.178153
0.000000 0.987087 -0.160182
0.000000 0.987087 -0.160182
0.000000 1.000000 0.000000
0.000000 1.000000 0.000000
0.000000 1.000000 0.000000
0.000000 0.987087 -0.160182
-0.984003 0.000000 0.178153
-0.984003 0.000000 0.178153
-1.000000 0.000000 0.000000
-1.000000 0.000000 0.000000
-1.000000 0.000000 0.000000
-0.984003 0.000000 0.178153
-0.987087 0.000000 -0.160182
-0.987087 0.000000 -0.160182
-1.000000 0.000000 0.000000
-1.000000 0.000000 0.000000
-1.000000 0.000000 0.000000
-0.987087 0.000000 -0.160182
0.987647 0.000000 0.156694
0.984003 0.000000 0.178153
1.000000 0.000000 0.000000
1.000000 0.000000 0.000000
1.000000 0.000000 0.000000
0.987647 0.000000 0.156694
0.987087 0.000000 -0.160182
0.989743 0.000000 -0.142857
1.000000 0.000000 0.000000
1.000000 0.000000 0.000000
1.000000 0.000000 0.000000
0.987087 0.000000 -0.160182
0.989743 0.000000 -0.142857
0.987087 0.000000 -0.160182
1.000000 0.000000 0.000000
1.000000 0.000000 0.000000
1.000000 0.000000 0.000000
0.989743 0.000000 -0.142857
0.984003 0.000000 0.178153
0.987647 0.000000 0.156694
1.000000 0.000000 0.000000
1.000000 0.000000 0.000000
1.000000 0.000000 0.000000
0.984003 0.000000 0.178153
-0.987647 0.000000 0.156694
-0.984003 0.000000 0.178153
-1.000000 0.000000 0.000000
-1.000000 0.000000 0.000000
-1.000000 0.000000 0.000000
-0.987647 0.000000 0.156694
-0.987087 0.000000 -0.160182
-0.989743 0.000000 -0.142857
-1.000000 0.000000 0.000000
-1.000000 0.000000 0.000000
-1.000000 0.000000 0.000000
-0.987087 0.000000 -0.160182
-0.989743 0.000000 -0.142857
-0.987087 0.000000 -0.160182
-1.000000 0.000000 0.000000
-1.000000 0.000000 0.000000
-1.000000 0.000000 0.000000
-0.989743 0.000000 -0.142857
-0.984003 0.000000 0.178153
-0.987647 0.000000 0.156694
-1.000000 0.000000 0.000000
-1.000000 0.000000 0.000000
-1.000000 0.000000 0.000000
-0.984003 0.000000 0.178153
0.000000 -0.987647 0.156694
0.000000 -0.984003 0.178153
0.000000 -1.000000 0.000000
0.000000 -1.000000 0.000000
0.000000 -1.000000 0.000000
0.000000 -0.987647 0.156694
0.000000 -0.987087 -0.160182
0.000000 -0.989743 -0.142857
0.000000 -1.000000 0.000000
0.000000 -1.000000 0.000000
0.000000 -1.000000 0.000000
0.000000 -0.987087 -0.160182
0.000000 -0.989743 -0.142857
0.000000 -0.987087 -0.160182
0.000000 -1.000000 0.000000
0.000000 -1.000000 0.000000
0.000000 -1.000000 0.000000
0.000000 -0.989743 -0.142857
0.000000 -0.984003 0.178153
0.000000 -0.987647 0.156694
0.000000 -1.000000 0.000000
0.000000 -1.000000 0.000000
0.000000 -1.000000 0.000000
0.000000 -0.984003 0.178153
0.000000 0.987647 0.156694
0.000000 0.984003 0.178153
0.000000 1.000000 0.000000
0.000000 1.000000 0.000000
0.000000 1.000000 0.000000
0.000000 0.987647 0.156694
0.000000 0.987087 -0.160182
0.000000 0.989743 -0.142857
0.000000 1.000000 0.000000
0.000000 1.000000 0.000000
0.000000 1.000000 0.000000
0.000000 0.987087 -0.160182
0.000000 0.989743 -0.142857
0.000000 0.987087 -0.160182
0.000000 1.000000 0.000000
0.000000 1.000000 0.000000
0.000000 1.000000 0.000000
0.000000 0.989743 -0.142857
0.000000 0.984003 0.178153
0.000000 0.987647 0.156694
0.000000 1.000000 0.000000
0.000000 1.000000 0.000000
0.000000 1.000000 0.000000
0.000000 0.984003 0.178153
0.686254 -0.686254 0.241062
0.686254 -0.686254 0.241062
0.707107 -0.707107 0.000000
0.707107 -0.707107 0.000000
0.707107 -0.707107 0.000000
0.686254 -0.686254 0.241062
0.690024 -0.690024 -0.218479
0.690024 -0.690024 -0.218479
0.707107 -0.707107 0.000000
0.707107 -0.707107 0.000000
0.707107 -0.707107 0.000000
0.690024 -0.690024 -0.218479
-0.690024 -0.690024 -0.218479
-0.690024 -0.690024 -0.218479
-0.707107 -0.707107 0.000000
-0.707107 -0.707107 0.000000
-0.707107 -0.707107 0.000000
-0.690024 -0.690024 -0.218479
-0.686254 -0.686254 0.241062
-0.686254 -0.686254 0.241062
-0.707107 -0.707107 0.000000
-0.707107 -0.707107 0.000000
-0.707107 -0.707107 0.000000
-0.686254 -0.686254 0.241062
0.686254 0.686254 0.241062
0.686254 0.686254 0.241062
0.707107 0.707107 0.000000
0.707107 0.707107 0.000000
0.707107 0.707107 0.000000
0.686254 0.686254 0.241062
0.690024 0.690024 -0.218479
0.690024 0.690024 -0.218479
0.707107 0.707107 0.000000
0.707107 0.707107 0.000000
0.707107 0.707107 0.000000
0.690024 0.690024 -0.218479
-0.686254 0.686254 0.241062
-0.686254 0.686254 0.241062
-0.707107 0.707107 0.000000
-0.707107 0.707107 0.000000
-0.707107 0.707107 0.000000
-0.686254 0.686254 0.241062
-0.690024 0.690024 -0.218479
-0.690024 0.690024 -0.218479
-0.707107 0.707107 0.000000
-0.707107 0.707107 0.000000
-0.707107 0.707107 0.000000
-0.690024 0.690024 -0.218479
</float_array>
          <technique_common>
            <accessor source="#SM_OliveOil_01_A_1-Normal0-array" count="1164" stride="3">
              <param name="X" type="float"/>
              <param name="Y" type="float"/>
              <param name="Z" type="float"/>
            </accessor>
          </technique_common>
        </source>
        <source id="SM_OliveOil_01_A_1-UV0">
          <float_array id="SM_OliveOil_01_A_1-UV0-array" count="552">
0.735192 0.154616
0.154616 0.264808
0.845384 0.735192
0.264808 0.845384
0.110192 0.000000
1.000000 0.110192
0.000000 0.889808
0.889808 1.000000
0.110192 0.041125
0.889808 0.041125
0.110192 1.000000
0.889808 1.000000
0.110192 0.041125
0.889808 0.041125
0.110192 1.000000
0.889808 1.000000
0.110192 0.041125
0.889808 0.041125
0.110192 1.000000
0.889808 1.000000
0.110192 0.041125
0.889808 0.041125
0.110192 1.000000
0.889808 1.000000
0.000000 0.000000
1.000000 0.000000
1.000000 1.000000
0.000000 1.000000
0.000000 0.000000
1.000000 0.000000
1.000000 1.000000
0.000000 1.000000
0.000000 0.000000
1.000000 0.000000
1.000000 1.000000
0.000000 1.000000
0.000000 0.000000
1.000000 0.000000
1.000000 1.000000
0.000000 1.000000
1.000000 0.000000
0.000000 0.000000
0.000000 1.000000
1.000000 1.000000
0.845384 0.333333
0.845384 0.666667
0.666667 0.041125
0.333333 0.041125
0.154616 0.666667
0.154616 0.333333
0.666667 0.041125
0.333333 0.041125
1.000000 0.333333
1.000000 0.666667
0.333333 1.000000
0.666667 1.000000
0.000000 0.666667
0.000000 0.333333
0.333333 1.000000
0.666667 1.000000
1.000000 0.333333
1.000000 0.666667
0.000000 0.666667
0.000000 0.333333
1.000000 0.333333
1.000000 0.666667
0.000000 0.666667
0.000000 0.333333
1.000000 0.666667
1.000000 0.333333
0.000000 0.333333
0.000000 0.666667
1.000000 0.333333
1.000000 0.666667
0.000000 0.666667
0.000000 0.333333
0.000000 0.333333
0.000000 0.666667
1.000000 0.666667
1.000000 0.333333
0.666667 0.845384
0.333333 0.845384
0.666667 0.041125
0.333333 0.041125
0.333333 0.154616
0.666667 0.154616
0.666667 0.041125
0.333333 0.041125
0.333333 0.000000
0.666667 0.000000
0.333333 1.000000
0.666667 1.000000
0.666667 1.000000
0.333333 1.000000
0.333333 1.000000
0.666667 1.000000
0.333333 0.000000
0.666667 0.000000
0.666667 1.000000
0.333333 1.000000
0.333333 0.000000
0.666667 0.000000
0.666667 1.000000
0.333333 1.000000
0.666667 0.000000
0.333333 0.000000
0.333333 1.000000
0.666667 1.000000
0.333333 0.000000
0.666667 0.000000
0.666667 1.000000
0.333333 1.000000
0.666667 0.000000
0.333333 0.000000
0.333333 1.000000
0.666667 1.000000
0.666667 0.666667
0.333333 0.666667
0.333333 0.333333
0.666667 0.333333
0.666667 0.666667
0.333333 0.666667
0.333333 0.333333
0.666667 0.333333
0.731576 -1.540303
0.658769 -1.330685
0.731576 -1.540303
0.658769 -1.330685
0.731576 -1.540303
0.658769 -1.330685
0.731576 -1.540303
0.658769 -1.330685
0.666667 -1.286885
0.333334 -1.286885
0.341231 -1.330685
0.268423 -1.540303
0.666667 -1.286885
0.333334 -1.286885
0.341231 -1.330685
0.268423 -1.540303
0.666667 -1.286885
0.333334 -1.286885
0.341231 -1.330685
0.268423 -1.540303
0.666667 -1.286885
0.333334 -1.286885
0.341231 -1.330685
0.268423 -1.540303
0.826501 -0.815912
0.173499 -0.815912
0.826501 -0.815912
0.173499 -0.815912
0.826501 -0.815912
0.173499 -0.815912
0.826501 -0.815912
0.173499 -0.815912
0.666667 -0.622880
0.662718 -0.644780
0.333334 -0.622880
0.337282 -0.644780
0.666667 -0.622880
0.662718 -0.644780
0.333334 -0.622880
0.337282 -0.644780
0.666667 -0.622880
0.662718 -0.644780
0.333334 -0.622880
0.337282 -0.644780
0.666667 -0.622880
0.662718 -0.644780
0.333334 -0.622880
0.337282 -0.644780
0.128066 0.000000
0.000000 0.000000
1.000000 0.128066
1.000000 0.000000
0.871934 1.000000
1.000000 1.000000
0.000000 0.871934
0.000000 1.000000
1.000000 0.666667
1.000000 0.666667
1.000000 0.333333
1.000000 0.333333
0.000000 0.333333
0.000000 0.333333
0.000000 0.666667
0.000000 0.666667
0.666667 0.000000
0.666667 0.000000
0.333333 0.000000
0.333333 0.000000
0.333333 1.000000
0.333333 1.000000
0.666667 1.000000
0.666667 1.000000
0.000000 0.110192
0.889808 0.000000
0.110192 1.000000
1.000000 0.889808
0.845384 0.264808
0.264808 0.154616
0.735192 0.845384
0.154616 0.735192
0.000000 0.000000
0.000000 0.128067
1.000000 0.000000
0.871933 0.000000
1.000000 1.000000
1.000000 0.871933
0.000000 1.000000
0.128067 1.000000
0.068743 0.041125
0.068742 1.000000
0.931257 1.000000
0.931257 0.041125
0.068743 0.041125
0.068742 1.000000
0.068743 0.041125
0.068742 1.000000
-0.376710 -2.130636
-0.471635 -1.406246
-0.376710 -2.130636
-0.471635 -1.406246
-0.376710 -2.130636
-0.471635 -1.406246
-0.376710 -2.130636
-0.471635 -1.406246
-0.677686 -1.016352
-0.740992 -0.159315
-0.677686 -1.016352
-0.740992 -0.159315
-0.677686 -1.016352
-0.740992 -0.159315
-0.677686 -1.016352
-0.740992 -0.159315
0.889808 0.153793
0.889808 0.887332
0.068743 0.153793
0.068742 0.887332
0.110192 0.887332
0.110192 0.153793
0.931257 0.887332
0.931257 0.153793
0.889808 0.153793
0.889808 0.887332
0.068743 0.153793
0.068742 0.887332
0.889808 0.153793
0.889808 0.887332
0.068743 0.153793
0.068742 0.887332
0.666667 0.153793
0.666667 0.887332
0.333333 0.887332
0.333333 0.153793
0.666667 0.153793
0.666667 0.887332
0.333333 0.887332
0.333333 0.153793
0.666667 0.153793
0.666667 0.887332
0.333333 0.887332
0.333333 0.153793
0.666667 0.153793
0.666667 0.887332
0.333333 0.887332
0.333333 0.153793
0.110192 0.153793
0.110192 0.887332
0.889808 0.887332
0.889808 0.153793
0.110192 0.153793
0.110192 0.887332
0.110192 0.153793
0.110192 0.887332
</float_array>
          <technique_common>
            <accessor source="#SM_OliveOil_01_A_1-UV0-array" count="276" stride="2">
              <param name="S" type="float"/>
              <param name="T" type="float"/>
            </accessor>
          </technique_common>
        </source>
        <source id="SM_OliveOil_01_A_1-VERTEX_COLOR0">
          <float_array id="SM_OliveOil_01_A_1-VERTEX_COLOR0-array" count="3072">
0.062745 0.078431 0.015686 1.000000
0.062745 0.078431 0.015686 1.000000
0.062745 0.078431 0.015686 1.000000
0.062745 0.078431 0.015686 1.000000
0.023529 0.027451 0.003922 1.000000
0.023529 0.027451 0.003922 1.000000
0.023529 0.027451 0.003922 1.000000
0.023529 0.027451 0.003922 1.000000
0.105882 0.129412 0.027451 1.000000
0.105882 0.129412 0.027451 1.000000
0.105882 0.129412 0.027451 1.000000
0.105882 0.129412 0.027451 1.000000
0.105882 0.129412 0.027451 1.000000
0.105882 0.129412 0.027451 1.000000
0.105882 0.129412 0.027451 1.000000
0.105882 0.129412 0.027451 1.000000
0.105882 0.129412 0.027451 1.000000
0.105882 0.129412 0.027451 1.000000
0.105882 0.129412 0.027451 1.000000
0.105882 0.129412 0.027451 1.000000
0.023529 0.027451 0.003922 1.000000
0.023529 0.027451 0.003922 1.000000
0.023529 0.027451 0.003922 1.000000
0.023529 0.027451 0.003922 1.000000
0.105882 0.129412 0.027451 1.000000
0.105882 0.129412 0.027451 1.000000
0.105882 0.129412 0.027451 1.000000
0.105882 0.129412 0.027451 1.000000
0.105882 0.129412 0.027451 1.000000
0.105882 0.129412 0.027451 1.000000
0.105882 0.129412 0.027451 1.000000
0.105882 0.129412 0.027451 1.000000
0.105882 0.129412 0.027451 1.000000
0.105882 0.129412 0.027451 1.000000
0.105882 0.129412 0.027451 1.000000
0.105882 0.129412 0.027451 1.000000
0.105882 0.129412 0.027451 1.000000
0.105882 0.129412 0.027451 1.000000
0.105882 0.129412 0.027451 1.000000
0.105882 0.129412 0.027451 1.000000
0.105882 0.129412 0.027451 1.000000
0.105882 0.129412 0.027451 1.000000
0.105882 0.129412 0.027451 1.000000
0.105882 0.129412 0.027451 1.000000
0.105882 0.129412 0.027451 1.000000
0.105882 0.129412 0.027451 1.000000
0.105882 0.129412 0.027451 1.000000
0.105882 0.129412 0.027451 1.000000
0.105882 0.129412 0.027451 1.000000
0.105882 0.129412 0.027451 1.000000
0.105882 0.129412 0.027451 1.000000
0.105882 0.129412 0.027451 1.000000
0.105882 0.129412 0.027451 1.000000
0.105882 0.129412 0.027451 1.000000
0.105882 0.129412 0.027451 1.000000
0.105882 0.129412 0.027451 1.000000
0.023529 0.027451 0.003922 1.000000
0.023529 0.027451 0.003922 1.000000
0.023529 0.027451 0.003922 1.000000
0.023529 0.027451 0.003922 1.000000
0.023529 0.027451 0.003922 1.000000
0.023529 0.027451 0.003922 1.000000
0.023529 0.027451 0.003922 1.000000
0.023529 0.027451 0.003922 1.000000
0.023529 0.027451 0.003922 1.000000
0.023529 0.027451 0.003922 1.000000
0.023529 0.027451 0.003922 1.000000
0.023529 0.027451 0.003922 1.000000
0.023529 0.027451 0.003922 1.000000
0.023529 0.027451 0.003922 1.000000
0.023529 0.027451 0.003922 1.000000
0.023529 0.027451 0.003922 1.000000
0.023529 0.027451 0.003922 1.000000
0.023529 0.027451 0.003922 1.000000
0.023529 0.027451 0.003922 1.000000
0.023529 0.027451 0.003922 1.000000
0.023529 0.027451 0.003922 1.000000
0.023529 0.027451 0.003922 1.000000
0.023529 0.027451 0.003922 1.000000
0.023529 0.027451 0.003922 1.000000
0.023529 0.027451 0.003922 1.000000
0.023529 0.027451 0.003922 1.000000
0.023529 0.027451 0.003922 1.000000
0.023529 0.027451 0.003922 1.000000
0.023529 0.027451 0.003922 1.000000
0.023529 0.027451 0.003922 1.000000
0.023529 0.027451 0.003922 1.000000
0.023529 0.027451 0.003922 1.000000
0.023529 0.027451 0.003922 1.000000
0.023529 0.027451 0.003922 1.000000
0.023529 0.027451 0.003922 1.000000
0.023529 0.027451 0.003922 1.000000
0.023529 0.027451 0.003922 1.000000
0.023529 0.027451 0.003922 1.000000
0.023529 0.027451 0.003922 1.000000
0.023529 0.027451 0.003922 1.000000
0.023529 0.027451 0.003922 1.000000
0.023529 0.027451 0.003922 1.000000
0.023529 0.027451 0.003922 1.000000
0.023529 0.027451 0.003922 1.000000
0.023529 0.027451 0.003922 1.000000
0.023529 0.027451 0.003922 1.000000
0.023529 0.027451 0.003922 1.000000
0.023529 0.027451 0.003922 1.000000
0.062745 0.078431 0.015686 1.000000
0.062745 0.078431 0.015686 1.000000
0.062745 0.078431 0.015686 1.000000
0.062745 0.078431 0.015686 1.000000
0.062745 0.078431 0.015686 1.000000
0.062745 0.078431 0.015686 1.000000
0.062745 0.078431 0.015686 1.000000
0.062745 0.078431 0.015686 1.000000
0.023529 0.027451 0.003922 1.000000
0.023529 0.027451 0.003922 1.000000
0.023529 0.027451 0.003922 1.000000
0.023529 0.027451 0.003922 1.000000
0.023529 0.027451 0.003922 1.000000
0.023529 0.027451 0.003922 1.000000
0.023529 0.027451 0.003922 1.000000
0.023529 0.027451 0.003922 1.000000
0.176471 0.215686 0.047059 1.000000
0.176471 0.215686 0.047059 1.000000
0.105882 0.129412 0.027451 1.000000
0.105882 0.129412 0.027451 1.000000
0.176471 0.215686 0.047059 1.000000
0.176471 0.215686 0.047059 1.000000
0.105882 0.129412 0.027451 1.000000
0.105882 0.129412 0.027451 1.000000
0.023529 0.027451 0.003922 1.000000
0.023529 0.027451 0.003922 1.000000
0.023529 0.027451 0.003922 1.000000
0.023529 0.027451 0.003922 1.000000
0.023529 0.027451 0.003922 1.000000
0.023529 0.027451 0.003922 1.000000
0.023529 0.027451 0.003922 1.000000
0.023529 0.027451 0.003922 1.000000
0.176471 0.215686 0.047059 1.000000
0.176471 0.215686 0.047059 1.000000
0.105882 0.129412 0.027451 1.000000
0.105882 0.129412 0.027451 1.000000
0.105882 0.129412 0.027451 1.000000
0.105882 0.129412 0.027451 1.000000
0.176471 0.215686 0.047059 1.000000
0.176471 0.215686 0.047059 1.000000
0.105882 0.129412 0.027451 1.000000
0.105882 0.129412 0.027451 1.000000
0.176471 0.215686 0.047059 1.000000
0.176471 0.215686 0.047059 1.000000
0.105882 0.129412 0.027451 1.000000
0.105882 0.129412 0.027451 1.000000
0.105882 0.129412 0.027451 1.000000
0.105882 0.129412 0.027451 1.000000
0.176471 0.215686 0.047059 1.000000
0.176471 0.215686 0.047059 1.000000
0.105882 0.129412 0.027451 1.000000
0.105882 0.129412 0.027451 1.000000
0.105882 0.129412 0.027451 1.000000
0.105882 0.129412 0.027451 1.000000
0.105882 0.129412 0.027451 1.000000
0.105882 0.129412 0.027451 1.000000
0.105882 0.129412 0.027451 1.000000
0.105882 0.129412 0.027451 1.000000
0.105882 0.129412 0.027451 1.000000
0.105882 0.129412 0.027451 1.000000
0.105882 0.129412 0.027451 1.000000
0.105882 0.129412 0.027451 1.000000
0.105882 0.129412 0.027451 1.000000
0.105882 0.129412 0.027451 1.000000
0.105882 0.129412 0.027451 1.000000
0.105882 0.129412 0.027451 1.000000
0.105882 0.129412 0.027451 1.000000
0.105882 0.129412 0.027451 1.000000
0.023529 0.027451 0.003922 1.000000
0.023529 0.027451 0.003922 1.000000
0.023529 0.027451 0.003922 1.000000
0.023529 0.027451 0.003922 1.000000
0.023529 0.027451 0.003922 1.000000
0.023529 0.027451 0.003922 1.000000
0.023529 0.027451 0.003922 1.000000
0.023529 0.027451 0.003922 1.000000
0.023529 0.027451 0.003922 1.000000
0.023529 0.027451 0.003922 1.000000
0.023529 0.027451 0.003922 1.000000
0.023529 0.027451 0.003922 1.000000
0.023529 0.027451 0.003922 1.000000
0.023529 0.027451 0.003922 1.000000
0.023529 0.027451 0.003922 1.000000
0.023529 0.027451 0.003922 1.000000
0.023529 0.027451 0.003922 1.000000
0.023529 0.027451 0.003922 1.000000
0.023529 0.027451 0.003922 1.000000
0.023529 0.027451 0.003922 1.000000
0.023529 0.027451 0.003922 1.000000
0.023529 0.027451 0.003922 1.000000
0.023529 0.027451 0.003922 1.000000
0.023529 0.027451 0.003922 1.000000
0.023529 0.027451 0.003922 1.000000
0.023529 0.027451 0.003922 1.000000
0.023529 0.027451 0.003922 1.000000
0.023529 0.027451 0.003922 1.000000
0.023529 0.027451 0.003922 1.000000
0.023529 0.027451 0.003922 1.000000
0.023529 0.027451 0.003922 1.000000
0.023529 0.027451 0.003922 1.000000
0.023529 0.027451 0.003922 1.000000
0.023529 0.027451 0.003922 1.000000
0.023529 0.027451 0.003922 1.000000
0.023529 0.027451 0.003922 1.000000
0.023529 0.027451 0.003922 1.000000
0.023529 0.027451 0.003922 1.000000
0.023529 0.027451 0.003922 1.000000
0.023529 0.027451 0.003922 1.000000
0.023529 0.027451 0.003922 1.000000
0.023529 0.027451 0.003922 1.000000
0.023529 0.027451 0.003922 1.000000
0.023529 0.027451 0.003922 1.000000
0.023529 0.027451 0.003922 1.000000
0.023529 0.027451 0.003922 1.000000
0.023529 0.027451 0.003922 1.000000
0.023529 0.027451 0.003922 1.000000
0.062745 0.078431 0.015686 1.000000
0.062745 0.078431 0.015686 1.000000
0.062745 0.078431 0.015686 1.000000
0.062745 0.078431 0.015686 1.000000
0.062745 0.078431 0.015686 1.000000
0.062745 0.078431 0.015686 1.000000
0.062745 0.078431 0.015686 1.000000
0.062745 0.078431 0.015686 1.000000
0.023529 0.027451 0.003922 1.000000
0.023529 0.027451 0.003922 1.000000
0.023529 0.027451 0.003922 1.000000
0.023529 0.027451 0.003922 1.000000
0.023529 0.027451 0.003922 1.000000
0.023529 0.027451 0.003922 1.000000
0.023529 0.027451 0.003922 1.000000
0.023529 0.027451 0.003922 1.000000
0.176471 0.215686 0.047059 1.000000
0.176471 0.215686 0.047059 1.000000
0.105882 0.129412 0.027451 1.000000
0.105882 0.129412 0.027451 1.000000
0.176471 0.215686 0.047059 1.000000
0.176471 0.215686 0.047059 1.000000
0.105882 0.129412 0.027451 1.000000
0.105882 0.129412 0.027451 1.000000
0.176471 0.215686 0.047059 1.000000
0.176471 0.215686 0.047059 1.000000
0.105882 0.129412 0.027451 1.000000
0.105882 0.129412 0.027451 1.000000
0.176471 0.215686 0.047059 1.000000
0.176471 0.215686 0.047059 1.000000
0.105882 0.129412 0.027451 1.000000
0.105882 0.129412 0.027451 1.000000
0.176471 0.215686 0.047059 1.000000
0.176471 0.215686 0.047059 1.000000
0.105882 0.129412 0.027451 1.000000
0.105882 0.129412 0.027451 1.000000
0.105882 0.129412 0.027451 1.000000
0.105882 0.129412 0.027451 1.000000
0.176471 0.215686 0.047059 1.000000
0.176471 0.215686 0.047059 1.000000
0.105882 0.129412 0.027451 1.000000
0.105882 0.129412 0.027451 1.000000
0.176471 0.215686 0.047059 1.000000
0.176471 0.215686 0.047059 1.000000
0.105882 0.129412 0.027451 1.000000
0.105882 0.129412 0.027451 1.000000
0.105882 0.129412 0.027451 1.000000
0.105882 0.129412 0.027451 1.000000
0.176471 0.215686 0.047059 1.000000
0.176471 0.215686 0.047059 1.000000
0.105882 0.129412 0.027451 1.000000
0.105882 0.129412 0.027451 1.000000
0.105882 0.129412 0.027451 1.000000
0.105882 0.129412 0.027451 1.000000
0.105882 0.129412 0.027451 1.000000
0.105882 0.129412 0.027451 1.000000
0.105882 0.129412 0.027451 1.000000
0.105882 0.129412 0.027451 1.000000
0.105882 0.129412 0.027451 1.000000
0.105882 0.129412 0.027451 1.000000
0.105882 0.129412 0.027451 1.000000
0.105882 0.129412 0.027451 1.000000
0.105882 0.129412 0.027451 1.000000
0.105882 0.129412 0.027451 1.000000
0.105882 0.129412 0.027451 1.000000
0.105882 0.129412 0.027451 1.000000
0.105882 0.129412 0.027451 1.000000
0.105882 0.129412 0.027451 1.000000
0.023529 0.027451 0.003922 1.000000
0.023529 0.027451 0.003922 1.000000
0.023529 0.027451 0.003922 1.000000
0.023529 0.027451 0.003922 1.000000
0.023529 0.027451 0.003922 1.000000
0.023529 0.027451 0.003922 1.000000
0.023529 0.027451 0.003922 1.000000
0.023529 0.027451 0.003922 1.000000
0.023529 0.027451 0.003922 1.000000
0.023529 0.027451 0.003922 1.000000
0.023529 0.027451 0.003922 1.000000
0.023529 0.027451 0.003922 1.000000
0.023529 0.027451 0.003922 1.000000
0.023529 0.027451 0.003922 1.000000
0.023529 0.027451 0.003922 1.000000
0.023529 0.027451 0.003922 1.000000
0.023529 0.027451 0.003922 1.000000
0.023529 0.027451 0.003922 1.000000
0.023529 0.027451 0.003922 1.000000
0.023529 0.027451 0.003922 1.000000
0.023529 0.027451 0.003922 1.000000
0.023529 0.027451 0.003922 1.000000
0.023529 0.027451 0.003922 1.000000
0.023529 0.027451 0.003922 1.000000
0.023529 0.027451 0.003922 1.000000
0.023529 0.027451 0.003922 1.000000
0.023529 0.027451 0.003922 1.000000
0.023529 0.027451 0.003922 1.000000
0.023529 0.027451 0.003922 1.000000
0.023529 0.027451 0.003922 1.000000
0.023529 0.027451 0.003922 1.000000
0.023529 0.027451 0.003922 1.000000
0.023529 0.027451 0.003922 1.000000
0.023529 0.027451 0.003922 1.000000
0.023529 0.027451 0.003922 1.000000
0.023529 0.027451 0.003922 1.000000
0.023529 0.027451 0.003922 1.000000
0.023529 0.027451 0.003922 1.000000
0.023529 0.027451 0.003922 1.000000
0.023529 0.027451 0.003922 1.000000
0.023529 0.027451 0.003922 1.000000
0.023529 0.027451 0.003922 1.000000
0.023529 0.027451 0.003922 1.000000
0.023529 0.027451 0.003922 1.000000
0.023529 0.027451 0.003922 1.000000
0.023529 0.027451 0.003922 1.000000
0.023529 0.027451 0.003922 1.000000
0.023529 0.027451 0.003922 1.000000
0.062745 0.078431 0.015686 1.000000
0.062745 0.078431 0.015686 1.000000
0.062745 0.078431 0.015686 1.000000
0.062745 0.078431 0.015686 1.000000
0.062745 0.078431 0.015686 1.000000
0.062745 0.078431 0.015686 1.000000
0.062745 0.078431 0.015686 1.000000
0.062745 0.078431 0.015686 1.000000
0.062745 0.078431 0.015686 1.000000
0.062745 0.078431 0.015686 1.000000
0.062745 0.078431 0.015686 1.000000
0.062745 0.078431 0.015686 1.000000
0.062745 0.078431 0.015686 1.000000
0.062745 0.078431 0.015686 1.000000
0.062745 0.078431 0.015686 1.000000
0.062745 0.078431 0.015686 1.000000
0.062745 0.078431 0.015686 1.000000
0.062745 0.078431 0.015686 1.000000
0.062745 0.078431 0.015686 1.000000
0.062745 0.078431 0.015686 1.000000
0.023529 0.027451 0.003922 1.000000
0.023529 0.027451 0.003922 1.000000
0.023529 0.027451 0.003922 1.000000
0.023529 0.027451 0.003922 1.000000
0.023529 0.027451 0.003922 1.000000
0.023529 0.027451 0.003922 1.000000
0.023529 0.027451 0.003922 1.000000
0.023529 0.027451 0.003922 1.000000
0.023529 0.027451 0.003922 1.000000
0.023529 0.027451 0.003922 1.000000
0.023529 0.027451 0.003922 1.000000
0.023529 0.027451 0.003922 1.000000
0.023529 0.027451 0.003922 1.000000
0.023529 0.027451 0.003922 1.000000
0.023529 0.027451 0.003922 1.000000
0.023529 0.027451 0.003922 1.000000
0.062745 0.078431 0.015686 1.000000
0.062745 0.078431 0.015686 1.000000
0.062745 0.078431 0.015686 1.000000
0.062745 0.078431 0.015686 1.000000
0.062745 0.078431 0.015686 1.000000
0.062745 0.078431 0.015686 1.000000
0.062745 0.078431 0.015686 1.000000
0.062745 0.078431 0.015686 1.000000
0.062745 0.078431 0.015686 1.000000
0.062745 0.078431 0.015686 1.000000
0.062745 0.078431 0.015686 1.000000
0.062745 0.078431 0.015686 1.000000
0.062745 0.078431 0.015686 1.000000
0.062745 0.078431 0.015686 1.000000
0.062745 0.078431 0.015686 1.000000
0.062745 0.078431 0.015686 1.000000
0.062745 0.078431 0.015686 1.000000
0.062745 0.078431 0.015686 1.000000
0.062745 0.078431 0.015686 1.000000
0.062745 0.078431 0.015686 1.000000
0.062745 0.078431 0.015686 1.000000
0.062745 0.078431 0.015686 1.000000
0.062745 0.078431 0.015686 1.000000
0.062745 0.078431 0.015686 1.000000
0.062745 0.078431 0.015686 1.000000
0.062745 0.078431 0.015686 1.000000
0.062745 0.078431 0.015686 1.000000
0.062745 0.078431 0.015686 1.000000
0.062745 0.078431 0.015686 1.000000
0.062745 0.078431 0.015686 1.000000
0.062745 0.078431 0.015686 1.000000
0.062745 0.078431 0.015686 1.000000
0.062745 0.078431 0.015686 1.000000
0.062745 0.078431 0.015686 1.000000
0.062745 0.078431 0.015686 1.000000
0.062745 0.078431 0.015686 1.000000
0.062745 0.078431 0.015686 1.000000
0.062745 0.078431 0.015686 1.000000
0.062745 0.078431 0.015686 1.000000
0.062745 0.078431 0.015686 1.000000
0.062745 0.078431 0.015686 1.000000
0.062745 0.078431 0.015686 1.000000
0.062745 0.078431 0.015686 1.000000
0.062745 0.078431 0.015686 1.000000
0.062745 0.078431 0.015686 1.000000
0.062745 0.078431 0.015686 1.000000
0.062745 0.078431 0.015686 1.000000
0.062745 0.078431 0.015686 1.000000
0.062745 0.078431 0.015686 1.000000
0.176471 0.215686 0.047059 1.000000
0.105882 0.129412 0.027451 1.000000
0.062745 0.078431 0.015686 1.000000
0.062745 0.078431 0.015686 1.000000
0.176471 0.215686 0.047059 1.000000
0.105882 0.129412 0.027451 1.000000
0.062745 0.078431 0.015686 1.000000
0.062745 0.078431 0.015686 1.000000
0.176471 0.215686 0.047059 1.000000
0.105882 0.129412 0.027451 1.000000
0.062745 0.078431 0.015686 1.000000
0.062745 0.078431 0.015686 1.000000
0.176471 0.215686 0.047059 1.000000
0.105882 0.129412 0.027451 1.000000
0.062745 0.078431 0.015686 1.000000
0.062745 0.078431 0.015686 1.000000
0.105882 0.129412 0.027451 1.000000
0.105882 0.129412 0.027451 1.000000
0.062745 0.078431 0.015686 1.000000
0.062745 0.078431 0.015686 1.000000
0.105882 0.129412 0.027451 1.000000
0.176471 0.215686 0.047059 1.000000
0.062745 0.078431 0.015686 1.000000
0.062745 0.078431 0.015686 1.000000
0.105882 0.129412 0.027451 1.000000
0.105882 0.129412 0.027451 1.000000
0.062745 0.078431 0.015686 1.000000
0.062745 0.078431 0.015686 1.000000
0.105882 0.129412 0.027451 1.000000
0.176471 0.215686 0.047059 1.000000
0.062745 0.078431 0.015686 1.000000
0.062745 0.078431 0.015686 1.000000
0.105882 0.129412 0.027451 1.000000
0.105882 0.129412 0.027451 1.000000
0.062745 0.078431 0.015686 1.000000
0.062745 0.078431 0.015686 1.000000
0.105882 0.129412 0.027451 1.000000
0.176471 0.215686 0.047059 1.000000
0.062745 0.078431 0.015686 1.000000
0.062745 0.078431 0.015686 1.000000
0.105882 0.129412 0.027451 1.000000
0.105882 0.129412 0.027451 1.000000
0.062745 0.078431 0.015686 1.000000
0.062745 0.078431 0.015686 1.000000
0.105882 0.129412 0.027451 1.000000
0.176471 0.215686 0.047059 1.000000
0.062745 0.078431 0.015686 1.000000
0.105882 0.129412 0.027451 1.000000
0.105882 0.129412 0.027451 1.000000
0.105882 0.129412 0.027451 1.000000
0.105882 0.129412 0.027451 1.000000
0.105882 0.129412 0.027451 1.000000
0.105882 0.129412 0.027451 1.000000
0.105882 0.129412 0.027451 1.000000
0.105882 0.129412 0.027451 1.000000
0.105882 0.129412 0.027451 1.000000
0.105882 0.129412 0.027451 1.000000
0.105882 0.129412 0.027451 1.000000
0.105882 0.129412 0.027451 1.000000
0.105882 0.129412 0.027451 1.000000
0.105882 0.129412 0.027451 1.000000
0.105882 0.129412 0.027451 1.000000
0.105882 0.129412 0.027451 1.000000
0.105882 0.129412 0.027451 1.000000
0.105882 0.129412 0.027451 1.000000
0.105882 0.129412 0.027451 1.000000
0.105882 0.129412 0.027451 1.000000
0.105882 0.129412 0.027451 1.000000
0.105882 0.129412 0.027451 1.000000
0.105882 0.129412 0.027451 1.000000
0.105882 0.129412 0.027451 1.000000
0.105882 0.129412 0.027451 1.000000
0.105882 0.129412 0.027451 1.000000
0.105882 0.129412 0.027451 1.000000
0.105882 0.129412 0.027451 1.000000
0.105882 0.129412 0.027451 1.000000
0.105882 0.129412 0.027451 1.000000
0.105882 0.129412 0.027451 1.000000
0.105882 0.129412 0.027451 1.000000
0.105882 0.129412 0.027451 1.000000
0.105882 0.129412 0.027451 1.000000
0.105882 0.129412 0.027451 1.000000
0.105882 0.129412 0.027451 1.000000
0.105882 0.129412 0.027451 1.000000
0.105882 0.129412 0.027451 1.000000
0.176471 0.215686 0.047059 1.000000
0.176471 0.215686 0.047059 1.000000
0.176471 0.215686 0.047059 1.000000
0.176471 0.215686 0.047059 1.000000
0.105882 0.129412 0.027451 1.000000
0.105882 0.129412 0.027451 1.000000
0.105882 0.129412 0.027451 1.000000
0.105882 0.129412 0.027451 1.000000
0.105882 0.129412 0.027451 1.000000
0.105882 0.129412 0.027451 1.000000
0.105882 0.129412 0.027451 1.000000
0.105882 0.129412 0.027451 1.000000
0.105882 0.129412 0.027451 1.000000
0.105882 0.129412 0.027451 1.000000
0.105882 0.129412 0.027451 1.000000
0.105882 0.129412 0.027451 1.000000
0.176471 0.215686 0.047059 1.000000
0.176471 0.215686 0.047059 1.000000
0.176471 0.215686 0.047059 1.000000
0.176471 0.215686 0.047059 1.000000
0.105882 0.129412 0.027451 1.000000
0.105882 0.129412 0.027451 1.000000
0.105882 0.129412 0.027451 1.000000
0.105882 0.129412 0.027451 1.000000
0.105882 0.129412 0.027451 1.000000
0.105882 0.129412 0.027451 1.000000
0.105882 0.129412 0.027451 1.000000
0.105882 0.129412 0.027451 1.000000
0.105882 0.129412 0.027451 1.000000
0.105882 0.129412 0.027451 1.000000
0.105882 0.129412 0.027451 1.000000
0.105882 0.129412 0.027451 1.000000
0.176471 0.215686 0.047059 1.000000
0.176471 0.215686 0.047059 1.000000
0.176471 0.215686 0.047059 1.000000
0.176471 0.215686 0.047059 1.000000
0.105882 0.129412 0.027451 1.000000
0.105882 0.129412 0.027451 1.000000
0.105882 0.129412 0.027451 1.000000
0.105882 0.129412 0.027451 1.000000
0.105882 0.129412 0.027451 1.000000
0.105882 0.129412 0.027451 1.000000
0.105882 0.129412 0.027451 1.000000
0.105882 0.129412 0.027451 1.000000
0.105882 0.129412 0.027451 1.000000
0.105882 0.129412 0.027451 1.000000
0.105882 0.129412 0.027451 1.000000
0.105882 0.129412 0.027451 1.000000
0.176471 0.215686 0.047059 1.000000
0.176471 0.215686 0.047059 1.000000
0.176471 0.215686 0.047059 1.000000
0.176471 0.215686 0.047059 1.000000
0.105882 0.129412 0.027451 1.000000
0.105882 0.129412 0.027451 1.000000
0.105882 0.129412 0.027451 1.000000
0.105882 0.129412 0.027451 1.000000
0.105882 0.129412 0.027451 1.000000
0.105882 0.129412 0.027451 1.000000
0.176471 0.215686 0.047059 1.000000
0.176471 0.215686 0.047059 1.000000
0.176471 0.215686 0.047059 1.000000
0.176471 0.215686 0.047059 1.000000
0.176471 0.215686 0.047059 1.000000
0.176471 0.215686 0.047059 1.000000
0.176471 0.215686 0.047059 1.000000
0.176471 0.215686 0.047059 1.000000
0.176471 0.215686 0.047059 1.000000
0.176471 0.215686 0.047059 1.000000
0.176471 0.215686 0.047059 1.000000
0.176471 0.215686 0.047059 1.000000
0.176471 0.215686 0.047059 1.000000
0.176471 0.215686 0.047059 1.000000
0.176471 0.215686 0.047059 1.000000
0.176471 0.215686 0.047059 1.000000
0.176471 0.215686 0.047059 1.000000
0.176471 0.215686 0.047059 1.000000
0.176471 0.215686 0.047059 1.000000
0.176471 0.215686 0.047059 1.000000
0.176471 0.215686 0.047059 1.000000
0.176471 0.215686 0.047059 1.000000
0.176471 0.215686 0.047059 1.000000
0.176471 0.215686 0.047059 1.000000
0.176471 0.215686 0.047059 1.000000
0.176471 0.215686 0.047059 1.000000
0.176471 0.215686 0.047059 1.000000
0.176471 0.215686 0.047059 1.000000
0.176471 0.215686 0.047059 1.000000
0.176471 0.215686 0.047059 1.000000
0.176471 0.215686 0.047059 1.000000
0.176471 0.215686 0.047059 1.000000
0.176471 0.215686 0.047059 1.000000
0.176471 0.215686 0.047059 1.000000
0.176471 0.215686 0.047059 1.000000
0.176471 0.215686 0.047059 1.000000
0.176471 0.215686 0.047059 1.000000
0.176471 0.215686 0.047059 1.000000
0.176471 0.215686 0.047059 1.000000
0.176471 0.215686 0.047059 1.000000
0.176471 0.215686 0.047059 1.000000
0.176471 0.215686 0.047059 1.000000
0.176471 0.215686 0.047059 1.000000
0.176471 0.215686 0.047059 1.000000
0.062745 0.078431 0.015686 1.000000
0.062745 0.078431 0.015686 1.000000
0.062745 0.078431 0.015686 1.000000
0.062745 0.078431 0.015686 1.000000
0.062745 0.078431 0.015686 1.000000
0.062745 0.078431 0.015686 1.000000
0.062745 0.078431 0.015686 1.000000
0.062745 0.078431 0.015686 1.000000
0.062745 0.078431 0.015686 1.000000
0.062745 0.078431 0.015686 1.000000
0.062745 0.078431 0.015686 1.000000
0.062745 0.078431 0.015686 1.000000
0.062745 0.078431 0.015686 1.000000
0.062745 0.078431 0.015686 1.000000
0.062745 0.078431 0.015686 1.000000
0.062745 0.078431 0.015686 1.000000
0.062745 0.078431 0.015686 1.000000
0.062745 0.078431 0.015686 1.000000
0.176471 0.215686 0.047059 1.000000
0.176471 0.215686 0.047059 1.000000
0.062745 0.078431 0.015686 1.000000
0.062745 0.078431 0.015686 1.000000
0.176471 0.215686 0.047059 1.000000
0.176471 0.215686 0.047059 1.000000
0.062745 0.078431 0.015686 1.000000
0.062745 0.078431 0.015686 1.000000
0.176471 0.215686 0.047059 1.000000
0.176471 0.215686 0.047059 1.000000
0.062745 0.078431 0.015686 1.000000
0.062745 0.078431 0.015686 1.000000
0.176471 0.215686 0.047059 1.000000
0.176471 0.215686 0.047059 1.000000
0.105882 0.129412 0.027451 1.000000
0.105882 0.129412 0.027451 1.000000
0.105882 0.129412 0.027451 1.000000
0.105882 0.129412 0.027451 1.000000
0.105882 0.129412 0.027451 1.000000
0.105882 0.129412 0.027451 1.000000
0.105882 0.129412 0.027451 1.000000
0.105882 0.129412 0.027451 1.000000
0.105882 0.129412 0.027451 1.000000
0.105882 0.129412 0.027451 1.000000
0.105882 0.129412 0.027451 1.000000
0.105882 0.129412 0.027451 1.000000
0.105882 0.129412 0.027451 1.000000
0.105882 0.129412 0.027451 1.000000
0.105882 0.129412 0.027451 1.000000
0.105882 0.129412 0.027451 1.000000
0.105882 0.129412 0.027451 1.000000
0.105882 0.129412 0.027451 1.000000
0.105882 0.129412 0.027451 1.000000
0.105882 0.129412 0.027451 1.000000
0.105882 0.129412 0.027451 1.000000
0.105882 0.129412 0.027451 1.000000
0.105882 0.129412 0.027451 1.000000
0.105882 0.129412 0.027451 1.000000
0.105882 0.129412 0.027451 1.000000
0.105882 0.129412 0.027451 1.000000
0.105882 0.129412 0.027451 1.000000
0.105882 0.129412 0.027451 1.000000
0.105882 0.129412 0.027451 1.000000
0.105882 0.129412 0.027451 1.000000
0.105882 0.129412 0.027451 1.000000
0.105882 0.129412 0.027451 1.000000
0.176471 0.215686 0.047059 1.000000
0.176471 0.215686 0.047059 1.000000
0.105882 0.129412 0.027451 1.000000
0.105882 0.129412 0.027451 1.000000
0.105882 0.129412 0.027451 1.000000
0.105882 0.129412 0.027451 1.000000
0.176471 0.215686 0.047059 1.000000
0.176471 0.215686 0.047059 1.000000
0.176471 0.215686 0.047059 1.000000
0.176471 0.215686 0.047059 1.000000
0.105882 0.129412 0.027451 1.000000
0.105882 0.129412 0.027451 1.000000
0.105882 0.129412 0.027451 1.000000
0.105882 0.129412 0.027451 1.000000
0.176471 0.215686 0.047059 1.000000
0.176471 0.215686 0.047059 1.000000
0.176471 0.215686 0.047059 1.000000
0.176471 0.215686 0.047059 1.000000
0.105882 0.129412 0.027451 1.000000
0.105882 0.129412 0.027451 1.000000
0.105882 0.129412 0.027451 1.000000
0.105882 0.129412 0.027451 1.000000
0.176471 0.215686 0.047059 1.000000
0.176471 0.215686 0.047059 1.000000
0.176471 0.215686 0.047059 1.000000
0.176471 0.215686 0.047059 1.000000
0.105882 0.129412 0.027451 1.000000
0.105882 0.129412 0.027451 1.000000
0.105882 0.129412 0.027451 1.000000
0.105882 0.129412 0.027451 1.000000
0.176471 0.215686 0.047059 1.000000
0.176471 0.215686 0.047059 1.000000
0.176471 0.215686 0.047059 1.000000
0.176471 0.215686 0.047059 1.000000
0.105882 0.129412 0.027451 1.000000
0.105882 0.129412 0.027451 1.000000
0.105882 0.129412 0.027451 1.000000
0.105882 0.129412 0.027451 1.000000
0.176471 0.215686 0.047059 1.000000
0.176471 0.215686 0.047059 1.000000
0.176471 0.215686 0.047059 1.000000
0.176471 0.215686 0.047059 1.000000
0.105882 0.129412 0.027451 1.000000
0.105882 0.129412 0.027451 1.000000
0.105882 0.129412 0.027451 1.000000
0.105882 0.129412 0.027451 1.000000
0.176471 0.215686 0.047059 1.000000
0.176471 0.215686 0.047059 1.000000
0.176471 0.215686 0.047059 1.000000
0.176471 0.215686 0.047059 1.000000
0.105882 0.129412 0.027451 1.000000
0.105882 0.129412 0.027451 1.000000
0.105882 0.129412 0.027451 1.000000
0.105882 0.129412 0.027451 1.000000
0.176471 0.215686 0.047059 1.000000
0.176471 0.215686 0.047059 1.000000
0.176471 0.215686 0.047059 1.000000
0.176471 0.215686 0.047059 1.000000
0.105882 0.129412 0.027451 1.000000
0.105882 0.129412 0.027451 1.000000
0.105882 0.129412 0.027451 1.000000
0.105882 0.129412 0.027451 1.000000
0.176471 0.215686 0.047059 1.000000
0.176471 0.215686 0.047059 1.000000
0.176471 0.215686 0.047059 1.000000
0.176471 0.215686 0.047059 1.000000
0.176471 0.215686 0.047059 1.000000
0.176471 0.215686 0.047059 1.000000
0.176471 0.215686 0.047059 1.000000
0.176471 0.215686 0.047059 1.000000
0.176471 0.215686 0.047059 1.000000
0.176471 0.215686 0.047059 1.000000
0.176471 0.215686 0.047059 1.000000
0.176471 0.215686 0.047059 1.000000
0.176471 0.215686 0.047059 1.000000
0.176471 0.215686 0.047059 1.000000
0.176471 0.215686 0.047059 1.000000
0.176471 0.215686 0.047059 1.000000
0.176471 0.215686 0.047059 1.000000
0.176471 0.215686 0.047059 1.000000
0.176471 0.215686 0.047059 1.000000
0.176471 0.215686 0.047059 1.000000
0.176471 0.215686 0.047059 1.000000
0.176471 0.215686 0.047059 1.000000
0.176471 0.215686 0.047059 1.000000
0.176471 0.215686 0.047059 1.000000
0.176471 0.215686 0.047059 1.000000
0.176471 0.215686 0.047059 1.000000
0.176471 0.215686 0.047059 1.000000
0.176471 0.215686 0.047059 1.000000
0.176471 0.215686 0.047059 1.000000
0.176471 0.215686 0.047059 1.000000
0.176471 0.215686 0.047059 1.000000
0.176471 0.215686 0.047059 1.000000
0.176471 0.215686 0.047059 1.000000
0.176471 0.215686 0.047059 1.000000
</float_array>
          <technique_common>
            <accessor source="#SM_OliveOil_01_A_1-VERTEX_COLOR0-array" count="768" stride="4">
              <param name="R" type="double"/>
              <param name="G" type="double"/>
              <param name="B" type="double"/>
              <param name="A" type="double"/>
            </accessor>
          </technique_common>
        </source>
        <vertices id="SM_OliveOil_01_A_1-VERTEX">
          <input semantic="POSITION" source="#SM_OliveOil_01_A_1-POSITION"/>
        </vertices>
        <triangles count="388">
          <input semantic="VERTEX" offset="0" source="#SM_OliveOil_01_A_1-VERTEX"/>
          <input semantic="NORMAL" offset="1" source="#SM_OliveOil_01_A_1-Normal0"/>
          <input semantic="TEXCOORD" offset="2" set="0" source="#SM_OliveOil_01_A_1-UV0"/>
          <input semantic="COLOR" offset="3" set="0" source="#SM_OliveOil_01_A_1-VERTEX_COLOR0"/>
          <p> 85 0 117 1 86 1 118 2 87 2 119 3 87 3 119 3 84 4 116 0 85 5 117 1 89 6 121 5 90 7 122 6 91 8 123 7 91 9 123 7 88 10 120 4 89 11 121 5 181 12 261 9 182 13 262 10 183 14 263 11 183 15 263 11 180 16 260 8 181 17 261 9 173 18 253 13 174 19 254 14 175 20 255 15 175 21 255 15 172 22 252 12 173 23 253 13 185 24 265 17 186 25 266 18 187 26 267 19 187 27 267 19 184 28 264 16 185 29 265 17 177 30 257 21 178 31 258 22 179 32 259 23 179 33 259 23 176 34 256 20 177 35 257 21 133 36 189 25 134 37 190 26 135 38 191 27 135 39 191 27 132 40 188 24 133 41 189 25 125 42 181 29 126 43 182 30 127 44 183 31 127 45 183 31 124 46 180 28 125 47 181 29 137 48 193 33 138 49 194 34 139 50 195 35 139 51 195 35 136 52 192 32 137 53 193 33 129 54 185 37 130 55 186 38 131 56 187 39 131 57 187 39 128 58 184 36 129 59 185 37 65 60 97 41 69 61 101 42 68 62 100 43 68 63 100 43 64 64 96 40 65 65 97 41 37 66 61 45 41 67 65 46 40 68 64 47 40 69 64 47 36 70 60 44 37 71 61 45 67 72 99 49 71 73 103 50 70 74 102 51 70 75 102 51 66 76 98 48 67 77 99 49 39 78 63 53 43 79 67 54 42 80 66 55 42 81 66 55 38 82 62 52 39 83 63 53 77 84 109 57 80 85 112 58 81 86 113 59 81 87 113 59 76 88 108 56 77 89 109 57 49 90 73 61 54 91 78 62 55 92 79 63 55 93 79 63 48 94 72 60 49 95 73 61 79 96 111 65 82 97 114 66 83 98 115 67 83 99 115 67 78 100 110 64 79 101 111 65 51 102 75 69 52 103 76 70 53 104 77 71 53 105 77 71 50 106 74 68 51 107 75 69 69 108 101 73 77 109 109 74 76 110 108 75 76 111 108 75 68 112 100 72 69 113 101 73 41 114 65 77 49 115 73 78 48 116 72 79 48 117 72 79 40 118 64 76 41 119 65 77 71 120 103 81 79 121 111 82 78 122 110 83 78 123 110 83 70 124 102 80 71 125 103 81 43 126 67 85 51 127 75 86 50 128 74 87 50 129 74 87 42 130 66 84 43 131 67 85 73 132 105 89 81 133 113 90 80 134 112 91 80 135 112 91 72 136 104 88 73 137 105 89 47 138 71 93 53 139 77 94 52 140 76 95 52 141 76 95 46 142 70 92 47 143 71 93 75 144 107 97 83 145 115 98 82 146 114 99 82 147 114 99 74 148 106 96 75 149 107 97 45 150 69 101 55 151 79 102 54 152 78 103 54 153 78 103 44 154 68 100 45 155 69 101 57 156 81 105 85 157 117 106 84 158 116 107 84 159 116 107 100 160 80 104 57 161 81 105 59 162 85 109 87 163 119 110 86 164 118 111 86 165 118 111 102 166 84 108 59 167 85 109 74 168 106 113 89 169 121 114 88 170 120 115 88 171 120 115 75 172 107 112 74 173 106 113 72 174 104 117 91 175 123 118 90 176 122 119 90 177 122 119 73 178 105 116 72 179 104 117 169 180 245 121 173 181 253 122 172 182 252 123 172 183 252 123 168 184 244 120 169 185 245 121 188 186 268 125 175 187 255 126 174 188 254 127 174 189 254 127 189 190 269 124 188 191 268 125 190 192 270 129 177 193 257 130 176 194 256 131 176 195 256 131 191 196 271 128 190 197 270 129 194 198 274 133 179 199 259 134 178 200 258 135 178 201 258 135 195 202 275 132 194 203 274 133 121 204 177 138 125 205 181 139 124 206 180 140 160 207 208 137 121 208 177 138 124 209 180 140 161 210 209 136 160 211 208 137 124 212 180 140 119 213 175 141 158 214 206 142 118 215 174 143 119 216 175 141 118 217 174 143 127 218 183 144 119 219 175 141 127 220 183 144 126 221 182 145 117 222 173 148 129 223 185 149 128 224 184 150 156 225 204 147 117 226 173 148 128 227 184 150 157 228 205 146 156 229 204 147 128 230 184 150 123 231 179 151 162 232 210 152 122 233 178 153 123 234 179 151 122 235 178 153 131 236 187 154 123 237 179 151 131 238 187 154 130 239 186 155 37 240 61 156 10 241 26 157 14 242 30 158 14 243 30 158 41 244 65 159 37 245 61 156 13 246 29 161 9 247 25 162 36 248 60 163 36 249 60 163 40 250 64 160 13 251 29 161 39 252 63 164 8 253 24 165 12 254 28 166 12 255 28 166 43 256 67 167 39 257 63 164 15 258 31 169 11 259 27 170 38 260 62 171 38 261 62 171 42 262 66 168 15 263 31 169 22 264 38 173 27 265 43 174 54 266 78 175 54 267 78 175 49 268 73 172 22 269 38 173 24 270 40 177 21 271 37 178 48 272 72 179 48 273 72 179 55 274 79 176 24 275 40 177 20 276 36 181 25 277 41 182 52 278 76 183 52 279 76 183 51 280 75 180 20 281 36 181 26 282 42 185 23 283 39 186 50 284 74 187 50 285 74 187 53 286 77 184 26 287 42 185 14 288 30 189 22 289 38 190 49 290 73 191 49 291 73 191 41 292 65 188 14 293 30 189 48 294 72 192 21 295 37 193 13 296 29 194 13 297 29 194 40 298 64 195 48 299 72 192 12 300 28 197 20 301 36 198 51 302 75 199 51 303 75 199 43 304 67 196 12 305 28 197 50 306 74 200 23 307 39 201 15 308 31 202 15 309 31 202 42 310 66 203 50 311 74 200 19 312 35 205 26 313 42 206 53 314 77 207 53 315 77 207 47 316 71 204 19 317 35 205 52 318 76 208 25 319 41 209 16 320 32 210 16 321 32 210 46 322 70 211 52 323 76 208 17 324 33 213 24 325 40 214 55 326 79 215 55 327 79 215 45 328 69 212 17 329 33 213 54 330 78 216 27 331 43 217 18 332 34 218 18 333 34 218 44 334 68 219 54 335 78 216 98 336 48 221 31 337 49 222 86 338 118 223 86 339 118 223 85 340 117 220 98 341 48 221 96 342 44 225 29 343 45 226 84 344 116 227 84 345 116 227 87 346 119 224 96 347 44 225 47 348 71 229 46 349 70 230 90 350 122 231 90 351 122 231 89 352 121 228 47 353 71 229 45 354 69 233 44 355 68 234 88 356 120 235 88 357 120 235 91 358 123 232 45 359 69 233 165 360 237 237 181 361 261 238 180 362 260 239 180 363 260 239 164 364 236 236 165 365 237 237 167 366 241 241 183 367 263 242 182 368 262 243 182 369 262 243 166 370 240 240 167 371 241 241 171 372 249 245 185 373 265 246 184 374 264 247 184 375 264 247 170 376 248 244 171 377 249 245 192 378 272 249 187 379 267 250 186 380 266 251 186 381 266 251 193 382 273 248 192 383 272 249 119 384 175 254 133 385 189 255 132 386 188 256 158 387 206 253 119 388 175 254 132 389 188 256 159 390 207 252 158 391 206 253 132 392 188 256 117 393 173 257 156 394 204 258 116 395 172 259 117 396 173 257 116 397 172 259 135 398 191 260 117 399 173 257 135 400 191 260 134 401 190 261 123 402 179 264 137 403 193 265 136 404 192 266 162 405 210 263 123 406 179 264 136 407 192 266 163 408 211 262 162 409 210 263 136 410 192 266 121 411 177 267 160 412 208 268 120 413 176 269 121 414 177 267 120 415 176 269 139 416 195 270 121 417 177 267 139 418 195 270 138 419 194 271 65 420 97 272 9 421 25 273 13 422 29 274 13 423 29 274 69 424 101 275 65 425 97 272 12 426 28 277 8 427 24 278 64 428 96 279 64 429 96 279 68 430 100 276 12 431 28 277 67 432 99 280 11 433 27 281 15 434 31 282 15 435 31 282 71 436 103 283 67 437 99 280 14 438 30 285 10 439 26 286 66 440 98 287 66 441 98 287 70 442 102 284 14 443 30 285 21 444 37 289 24 445 40 290 80 446 112 291 80 447 112 291 77 448 109 288 21 449 37 289 25 450 41 293 20 451 36 294 76 452 108 295 76 453 108 295 81 454 113 292 25 455 41 293 23 456 39 297 26 457 42 298 82 458 114 299 82 459 114 299 79 460 111 296 23 461 39 297 27 462 43 301 22 463 38 302 78 464 110 303 78 465 110 303 83 466 115 300 27 467 43 301 13 468 29 305 21 469 37 306 77 470 109 307 77 471 109 307 69 472 101 304 13 473 29 305 76 474 108 308 20 475 36 309 12 476 28 310 12 477 28 310 68 478 100 311 76 479 108 308 15 480 31 313 23 481 39 314 79 482 111 315 79 483 111 315 71 484 103 312 15 485 31 313 78 486 110 316 22 487 38 317 14 488 30 318 14 489 30 318 70 490 102 319 78 491 110 316 16 492 32 321 25 493 41 322 81 494 113 323 81 495 113 323 73 496 105 320 16 497 32 321 80 498 112 324 24 499 40 325 17 500 33 326 17 501 33 326 72 502 104 327 80 503 112 324 18 504 34 329 27 505 43 330 83 506 115 331 83 507 115 331 75 508 107 328 18 509 34 329 82 510 114 332 26 511 42 333 19 512 35 334 19 513 35 334 74 514 106 335 82 515 114 332 57 516 81 336 95 517 3 337 151 518 203 338 151 519 203 338 98 520 48 339 85 521 117 340 57 522 81 336 151 523 203 338 85 524 117 340 29 525 45 342 94 526 2 343 150 527 202 344 29 528 45 342 150 529 202 344 100 530 80 345 84 531 116 341 29 532 45 342 100 533 80 345 59 534 85 346 92 535 0 347 148 536 200 348 148 537 200 348 96 538 44 349 87 539 119 350 59 540 85 346 148 541 200 348 87 542 119 350 31 543 49 352 93 544 1 353 149 545 201 354 31 546 49 352 149 547 201 354 102 548 84 355 86 549 118 351 31 550 49 352 102 551 84 355 19 552 35 357 47 553 71 358 89 554 121 359 89 555 121 359 74 556 106 356 19 557 35 357 44 558 68 361 18 559 34 362 75 560 107 363 75 561 107 363 88 562 120 360 44 563 68 361 17 564 33 365 45 565 69 366 91 566 123 367 91 567 123 367 72 568 104 364 17 569 33 365 46 570 70 369 16 571 32 370 73 572 105 371 73 573 105 371 90 574 122 368 46 575 70 369 108 576 157 374 96 577 125 375 148 578 124 372 148 579 124 372 104 580 148 373 108 581 157 374 112 582 165 378 100 583 127 379 150 584 126 376 150 585 126 376 106 586 152 377 112 587 165 378 110 588 161 382 98 589 129 383 151 590 128 380 151 591 128 380 107 592 154 381 110 593 161 382 114 594 169 386 102 595 131 387 149 596 130 384 149 597 130 384 105 598 150 385 114 599 169 386 109 600 158 390 29 601 133 391 96 602 132 388 96 603 132 388 108 604 156 389 109 605 158 390 154 606 153 394 94 607 135 395 29 608 134 392 29 609 134 392 109 610 159 393 154 611 153 394 111 612 162 398 31 613 137 399 98 614 136 396 98 615 136 396 110 616 160 397 111 617 162 398 153 618 151 402 93 619 139 403 31 620 138 400 31 621 138 400 111 622 163 401 153 623 151 402 113 624 166 406 57 625 141 407 100 626 140 404 100 627 140 404 112 628 164 405 113 629 166 406 155 630 155 410 95 631 143 411 57 632 142 408 57 633 142 408 113 634 167 409 155 635 155 410 115 636 170 414 59 637 145 415 102 638 144 412 102 639 144 412 114 640 168 413 115 641 170 414 152 642 149 418 92 643 147 419 59 644 146 416 59 645 146 416 115 646 171 417 152 647 149 418 28 648 46 422 108 649 157 423 104 650 148 420 104 651 148 420 0 652 21 421 28 653 46 422 56 654 82 426 112 655 165 427 106 656 152 424 106 657 152 424 2 658 17 425 56 659 82 426 30 660 50 430 110 661 161 431 107 662 154 428 107 663 154 428 3 664 13 429 30 665 50 430 58 666 86 434 114 667 169 435 105 668 150 432 105 669 150 432 1 670 9 433 58 671 86 434 97 672 47 438 109 673 158 439 108 674 156 436 108 675 156 436 28 676 46 437 97 677 47 438 142 678 20 442 154 679 153 443 109 680 159 440 109 681 159 440 97 682 47 441 142 683 20 442 99 684 51 446 111 685 162 447 110 686 160 444 110 687 160 444 30 688 50 445 99 689 51 446 141 690 12 450 153 691 151 451 111 692 163 448 111 693 163 448 99 694 51 449 141 695 12 450 101 696 83 454 113 697 166 455 112 698 164 452 112 699 164 452 56 700 82 453 101 701 83 454 143 702 16 458 155 703 155 459 113 704 167 456 113 705 167 456 101 706 83 457 143 707 16 458 103 708 87 462 115 709 170 463 114 710 168 460 114 711 168 460 58 712 86 461 103 713 87 462 140 714 8 466 152 715 149 467 115 716 171 464 115 717 171 464 103 718 87 465 140 719 8 466 65 720 97 469 64 721 96 470 134 722 190 471 134 723 190 471 133 724 189 468 65 725 97 469 60 726 88 473 61 727 89 474 132 728 188 475 132 729 188 475 135 730 191 472 60 731 88 473 37 732 61 477 36 733 60 478 126 734 182 479 126 735 182 479 125 736 181 476 37 737 61 477 32 738 52 481 33 739 53 482 124 740 180 483 124 741 180 483 127 742 183 480 32 743 52 481 67 744 99 485 66 745 98 486 138 746 194 487 138 747 194 487 137 748 193 484 67 749 99 485 62 750 92 489 63 751 93 490 136 752 192 491 136 753 192 491 139 754 195 488 62 755 92 489 39 756 63 493 38 757 62 494 130 758 186 495 130 759 186 495 129 760 185 492 39 761 63 493 34 762 56 497 35 763 57 498 128 764 184 499 128 765 184 499 131 766 187 496 34 767 56 497 10 768 26 501 37 769 61 502 125 770 181 503 125 771 181 503 121 772 177 500 10 773 26 501 33 774 53 505 147 775 199 506 161 776 209 507 161 777 209 507 124 778 180 504 33 779 53 505 118 780 174 508 5 781 5 509 32 782 52 510 32 783 52 510 127 784 183 511 118 785 174 508 126 786 182 512 36 787 60 513 9 788 25 514 9 789 25 514 119 790 175 515 126 791 182 512 8 792 24 517 39 793 63 518 129 794 185 519 129 795 185 519 117 796 173 516 8 797 24 517 35 798 57 521 144 799 196 522 157 800 205 523 157 801 205 523 128 802 184 520 35 803 57 521 122 804 178 524 6 805 6 525 34 806 56 526 34 807 56 526 131 808 187 527 122 809 178 524 130 810 186 528 38 811 62 529 11 812 27 530 11 813 27 530 123 814 179 531 130 815 186 528 9 816 25 533 65 817 97 534 133 818 189 535 133 819 189 535 119 820 175 532 9 821 25 533 61 822 89 537 145 823 197 538 159 824 207 539 159 825 207 539 132 826 188 536 61 827 89 537 116 828 172 540 4 829 4 541 60 830 88 542 60 831 88 542 135 832 191 543 116 833 172 540 134 834 190 544 64 835 96 545 8 836 24 546 8 837 24 546 117 838 173 547 134 839 190 544 11 840 27 549 67 841 99 550 137 842 193 551 137 843 193 551 123 844 179 548 11 845 27 549 63 846 93 553 146 847 198 554 163 848 211 555 163 849 211 555 136 850 192 552 63 851 93 553 120 852 176 556 7 853 7 557 62 854 92 558 62 855 92 558 139 856 195 559 120 857 176 556 138 858 194 560 66 859 98 561 10 860 26 562 10 861 26 562 121 862 177 563 138 863 194 560 116 864 172 564 156 865 204 565 157 866 205 566 118 867 174 567 158 868 206 568 159 869 207 569 120 870 176 570 160 871 208 571 161 872 209 572 122 873 178 573 162 874 210 574 163 875 211 575 189 876 269 577 165 877 239 578 164 878 238 579 164 879 238 579 188 880 268 576 189 881 269 577 191 882 271 581 167 883 243 582 166 884 242 583 166 885 242 583 190 886 270 580 191 887 271 581 193 888 273 585 169 889 247 586 168 890 246 587 168 891 246 587 192 892 272 584 193 893 273 585 195 894 275 589 171 895 251 590 170 896 250 591 170 897 250 591 194 898 274 588 195 899 275 589 144 900 196 592 4 901 4 593 116 902 172 594 116 903 172 594 157 904 205 595 144 905 196 592 145 906 197 596 5 907 5 597 118 908 174 598 118 909 174 598 159 910 207 599 145 911 197 596 147 912 199 600 7 913 7 601 120 914 176 602 120 915 176 602 161 916 209 603 147 917 199 600 146 918 198 604 6 919 6 605 122 920 178 606 122 921 178 606 163 922 211 607 146 923 198 604 148 924 220 608 92 925 147 609 152 926 149 610 152 927 149 610 104 928 221 611 148 929 220 608 149 930 222 612 93 931 139 613 153 932 151 614 153 933 151 614 105 934 223 615 149 935 222 612 150 936 224 616 94 937 135 617 154 938 153 618 154 939 153 618 106 940 225 619 150 941 224 616 151 942 226 620 95 943 143 621 155 944 155 622 155 945 155 622 107 946 227 623 151 947 226 620 104 948 228 624 152 949 149 625 140 950 8 626 140 951 8 626 0 952 229 627 104 953 228 624 105 954 230 628 153 955 151 629 141 956 12 630 141 957 12 630 1 958 231 631 105 959 230 628 106 960 232 632 154 961 153 633 142 962 20 634 142 963 20 634 2 964 233 635 106 965 232 632 107 966 234 636 155 967 155 637 143 968 16 638 143 969 16 638 3 970 235 639 107 971 234 636 61 972 91 641 60 973 90 642 182 974 262 643 182 975 262 643 181 976 261 640 61 977 91 641 103 978 87 645 58 979 86 646 180 980 260 647 180 981 260 647 183 982 263 644 103 983 87 645 33 984 55 649 32 985 54 650 174 986 254 651 174 987 254 651 173 988 253 648 33 989 55 649 99 990 51 653 30 991 50 654 172 992 252 655 172 993 252 655 175 994 255 652 99 995 51 653 63 996 95 657 62 997 94 658 186 998 266 659 186 999 266 659 185 1000 265 656 63 1001 95 657 101 1002 83 661 56 1003 82 662 184 1004 264 663 184 1005 264 663 187 1006 267 660 101 1007 83 661 35 1008 59 665 34 1009 58 666 178 1010 258 667 178 1011 258 667 177 1012 257 664 35 1013 59 665 97 1014 47 669 28 1015 46 670 176 1016 256 671 176 1017 256 671 179 1018 259 668 97 1019 47 669 147 1020 15 673 33 1021 55 674 173 1022 253 675 173 1023 253 675 169 1024 245 672 147 1025 15 673 30 1026 50 677 3 1027 13 678 168 1028 244 679 168 1029 244 679 172 1030 252 676 30 1031 50 677 141 1032 12 681 99 1033 51 682 175 1034 255 683 175 1035 255 683 188 1036 268 680 141 1037 12 681 32 1038 54 685 5 1039 14 686 189 1040 269 687 189 1041 269 687 174 1042 254 684 32 1043 54 685 144 1044 23 689 35 1045 59 690 177 1046 257 691 177 1047 257 691 190 1048 270 688 144 1049 23 689 28 1050 46 693 0 1051 21 694 191 1052 271 695 191 1053 271 695 176 1054 256 692 28 1055 46 693 142 1056 20 697 97 1057 47 698 179 1058 259 699 179 1059 259 699 194 1060 274 696 142 1061 20 697 34 1062 58 701 6 1063 22 702 195 1064 275 703 195 1065 275 703 178 1066 258 700 34 1067 58 701 145 1068 11 705 61 1069 91 706 181 1070 261 707 181 1071 261 707 165 1072 237 704 145 1073 11 705 58 1074 86 709 1 1075 9 710 164 1076 236 711 164 1077 236 711 180 1078 260 708 58 1079 86 709 140 1080 8 713 103 1081 87 714 183 1082 263 715 183 1083 263 715 167 1084 241 712 140 1085 8 713 60 1086 90 717 4 1087 10 718 166 1088 240 719 166 1089 240 719 182 1090 262 716 60 1091 90 717 146 1092 19 721 63 1093 95 722 185 1094 265 723 185 1095 265 723 171 1096 249 720 146 1097 19 721 56 1098 82 725 2 1099 17 726 170 1100 248 727 170 1101 248 727 184 1102 264 724 56 1103 82 725 143 1104 16 729 101 1105 83 730 187 1106 267 731 187 1107 267 731 192 1108 272 728 143 1109 16 729 62 1110 94 733 7 1111 18 734 193 1112 273 735 193 1113 273 735 186 1114 266 732 62 1115 94 733 5 1116 14 737 145 1117 213 738 165 1118 239 739 165 1119 239 739 189 1120 269 736 5 1121 14 737 1 1122 212 741 141 1123 12 742 188 1124 268 743 188 1125 268 743 164 1126 238 740 1 1127 212 741 0 1128 21 745 140 1129 215 746 167 1130 243 747 167 1131 243 747 191 1132 271 744 0 1133 21 745 4 1134 214 749 144 1135 23 750 190 1136 270 751 190 1137 270 751 166 1138 242 748 4 1139 214 749 7 1140 18 753 147 1141 217 754 169 1142 247 755 169 1143 247 755 193 1144 273 752 7 1145 18 753 3 1146 216 757 143 1147 16 758 192 1148 272 759 192 1149 272 759 168 1150 246 756 3 1151 216 757 6 1152 22 761 146 1153 219 762 171 1154 251 763 171 1155 251 763 195 1156 275 760 6 1157 22 761 2 1158 218 765 142 1159 20 766 194 1160 274 767 194 1161 274 767 170 1162 250 764 2 1163 218 765</p>
        </triangles>
      </mesh>
    </geometry>
  </library_geometries>
  <library_visual_scenes>
    <visual_scene id="SM_OliveOil_01_A_1" name="SM_OliveOil_01_A_1">
      <node name="SM_OliveOil_01_A_1" id="SM_OliveOil_01_A_1" sid="SM_OliveOil_01_A_1">
        <matrix sid="matrix">2.066689 0.000000 0.000000 0.000000 0.000000 2.066689 0.000000 0.000000 0.000000 0.000000 1.714893 0.000000 0.000000 0.000000 0.000000 1.000000</matrix>
        <instance_geometry url="#SM_OliveOil_01_A_1-lib"/>
        <extra>
          <technique profile="FCOLLADA">
            <visibility>1.000000</visibility>
          </technique>
        </extra>
      </node>
      <extra>
        <technique profile="MAX3D">
          <frame_rate>30.000000</frame_rate>
        </technique>
        <technique profile="FCOLLADA">
          <start_time>0.000000</start_time>
          <end_time>3.333333</end_time>
        </technique>
      </extra>
    </visual_scene>
  </library_visual_scenes>
  <scene>
    <instance_visual_scene url="#SM_OliveOil_01_A_1"/>
  </scene>
</COLLADA>
