<?xml version="1.0" encoding="utf-8"?>
<COLLADA xmlns="http://www.collada.org/2005/11/COLLADASchema" version="1.4.1">
  <asset>
    <contributor>
      <author/>
      <authoring_tool>FBX COLLADA exporter</authoring_tool>
      <comments/>
    </contributor>
    <created>2020-04-24T15:16:01Z</created>
    <keywords/>
    <modified>2020-04-24T15:16:01Z</modified>
    <revision/>
    <subject/>
    <title/>
    <unit meter="0.010000" name="centimeter"/>
    <up_axis>Z_UP</up_axis>
  </asset>
  <library_geometries>
    <geometry id="SM_TomatoCan_01_A_1-lib" name="SM_TomatoCan_01_A_1Mesh">
      <mesh>
        <source id="SM_TomatoCan_01_A_1-POSITION">
          <float_array id="SM_TomatoCan_01_A_1-POSITION-array" count="468">
9.718654 2.604105 -13.456886
6.876387 6.751873 -13.961868
2.624764 9.206549 -13.961868
-2.284587 9.206549 -13.961868
-6.536209 6.751873 -13.961868
-8.990885 2.500250 -13.961868
-8.990884 -2.409100 -13.961868
-6.536210 -6.660723 -13.961868
-2.284588 -9.115399 -13.961868
2.624761 -9.115400 -13.961868
6.876384 -6.660727 -13.961868
9.718653 -2.512962 -13.456886
9.718654 2.604105 13.456886
7.160123 7.035609 13.456886
2.728618 9.594141 13.456886
-2.388442 9.594140 13.456886
-6.819946 7.035609 13.456886
-9.378475 2.604104 13.456886
-9.378475 -2.512955 13.456886
-6.819946 -6.944459 13.456886
-2.388443 -9.502990 13.456886
2.728616 -9.502991 13.456886
7.160120 -6.944463 13.456886
9.718653 -2.512962 13.456886
6.268889 6.144375 -13.961868
8.501206 2.277891 -13.961868
8.501204 -2.186748 -13.961868
6.268887 -6.053229 -13.961868
2.402402 -8.285542 -13.961868
-2.062229 -8.285542 -13.961868
-5.928712 -6.053225 -13.961868
-8.161026 -2.186741 -13.961868
-8.161026 2.277890 -13.961868
-5.928712 6.144374 -13.961868
-2.062227 8.376691 -13.961868
2.402405 8.376691 -13.961868
8.501206 2.277891 13.961866
6.268889 6.144375 13.961866
2.402405 8.376691 13.961866
-2.062227 8.376691 13.961866
-5.928712 6.144374 13.961866
-8.161026 2.277890 13.961866
-8.161026 -2.186741 13.961866
-5.928712 -6.053225 13.961866
-2.062229 -8.285542 13.961866
2.402402 -8.285542 13.961866
6.268887 -6.053229 13.961866
8.501204 -2.186748 13.961866
5.366507 5.241993 -13.961868
7.268528 1.947596 -13.961868
7.268527 -1.856451 -13.961868
5.366505 -5.150847 -13.961868
2.072108 -7.052866 -13.961868
-1.731933 -7.052864 -13.961868
-5.026329 -5.150843 -13.961868
-6.928350 -1.856446 -13.961868
-6.928350 1.947595 -13.961868
-5.026330 5.241991 -13.961868
-1.731932 7.144014 -13.961868
2.072110 7.144014 -13.961868
7.268529 1.947596 13.961866
5.366507 5.241993 13.961866
2.072110 7.144014 13.961866
-1.731932 7.144014 13.961866
-5.026330 5.241991 13.961866
-6.928350 1.947595 13.961866
-6.928350 -1.856446 13.961866
-5.026329 -5.150843 13.961866
-1.731933 -7.052864 13.961866
2.072108 -7.052866 13.961866
5.366505 -5.150847 13.961866
7.268527 -1.856451 13.961866
9.331064 2.500251 -13.961868
7.160123 7.035609 -13.456886
2.728618 9.594141 -13.456886
-2.388442 9.594140 -13.456886
-6.819946 7.035609 -13.456886
-9.378475 2.604104 -13.456886
-9.378475 -2.512955 -13.456886
-6.819946 -6.944459 -13.456886
-2.388443 -9.502990 -13.456886
2.728616 -9.502991 -13.456886
7.160120 -6.944463 -13.456886
9.331063 -2.409107 -13.961868
9.331064 2.500251 13.961866
6.876387 6.751873 13.961866
2.624764 9.206549 13.961866
-2.284587 9.206549 13.961866
-6.536209 6.751873 13.961866
-8.990885 2.500250 13.961866
-8.990884 -2.409100 13.961866
-6.536210 -6.660723 13.961866
-2.284588 -9.115399 13.961866
2.624761 -9.115400 13.961866
6.876384 -6.660727 13.961866
9.331063 -2.409107 13.961866
9.718654 2.604105 12.447620
9.718654 2.604105 0.000001
9.718654 2.604105 -12.447618
7.160123 7.035609 -12.447619
7.160123 7.035609 -0.000001
7.160123 7.035609 12.447617
2.728618 9.594141 -12.447619
2.728618 9.594141 -0.000001
2.728618 9.594141 12.447617
-2.388442 9.594140 -12.447619
-2.388442 9.594140 -0.000001
-2.388442 9.594140 12.447617
-6.819946 7.035609 -12.447619
-6.819946 7.035609 -0.000001
-6.819946 7.035609 12.447617
-9.378475 2.604104 -12.447619
-9.378475 2.604104 -0.000001
-9.378475 2.604104 12.447617
-9.378475 -2.512955 -12.447619
-9.378475 -2.512955 -0.000001
-9.378475 -2.512955 12.447617
-6.819946 -6.944459 -12.447619
-6.819946 -6.944459 -0.000001
-6.819946 -6.944459 12.447617
-2.388443 -9.502990 -12.447619
-2.388443 -9.502990 -0.000001
-2.388443 -9.502990 12.447617
2.728616 -9.502991 -12.447619
2.728616 -9.502991 -0.000001
2.728616 -9.502991 12.447617
7.160120 -6.944463 -12.447619
7.160120 -6.944463 -0.000001
7.160120 -6.944463 12.447617
9.718653 -2.512962 -12.447619
9.718653 -2.512962 -0.000001
9.718653 -2.512962 12.447617
-8.641345 0.012613 3.649954
-8.641343 1.837590 3.160954
-8.641343 3.173564 1.824978
-8.641345 3.662567 0.000000
-8.641343 3.173564 -1.824978
-8.641346 1.837591 -3.160954
-8.641348 0.012613 -3.649954
-8.641346 -1.812362 -3.160954
-8.641349 -3.148337 -1.824978
-8.641348 -3.637340 -0.000002
-8.641347 -3.148339 1.824974
-8.641346 -1.812365 3.160954
-9.441799 0.012614 3.649954
-9.441800 1.837591 3.160954
-9.441802 3.173565 1.824978
-9.441803 3.662565 0.000000
-9.441800 3.173565 -1.824978
-9.441800 1.837591 -3.160954
-9.441799 0.012614 -3.649954
-9.441802 -1.812362 -3.160954
-9.441801 -3.148338 -1.824978
-9.441800 -3.637339 -0.000002
-9.441798 -3.148340 1.824974
-9.441797 -1.812365 3.160954
</float_array>
          <technique_common>
            <accessor source="#SM_TomatoCan_01_A_1-POSITION-array" count="156" stride="3">
              <param name="X" type="float"/>
              <param name="Y" type="float"/>
              <param name="Z" type="float"/>
            </accessor>
          </technique_common>
        </source>
        <source id="SM_TomatoCan_01_A_1-Normal0">
          <float_array id="SM_TomatoCan_01_A_1-Normal0-array" count="2646">
0.000000 0.000000 -1.000000
0.000000 0.000000 -1.000000
0.000000 0.000000 -1.000000
0.000000 0.000000 -1.000000
0.000000 0.000000 -1.000000
0.000000 0.000000 -1.000000
0.000000 0.000000 -1.000000
0.000000 0.000000 -1.000000
0.000000 0.000000 -1.000000
0.000000 0.000000 -1.000000
0.000000 0.000000 -1.000000
0.000000 0.000000 -1.000000
0.000000 0.000000 -1.000000
0.000000 0.000000 -1.000000
0.000000 0.000000 -1.000000
0.000000 0.000000 -1.000000
0.000000 0.000000 -1.000000
0.000000 0.000000 -1.000000
0.000000 0.000000 -1.000000
0.000000 0.000000 -1.000000
0.000000 0.000000 -1.000000
0.000000 0.000000 -1.000000
0.000000 0.000000 -1.000000
0.000000 0.000000 -1.000000
0.000000 0.000000 -1.000000
0.000000 0.000000 -1.000000
0.000000 0.000000 -1.000000
0.000000 0.000000 -1.000000
0.000000 0.000000 -1.000000
0.000000 0.000000 -1.000000
0.866025 0.500000 0.000000
0.707107 0.707107 0.000000
0.707107 0.707107 0.000000
0.707107 0.707107 0.000000
0.866025 0.500000 0.000000
0.866025 0.500000 0.000000
0.707107 0.707107 0.000000
0.500000 0.866025 0.000000
0.500000 0.866025 0.000000
0.500000 0.866025 0.000000
0.707107 0.707107 0.000000
0.707107 0.707107 0.000000
-0.000000 1.000000 0.000000
-0.000000 1.000000 0.000000
-0.000000 1.000000 0.000000
-0.000000 1.000000 0.000000
-0.000000 1.000000 0.000000
-0.000000 1.000000 0.000000
-0.500000 0.866025 0.000000
-0.707107 0.707107 0.000000
-0.707107 0.707107 0.000000
-0.707107 0.707107 0.000000
-0.500000 0.866025 0.000000
-0.500000 0.866025 0.000000
-0.707107 0.707107 0.000000
-0.965926 0.258819 0.000000
-0.965926 0.258819 0.000000
-0.965926 0.258819 0.000000
-0.707107 0.707107 0.000000
-0.707107 0.707107 0.000000
-0.965926 0.258819 0.000000
-0.965926 -0.258819 0.000000
-0.965926 -0.258819 0.000000
-0.965926 -0.258819 0.000000
-0.965926 0.258819 0.000000
-0.965926 0.258819 0.000000
-0.965926 -0.258819 0.000000
-0.707107 -0.707107 0.000000
-0.707107 -0.707107 0.000000
-0.707107 -0.707107 0.000000
-0.965926 -0.258819 0.000000
-0.965926 -0.258819 0.000000
-0.707107 -0.707107 0.000000
-0.258819 -0.965926 0.000000
-0.258819 -0.965926 0.000000
-0.258819 -0.965926 0.000000
-0.707107 -0.707107 0.000000
-0.707107 -0.707107 0.000000
-0.258819 -0.965926 0.000000
0.258819 -0.965926 0.000000
0.258819 -0.965926 0.000000
0.258819 -0.965926 0.000000
-0.258819 -0.965926 0.000000
-0.258819 -0.965926 0.000000
0.258819 -0.965926 0.000000
0.500000 -0.866026 0.000000
0.500000 -0.866026 0.000000
0.500000 -0.866026 0.000000
0.258819 -0.965926 0.000000
0.258819 -0.965926 0.000000
0.866025 -0.500001 0.000000
0.866025 -0.500001 0.000000
0.866025 -0.500001 0.000000
0.866025 -0.500001 0.000000
0.866025 -0.500001 0.000000
0.866025 -0.500001 0.000000
1.000000 -0.000000 0.000000
1.000000 -0.000000 0.000000
1.000000 -0.000000 0.000000
1.000000 -0.000000 0.000000
1.000000 -0.000000 0.000000
1.000000 -0.000000 0.000000
0.000000 0.000000 1.000000
0.000000 0.000000 1.000000
0.000000 0.000000 1.000000
0.000000 0.000000 1.000000
0.000000 0.000000 1.000000
0.000000 0.000000 1.000000
0.000000 0.000000 1.000000
0.000000 0.000000 1.000000
0.000000 0.000000 1.000000
0.000000 0.000000 1.000000
0.000000 0.000000 1.000000
0.000000 0.000000 1.000000
0.000000 0.000000 1.000000
0.000000 0.000000 1.000000
0.000000 0.000000 1.000000
0.000000 0.000000 1.000000
0.000000 0.000000 1.000000
0.000000 0.000000 1.000000
0.000000 0.000000 1.000000
0.000000 0.000000 1.000000
0.000000 0.000000 1.000000
0.000000 0.000000 1.000000
0.000000 0.000000 1.000000
0.000000 0.000000 1.000000
0.000000 0.000000 1.000000
0.000000 0.000000 1.000000
0.000000 0.000000 1.000000
0.000000 0.000000 1.000000
0.000000 0.000000 1.000000
0.000000 0.000000 1.000000
0.000000 0.000000 -1.000000
0.000000 0.000000 -1.000000
0.000000 0.000000 -1.000000
0.000000 0.000000 -1.000000
0.000000 0.000000 -1.000000
0.000000 0.000000 -1.000000
0.000000 0.000000 -1.000000
0.000000 0.000000 -1.000000
0.000000 0.000000 -1.000000
0.000000 0.000000 -1.000000
0.000000 0.000000 -1.000000
0.000000 0.000000 -1.000000
0.000000 0.000000 -1.000000
0.000000 0.000000 -1.000000
0.000000 0.000000 -1.000000
0.000000 0.000000 -1.000000
0.000000 0.000000 -1.000000
0.000000 0.000000 -1.000000
0.000000 0.000000 -1.000000
0.000000 0.000000 -1.000000
0.000000 0.000000 -1.000000
0.000000 0.000000 -1.000000
0.000000 0.000000 -1.000000
0.000000 0.000000 -1.000000
0.000000 0.000000 -1.000000
0.000000 0.000000 -1.000000
0.000000 0.000000 -1.000000
0.000000 0.000000 -1.000000
0.000000 0.000000 -1.000000
0.000000 0.000000 -1.000000
0.000000 0.000000 -1.000000
0.000000 0.000000 -1.000000
0.000000 0.000000 -1.000000
0.000000 0.000000 -1.000000
0.000000 0.000000 -1.000000
0.000000 0.000000 -1.000000
0.000000 0.000000 -1.000000
0.000000 0.000000 -1.000000
0.000000 0.000000 -1.000000
0.000000 0.000000 -1.000000
0.000000 0.000000 -1.000000
0.000000 0.000000 -1.000000
0.000000 0.000000 -1.000000
0.000000 0.000000 -1.000000
0.000000 0.000000 -1.000000
0.000000 0.000000 -1.000000
0.000000 0.000000 -1.000000
0.000000 0.000000 -1.000000
0.000000 0.000000 -1.000000
0.000000 0.000000 -1.000000
0.000000 0.000000 -1.000000
0.000000 0.000000 -1.000000
0.000000 0.000000 -1.000000
0.000000 0.000000 -1.000000
0.000000 0.000000 -1.000000
0.000000 0.000000 -1.000000
0.000000 0.000000 -1.000000
0.000000 0.000000 -1.000000
0.000000 0.000000 -1.000000
0.000000 0.000000 -1.000000
0.000000 0.000000 -1.000000
0.000000 0.000000 -1.000000
0.000000 0.000000 -1.000000
0.000000 0.000000 -1.000000
0.000000 0.000000 -1.000000
0.000000 0.000000 -1.000000
0.000000 0.000000 -1.000000
0.000000 0.000000 -1.000000
0.000000 0.000000 -1.000000
0.000000 0.000000 -1.000000
0.000000 0.000000 -1.000000
0.000000 0.000000 -1.000000
0.000000 0.000000 1.000000
0.000000 0.000000 1.000000
0.000000 0.000000 1.000000
0.000000 0.000000 1.000000
0.000000 0.000000 1.000000
0.000000 0.000000 1.000000
0.000000 0.000000 1.000000
0.000000 0.000000 1.000000
0.000000 0.000000 1.000000
0.000000 0.000000 1.000000
0.000000 0.000000 1.000000
0.000000 0.000000 1.000000
0.000000 0.000000 1.000000
0.000000 0.000000 1.000000
0.000000 0.000000 1.000000
0.000000 0.000000 1.000000
0.000000 0.000000 1.000000
0.000000 0.000000 1.000000
0.000000 0.000000 1.000000
0.000000 0.000000 1.000000
0.000000 0.000000 1.000000
0.000000 0.000000 1.000000
0.000000 0.000000 1.000000
0.000000 0.000000 1.000000
0.000000 0.000000 1.000000
0.000000 0.000000 1.000000
0.000000 0.000000 1.000000
0.000000 0.000000 1.000000
0.000000 0.000000 1.000000
0.000000 0.000000 1.000000
0.000000 0.000000 1.000000
0.000000 0.000000 1.000000
0.000000 0.000000 1.000000
0.000000 0.000000 1.000000
0.000000 0.000000 1.000000
0.000000 0.000000 1.000000
0.000000 0.000000 1.000000
0.000000 0.000000 1.000000
0.000000 0.000000 1.000000
0.000000 0.000000 1.000000
0.000000 0.000000 1.000000
0.000000 0.000000 1.000000
0.000000 0.000000 1.000000
0.000000 0.000000 1.000000
0.000000 0.000000 1.000000
0.000000 0.000000 1.000000
0.000000 0.000000 1.000000
0.000000 0.000000 1.000000
0.000000 0.000000 1.000000
0.000000 0.000000 1.000000
0.000000 0.000000 1.000000
0.000000 0.000000 1.000000
0.000000 0.000000 1.000000
0.000000 0.000000 1.000000
0.000000 0.000000 1.000000
0.000000 0.000000 1.000000
0.000000 0.000000 1.000000
0.000000 0.000000 1.000000
0.000000 0.000000 1.000000
0.000000 0.000000 1.000000
0.000000 0.000000 1.000000
0.000000 0.000000 1.000000
0.000000 0.000000 1.000000
0.000000 0.000000 1.000000
0.000000 0.000000 1.000000
0.000000 0.000000 1.000000
0.000000 0.000000 1.000000
0.000000 0.000000 1.000000
0.000000 0.000000 1.000000
0.000000 0.000000 1.000000
0.000000 0.000000 1.000000
0.000000 0.000000 1.000000
0.000000 0.000000 -1.000000
0.000000 0.000000 -1.000000
0.000000 0.000000 -1.000000
0.000000 0.000000 -1.000000
0.000000 0.000000 -1.000000
0.000000 0.000000 -1.000000
0.000000 0.000000 -1.000000
0.000000 0.000000 -1.000000
0.000000 0.000000 -1.000000
0.000000 0.000000 -1.000000
0.000000 0.000000 -1.000000
0.000000 0.000000 -1.000000
0.000000 0.000000 -1.000000
0.000000 0.000000 -1.000000
0.000000 0.000000 -1.000000
0.000000 0.000000 -1.000000
0.000000 0.000000 -1.000000
0.000000 0.000000 -1.000000
0.000000 0.000000 -1.000000
0.000000 0.000000 -1.000000
0.000000 0.000000 -1.000000
0.000000 0.000000 -1.000000
0.000000 0.000000 -1.000000
0.000000 0.000000 -1.000000
0.000000 0.000000 -1.000000
0.000000 0.000000 -1.000000
0.000000 0.000000 -1.000000
0.000000 0.000000 -1.000000
0.000000 0.000000 -1.000000
0.000000 0.000000 -1.000000
0.000000 0.000000 -1.000000
0.000000 0.000000 -1.000000
0.000000 0.000000 -1.000000
0.000000 0.000000 -1.000000
0.000000 0.000000 -1.000000
0.000000 0.000000 -1.000000
0.000000 0.000000 -1.000000
0.000000 0.000000 -1.000000
0.000000 0.000000 -1.000000
0.000000 0.000000 -1.000000
0.000000 0.000000 -1.000000
0.000000 0.000000 -1.000000
0.000000 0.000000 -1.000000
0.000000 0.000000 -1.000000
0.000000 0.000000 -1.000000
0.000000 0.000000 -1.000000
0.000000 0.000000 -1.000000
0.000000 0.000000 -1.000000
0.000000 0.000000 -1.000000
0.000000 0.000000 -1.000000
0.000000 0.000000 -1.000000
0.000000 0.000000 -1.000000
0.000000 0.000000 -1.000000
0.000000 0.000000 -1.000000
0.000000 0.000000 -1.000000
0.000000 0.000000 -1.000000
0.000000 0.000000 -1.000000
0.000000 0.000000 -1.000000
0.000000 0.000000 -1.000000
0.000000 0.000000 -1.000000
0.000000 0.000000 -1.000000
0.000000 0.000000 -1.000000
0.000000 0.000000 -1.000000
0.000000 0.000000 -1.000000
0.000000 0.000000 -1.000000
0.000000 0.000000 -1.000000
0.000000 0.000000 -1.000000
0.000000 0.000000 -1.000000
0.000000 0.000000 -1.000000
0.000000 0.000000 -1.000000
0.000000 0.000000 -1.000000
0.000000 0.000000 -1.000000
0.000000 0.000000 1.000000
0.000000 0.000000 1.000000
0.000000 0.000000 1.000000
0.000000 0.000000 1.000000
0.000000 0.000000 1.000000
0.000000 0.000000 1.000000
0.000000 0.000000 1.000000
0.000000 0.000000 1.000000
0.000000 0.000000 1.000000
0.000000 0.000000 1.000000
0.000000 0.000000 1.000000
0.000000 0.000000 1.000000
0.000000 0.000000 1.000000
0.000000 0.000000 1.000000
0.000000 0.000000 1.000000
0.000000 0.000000 1.000000
0.000000 0.000000 1.000000
0.000000 0.000000 1.000000
0.000000 0.000000 1.000000
0.000000 0.000000 1.000000
0.000000 0.000000 1.000000
0.000000 0.000000 1.000000
0.000000 0.000000 1.000000
0.000000 0.000000 1.000000
0.000000 0.000000 1.000000
0.000000 0.000000 1.000000
0.000000 0.000000 1.000000
0.000000 0.000000 1.000000
0.000000 0.000000 1.000000
0.000000 0.000000 1.000000
0.000000 0.000000 1.000000
0.000000 0.000000 1.000000
0.000000 0.000000 1.000000
0.000000 0.000000 1.000000
0.000000 0.000000 1.000000
0.000000 0.000000 1.000000
0.000000 0.000000 1.000000
0.000000 0.000000 1.000000
0.000000 0.000000 1.000000
0.000000 0.000000 1.000000
0.000000 0.000000 1.000000
0.000000 0.000000 1.000000
0.000000 0.000000 1.000000
0.000000 0.000000 1.000000
0.000000 0.000000 1.000000
0.000000 0.000000 1.000000
0.000000 0.000000 1.000000
0.000000 0.000000 1.000000
0.000000 0.000000 1.000000
0.000000 0.000000 1.000000
0.000000 0.000000 1.000000
0.000000 0.000000 1.000000
0.000000 0.000000 1.000000
0.000000 0.000000 1.000000
0.000000 0.000000 1.000000
0.000000 0.000000 1.000000
0.000000 0.000000 1.000000
0.000000 0.000000 1.000000
0.000000 0.000000 1.000000
0.000000 0.000000 1.000000
0.000000 0.000000 1.000000
0.000000 0.000000 1.000000
0.000000 0.000000 1.000000
0.000000 0.000000 1.000000
0.000000 0.000000 1.000000
0.000000 0.000000 1.000000
0.000000 0.000000 1.000000
0.000000 0.000000 1.000000
0.000000 0.000000 1.000000
0.000000 0.000000 1.000000
0.000000 0.000000 1.000000
0.000000 0.000000 1.000000
0.553610 0.553610 -0.622118
0.553610 0.553610 -0.622118
0.756246 0.202635 -0.622118
0.756246 0.202635 -0.622118
0.756246 0.202636 -0.622118
0.553610 0.553610 -0.622118
0.202636 0.756245 -0.622119
0.202635 0.756245 -0.622119
0.553610 0.553610 -0.622118
0.553610 0.553610 -0.622118
0.553610 0.553610 -0.622118
0.202636 0.756245 -0.622119
-0.202636 0.756246 -0.622118
-0.202636 0.756246 -0.622118
0.202635 0.756245 -0.622119
0.202635 0.756245 -0.622119
0.202636 0.756245 -0.622119
-0.202636 0.756246 -0.622118
-0.553610 0.553610 -0.622119
-0.553610 0.553610 -0.622119
-0.202636 0.756246 -0.622118
-0.202636 0.756246 -0.622118
-0.202636 0.756246 -0.622118
-0.553610 0.553610 -0.622119
-0.756246 0.202635 -0.622117
-0.756246 0.202636 -0.622117
-0.553610 0.553610 -0.622119
-0.553610 0.553610 -0.622119
-0.553610 0.553610 -0.622119
-0.756246 0.202635 -0.622117
-0.756245 -0.202635 -0.622119
-0.756245 -0.202635 -0.622119
-0.756246 0.202636 -0.622117
-0.756246 0.202636 -0.622117
-0.756246 0.202635 -0.622117
-0.756245 -0.202635 -0.622119
-0.553610 -0.553610 -0.622119
-0.553610 -0.553610 -0.622119
-0.756245 -0.202635 -0.622119
-0.756245 -0.202635 -0.622119
-0.756245 -0.202635 -0.622119
-0.553610 -0.553610 -0.622119
-0.202635 -0.756245 -0.622119
-0.202636 -0.756246 -0.622119
-0.553610 -0.553610 -0.622119
-0.553610 -0.553610 -0.622119
-0.553610 -0.553610 -0.622119
-0.202635 -0.756245 -0.622119
0.202635 -0.756246 -0.622118
0.202635 -0.756246 -0.622118
-0.202636 -0.756246 -0.622119
-0.202636 -0.756246 -0.622119
-0.202635 -0.756245 -0.622119
0.202635 -0.756246 -0.622118
0.553610 -0.553611 -0.622118
0.553610 -0.553611 -0.622118
0.202635 -0.756246 -0.622118
0.202635 -0.756246 -0.622118
0.202635 -0.756246 -0.622118
0.553610 -0.553611 -0.622118
0.756246 -0.202636 -0.622118
0.756246 -0.202636 -0.622118
0.553610 -0.553611 -0.622118
0.553610 -0.553611 -0.622118
0.553610 -0.553611 -0.622118
0.756246 -0.202636 -0.622118
0.756246 0.202636 -0.622118
0.756246 0.202635 -0.622118
0.756246 -0.202636 -0.622118
0.756246 -0.202636 -0.622118
0.756246 -0.202636 -0.622118
0.756246 0.202636 -0.622118
0.756245 0.202635 0.622120
0.756245 0.202635 0.622119
0.553609 0.553610 0.622120
0.553609 0.553610 0.622120
0.553609 0.553610 0.622120
0.756245 0.202635 0.622120
0.553609 0.553610 0.622120
0.553609 0.553610 0.622120
0.202635 0.756244 0.622121
0.202635 0.756244 0.622121
0.202635 0.756244 0.622121
0.553609 0.553610 0.622120
0.202635 0.756244 0.622121
0.202635 0.756244 0.622121
-0.202635 0.756245 0.622120
-0.202635 0.756245 0.622120
-0.202635 0.756245 0.622119
0.202635 0.756244 0.622121
-0.202635 0.756245 0.622119
-0.202635 0.756245 0.622120
-0.553609 0.553609 0.622120
-0.553609 0.553609 0.622120
-0.553609 0.553609 0.622120
-0.202635 0.756245 0.622119
-0.553609 0.553609 0.622120
-0.553609 0.553609 0.622120
-0.756245 0.202635 0.622119
-0.756245 0.202635 0.622119
-0.756245 0.202635 0.622119
-0.553609 0.553609 0.622120
-0.756245 0.202635 0.622119
-0.756245 0.202635 0.622119
-0.756244 -0.202635 0.622120
-0.756244 -0.202635 0.622120
-0.756244 -0.202635 0.622120
-0.756245 0.202635 0.622119
-0.756244 -0.202635 0.622120
-0.756244 -0.202635 0.622120
-0.553609 -0.553609 0.622120
-0.553609 -0.553609 0.622120
-0.553610 -0.553609 0.622120
-0.756244 -0.202635 0.622120
-0.553610 -0.553609 0.622120
-0.553609 -0.553609 0.622120
-0.202635 -0.756244 0.622120
-0.202635 -0.756244 0.622120
-0.202635 -0.756244 0.622120
-0.553610 -0.553609 0.622120
-0.202635 -0.756244 0.622120
-0.202635 -0.756244 0.622120
0.202635 -0.756245 0.622120
0.202635 -0.756245 0.622120
0.202635 -0.756245 0.622120
-0.202635 -0.756244 0.622120
0.202635 -0.756245 0.622120
0.202635 -0.756245 0.622120
0.553609 -0.553610 0.622120
0.553609 -0.553610 0.622120
0.553609 -0.553610 0.622120
0.202635 -0.756245 0.622120
0.553609 -0.553610 0.622120
0.553609 -0.553610 0.622120
0.756245 -0.202636 0.622119
0.756245 -0.202636 0.622119
0.756245 -0.202636 0.622119
0.553609 -0.553610 0.622120
0.756245 -0.202636 0.622119
0.756245 -0.202636 0.622119
0.756245 0.202635 0.622119
0.756245 0.202635 0.622119
0.756245 0.202635 0.622120
0.756245 -0.202636 0.622119
0.866025 0.500000 0.000000
0.707107 0.707107 0.000000
0.707107 0.707107 0.000000
0.707107 0.707107 0.000000
0.866025 0.500000 0.000000
0.866025 0.500000 0.000000
0.866025 0.500000 0.000000
0.707107 0.707107 0.000000
0.707107 0.707107 0.000000
0.707107 0.707107 0.000000
0.866025 0.500000 0.000000
0.866025 0.500000 0.000000
0.707107 0.707107 0.000000
0.866025 0.500000 0.000000
0.866025 0.500000 0.000000
0.866025 0.500000 0.000000
0.707107 0.707107 0.000000
0.707107 0.707107 0.000000
0.707107 0.707107 0.000000
0.500000 0.866025 0.000000
0.500000 0.866025 0.000000
0.500000 0.866025 0.000000
0.707107 0.707107 0.000000
0.707107 0.707107 0.000000
0.707107 0.707107 0.000000
0.500000 0.866025 0.000000
0.500000 0.866025 0.000000
0.500000 0.866025 0.000000
0.707107 0.707107 0.000000
0.707107 0.707107 0.000000
0.500000 0.866025 0.000000
0.707107 0.707107 0.000000
0.707107 0.707107 0.000000
0.707107 0.707107 0.000000
0.500000 0.866025 0.000000
0.500000 0.866025 0.000000
-0.000000 1.000000 0.000000
-0.000000 1.000000 0.000000
-0.000000 1.000000 0.000000
-0.000000 1.000000 0.000000
-0.000000 1.000000 0.000000
-0.000000 1.000000 0.000000
-0.000000 1.000000 0.000000
-0.000000 1.000000 0.000000
-0.000000 1.000000 0.000000
-0.000000 1.000000 0.000000
-0.000000 1.000000 0.000000
-0.000000 1.000000 0.000000
-0.000000 1.000000 0.000000
-0.000000 1.000000 0.000000
-0.000000 1.000000 0.000000
-0.000000 1.000000 0.000000
-0.000000 1.000000 0.000000
-0.000000 1.000000 0.000000
-0.500000 0.866025 0.000000
-0.707107 0.707107 0.000000
-0.707107 0.707107 0.000000
-0.707107 0.707107 0.000000
-0.500000 0.866025 0.000000
-0.500000 0.866025 0.000000
-0.500000 0.866025 0.000000
-0.707107 0.707107 0.000000
-0.707107 0.707107 0.000000
-0.707107 0.707107 0.000000
-0.500000 0.866025 0.000000
-0.500000 0.866025 0.000000
-0.707107 0.707107 0.000000
-0.500000 0.866025 0.000000
-0.500000 0.866025 0.000000
-0.500000 0.866025 0.000000
-0.707107 0.707107 0.000000
-0.707107 0.707107 0.000000
-0.707107 0.707107 0.000000
-0.965926 0.258819 0.000000
-0.965926 0.258819 0.000000
-0.965926 0.258819 0.000000
-0.707107 0.707107 0.000000
-0.707107 0.707107 0.000000
-0.707107 0.707107 0.000000
-0.965926 0.258819 0.000000
-0.965926 0.258819 0.000000
-0.965926 0.258819 0.000000
-0.707107 0.707107 0.000000
-0.707107 0.707107 0.000000
-0.965926 0.258819 0.000000
-0.707107 0.707107 0.000000
-0.707107 0.707107 0.000000
-0.707107 0.707107 0.000000
-0.965926 0.258819 0.000000
-0.965926 0.258819 0.000000
-0.965926 0.258819 0.000000
-0.965926 -0.258819 0.000000
-0.965926 -0.258819 0.000000
-0.965926 -0.258819 0.000000
-0.965926 0.258819 0.000000
-0.965926 0.258819 0.000000
-0.965926 0.258819 0.000000
-0.965926 -0.258819 0.000000
-0.965926 -0.258819 0.000000
-0.965926 -0.258819 0.000000
-0.965926 0.258819 0.000000
-0.965926 0.258819 0.000000
-0.965926 -0.258819 0.000000
-0.965926 0.258819 0.000000
-0.965926 0.258819 0.000000
-0.965926 0.258819 0.000000
-0.965926 -0.258819 0.000000
-0.965926 -0.258819 0.000000
-0.965926 -0.258819 0.000000
-0.707107 -0.707107 0.000000
-0.707107 -0.707107 0.000000
-0.707107 -0.707107 0.000000
-0.965926 -0.258819 0.000000
-0.965926 -0.258819 0.000000
-0.965926 -0.258819 0.000000
-0.707107 -0.707107 0.000000
-0.707107 -0.707107 0.000000
-0.707107 -0.707107 0.000000
-0.965926 -0.258819 0.000000
-0.965926 -0.258819 0.000000
-0.707107 -0.707107 0.000000
-0.965926 -0.258819 0.000000
-0.965926 -0.258819 0.000000
-0.965926 -0.258819 0.000000
-0.707107 -0.707107 0.000000
-0.707107 -0.707107 0.000000
-0.707107 -0.707107 0.000000
-0.258819 -0.965926 0.000000
-0.258819 -0.965926 0.000000
-0.258819 -0.965926 0.000000
-0.707107 -0.707107 0.000000
-0.707107 -0.707107 0.000000
-0.707107 -0.707107 0.000000
-0.258819 -0.965926 0.000000
-0.258819 -0.965926 0.000000
-0.258819 -0.965926 0.000000
-0.707107 -0.707107 0.000000
-0.707107 -0.707107 0.000000
-0.258819 -0.965926 0.000000
-0.707107 -0.707107 0.000000
-0.707107 -0.707107 0.000000
-0.707107 -0.707107 0.000000
-0.258819 -0.965926 0.000000
-0.258819 -0.965926 0.000000
-0.258819 -0.965926 0.000000
0.258819 -0.965926 0.000000
0.258819 -0.965926 0.000000
0.258819 -0.965926 0.000000
-0.258819 -0.965926 0.000000
-0.258819 -0.965926 0.000000
-0.258819 -0.965926 0.000000
0.258819 -0.965926 0.000000
0.258819 -0.965926 0.000000
0.258819 -0.965926 0.000000
-0.258819 -0.965926 0.000000
-0.258819 -0.965926 0.000000
0.258819 -0.965926 0.000000
-0.258819 -0.965926 0.000000
-0.258819 -0.965926 0.000000
-0.258819 -0.965926 0.000000
0.258819 -0.965926 0.000000
0.258819 -0.965926 0.000000
0.258819 -0.965926 0.000000
0.500000 -0.866026 0.000000
0.500000 -0.866026 0.000000
0.500000 -0.866026 0.000000
0.258819 -0.965926 0.000000
0.258819 -0.965926 0.000000
0.258819 -0.965926 0.000000
0.500000 -0.866026 0.000000
0.500000 -0.866026 0.000000
0.500000 -0.866026 0.000000
0.258819 -0.965926 0.000000
0.258819 -0.965926 0.000000
0.500000 -0.866026 0.000000
0.258819 -0.965926 0.000000
0.258819 -0.965926 0.000000
0.258819 -0.965926 0.000000
0.500000 -0.866026 0.000000
0.500000 -0.866026 0.000000
0.866025 -0.500001 0.000000
0.866025 -0.500001 0.000000
0.866025 -0.500001 0.000000
0.866025 -0.500001 0.000000
0.866025 -0.500001 0.000000
0.866025 -0.500001 0.000000
0.866025 -0.500001 0.000000
0.866025 -0.500001 0.000000
0.866025 -0.500001 0.000000
0.866025 -0.500001 0.000000
0.866025 -0.500001 0.000000
0.866025 -0.500001 0.000000
0.866025 -0.500001 0.000000
0.866025 -0.500001 0.000000
0.866025 -0.500001 0.000000
0.866025 -0.500001 0.000000
0.866025 -0.500001 0.000000
0.866025 -0.500001 0.000000
1.000000 -0.000000 0.000000
1.000000 -0.000000 0.000000
1.000000 -0.000000 0.000000
1.000000 -0.000000 0.000000
1.000000 -0.000000 0.000000
1.000000 -0.000000 0.000000
1.000000 -0.000000 0.000000
1.000000 -0.000000 0.000000
1.000000 -0.000000 0.000000
1.000000 -0.000000 0.000000
1.000000 -0.000000 0.000000
1.000000 -0.000000 0.000000
1.000000 -0.000000 0.000000
1.000000 -0.000000 0.000000
1.000000 -0.000000 0.000000
1.000000 -0.000000 0.000000
1.000000 -0.000000 0.000000
1.000000 -0.000000 0.000000
0.000000 0.000000 1.000000
0.000001 0.500000 0.866025
0.000000 0.500000 0.866025
0.000000 0.500000 0.866025
0.000000 0.000000 1.000000
0.000000 0.000000 1.000000
0.000001 0.500000 0.866025
0.000001 0.866026 0.500000
0.000001 0.866026 0.499999
0.000001 0.866026 0.499999
0.000000 0.500000 0.866025
0.000001 0.500000 0.866025
0.000001 0.866026 0.500000
-0.000002 1.000000 0.000000
-0.000001 1.000000 0.000000
-0.000001 1.000000 0.000000
0.000001 0.866026 0.499999
0.000001 0.866026 0.500000
-0.000002 1.000000 0.000000
0.000000 0.866025 -0.500000
0.000000 0.866026 -0.500000
0.000000 0.866026 -0.500000
-0.000001 1.000000 0.000000
-0.000002 1.000000 0.000000
0.000000 0.866025 -0.500000
-0.000000 0.500001 -0.866025
-0.000000 0.500000 -0.866025
-0.000000 0.500000 -0.866025
0.000000 0.866026 -0.500000
0.000000 0.866025 -0.500000
-0.000000 0.500001 -0.866025
0.000000 -0.000000 -1.000000
-0.000000 0.000000 -1.000000
-0.000000 0.000000 -1.000000
-0.000000 0.500000 -0.866025
-0.000000 0.500001 -0.866025
0.000000 -0.000000 -1.000000
-0.000000 -0.500000 -0.866025
-0.000000 -0.500000 -0.866025
-0.000000 -0.500000 -0.866025
-0.000000 0.000000 -1.000000
0.000000 -0.000000 -1.000000
-0.000000 -0.500000 -0.866025
0.000001 -0.866025 -0.500000
0.000001 -0.866025 -0.500000
0.000001 -0.866025 -0.500000
-0.000000 -0.500000 -0.866025
-0.000000 -0.500000 -0.866025
0.000001 -0.866025 -0.500000
-0.000000 -1.000000 -0.000001
-0.000001 -1.000000 -0.000001
-0.000001 -1.000000 -0.000001
0.000001 -0.866025 -0.500000
0.000001 -0.866025 -0.500000
-0.000000 -1.000000 -0.000001
0.000001 -0.866026 0.499999
0.000001 -0.866026 0.499999
0.000001 -0.866026 0.499999
-0.000001 -1.000000 -0.000001
-0.000000 -1.000000 -0.000001
0.000001 -0.866026 0.499999
-0.000000 -0.500000 0.866025
0.000000 -0.500000 0.866025
0.000000 -0.500000 0.866025
0.000001 -0.866026 0.499999
0.000001 -0.866026 0.499999
-0.000000 -0.500000 0.866025
0.000000 0.000000 1.000000
0.000000 0.000000 1.000000
0.000000 0.000000 1.000000
0.000000 -0.500000 0.866025
-0.000000 -0.500000 0.866025
-1.000000 -0.000001 0.000001
-1.000000 -0.000000 0.000001
-1.000000 -0.000001 0.000000
-1.000000 -0.000001 0.000000
-1.000000 -0.000003 -0.000001
-1.000000 -0.000000 -0.000000
-1.000000 -0.000000 -0.000000
-1.000000 -0.000001 0.000001
-1.000000 0.000000 0.000000
-1.000000 -0.000001 0.000000
-1.000000 -0.000000 -0.000000
-1.000000 0.000000 0.000000
-1.000000 0.000000 0.000000
-1.000000 0.000003 0.000004
-1.000000 0.000001 0.000001
-1.000000 0.000001 0.000001
-1.000000 0.000001 0.000001
-1.000000 -0.000000 0.000000
-1.000000 0.000000 0.000000
-1.000000 0.000001 0.000001
-1.000000 -0.000000 0.000000
-1.000000 -0.000001 0.000000
-1.000000 0.000000 0.000000
-1.000000 -0.000000 0.000000
-1.000000 -0.000001 0.000001
-1.000000 -0.000001 0.000000
-1.000000 -0.000000 0.000000
-1.000000 -0.000002 0.000002
-1.000000 -0.000001 0.000001
-1.000000 -0.000000 0.000000
</float_array>
          <technique_common>
            <accessor source="#SM_TomatoCan_01_A_1-Normal0-array" count="882" stride="3">
              <param name="X" type="float"/>
              <param name="Y" type="float"/>
              <param name="Z" type="float"/>
            </accessor>
          </technique_common>
        </source>
        <source id="SM_TomatoCan_01_A_1-UV0">
          <float_array id="SM_TomatoCan_01_A_1-UV0-array" count="418">
0.750000 0.018084
0.833333 0.000000
0.916667 0.000000
0.000000 0.018084
0.083333 0.018084
0.166667 0.018084
0.250000 0.018084
0.333333 0.018084
0.416667 0.018084
0.500000 0.018084
0.583333 0.018084
0.666667 0.018084
0.750000 0.981916
0.833333 0.981916
0.916667 0.981916
0.000000 0.981916
0.083333 0.981916
0.166667 0.981916
0.250000 0.981916
0.333333 0.981916
0.416667 0.981916
0.500000 0.981916
0.583333 0.981916
0.666667 0.981916
-0.083333 0.018084
-0.083333 0.981916
0.888354 0.000000
0.755983 0.000000
0.555021 0.000000
0.339316 0.000000
0.166667 0.000000
0.083333 0.000000
0.111645 0.000000
0.244017 0.000000
0.444979 0.000000
0.888354 1.000000
0.755983 1.000000
0.555021 1.000000
0.339316 1.000000
0.166667 1.000000
0.083333 1.000000
0.111645 1.000000
0.244017 1.000000
0.833333 0.000000
0.750000 0.000000
0.444979 0.000000
0.244017 0.000000
0.111645 0.000000
0.083333 0.000000
0.166667 0.000000
0.339316 0.000000
0.555021 0.000000
0.755983 0.000000
0.888354 0.000000
0.916667 0.000000
0.750000 1.000000
0.833333 1.000000
0.916667 1.000000
0.888354 1.000000
0.755983 1.000000
0.555021 1.000000
0.339316 1.000000
0.166667 1.000000
0.083333 1.000000
0.111645 1.000000
0.244017 1.000000
0.666667 1.000000
0.833333 0.000000
0.750000 0.000000
0.444979 0.000000
0.244017 0.000000
0.111645 0.000000
0.083333 0.000000
0.166667 0.000000
0.339316 0.000000
0.555021 0.000000
0.755983 0.000000
0.888354 0.000000
0.916667 0.000000
0.750000 1.000000
0.833333 1.000000
0.916667 1.000000
0.888354 1.000000
0.755983 1.000000
0.555021 1.000000
0.339316 1.000000
0.166667 1.000000
0.083333 1.000000
0.111645 1.000000
0.244017 1.000000
0.666667 1.000000
0.750000 0.000000
0.833333 0.018084
0.916667 0.018084
0.750000 1.000000
0.833333 1.000000
0.916667 1.000000
0.666667 1.000000
-0.001691 0.203150
-0.081642 0.203150
0.081642 0.203150
0.001691 0.203150
0.164975 0.203150
0.085025 0.203150
0.248309 0.203150
0.168358 0.203150
0.331642 0.203150
0.251691 0.203150
0.414975 0.203150
0.335025 0.203150
0.498309 0.203150
0.418358 0.203150
0.581642 0.203150
0.501691 0.203150
0.664975 0.203150
0.585025 0.203150
0.748309 0.203150
0.668358 0.203150
-0.081642 0.796850
-0.001691 0.796850
0.001691 0.796850
0.081642 0.796850
0.085025 0.796850
0.164975 0.796850
0.168358 0.796850
0.248309 0.796850
0.251691 0.796850
0.331642 0.796850
0.335025 0.796850
0.414975 0.796850
0.418358 0.796850
0.498309 0.796850
0.501691 0.796850
0.581642 0.796850
0.585025 0.796850
0.664975 0.796850
0.750000 0.945772
0.750000 0.500000
0.750000 0.054228
0.833333 0.054228
0.833333 0.500000
0.833333 0.945772
0.916667 0.054228
0.916667 0.500000
0.916667 0.945772
-0.083333 0.054228
-0.083333 0.500000
-0.083333 0.945772
0.000000 0.054228
0.000000 0.500000
0.000000 0.945772
0.083333 0.054228
0.083333 0.500000
0.083333 0.945772
0.166667 0.054228
0.166667 0.500000
0.166667 0.945772
0.250000 0.054228
0.250000 0.500000
0.250000 0.945772
0.333333 0.054228
0.333333 0.500000
0.333333 0.945772
0.416667 0.054228
0.416667 0.500000
0.416667 0.945772
0.500000 0.054228
0.500000 0.500000
0.500000 0.945772
0.583333 0.054228
0.583333 0.500000
0.583333 0.945772
0.666667 0.054228
0.666667 0.500000
0.666667 0.945772
0.750000 0.000000
0.833333 0.000000
0.916667 0.000000
0.000000 0.000000
0.083333 0.000000
0.166667 0.000000
0.250000 0.000000
0.333333 0.000000
0.416667 0.000000
0.500000 0.000000
0.583333 0.000000
0.666667 0.000000
0.750000 1.000000
0.833333 1.000000
0.916667 1.000000
0.000000 1.000000
0.083333 1.000000
0.166667 1.000000
0.250000 1.000000
0.333333 1.000000
0.416667 1.000000
0.500000 1.000000
0.583333 1.000000
0.666667 1.000000
-0.083333 0.000000
-0.083333 1.000000
0.888354 1.000000
0.755983 1.000000
0.555021 1.000000
0.339316 1.000000
0.166667 1.000000
0.083333 1.000000
0.111645 1.000000
0.244017 1.000000
</float_array>
          <technique_common>
            <accessor source="#SM_TomatoCan_01_A_1-UV0-array" count="209" stride="2">
              <param name="S" type="float"/>
              <param name="T" type="float"/>
            </accessor>
          </technique_common>
        </source>
        <source id="SM_TomatoCan_01_A_1-VERTEX_COLOR0">
          <float_array id="SM_TomatoCan_01_A_1-VERTEX_COLOR0-array" count="2256">
0.423529 0.423529 0.423529 1.000000
0.423529 0.423529 0.423529 1.000000
0.423529 0.423529 0.423529 1.000000
0.423529 0.423529 0.423529 1.000000
0.423529 0.423529 0.423529 1.000000
0.423529 0.423529 0.423529 1.000000
0.423529 0.423529 0.423529 1.000000
0.423529 0.423529 0.423529 1.000000
0.423529 0.423529 0.423529 1.000000
0.423529 0.423529 0.423529 1.000000
0.423529 0.423529 0.423529 1.000000
0.423529 0.423529 0.423529 1.000000
0.768628 0.007843 0.007843 1.000000
0.768628 0.007843 0.007843 1.000000
0.768628 0.007843 0.007843 1.000000
0.768628 0.007843 0.007843 1.000000
0.768628 0.007843 0.007843 1.000000
0.768628 0.007843 0.007843 1.000000
0.768628 0.007843 0.007843 1.000000
0.768628 0.007843 0.007843 1.000000
0.768628 0.007843 0.007843 1.000000
0.768628 0.007843 0.007843 1.000000
0.768628 0.007843 0.007843 1.000000
0.768628 0.007843 0.007843 1.000000
0.768628 0.007843 0.007843 1.000000
0.768628 0.007843 0.007843 1.000000
0.768628 0.007843 0.007843 1.000000
0.768628 0.007843 0.007843 1.000000
0.768628 0.007843 0.007843 1.000000
0.768628 0.007843 0.007843 1.000000
0.768628 0.007843 0.007843 1.000000
0.768628 0.007843 0.007843 1.000000
0.768628 0.007843 0.007843 1.000000
0.768628 0.007843 0.007843 1.000000
0.768628 0.007843 0.007843 1.000000
0.768628 0.007843 0.007843 1.000000
0.768628 0.007843 0.007843 1.000000
0.768628 0.007843 0.007843 1.000000
0.768628 0.007843 0.007843 1.000000
0.768628 0.007843 0.007843 1.000000
0.768628 0.007843 0.007843 1.000000
0.768628 0.007843 0.007843 1.000000
0.768628 0.007843 0.007843 1.000000
0.768628 0.007843 0.007843 1.000000
0.768628 0.007843 0.007843 1.000000
0.768628 0.007843 0.007843 1.000000
0.768628 0.007843 0.007843 1.000000
0.768628 0.007843 0.007843 1.000000
0.768628 0.007843 0.007843 1.000000
0.768628 0.007843 0.007843 1.000000
0.768628 0.007843 0.007843 1.000000
0.768628 0.007843 0.007843 1.000000
0.768628 0.007843 0.007843 1.000000
0.768628 0.007843 0.007843 1.000000
0.768628 0.007843 0.007843 1.000000
0.768628 0.007843 0.007843 1.000000
0.768628 0.007843 0.007843 1.000000
0.768628 0.007843 0.007843 1.000000
0.768628 0.007843 0.007843 1.000000
0.768628 0.007843 0.007843 1.000000
0.423529 0.423529 0.423529 1.000000
0.423529 0.423529 0.423529 1.000000
0.423529 0.423529 0.423529 1.000000
0.423529 0.423529 0.423529 1.000000
0.423529 0.423529 0.423529 1.000000
0.423529 0.423529 0.423529 1.000000
0.423529 0.423529 0.423529 1.000000
0.423529 0.423529 0.423529 1.000000
0.423529 0.423529 0.423529 1.000000
0.423529 0.423529 0.423529 1.000000
0.423529 0.423529 0.423529 1.000000
0.423529 0.423529 0.423529 1.000000
0.423529 0.423529 0.423529 1.000000
0.423529 0.423529 0.423529 1.000000
0.423529 0.423529 0.423529 1.000000
0.423529 0.423529 0.423529 1.000000
0.423529 0.423529 0.423529 1.000000
0.423529 0.423529 0.423529 1.000000
0.423529 0.423529 0.423529 1.000000
0.423529 0.423529 0.423529 1.000000
0.423529 0.423529 0.423529 1.000000
0.423529 0.423529 0.423529 1.000000
0.423529 0.423529 0.423529 1.000000
0.423529 0.423529 0.423529 1.000000
0.423529 0.423529 0.423529 1.000000
0.423529 0.423529 0.423529 1.000000
0.423529 0.423529 0.423529 1.000000
0.423529 0.423529 0.423529 1.000000
0.423529 0.423529 0.423529 1.000000
0.423529 0.423529 0.423529 1.000000
0.423529 0.423529 0.423529 1.000000
0.423529 0.423529 0.423529 1.000000
0.423529 0.423529 0.423529 1.000000
0.423529 0.423529 0.423529 1.000000
0.423529 0.423529 0.423529 1.000000
0.423529 0.423529 0.423529 1.000000
0.423529 0.423529 0.423529 1.000000
0.423529 0.423529 0.423529 1.000000
0.423529 0.423529 0.423529 1.000000
0.423529 0.423529 0.423529 1.000000
0.423529 0.423529 0.423529 1.000000
0.423529 0.423529 0.423529 1.000000
0.423529 0.423529 0.423529 1.000000
0.423529 0.423529 0.423529 1.000000
0.423529 0.423529 0.423529 1.000000
0.423529 0.423529 0.423529 1.000000
0.423529 0.423529 0.423529 1.000000
0.423529 0.423529 0.423529 1.000000
0.423529 0.423529 0.423529 1.000000
0.423529 0.423529 0.423529 1.000000
0.423529 0.423529 0.423529 1.000000
0.423529 0.423529 0.423529 1.000000
0.423529 0.423529 0.423529 1.000000
0.423529 0.423529 0.423529 1.000000
0.423529 0.423529 0.423529 1.000000
0.423529 0.423529 0.423529 1.000000
0.423529 0.423529 0.423529 1.000000
0.423529 0.423529 0.423529 1.000000
0.423529 0.423529 0.423529 1.000000
0.423529 0.423529 0.423529 1.000000
0.423529 0.423529 0.423529 1.000000
0.423529 0.423529 0.423529 1.000000
0.423529 0.423529 0.423529 1.000000
0.423529 0.423529 0.423529 1.000000
0.423529 0.423529 0.423529 1.000000
0.423529 0.423529 0.423529 1.000000
0.423529 0.423529 0.423529 1.000000
0.423529 0.423529 0.423529 1.000000
0.423529 0.423529 0.423529 1.000000
0.423529 0.423529 0.423529 1.000000
0.423529 0.423529 0.423529 1.000000
0.423529 0.423529 0.423529 1.000000
0.423529 0.423529 0.423529 1.000000
0.423529 0.423529 0.423529 1.000000
0.423529 0.423529 0.423529 1.000000
0.423529 0.423529 0.423529 1.000000
0.423529 0.423529 0.423529 1.000000
0.423529 0.423529 0.423529 1.000000
0.423529 0.423529 0.423529 1.000000
0.423529 0.423529 0.423529 1.000000
0.423529 0.423529 0.423529 1.000000
0.423529 0.423529 0.423529 1.000000
0.423529 0.423529 0.423529 1.000000
0.423529 0.423529 0.423529 1.000000
0.423529 0.423529 0.423529 1.000000
0.423529 0.423529 0.423529 1.000000
0.423529 0.423529 0.423529 1.000000
0.423529 0.423529 0.423529 1.000000
0.423529 0.423529 0.423529 1.000000
0.423529 0.423529 0.423529 1.000000
0.423529 0.423529 0.423529 1.000000
0.423529 0.423529 0.423529 1.000000
0.423529 0.423529 0.423529 1.000000
0.423529 0.423529 0.423529 1.000000
0.423529 0.423529 0.423529 1.000000
0.423529 0.423529 0.423529 1.000000
0.423529 0.423529 0.423529 1.000000
0.423529 0.423529 0.423529 1.000000
0.423529 0.423529 0.423529 1.000000
0.423529 0.423529 0.423529 1.000000
0.423529 0.423529 0.423529 1.000000
0.423529 0.423529 0.423529 1.000000
0.423529 0.423529 0.423529 1.000000
0.423529 0.423529 0.423529 1.000000
0.423529 0.423529 0.423529 1.000000
0.423529 0.423529 0.423529 1.000000
0.423529 0.423529 0.423529 1.000000
0.423529 0.423529 0.423529 1.000000
0.290196 0.290196 0.290196 1.000000
0.290196 0.290196 0.290196 1.000000
0.290196 0.290196 0.290196 1.000000
0.290196 0.290196 0.290196 1.000000
0.290196 0.290196 0.290196 1.000000
0.290196 0.290196 0.290196 1.000000
0.290196 0.290196 0.290196 1.000000
0.290196 0.290196 0.290196 1.000000
0.290196 0.290196 0.290196 1.000000
0.290196 0.290196 0.290196 1.000000
0.290196 0.290196 0.290196 1.000000
0.290196 0.290196 0.290196 1.000000
0.290196 0.290196 0.290196 1.000000
0.290196 0.290196 0.290196 1.000000
0.290196 0.290196 0.290196 1.000000
0.290196 0.290196 0.290196 1.000000
0.290196 0.290196 0.290196 1.000000
0.290196 0.290196 0.290196 1.000000
0.290196 0.290196 0.290196 1.000000
0.290196 0.290196 0.290196 1.000000
0.290196 0.290196 0.290196 1.000000
0.290196 0.290196 0.290196 1.000000
0.290196 0.290196 0.290196 1.000000
0.290196 0.290196 0.290196 1.000000
0.290196 0.290196 0.290196 1.000000
0.290196 0.290196 0.290196 1.000000
0.290196 0.290196 0.290196 1.000000
0.290196 0.290196 0.290196 1.000000
0.290196 0.290196 0.290196 1.000000
0.290196 0.290196 0.290196 1.000000
0.290196 0.290196 0.290196 1.000000
0.290196 0.290196 0.290196 1.000000
0.290196 0.290196 0.290196 1.000000
0.290196 0.290196 0.290196 1.000000
0.290196 0.290196 0.290196 1.000000
0.290196 0.290196 0.290196 1.000000
0.290196 0.290196 0.290196 1.000000
0.290196 0.290196 0.290196 1.000000
0.290196 0.290196 0.290196 1.000000
0.290196 0.290196 0.290196 1.000000
0.290196 0.290196 0.290196 1.000000
0.290196 0.290196 0.290196 1.000000
0.290196 0.290196 0.290196 1.000000
0.290196 0.290196 0.290196 1.000000
0.290196 0.290196 0.290196 1.000000
0.290196 0.290196 0.290196 1.000000
0.290196 0.290196 0.290196 1.000000
0.290196 0.290196 0.290196 1.000000
0.290196 0.290196 0.290196 1.000000
0.290196 0.290196 0.290196 1.000000
0.290196 0.290196 0.290196 1.000000
0.290196 0.290196 0.290196 1.000000
0.290196 0.290196 0.290196 1.000000
0.290196 0.290196 0.290196 1.000000
0.290196 0.290196 0.290196 1.000000
0.290196 0.290196 0.290196 1.000000
0.290196 0.290196 0.290196 1.000000
0.290196 0.290196 0.290196 1.000000
0.290196 0.290196 0.290196 1.000000
0.290196 0.290196 0.290196 1.000000
0.290196 0.290196 0.290196 1.000000
0.290196 0.290196 0.290196 1.000000
0.290196 0.290196 0.290196 1.000000
0.290196 0.290196 0.290196 1.000000
0.290196 0.290196 0.290196 1.000000
0.290196 0.290196 0.290196 1.000000
0.290196 0.290196 0.290196 1.000000
0.290196 0.290196 0.290196 1.000000
0.290196 0.290196 0.290196 1.000000
0.290196 0.290196 0.290196 1.000000
0.290196 0.290196 0.290196 1.000000
0.290196 0.290196 0.290196 1.000000
0.290196 0.290196 0.290196 1.000000
0.290196 0.290196 0.290196 1.000000
0.290196 0.290196 0.290196 1.000000
0.290196 0.290196 0.290196 1.000000
0.290196 0.290196 0.290196 1.000000
0.290196 0.290196 0.290196 1.000000
0.290196 0.290196 0.290196 1.000000
0.290196 0.290196 0.290196 1.000000
0.290196 0.290196 0.290196 1.000000
0.290196 0.290196 0.290196 1.000000
0.290196 0.290196 0.290196 1.000000
0.290196 0.290196 0.290196 1.000000
0.290196 0.290196 0.290196 1.000000
0.290196 0.290196 0.290196 1.000000
0.290196 0.290196 0.290196 1.000000
0.290196 0.290196 0.290196 1.000000
0.290196 0.290196 0.290196 1.000000
0.290196 0.290196 0.290196 1.000000
0.290196 0.290196 0.290196 1.000000
0.290196 0.290196 0.290196 1.000000
0.290196 0.290196 0.290196 1.000000
0.290196 0.290196 0.290196 1.000000
0.290196 0.290196 0.290196 1.000000
0.290196 0.290196 0.290196 1.000000
0.423529 0.423529 0.423529 1.000000
0.423529 0.423529 0.423529 1.000000
0.423529 0.423529 0.423529 1.000000
0.423529 0.423529 0.423529 1.000000
0.423529 0.423529 0.423529 1.000000
0.423529 0.423529 0.423529 1.000000
0.423529 0.423529 0.423529 1.000000
0.423529 0.423529 0.423529 1.000000
0.423529 0.423529 0.423529 1.000000
0.423529 0.423529 0.423529 1.000000
0.423529 0.423529 0.423529 1.000000
0.423529 0.423529 0.423529 1.000000
0.423529 0.423529 0.423529 1.000000
0.423529 0.423529 0.423529 1.000000
0.423529 0.423529 0.423529 1.000000
0.423529 0.423529 0.423529 1.000000
0.423529 0.423529 0.423529 1.000000
0.423529 0.423529 0.423529 1.000000
0.423529 0.423529 0.423529 1.000000
0.423529 0.423529 0.423529 1.000000
0.423529 0.423529 0.423529 1.000000
0.423529 0.423529 0.423529 1.000000
0.423529 0.423529 0.423529 1.000000
0.423529 0.423529 0.423529 1.000000
0.423529 0.423529 0.423529 1.000000
0.423529 0.423529 0.423529 1.000000
0.423529 0.423529 0.423529 1.000000
0.423529 0.423529 0.423529 1.000000
0.423529 0.423529 0.423529 1.000000
0.423529 0.423529 0.423529 1.000000
0.423529 0.423529 0.423529 1.000000
0.423529 0.423529 0.423529 1.000000
0.423529 0.423529 0.423529 1.000000
0.423529 0.423529 0.423529 1.000000
0.423529 0.423529 0.423529 1.000000
0.423529 0.423529 0.423529 1.000000
0.423529 0.423529 0.423529 1.000000
0.423529 0.423529 0.423529 1.000000
0.423529 0.423529 0.423529 1.000000
0.423529 0.423529 0.423529 1.000000
0.423529 0.423529 0.423529 1.000000
0.423529 0.423529 0.423529 1.000000
0.423529 0.423529 0.423529 1.000000
0.423529 0.423529 0.423529 1.000000
0.423529 0.423529 0.423529 1.000000
0.423529 0.423529 0.423529 1.000000
0.423529 0.423529 0.423529 1.000000
0.423529 0.423529 0.423529 1.000000
0.423529 0.423529 0.423529 1.000000
0.423529 0.423529 0.423529 1.000000
0.423529 0.423529 0.423529 1.000000
0.423529 0.423529 0.423529 1.000000
0.423529 0.423529 0.423529 1.000000
0.423529 0.423529 0.423529 1.000000
0.423529 0.423529 0.423529 1.000000
0.423529 0.423529 0.423529 1.000000
0.423529 0.423529 0.423529 1.000000
0.423529 0.423529 0.423529 1.000000
0.423529 0.423529 0.423529 1.000000
0.423529 0.423529 0.423529 1.000000
0.423529 0.423529 0.423529 1.000000
0.423529 0.423529 0.423529 1.000000
0.423529 0.423529 0.423529 1.000000
0.423529 0.423529 0.423529 1.000000
0.423529 0.423529 0.423529 1.000000
0.423529 0.423529 0.423529 1.000000
0.423529 0.423529 0.423529 1.000000
0.423529 0.423529 0.423529 1.000000
0.423529 0.423529 0.423529 1.000000
0.423529 0.423529 0.423529 1.000000
0.423529 0.423529 0.423529 1.000000
0.423529 0.423529 0.423529 1.000000
0.423529 0.423529 0.423529 1.000000
0.423529 0.423529 0.423529 1.000000
0.423529 0.423529 0.423529 1.000000
0.423529 0.423529 0.423529 1.000000
0.423529 0.423529 0.423529 1.000000
0.423529 0.423529 0.423529 1.000000
0.423529 0.423529 0.423529 1.000000
0.423529 0.423529 0.423529 1.000000
0.423529 0.423529 0.423529 1.000000
0.423529 0.423529 0.423529 1.000000
0.423529 0.423529 0.423529 1.000000
0.423529 0.423529 0.423529 1.000000
0.423529 0.423529 0.423529 1.000000
0.423529 0.423529 0.423529 1.000000
0.423529 0.423529 0.423529 1.000000
0.423529 0.423529 0.423529 1.000000
0.423529 0.423529 0.423529 1.000000
0.423529 0.423529 0.423529 1.000000
0.423529 0.423529 0.423529 1.000000
0.423529 0.423529 0.423529 1.000000
0.423529 0.423529 0.423529 1.000000
0.423529 0.423529 0.423529 1.000000
0.423529 0.423529 0.423529 1.000000
0.423529 0.423529 0.423529 1.000000
0.423529 0.423529 0.423529 1.000000
0.423529 0.423529 0.423529 1.000000
0.423529 0.423529 0.423529 1.000000
0.423529 0.423529 0.423529 1.000000
0.933333 0.933333 0.933333 1.000000
0.933333 0.933333 0.933333 1.000000
0.933333 0.933333 0.933333 1.000000
0.933333 0.933333 0.933333 1.000000
0.423529 0.423529 0.423529 1.000000
0.423529 0.423529 0.423529 1.000000
0.423529 0.423529 0.423529 1.000000
0.423529 0.423529 0.423529 1.000000
0.423529 0.423529 0.423529 1.000000
0.423529 0.423529 0.423529 1.000000
0.423529 0.423529 0.423529 1.000000
0.423529 0.423529 0.423529 1.000000
0.933333 0.933333 0.933333 1.000000
0.933333 0.933333 0.933333 1.000000
0.933333 0.933333 0.933333 1.000000
0.933333 0.933333 0.933333 1.000000
0.423529 0.423529 0.423529 1.000000
0.423529 0.423529 0.423529 1.000000
0.423529 0.423529 0.423529 1.000000
0.423529 0.423529 0.423529 1.000000
0.423529 0.423529 0.423529 1.000000
0.423529 0.423529 0.423529 1.000000
0.423529 0.423529 0.423529 1.000000
0.423529 0.423529 0.423529 1.000000
0.933333 0.933333 0.933333 1.000000
0.933333 0.933333 0.933333 1.000000
0.933333 0.933333 0.933333 1.000000
0.933333 0.933333 0.933333 1.000000
0.423529 0.423529 0.423529 1.000000
0.423529 0.423529 0.423529 1.000000
0.423529 0.423529 0.423529 1.000000
0.423529 0.423529 0.423529 1.000000
0.423529 0.423529 0.423529 1.000000
0.423529 0.423529 0.423529 1.000000
0.423529 0.423529 0.423529 1.000000
0.423529 0.423529 0.423529 1.000000
0.933333 0.933333 0.933333 1.000000
0.933333 0.933333 0.933333 1.000000
0.933333 0.933333 0.933333 1.000000
0.933333 0.933333 0.933333 1.000000
0.423529 0.423529 0.423529 1.000000
0.423529 0.423529 0.423529 1.000000
0.423529 0.423529 0.423529 1.000000
0.423529 0.423529 0.423529 1.000000
0.423529 0.423529 0.423529 1.000000
0.423529 0.423529 0.423529 1.000000
0.423529 0.423529 0.423529 1.000000
0.423529 0.423529 0.423529 1.000000
0.933333 0.933333 0.933333 1.000000
0.933333 0.933333 0.933333 1.000000
0.933333 0.933333 0.933333 1.000000
0.933333 0.933333 0.933333 1.000000
0.423529 0.423529 0.423529 1.000000
0.423529 0.423529 0.423529 1.000000
0.423529 0.423529 0.423529 1.000000
0.423529 0.423529 0.423529 1.000000
0.423529 0.423529 0.423529 1.000000
0.423529 0.423529 0.423529 1.000000
0.423529 0.423529 0.423529 1.000000
0.423529 0.423529 0.423529 1.000000
0.933333 0.933333 0.933333 1.000000
0.933333 0.933333 0.933333 1.000000
0.933333 0.933333 0.933333 1.000000
0.933333 0.933333 0.933333 1.000000
0.423529 0.423529 0.423529 1.000000
0.423529 0.423529 0.423529 1.000000
0.423529 0.423529 0.423529 1.000000
0.423529 0.423529 0.423529 1.000000
0.423529 0.423529 0.423529 1.000000
0.423529 0.423529 0.423529 1.000000
0.423529 0.423529 0.423529 1.000000
0.423529 0.423529 0.423529 1.000000
0.933333 0.933333 0.933333 1.000000
0.933333 0.933333 0.933333 1.000000
0.933333 0.933333 0.933333 1.000000
0.933333 0.933333 0.933333 1.000000
0.423529 0.423529 0.423529 1.000000
0.423529 0.423529 0.423529 1.000000
0.423529 0.423529 0.423529 1.000000
0.423529 0.423529 0.423529 1.000000
0.423529 0.423529 0.423529 1.000000
0.423529 0.423529 0.423529 1.000000
0.423529 0.423529 0.423529 1.000000
0.423529 0.423529 0.423529 1.000000
0.933333 0.933333 0.933333 1.000000
0.933333 0.933333 0.933333 1.000000
0.933333 0.933333 0.933333 1.000000
0.933333 0.933333 0.933333 1.000000
0.423529 0.423529 0.423529 1.000000
0.423529 0.423529 0.423529 1.000000
0.423529 0.423529 0.423529 1.000000
0.423529 0.423529 0.423529 1.000000
0.423529 0.423529 0.423529 1.000000
0.423529 0.423529 0.423529 1.000000
0.423529 0.423529 0.423529 1.000000
0.423529 0.423529 0.423529 1.000000
0.933333 0.933333 0.933333 1.000000
0.933333 0.933333 0.933333 1.000000
0.933333 0.933333 0.933333 1.000000
0.933333 0.933333 0.933333 1.000000
0.423529 0.423529 0.423529 1.000000
0.423529 0.423529 0.423529 1.000000
0.423529 0.423529 0.423529 1.000000
0.423529 0.423529 0.423529 1.000000
0.423529 0.423529 0.423529 1.000000
0.423529 0.423529 0.423529 1.000000
0.423529 0.423529 0.423529 1.000000
0.423529 0.423529 0.423529 1.000000
0.933333 0.933333 0.933333 1.000000
0.933333 0.933333 0.933333 1.000000
0.933333 0.933333 0.933333 1.000000
0.933333 0.933333 0.933333 1.000000
0.423529 0.423529 0.423529 1.000000
0.423529 0.423529 0.423529 1.000000
0.423529 0.423529 0.423529 1.000000
0.423529 0.423529 0.423529 1.000000
0.423529 0.423529 0.423529 1.000000
0.423529 0.423529 0.423529 1.000000
0.423529 0.423529 0.423529 1.000000
0.423529 0.423529 0.423529 1.000000
0.933333 0.933333 0.933333 1.000000
0.933333 0.933333 0.933333 1.000000
0.933333 0.933333 0.933333 1.000000
0.933333 0.933333 0.933333 1.000000
0.423529 0.423529 0.423529 1.000000
0.423529 0.423529 0.423529 1.000000
0.423529 0.423529 0.423529 1.000000
0.423529 0.423529 0.423529 1.000000
0.423529 0.423529 0.423529 1.000000
0.423529 0.423529 0.423529 1.000000
0.423529 0.423529 0.423529 1.000000
0.423529 0.423529 0.423529 1.000000
0.933333 0.933333 0.933333 1.000000
0.933333 0.933333 0.933333 1.000000
0.933333 0.933333 0.933333 1.000000
0.933333 0.933333 0.933333 1.000000
0.423529 0.423529 0.423529 1.000000
0.423529 0.423529 0.423529 1.000000
0.423529 0.423529 0.423529 1.000000
0.423529 0.423529 0.423529 1.000000
0.717647 0.603922 0.074510 1.000000
0.717647 0.603922 0.074510 1.000000
0.717647 0.603922 0.074510 1.000000
0.717647 0.603922 0.074510 1.000000
0.717647 0.603922 0.074510 1.000000
0.717647 0.603922 0.074510 1.000000
0.717647 0.603922 0.074510 1.000000
0.717647 0.603922 0.074510 1.000000
0.717647 0.603922 0.074510 1.000000
0.717647 0.603922 0.074510 1.000000
0.717647 0.603922 0.074510 1.000000
0.717647 0.603922 0.074510 1.000000
0.717647 0.603922 0.074510 1.000000
0.717647 0.603922 0.074510 1.000000
0.717647 0.603922 0.074510 1.000000
0.717647 0.603922 0.074510 1.000000
0.717647 0.603922 0.074510 1.000000
0.717647 0.603922 0.074510 1.000000
0.717647 0.603922 0.074510 1.000000
0.717647 0.603922 0.074510 1.000000
0.717647 0.603922 0.074510 1.000000
0.717647 0.603922 0.074510 1.000000
0.717647 0.603922 0.074510 1.000000
0.717647 0.603922 0.074510 1.000000
0.717647 0.603922 0.074510 1.000000
0.717647 0.603922 0.074510 1.000000
0.717647 0.603922 0.074510 1.000000
0.717647 0.603922 0.074510 1.000000
0.717647 0.603922 0.074510 1.000000
0.717647 0.603922 0.074510 1.000000
0.717647 0.603922 0.074510 1.000000
0.717647 0.603922 0.074510 1.000000
0.717647 0.603922 0.074510 1.000000
0.717647 0.603922 0.074510 1.000000
0.717647 0.603922 0.074510 1.000000
0.717647 0.603922 0.074510 1.000000
0.717647 0.603922 0.074510 1.000000
0.717647 0.603922 0.074510 1.000000
0.717647 0.603922 0.074510 1.000000
0.717647 0.603922 0.074510 1.000000
0.717647 0.603922 0.074510 1.000000
0.717647 0.603922 0.074510 1.000000
0.717647 0.603922 0.074510 1.000000
0.717647 0.603922 0.074510 1.000000
0.717647 0.603922 0.074510 1.000000
0.717647 0.603922 0.074510 1.000000
0.717647 0.603922 0.074510 1.000000
0.717647 0.603922 0.074510 1.000000
0.717647 0.603922 0.074510 1.000000
0.717647 0.603922 0.074510 1.000000
0.717647 0.603922 0.074510 1.000000
0.717647 0.603922 0.074510 1.000000
0.717647 0.603922 0.074510 1.000000
0.717647 0.603922 0.074510 1.000000
0.717647 0.603922 0.074510 1.000000
0.717647 0.603922 0.074510 1.000000
0.717647 0.603922 0.074510 1.000000
0.717647 0.603922 0.074510 1.000000
0.717647 0.603922 0.074510 1.000000
0.717647 0.603922 0.074510 1.000000
</float_array>
          <technique_common>
            <accessor source="#SM_TomatoCan_01_A_1-VERTEX_COLOR0-array" count="564" stride="4">
              <param name="R" type="double"/>
              <param name="G" type="double"/>
              <param name="B" type="double"/>
              <param name="A" type="double"/>
            </accessor>
          </technique_common>
        </source>
        <vertices id="SM_TomatoCan_01_A_1-VERTEX">
          <input semantic="POSITION" source="#SM_TomatoCan_01_A_1-POSITION"/>
        </vertices>
        <triangles count="294">
          <input semantic="VERTEX" offset="0" source="#SM_TomatoCan_01_A_1-VERTEX"/>
          <input semantic="NORMAL" offset="1" source="#SM_TomatoCan_01_A_1-Normal0"/>
          <input semantic="TEXCOORD" offset="2" set="0" source="#SM_TomatoCan_01_A_1-UV0"/>
          <input semantic="COLOR" offset="3" set="0" source="#SM_TomatoCan_01_A_1-VERTEX_COLOR0"/>
          <p> 51 0 70 1 52 1 71 2 53 2 72 3 53 3 72 3 54 4 73 4 55 5 74 5 55 6 74 5 56 7 75 6 57 8 76 7 53 9 72 3 55 10 74 5 57 11 76 7 57 12 76 7 58 13 77 8 59 14 78 9 59 15 78 9 48 16 67 10 49 17 68 11 57 18 76 7 59 19 78 9 49 20 68 11 53 21 72 3 57 22 76 7 49 23 68 11 51 24 70 1 53 25 72 3 49 26 68 11 50 27 69 0 51 28 70 1 49 29 68 11 97 30 137 13 100 31 140 14 101 32 141 15 101 33 141 15 96 34 136 12 97 35 137 13 100 36 140 17 103 37 143 18 104 38 144 19 104 39 144 19 101 40 141 16 100 41 140 17 103 42 146 21 106 43 149 22 107 44 150 23 107 45 150 23 104 46 147 20 103 47 146 21 106 48 149 25 109 49 152 26 110 50 153 27 110 51 153 27 107 52 150 24 106 53 149 25 109 54 152 29 112 55 155 30 113 56 156 31 113 57 156 31 110 58 153 28 109 59 152 29 112 60 155 33 115 61 158 34 116 62 159 35 116 63 159 35 113 64 156 32 112 65 155 33 115 66 158 37 118 67 161 38 119 68 162 39 119 69 162 39 116 70 159 36 115 71 158 37 118 72 161 41 121 73 164 42 122 74 165 43 122 75 165 43 119 76 162 40 118 77 161 41 121 78 164 45 124 79 167 46 125 80 168 47 125 81 168 47 122 82 165 44 121 83 164 45 124 84 167 49 127 85 170 50 128 86 171 51 128 87 171 51 125 88 168 48 124 89 167 49 127 90 170 53 130 91 173 54 131 92 174 55 131 93 174 55 128 94 171 52 127 95 170 53 130 96 173 57 97 97 137 58 96 98 136 59 96 99 136 59 131 100 174 56 130 101 173 57 60 102 79 61 61 103 80 62 62 104 81 63 62 105 81 63 63 106 82 64 64 107 83 65 64 108 83 65 65 109 84 66 66 110 85 67 62 111 81 63 64 112 83 65 66 113 85 67 66 114 85 67 67 115 86 68 68 116 87 69 68 117 87 69 69 118 88 70 70 119 89 71 66 120 85 67 68 121 87 69 70 122 89 71 62 123 81 63 66 124 85 67 70 125 89 71 60 126 79 61 62 127 81 63 70 128 89 71 71 129 90 60 60 130 79 61 70 131 89 71 1 132 1 72 72 133 91 73 25 134 44 74 25 135 44 74 24 136 43 75 1 137 1 72 72 138 91 76 83 139 34 77 26 140 45 78 26 141 45 78 25 142 44 79 72 143 91 76 83 144 34 80 10 145 33 81 27 146 46 82 27 147 46 82 26 148 45 83 83 149 34 80 10 150 33 84 9 151 32 85 28 152 47 86 28 153 47 86 27 154 46 87 10 155 33 84 9 156 32 88 8 157 31 89 29 158 48 90 29 159 48 90 28 160 47 91 9 161 32 88 8 162 31 92 7 163 30 93 30 164 49 94 30 165 49 94 29 166 48 95 8 167 31 92 7 168 30 96 6 169 29 97 31 170 50 98 31 171 50 98 30 172 49 99 7 173 30 96 6 174 29 100 5 175 28 101 32 176 51 102 32 177 51 102 31 178 50 103 6 179 29 100 5 180 28 104 4 181 27 105 33 182 52 106 33 183 52 106 32 184 51 107 5 185 28 104 4 186 27 108 3 187 26 109 34 188 53 110 34 189 53 110 33 190 52 111 4 191 27 108 3 192 26 112 2 193 2 113 35 194 54 114 35 195 54 114 34 196 53 115 3 197 26 112 2 198 2 116 1 199 1 117 24 200 43 118 24 201 43 118 35 202 54 119 2 203 2 116 84 204 94 120 85 205 95 121 37 206 56 122 37 207 56 122 36 208 55 123 84 209 94 120 85 210 95 124 86 211 96 125 38 212 57 126 38 213 57 126 37 214 56 127 85 215 95 124 86 216 96 128 87 217 35 129 39 218 58 130 39 219 58 130 38 220 57 131 86 221 96 128 87 222 35 132 88 223 36 133 40 224 59 134 40 225 59 134 39 226 58 135 87 227 35 132 88 228 36 136 89 229 37 137 41 230 60 138 41 231 60 138 40 232 59 139 88 233 36 136 89 234 37 140 90 235 38 141 42 236 61 142 42 237 61 142 41 238 60 143 89 239 37 140 90 240 38 144 91 241 39 145 43 242 62 146 43 243 62 146 42 244 61 147 90 245 38 144 91 246 39 148 92 247 40 149 44 248 63 150 44 249 63 150 43 250 62 151 91 251 39 148 92 252 40 152 93 253 41 153 45 254 64 154 45 255 64 154 44 256 63 155 92 257 40 152 93 258 41 156 94 259 42 157 46 260 65 158 46 261 65 158 45 262 64 159 93 263 41 156 94 264 42 160 95 265 97 161 47 266 66 162 47 267 66 162 46 268 65 163 94 269 42 160 95 270 97 164 84 271 94 165 36 272 55 166 36 273 55 166 47 274 66 167 95 275 97 164 24 276 43 168 25 277 44 169 49 278 68 170 49 279 68 170 48 280 67 171 24 281 43 168 25 282 44 172 26 283 45 173 50 284 69 174 50 285 69 174 49 286 68 175 25 287 44 172 26 288 45 176 27 289 46 177 51 290 70 178 51 291 70 178 50 292 69 179 26 293 45 176 27 294 46 180 28 295 47 181 52 296 71 182 52 297 71 182 51 298 70 183 27 299 46 180 28 300 47 184 29 301 48 185 53 302 72 186 53 303 72 186 52 304 71 187 28 305 47 184 29 306 48 188 30 307 49 189 54 308 73 190 54 309 73 190 53 310 72 191 29 311 48 188 30 312 49 192 31 313 50 193 55 314 74 194 55 315 74 194 54 316 73 195 30 317 49 192 31 318 50 196 32 319 51 197 56 320 75 198 56 321 75 198 55 322 74 199 31 323 50 196 32 324 51 200 33 325 52 201 57 326 76 202 57 327 76 202 56 328 75 203 32 329 51 200 33 330 52 204 34 331 53 205 58 332 77 206 58 333 77 206 57 334 76 207 33 335 52 204 34 336 53 208 35 337 54 209 59 338 78 210 59 339 78 210 58 340 77 211 34 341 53 208 35 342 54 212 24 343 43 213 48 344 67 214 48 345 67 214 59 346 78 215 35 347 54 212 36 348 55 216 37 349 56 217 61 350 80 218 61 351 80 218 60 352 79 219 36 353 55 216 37 354 56 220 38 355 57 221 62 356 81 222 62 357 81 222 61 358 80 223 37 359 56 220 38 360 57 224 39 361 58 225 63 362 82 226 63 363 82 226 62 364 81 227 38 365 57 224 39 366 58 228 40 367 59 229 64 368 83 230 64 369 83 230 63 370 82 231 39 371 58 228 40 372 59 232 41 373 60 233 65 374 84 234 65 375 84 234 64 376 83 235 40 377 59 232 41 378 60 236 42 379 61 237 66 380 85 238 66 381 85 238 65 382 84 239 41 383 60 236 42 384 61 240 43 385 62 241 67 386 86 242 67 387 86 242 66 388 85 243 42 389 61 240 43 390 62 244 44 391 63 245 68 392 87 246 68 393 87 246 67 394 86 247 43 395 62 244 44 396 63 248 45 397 64 249 69 398 88 250 69 399 88 250 68 400 87 251 44 401 63 248 45 402 64 252 46 403 65 253 70 404 89 254 70 405 89 254 69 406 88 255 45 407 64 252 46 408 65 256 47 409 66 257 71 410 90 258 71 411 90 258 70 412 89 259 46 413 65 256 47 414 66 260 36 415 55 261 60 416 79 262 60 417 79 262 71 418 90 263 47 419 66 260 1 420 1 264 73 421 92 265 0 422 0 266 0 423 0 266 72 424 91 267 1 425 1 264 2 426 2 268 74 427 93 269 73 428 92 270 73 429 92 270 1 430 1 271 2 431 2 268 3 432 98 272 75 433 3 273 74 434 24 274 74 435 24 274 2 436 99 275 3 437 98 272 4 438 100 276 76 439 4 277 75 440 3 278 75 441 3 278 3 442 101 279 4 443 100 276 5 444 102 280 77 445 5 281 76 446 4 282 76 447 4 282 4 448 103 283 5 449 102 280 6 450 104 284 78 451 6 285 77 452 5 286 77 453 5 286 5 454 105 287 6 455 104 284 7 456 106 288 79 457 7 289 78 458 6 290 78 459 6 290 6 460 107 291 7 461 106 288 8 462 108 292 80 463 8 293 79 464 7 294 79 465 7 294 7 466 109 295 8 467 108 292 9 468 110 296 81 469 9 297 80 470 8 298 80 471 8 298 8 472 111 299 9 473 110 296 10 474 112 300 82 475 10 301 81 476 9 302 81 477 9 302 9 478 113 303 10 479 112 300 83 480 114 304 11 481 11 305 82 482 10 306 82 483 10 306 10 484 115 307 83 485 114 304 72 486 116 308 0 487 0 309 11 488 11 310 11 489 11 310 83 490 117 311 72 491 116 308 84 492 94 312 12 493 12 313 13 494 13 314 13 495 13 314 85 496 95 315 84 497 94 312 85 498 95 316 13 499 13 317 14 500 14 318 14 501 14 318 86 502 96 319 85 503 95 316 86 504 118 320 14 505 25 321 15 506 15 322 15 507 15 322 87 508 119 323 86 509 118 320 87 510 120 324 15 511 15 325 16 512 16 326 16 513 16 326 88 514 121 327 87 515 120 324 88 516 122 328 16 517 16 329 17 518 17 330 17 519 17 330 89 520 123 331 88 521 122 328 89 522 124 332 17 523 17 333 18 524 18 334 18 525 18 334 90 526 125 335 89 527 124 332 90 528 126 336 18 529 18 337 19 530 19 338 19 531 19 338 91 532 127 339 90 533 126 336 91 534 128 340 19 535 19 341 20 536 20 342 20 537 20 342 92 538 129 343 91 539 128 340 92 540 130 344 20 541 20 345 21 542 21 346 21 543 21 346 93 544 131 347 92 545 130 344 93 546 132 348 21 547 21 349 22 548 22 350 22 549 22 350 94 550 133 351 93 551 132 348 94 552 134 352 22 553 22 353 23 554 23 354 23 555 23 354 95 556 135 355 94 557 134 352 95 558 97 356 23 559 23 357 12 560 12 358 12 561 12 358 84 562 94 359 95 563 97 356 0 564 0 361 73 565 92 362 99 566 139 363 99 567 139 363 98 568 138 360 0 569 0 361 98 570 138 365 99 571 139 366 100 572 140 367 100 573 140 367 97 574 137 364 98 575 138 365 13 576 13 369 12 577 12 370 96 578 136 371 96 579 136 371 101 580 141 368 13 581 13 369 73 582 92 373 74 583 93 374 102 584 142 375 102 585 142 375 99 586 139 372 73 587 92 373 99 588 139 377 102 589 142 378 103 590 143 379 103 591 143 379 100 592 140 376 99 593 139 377 14 594 14 381 13 595 13 382 101 596 141 383 101 597 141 383 104 598 144 380 14 599 14 381 74 600 24 385 75 601 3 386 105 602 148 387 105 603 148 387 102 604 145 384 74 605 24 385 102 606 145 389 105 607 148 390 106 608 149 391 106 609 149 391 103 610 146 388 102 611 145 389 15 612 15 393 14 613 25 394 104 614 147 395 104 615 147 395 107 616 150 392 15 617 15 393 75 618 3 397 76 619 4 398 108 620 151 399 108 621 151 399 105 622 148 396 75 623 3 397 105 624 148 401 108 625 151 402 109 626 152 403 109 627 152 403 106 628 149 400 105 629 148 401 16 630 16 405 15 631 15 406 107 632 150 407 107 633 150 407 110 634 153 404 16 635 16 405 76 636 4 409 77 637 5 410 111 638 154 411 111 639 154 411 108 640 151 408 76 641 4 409 108 642 151 413 111 643 154 414 112 644 155 415 112 645 155 415 109 646 152 412 108 647 151 413 17 648 17 417 16 649 16 418 110 650 153 419 110 651 153 419 113 652 156 416 17 653 17 417 77 654 5 421 78 655 6 422 114 656 157 423 114 657 157 423 111 658 154 420 77 659 5 421 111 660 154 425 114 661 157 426 115 662 158 427 115 663 158 427 112 664 155 424 111 665 154 425 18 666 18 429 17 667 17 430 113 668 156 431 113 669 156 431 116 670 159 428 18 671 18 429 78 672 6 433 79 673 7 434 117 674 160 435 117 675 160 435 114 676 157 432 78 677 6 433 114 678 157 437 117 679 160 438 118 680 161 439 118 681 161 439 115 682 158 436 114 683 157 437 19 684 19 441 18 685 18 442 116 686 159 443 116 687 159 443 119 688 162 440 19 689 19 441 79 690 7 445 80 691 8 446 120 692 163 447 120 693 163 447 117 694 160 444 79 695 7 445 117 696 160 449 120 697 163 450 121 698 164 451 121 699 164 451 118 700 161 448 117 701 160 449 20 702 20 453 19 703 19 454 119 704 162 455 119 705 162 455 122 706 165 452 20 707 20 453 80 708 8 457 81 709 9 458 123 710 166 459 123 711 166 459 120 712 163 456 80 713 8 457 120 714 163 461 123 715 166 462 124 716 167 463 124 717 167 463 121 718 164 460 120 719 163 461 21 720 21 465 20 721 20 466 122 722 165 467 122 723 165 467 125 724 168 464 21 725 21 465 81 726 9 469 82 727 10 470 126 728 169 471 126 729 169 471 123 730 166 468 81 731 9 469 123 732 166 473 126 733 169 474 127 734 170 475 127 735 170 475 124 736 167 472 123 737 166 473 22 738 22 477 21 739 21 478 125 740 168 479 125 741 168 479 128 742 171 476 22 743 22 477 82 744 10 481 11 745 11 482 129 746 172 483 129 747 172 483 126 748 169 480 82 749 10 481 126 750 169 485 129 751 172 486 130 752 173 487 130 753 173 487 127 754 170 484 126 755 169 485 23 756 23 489 22 757 22 490 128 758 171 491 128 759 171 491 131 760 174 488 23 761 23 489 11 762 11 493 0 763 0 494 98 764 138 495 98 765 138 495 129 766 172 492 11 767 11 493 129 768 172 497 98 769 138 498 97 770 137 499 97 771 137 499 130 772 173 496 129 773 172 497 12 774 12 501 23 775 23 502 131 776 174 503 131 777 174 503 96 778 136 500 12 779 12 501 132 780 175 504 133 781 176 505 145 782 188 506 145 783 188 506 144 784 187 507 132 785 175 504 133 786 176 508 134 787 177 509 146 788 189 510 146 789 189 510 145 790 188 511 133 791 176 508 134 792 199 512 135 793 178 513 147 794 190 514 147 795 190 514 146 796 200 515 134 797 199 512 135 798 178 516 136 799 179 517 148 800 191 518 148 801 191 518 147 802 190 519 135 803 178 516 136 804 179 520 137 805 180 521 149 806 192 522 149 807 192 522 148 808 191 523 136 809 179 520 137 810 180 524 138 811 181 525 150 812 193 526 150 813 193 526 149 814 192 527 137 815 180 524 138 816 181 528 139 817 182 529 151 818 194 530 151 819 194 530 150 820 193 531 138 821 181 528 139 822 182 532 140 823 183 533 152 824 195 534 152 825 195 534 151 826 194 535 139 827 182 532 140 828 183 536 141 829 184 537 153 830 196 538 153 831 196 538 152 832 195 539 140 833 183 536 141 834 184 540 142 835 185 541 154 836 197 542 154 837 197 542 153 838 196 543 141 839 184 540 142 840 185 544 143 841 186 545 155 842 198 546 155 843 198 546 154 844 197 547 142 845 185 544 143 846 186 548 132 847 175 549 144 848 187 550 144 849 187 550 155 850 198 551 143 851 186 548 144 852 187 553 145 853 188 554 146 854 189 555 146 855 189 555 147 856 201 556 148 857 202 557 148 858 202 557 149 859 203 558 150 860 204 559 146 861 189 555 148 862 202 557 150 863 204 559 150 864 204 559 151 865 205 560 152 866 206 561 152 867 206 561 153 868 207 562 154 869 208 563 150 870 204 559 152 871 206 561 154 872 208 563 146 873 189 555 150 874 204 559 154 875 208 563 144 876 187 553 146 877 189 555 154 878 208 563 155 879 198 552 144 880 187 553 154 881 208 563</p>
        </triangles>
      </mesh>
    </geometry>
  </library_geometries>
  <library_visual_scenes>
    <visual_scene id="SM_TomatoCan_01_A_1" name="SM_TomatoCan_01_A_1">
      <node name="SM_TomatoCan_01_A_1" id="SM_TomatoCan_01_A_1" sid="SM_TomatoCan_01_A_1">
        <matrix sid="matrix">2.221688 0.000000 0.000000 0.000000 0.000000 2.221688 0.000000 0.000000 0.000000 0.000000 2.221688 0.000000 0.000000 0.000000 0.000000 1.000000</matrix>
        <instance_geometry url="#SM_TomatoCan_01_A_1-lib"/>
        <extra>
          <technique profile="FCOLLADA">
            <visibility>1.000000</visibility>
          </technique>
        </extra>
      </node>
      <extra>
        <technique profile="MAX3D">
          <frame_rate>30.000000</frame_rate>
        </technique>
        <technique profile="FCOLLADA">
          <start_time>0.000000</start_time>
          <end_time>3.333333</end_time>
        </technique>
      </extra>
    </visual_scene>
  </library_visual_scenes>
  <scene>
    <instance_visual_scene url="#SM_TomatoCan_01_A_1"/>
  </scene>
</COLLADA>
