<?xml version="1.0" encoding="utf-8"?>
<COLLADA xmlns="http://www.collada.org/2005/11/COLLADASchema" version="1.4.1">
  <asset>
    <contributor>
      <author/>
      <authoring_tool>FBX COLLADA exporter</authoring_tool>
      <comments/>
    </contributor>
    <created>2020-04-24T14:23:43Z</created>
    <keywords/>
    <modified>2020-04-24T14:23:43Z</modified>
    <revision/>
    <subject/>
    <title/>
    <unit meter="0.010000" name="centimeter"/>
    <up_axis>Z_UP</up_axis>
  </asset>
  <library_geometries>
    <geometry id="SM_ToiletRoll_01_A_1-lib" name="SM_ToiletRoll_01_A_1Mesh">
      <mesh>
        <source id="SM_ToiletRoll_01_A_1-POSITION">
          <float_array id="SM_ToiletRoll_01_A_1-POSITION-array" count="420">
30.948845 -1.965986 -21.467588
28.243618 10.761102 -21.467588
20.595697 21.287561 -21.467588
9.327479 27.793270 -21.467588
-3.612662 29.153334 -21.467588
-15.987257 25.132584 -21.467588
-25.656626 16.426243 -21.467588
-30.948845 4.539721 -21.467588
-30.948843 -8.471699 -21.467588
-25.656622 -20.358221 -21.467588
-15.987252 -29.064558 -21.467588
-3.612657 -33.085306 -21.467588
9.327484 -31.725241 -21.467588
20.595703 -25.219530 -21.467588
28.243622 -14.693069 -21.467588
30.948845 -1.965986 21.467588
28.243618 10.761102 21.467588
20.595697 21.287561 21.467588
9.327479 27.793270 21.467588
-3.612662 29.153334 21.467588
-15.987257 25.132584 21.467588
-25.656626 16.426243 21.467588
-30.948845 4.539721 21.467588
-30.948843 -8.471699 21.467588
-25.656622 -20.358221 21.467588
-15.987252 -29.064558 21.467588
-3.612657 -33.085306 21.467588
9.327484 -31.725241 21.467588
20.595703 -25.219530 21.467588
28.243622 -14.693069 21.467588
27.219536 10.305151 -22.476906
29.827848 -1.965986 -22.476906
27.219540 -14.237119 -22.476906
19.845610 -24.386467 -22.476906
8.981077 -30.659109 -22.476906
-3.495481 -31.970451 -22.476906
-15.426754 -28.093746 -22.476906
-24.749716 -19.699316 -22.476906
-29.852343 -8.238630 -22.476906
-29.852345 4.306652 -22.476906
-24.749720 15.767338 -22.476906
-15.426759 24.161772 -22.476906
-3.495486 28.038479 -22.476906
8.981072 26.727139 -22.476906
19.845604 20.454498 -22.476906
29.827847 -1.965986 22.476908
27.219534 10.305151 22.476908
19.845604 20.454498 22.476908
8.981071 26.727139 22.476908
-3.495486 28.038479 22.476908
-15.426759 24.161772 22.476908
-24.749720 15.767338 22.476908
-29.852345 4.306652 22.476908
-29.852343 -8.238630 22.476908
-24.749718 -19.699316 22.476908
-15.426754 -28.093746 22.476908
-3.495481 -31.970451 22.476908
8.981077 -30.659109 22.476908
19.845612 -24.386467 22.476908
27.219540 -14.237119 22.476908
8.471180 1.957846 -23.486223
9.305218 -1.965986 -23.486223
8.471184 -5.889816 -23.486223
6.113287 -9.135181 -23.486223
2.639233 -11.140928 -23.486223
-1.350284 -11.560244 -23.486223
-5.165441 -10.320625 -23.486223
-8.146561 -7.636414 -23.486223
-9.778181 -3.971733 -23.486223
-9.778183 0.039760 -23.486223
-8.146563 3.704440 -23.486223
-5.165442 6.388653 -23.486223
-1.350286 7.628271 -23.486223
2.639232 7.208958 -23.486223
6.113285 5.203211 -23.486223
9.305218 -1.965986 23.486223
8.471180 1.957845 23.486223
6.113285 5.203211 23.486223
2.639232 7.208958 23.486223
-1.350286 7.628271 23.486223
-5.165442 6.388653 23.486223
-8.146563 3.704439 23.486223
-9.778183 0.039759 23.486223
-9.778181 -3.971733 23.486223
-8.146561 -7.636414 23.486223
-5.165441 -10.320625 23.486223
-1.350284 -11.560244 23.486223
2.639233 -11.140928 23.486223
6.113287 -9.135183 23.486223
8.471184 -5.889816 23.486223
11.906983 3.487564 -23.425664
13.066170 -1.965986 -23.425664
11.906987 -7.419533 -23.425664
8.629856 -11.930114 -23.425664
3.801432 -14.717807 -23.425664
-1.743411 -15.300598 -23.425664
-7.045916 -13.577708 -23.425664
-11.189238 -9.847046 -23.425664
-13.456948 -4.753679 -23.425664
-13.456954 0.821706 -23.425664
-11.189239 5.915072 -23.425664
-7.045919 9.645733 -23.425664
-1.743413 11.368625 -23.425664
3.801430 10.785839 -23.425664
8.629854 7.998145 -23.425664
13.066174 -1.965986 23.425661
11.906984 3.487563 23.425661
8.629855 7.998144 23.425661
3.801430 10.785839 23.425661
-1.743413 11.368626 23.425661
-7.045919 9.645733 23.425661
-11.189239 5.915073 23.425661
-13.456953 0.821704 23.425661
-13.456947 -4.753680 23.425661
-11.189238 -9.847048 23.425661
-7.045917 -13.577705 23.425661
-1.743411 -15.300598 23.425661
3.801432 -14.717807 23.425661
8.629858 -11.930117 23.425661
11.906988 -7.419534 23.425661
-3.797233 27.872301 -21.195841
-16.364813 31.241735 -21.195841
-16.364813 31.241735 21.195837
-3.797233 27.872301 21.195837
-3.465635 29.109123 -21.195841
-16.033216 32.478556 -21.195841
-16.033216 32.478556 21.195837
-3.465635 29.109123 21.195837
-27.876070 31.123049 -21.195841
-27.876070 31.123049 21.195837
-28.047466 32.392027 21.195837
-28.047466 32.392027 -21.195841
-22.077696 31.827986 -21.195841
-22.077696 31.827986 21.195837
-21.953360 33.085306 21.195837
-21.953360 33.085306 -21.195841
-9.719090 30.006195 -21.195841
-9.719090 30.006195 21.195837
-9.387493 31.243017 -21.195841
-9.387493 31.243017 21.195837
</float_array>
          <technique_common>
            <accessor source="#SM_ToiletRoll_01_A_1-POSITION-array" count="140" stride="3">
              <param name="X" type="float"/>
              <param name="Y" type="float"/>
              <param name="Z" type="float"/>
            </accessor>
          </technique_common>
        </source>
        <source id="SM_ToiletRoll_01_A_1-Normal0">
          <float_array id="SM_ToiletRoll_01_A_1-Normal0-array" count="2484">
1.000000 0.000000 0.000000
0.913545 0.406737 0.000000
0.913545 0.406737 0.000000
0.913545 0.406737 0.000000
1.000000 0.000000 0.000000
1.000000 0.000000 0.000000
0.913545 0.406737 0.000000
0.669131 0.743145 0.000000
0.669131 0.743145 0.000000
0.669131 0.743145 0.000000
0.913545 0.406737 0.000000
0.913545 0.406737 0.000000
0.669131 0.743145 0.000000
0.309017 0.951057 0.000000
0.309017 0.951057 0.000000
0.309017 0.951057 0.000000
0.669131 0.743145 0.000000
0.669131 0.743145 0.000000
0.309017 0.951057 0.000000
-0.104528 0.994522 0.000000
-0.104529 0.994522 0.000000
-0.104529 0.994522 0.000000
0.309017 0.951057 0.000000
0.309017 0.951057 0.000000
-0.104528 0.994522 0.000000
-0.500000 0.866025 0.000000
-0.500000 0.866025 0.000000
-0.500000 0.866025 0.000000
-0.104529 0.994522 0.000000
-0.104528 0.994522 0.000000
-0.500000 0.866025 0.000000
-0.809017 0.587785 0.000000
-0.809017 0.587785 0.000000
-0.809017 0.587785 0.000000
-0.500000 0.866025 0.000000
-0.500000 0.866025 0.000000
-0.809017 0.587785 0.000000
-0.978148 0.207912 0.000000
-0.978148 0.207912 0.000000
-0.978148 0.207912 0.000000
-0.809017 0.587785 0.000000
-0.809017 0.587785 0.000000
-0.978148 0.207912 0.000000
-0.978148 -0.207912 0.000000
-0.978148 -0.207912 0.000000
-0.978148 -0.207912 0.000000
-0.978148 0.207912 0.000000
-0.978148 0.207912 0.000000
-0.978148 -0.207912 0.000000
-0.809017 -0.587785 0.000000
-0.809017 -0.587785 0.000000
-0.809017 -0.587785 0.000000
-0.978148 -0.207912 0.000000
-0.978148 -0.207912 0.000000
-0.809017 -0.587785 0.000000
-0.500000 -0.866026 0.000000
-0.500000 -0.866026 0.000000
-0.500000 -0.866026 0.000000
-0.809017 -0.587785 0.000000
-0.809017 -0.587785 0.000000
-0.500000 -0.866026 0.000000
-0.104528 -0.994522 0.000000
-0.104528 -0.994522 0.000000
-0.104528 -0.994522 0.000000
-0.500000 -0.866026 0.000000
-0.500000 -0.866026 0.000000
-0.104528 -0.994522 0.000000
0.309017 -0.951057 0.000000
0.309017 -0.951057 0.000000
0.309017 -0.951057 0.000000
-0.104528 -0.994522 0.000000
-0.104528 -0.994522 0.000000
0.309017 -0.951057 0.000000
0.669131 -0.743145 0.000000
0.669131 -0.743145 0.000000
0.669131 -0.743145 0.000000
0.309017 -0.951057 0.000000
0.309017 -0.951057 0.000000
0.669131 -0.743145 0.000000
0.913546 -0.406736 0.000000
0.913546 -0.406736 0.000000
0.913546 -0.406736 0.000000
0.669131 -0.743145 0.000000
0.669131 -0.743145 0.000000
0.913546 -0.406736 0.000000
1.000000 0.000000 0.000000
1.000000 0.000000 0.000000
1.000000 0.000000 0.000000
0.913546 -0.406736 0.000000
0.913546 -0.406736 0.000000
0.662452 0.140809 -0.735751
0.662452 0.140809 -0.735751
0.662452 0.140809 -0.735751
0.662452 0.140809 -0.735752
0.662452 0.140809 -0.735752
0.662452 0.140809 -0.735752
0.662452 -0.140808 -0.735752
0.662452 -0.140808 -0.735752
0.662452 -0.140808 -0.735752
0.662452 -0.140809 -0.735751
0.662452 -0.140809 -0.735751
0.662452 -0.140809 -0.735751
0.547908 -0.398078 -0.735751
0.547908 -0.398078 -0.735752
0.547908 -0.398078 -0.735752
0.547908 -0.398078 -0.735752
0.547908 -0.398078 -0.735752
0.547908 -0.398078 -0.735752
0.338626 -0.586517 -0.735751
0.338626 -0.586517 -0.735751
0.338626 -0.586517 -0.735751
0.338626 -0.586517 -0.735752
0.338626 -0.586517 -0.735752
0.338626 -0.586517 -0.735751
0.070792 -0.673542 -0.735751
0.070792 -0.673542 -0.735751
0.070792 -0.673542 -0.735751
0.070792 -0.673542 -0.735751
0.070792 -0.673542 -0.735751
0.070792 -0.673542 -0.735751
-0.209282 -0.644105 -0.735751
-0.209282 -0.644105 -0.735751
-0.209282 -0.644105 -0.735751
-0.209282 -0.644105 -0.735751
-0.209282 -0.644105 -0.735751
-0.209282 -0.644105 -0.735751
-0.453170 -0.503296 -0.735751
-0.453170 -0.503296 -0.735752
-0.453170 -0.503296 -0.735751
-0.453170 -0.503296 -0.735751
-0.453170 -0.503296 -0.735751
-0.453170 -0.503296 -0.735751
-0.618700 -0.275463 -0.735751
-0.618700 -0.275463 -0.735751
-0.618700 -0.275463 -0.735751
-0.618700 -0.275463 -0.735752
-0.618700 -0.275463 -0.735752
-0.618700 -0.275463 -0.735752
-0.677252 -0.000000 -0.735751
-0.677252 -0.000000 -0.735751
-0.677252 -0.000000 -0.735751
-0.677252 -0.000000 -0.735751
-0.677252 -0.000000 -0.735751
-0.677252 -0.000000 -0.735751
-0.618700 0.275463 -0.735752
-0.618700 0.275463 -0.735752
-0.618700 0.275463 -0.735752
-0.618700 0.275463 -0.735751
-0.618700 0.275463 -0.735751
-0.618700 0.275463 -0.735751
-0.453170 0.503296 -0.735751
-0.453170 0.503296 -0.735751
-0.453170 0.503296 -0.735751
-0.453170 0.503296 -0.735751
-0.453170 0.503296 -0.735751
-0.453170 0.503296 -0.735751
-0.209282 0.644105 -0.735751
-0.209282 0.644105 -0.735751
-0.209282 0.644105 -0.735751
-0.209282 0.644105 -0.735751
-0.209282 0.644105 -0.735751
-0.209282 0.644105 -0.735751
0.070792 0.673541 -0.735751
0.070792 0.673542 -0.735751
0.070792 0.673542 -0.735751
0.070792 0.673542 -0.735751
0.070792 0.673542 -0.735751
0.070792 0.673542 -0.735751
0.338626 0.586517 -0.735751
0.338626 0.586517 -0.735752
0.338626 0.586517 -0.735751
0.338626 0.586517 -0.735751
0.338626 0.586517 -0.735751
0.338626 0.586517 -0.735751
0.547908 0.398078 -0.735752
0.547908 0.398078 -0.735752
0.547908 0.398078 -0.735752
0.547908 0.398079 -0.735751
0.547908 0.398079 -0.735751
0.547908 0.398079 -0.735751
0.662452 0.140809 0.735752
0.662452 0.140809 0.735752
0.662452 0.140809 0.735752
0.662452 0.140809 0.735751
0.662452 0.140809 0.735751
0.662452 0.140809 0.735751
0.547909 0.398079 0.735751
0.547909 0.398079 0.735751
0.547909 0.398079 0.735751
0.547908 0.398078 0.735751
0.547908 0.398078 0.735751
0.547908 0.398078 0.735752
0.338626 0.586518 0.735751
0.338626 0.586518 0.735751
0.338626 0.586518 0.735751
0.338626 0.586518 0.735751
0.338626 0.586518 0.735751
0.338626 0.586518 0.735751
0.070792 0.673543 0.735750
0.070792 0.673543 0.735750
0.070792 0.673543 0.735750
0.070792 0.673542 0.735751
0.070792 0.673542 0.735751
0.070792 0.673542 0.735751
-0.209283 0.644105 0.735751
-0.209283 0.644105 0.735751
-0.209283 0.644105 0.735751
-0.209283 0.644106 0.735750
-0.209283 0.644106 0.735750
-0.209283 0.644105 0.735750
-0.453170 0.503296 0.735751
-0.453170 0.503297 0.735751
-0.453170 0.503296 0.735751
-0.453170 0.503297 0.735751
-0.453170 0.503297 0.735751
-0.453170 0.503297 0.735751
-0.618701 0.275463 0.735751
-0.618701 0.275463 0.735751
-0.618701 0.275463 0.735751
-0.618701 0.275463 0.735751
-0.618701 0.275463 0.735751
-0.618701 0.275463 0.735751
-0.677252 -0.000000 0.735751
-0.677252 -0.000000 0.735751
-0.677252 -0.000000 0.735751
-0.677252 -0.000000 0.735751
-0.677252 -0.000000 0.735751
-0.677252 -0.000000 0.735751
-0.618701 -0.275464 0.735750
-0.618701 -0.275464 0.735750
-0.618701 -0.275464 0.735750
-0.618701 -0.275463 0.735751
-0.618701 -0.275463 0.735751
-0.618701 -0.275463 0.735751
-0.453170 -0.503297 0.735751
-0.453170 -0.503297 0.735751
-0.453170 -0.503297 0.735751
-0.453170 -0.503297 0.735750
-0.453170 -0.503297 0.735750
-0.453170 -0.503297 0.735750
-0.209283 -0.644106 0.735750
-0.209283 -0.644106 0.735750
-0.209283 -0.644106 0.735750
-0.209282 -0.644105 0.735751
-0.209283 -0.644105 0.735751
-0.209282 -0.644105 0.735751
0.070792 -0.673542 0.735751
0.070792 -0.673542 0.735751
0.070792 -0.673542 0.735751
0.070792 -0.673543 0.735750
0.070792 -0.673543 0.735750
0.070792 -0.673543 0.735750
0.338626 -0.586518 0.735750
0.338626 -0.586518 0.735750
0.338626 -0.586518 0.735751
0.338626 -0.586518 0.735751
0.338626 -0.586518 0.735751
0.338626 -0.586518 0.735751
0.547909 -0.398079 0.735751
0.547909 -0.398079 0.735751
0.547909 -0.398079 0.735751
0.547909 -0.398079 0.735750
0.547909 -0.398079 0.735750
0.547909 -0.398079 0.735750
0.662452 -0.140809 0.735751
0.662452 -0.140808 0.735751
0.662452 -0.140808 0.735751
0.662453 -0.140808 0.735751
0.662453 -0.140808 0.735751
0.662453 -0.140808 0.735751
0.056508 0.012011 -0.998330
0.056508 0.012011 -0.998330
0.056508 0.012011 -0.998330
0.056508 0.012011 -0.998330
0.056508 0.012011 -0.998330
0.056508 0.012011 -0.998330
0.056508 -0.012011 -0.998330
0.056508 -0.012011 -0.998330
0.056508 -0.012011 -0.998330
0.056508 -0.012011 -0.998330
0.056508 -0.012011 -0.998330
0.056508 -0.012011 -0.998330
0.046737 -0.033957 -0.998330
0.046737 -0.033957 -0.998330
0.046737 -0.033957 -0.998330
0.046738 -0.033957 -0.998330
0.046738 -0.033957 -0.998330
0.046738 -0.033957 -0.998330
0.028885 -0.050031 -0.998330
0.028885 -0.050031 -0.998330
0.028885 -0.050031 -0.998330
0.028885 -0.050031 -0.998330
0.028885 -0.050031 -0.998330
0.028885 -0.050031 -0.998330
0.006039 -0.057454 -0.998330
0.006039 -0.057454 -0.998330
0.006039 -0.057454 -0.998330
0.006039 -0.057454 -0.998330
0.006039 -0.057454 -0.998330
0.006039 -0.057454 -0.998330
-0.017852 -0.054943 -0.998330
-0.017852 -0.054943 -0.998330
-0.017852 -0.054943 -0.998330
-0.017852 -0.054943 -0.998330
-0.017852 -0.054943 -0.998330
-0.017852 -0.054943 -0.998330
-0.038656 -0.042932 -0.998330
-0.038656 -0.042932 -0.998330
-0.038656 -0.042932 -0.998330
-0.038656 -0.042932 -0.998330
-0.038656 -0.042932 -0.998330
-0.038656 -0.042932 -0.998330
-0.052776 -0.023497 -0.998330
-0.052776 -0.023497 -0.998330
-0.052776 -0.023497 -0.998330
-0.052776 -0.023497 -0.998330
-0.052776 -0.023497 -0.998330
-0.052776 -0.023497 -0.998330
-0.057771 -0.000000 -0.998330
-0.057771 -0.000000 -0.998330
-0.057771 -0.000000 -0.998330
-0.057771 -0.000000 -0.998330
-0.057771 -0.000000 -0.998330
-0.057771 -0.000000 -0.998330
-0.052776 0.023497 -0.998330
-0.052776 0.023497 -0.998330
-0.052776 0.023497 -0.998330
-0.052776 0.023497 -0.998330
-0.052776 0.023497 -0.998330
-0.052776 0.023497 -0.998330
-0.038656 0.042932 -0.998330
-0.038656 0.042932 -0.998330
-0.038656 0.042932 -0.998330
-0.038656 0.042932 -0.998330
-0.038656 0.042932 -0.998330
-0.038656 0.042932 -0.998330
-0.017852 0.054943 -0.998330
-0.017852 0.054943 -0.998330
-0.017852 0.054943 -0.998330
-0.017852 0.054943 -0.998330
-0.017852 0.054943 -0.998330
-0.017852 0.054943 -0.998330
0.006039 0.057454 -0.998330
0.006039 0.057454 -0.998330
0.006039 0.057454 -0.998330
0.006039 0.057454 -0.998330
0.006039 0.057454 -0.998330
0.006039 0.057454 -0.998330
0.028885 0.050031 -0.998330
0.028885 0.050031 -0.998330
0.028885 0.050031 -0.998330
0.028885 0.050031 -0.998330
0.028885 0.050031 -0.998330
0.028885 0.050031 -0.998330
0.046738 0.033957 -0.998330
0.046738 0.033957 -0.998330
0.046738 0.033957 -0.998330
0.046738 0.033957 -0.998330
0.046738 0.033957 -0.998330
0.046738 0.033957 -0.998330
0.056508 0.012011 0.998330
0.056508 0.012011 0.998330
0.056508 0.012011 0.998330
0.056508 0.012011 0.998330
0.056508 0.012011 0.998330
0.056508 0.012011 0.998330
0.046737 0.033957 0.998330
0.046737 0.033957 0.998330
0.046737 0.033957 0.998330
0.046737 0.033957 0.998330
0.046737 0.033957 0.998330
0.046737 0.033957 0.998330
0.028885 0.050031 0.998330
0.028885 0.050031 0.998330
0.028885 0.050031 0.998330
0.028885 0.050031 0.998330
0.028885 0.050031 0.998330
0.028885 0.050031 0.998330
0.006039 0.057454 0.998330
0.006039 0.057454 0.998330
0.006039 0.057454 0.998330
0.006039 0.057454 0.998330
0.006039 0.057454 0.998330
0.006039 0.057454 0.998330
-0.017852 0.054943 0.998330
-0.017852 0.054943 0.998330
-0.017852 0.054943 0.998330
-0.017852 0.054943 0.998330
-0.017852 0.054943 0.998330
-0.017852 0.054943 0.998330
-0.038656 0.042932 0.998330
-0.038656 0.042932 0.998330
-0.038656 0.042932 0.998330
-0.038656 0.042932 0.998330
-0.038656 0.042932 0.998330
-0.038656 0.042932 0.998330
-0.052776 0.023497 0.998330
-0.052776 0.023497 0.998330
-0.052776 0.023497 0.998330
-0.052776 0.023497 0.998330
-0.052776 0.023497 0.998330
-0.052776 0.023497 0.998330
-0.057770 -0.000000 0.998330
-0.057770 -0.000000 0.998330
-0.057770 -0.000000 0.998330
-0.057770 -0.000000 0.998330
-0.057770 -0.000000 0.998330
-0.057770 -0.000000 0.998330
-0.052776 -0.023497 0.998330
-0.052776 -0.023497 0.998330
-0.052776 -0.023497 0.998330
-0.052776 -0.023497 0.998330
-0.052776 -0.023497 0.998330
-0.052776 -0.023497 0.998330
-0.038656 -0.042932 0.998330
-0.038656 -0.042932 0.998330
-0.038656 -0.042932 0.998330
-0.038656 -0.042932 0.998330
-0.038656 -0.042932 0.998330
-0.038656 -0.042932 0.998330
-0.017852 -0.054943 0.998330
-0.017852 -0.054943 0.998330
-0.017852 -0.054943 0.998330
-0.017852 -0.054943 0.998330
-0.017852 -0.054943 0.998330
-0.017852 -0.054943 0.998330
0.006039 -0.057454 0.998330
0.006039 -0.057454 0.998330
0.006039 -0.057454 0.998330
0.006039 -0.057454 0.998330
0.006039 -0.057454 0.998330
0.006039 -0.057454 0.998330
0.028885 -0.050031 0.998330
0.028885 -0.050031 0.998330
0.028885 -0.050031 0.998330
0.028885 -0.050031 0.998330
0.028885 -0.050031 0.998330
0.028885 -0.050031 0.998330
0.046737 -0.033957 0.998330
0.046737 -0.033957 0.998330
0.046737 -0.033957 0.998330
0.046737 -0.033957 0.998330
0.046737 -0.033957 0.998330
0.046737 -0.033957 0.998330
0.056508 -0.012011 0.998330
0.056508 -0.012011 0.998330
0.056508 -0.012011 0.998330
0.056508 -0.012011 0.998330
0.056508 -0.012011 0.998330
0.056508 -0.012011 0.998330
-0.978148 0.207911 0.000000
-0.978148 0.207911 0.000000
-0.978148 0.207911 0.000000
-0.978148 0.207911 0.000000
-0.978148 0.207911 0.000000
-0.978148 0.207911 0.000000
-0.809017 0.587785 0.000000
-0.809017 0.587785 0.000000
-0.669131 0.743145 0.000000
-0.669131 0.743145 0.000000
-0.669131 0.743145 0.000000
-0.809017 0.587785 0.000000
-0.669131 0.743145 0.000000
-0.669131 0.743145 0.000000
-0.309017 0.951056 0.000000
-0.309017 0.951056 0.000000
-0.309017 0.951056 0.000000
-0.669131 0.743145 0.000000
-0.309017 0.951056 0.000000
-0.309017 0.951056 0.000000
0.104528 0.994522 0.000000
0.104528 0.994522 0.000000
0.104528 0.994522 0.000000
-0.309017 0.951056 0.000000
0.104528 0.994522 0.000000
0.104528 0.994522 0.000000
0.500000 0.866025 0.000000
0.500000 0.866025 0.000000
0.500000 0.866026 0.000000
0.104528 0.994522 0.000000
0.500000 0.866026 0.000000
0.500000 0.866025 0.000000
0.809017 0.587785 0.000000
0.809017 0.587785 0.000000
0.809017 0.587785 0.000000
0.500000 0.866026 0.000000
0.809017 0.587785 0.000000
0.809017 0.587785 0.000000
0.978148 0.207912 0.000000
0.978148 0.207912 0.000000
0.978148 0.207912 0.000000
0.809017 0.587785 0.000000
0.978148 0.207912 0.000000
0.978148 0.207912 0.000000
0.978148 -0.207911 -0.000000
0.978148 -0.207911 -0.000000
0.978148 -0.207911 -0.000000
0.978148 0.207912 0.000000
0.978148 -0.207911 -0.000000
0.978148 -0.207911 -0.000000
0.809017 -0.587785 -0.000000
0.809017 -0.587785 -0.000000
0.809017 -0.587785 -0.000000
0.978148 -0.207911 -0.000000
0.809017 -0.587785 -0.000000
0.809017 -0.587785 -0.000000
0.500000 -0.866026 -0.000000
0.500000 -0.866026 -0.000000
0.500000 -0.866025 0.000000
0.809017 -0.587785 -0.000000
0.500000 -0.866025 0.000000
0.500000 -0.866026 -0.000000
0.104528 -0.994522 -0.000000
0.104528 -0.994522 -0.000000
0.104529 -0.994522 0.000000
0.500000 -0.866025 0.000000
0.104529 -0.994522 0.000000
0.104528 -0.994522 -0.000000
-0.309017 -0.951056 -0.000000
-0.309017 -0.951056 -0.000000
-0.309017 -0.951056 0.000000
0.104529 -0.994522 0.000000
-0.309017 -0.951056 0.000000
-0.309017 -0.951056 -0.000000
-0.669131 -0.743145 0.000000
-0.669131 -0.743145 0.000000
-0.669131 -0.743145 -0.000000
-0.309017 -0.951056 0.000000
-0.669131 -0.743145 -0.000000
-0.669131 -0.743145 0.000000
-0.913545 -0.406737 -0.000000
-0.913545 -0.406737 -0.000000
-0.913545 -0.406737 -0.000000
-0.669131 -0.743145 -0.000000
-0.913545 -0.406737 -0.000000
-0.913545 -0.406737 -0.000000
-0.978148 -0.207912 -0.000000
-0.978148 -0.207912 -0.000000
-0.978148 -0.207912 -0.000000
-0.913545 -0.406737 -0.000000
0.016100 0.003422 -0.999865
0.016100 0.003422 -0.999865
0.016100 0.003422 -0.999865
0.016100 0.003422 -0.999864
0.016100 0.003422 -0.999865
0.016100 0.003422 -0.999865
0.016100 -0.003422 -0.999865
0.016100 -0.003422 -0.999865
0.016100 -0.003422 -0.999865
0.016100 -0.003422 -0.999865
0.016100 -0.003422 -0.999865
0.016100 -0.003422 -0.999865
0.013316 -0.009675 -0.999865
0.013316 -0.009675 -0.999865
0.013316 -0.009675 -0.999865
0.013316 -0.009675 -0.999865
0.013316 -0.009675 -0.999865
0.013316 -0.009675 -0.999865
0.008230 -0.014254 -0.999865
0.008230 -0.014254 -0.999865
0.008230 -0.014254 -0.999865
0.008230 -0.014254 -0.999865
0.008230 -0.014254 -0.999865
0.008230 -0.014254 -0.999865
0.001720 -0.016369 -0.999865
0.001720 -0.016369 -0.999865
0.001720 -0.016369 -0.999865
0.001720 -0.016369 -0.999864
0.001720 -0.016369 -0.999865
0.001720 -0.016369 -0.999865
-0.005086 -0.015654 -0.999865
-0.005086 -0.015654 -0.999865
-0.005086 -0.015654 -0.999865
-0.005086 -0.015654 -0.999865
-0.005086 -0.015654 -0.999865
-0.005086 -0.015654 -0.999865
-0.011014 -0.012232 -0.999865
-0.011014 -0.012232 -0.999865
-0.011014 -0.012232 -0.999865
-0.011014 -0.012232 -0.999865
-0.011014 -0.012232 -0.999865
-0.011014 -0.012232 -0.999865
-0.015036 -0.006695 -0.999865
-0.015036 -0.006695 -0.999865
-0.015036 -0.006695 -0.999865
-0.015036 -0.006695 -0.999865
-0.015036 -0.006695 -0.999865
-0.015036 -0.006695 -0.999865
-0.016459 -0.000000 -0.999865
-0.016459 -0.000000 -0.999865
-0.016459 -0.000000 -0.999865
-0.016459 -0.000000 -0.999864
-0.016459 -0.000000 -0.999865
-0.016459 -0.000000 -0.999865
-0.015036 0.006695 -0.999864
-0.015036 0.006695 -0.999865
-0.015036 0.006695 -0.999865
-0.015036 0.006695 -0.999865
-0.015036 0.006695 -0.999865
-0.015036 0.006695 -0.999865
-0.011014 0.012232 -0.999865
-0.011014 0.012232 -0.999865
-0.011014 0.012232 -0.999865
-0.011014 0.012232 -0.999865
-0.011014 0.012232 -0.999865
-0.011014 0.012232 -0.999865
-0.005086 0.015654 -0.999865
-0.005086 0.015654 -0.999865
-0.005086 0.015654 -0.999865
-0.005086 0.015654 -0.999865
-0.005086 0.015654 -0.999865
-0.005086 0.015654 -0.999865
0.001720 0.016369 -0.999865
0.001720 0.016369 -0.999865
0.001720 0.016369 -0.999865
0.001720 0.016369 -0.999865
0.001720 0.016369 -0.999865
0.001720 0.016369 -0.999865
0.008230 0.014254 -0.999865
0.008230 0.014254 -0.999865
0.008230 0.014254 -0.999865
0.008230 0.014254 -0.999865
0.008230 0.014254 -0.999865
0.008230 0.014254 -0.999865
0.013316 0.009675 -0.999864
0.013316 0.009675 -0.999865
0.013316 0.009675 -0.999865
0.013316 0.009675 -0.999865
0.013316 0.009675 -0.999865
0.013316 0.009675 -0.999865
0.016101 0.003422 0.999865
0.016101 0.003422 0.999865
0.016101 0.003422 0.999865
0.016101 0.003422 0.999865
0.016101 0.003422 0.999865
0.016101 0.003422 0.999865
0.013317 0.009675 0.999865
0.013317 0.009675 0.999865
0.013317 0.009675 0.999865
0.013317 0.009675 0.999865
0.013317 0.009675 0.999865
0.013317 0.009675 0.999865
0.008230 0.014255 0.999865
0.008230 0.014255 0.999865
0.008230 0.014255 0.999865
0.008230 0.014255 0.999864
0.008230 0.014255 0.999865
0.008230 0.014255 0.999865
0.001721 0.016370 0.999865
0.001721 0.016370 0.999865
0.001721 0.016370 0.999865
0.001721 0.016370 0.999865
0.001721 0.016370 0.999865
0.001721 0.016370 0.999865
-0.005087 0.015655 0.999865
-0.005087 0.015655 0.999865
-0.005087 0.015655 0.999865
-0.005087 0.015655 0.999865
-0.005087 0.015655 0.999865
-0.005087 0.015655 0.999865
-0.011014 0.012232 0.999865
-0.011014 0.012232 0.999865
-0.011014 0.012232 0.999865
-0.011014 0.012232 0.999865
-0.011014 0.012232 0.999865
-0.011014 0.012232 0.999865
-0.015037 0.006695 0.999865
-0.015037 0.006695 0.999865
-0.015037 0.006695 0.999865
-0.015037 0.006695 0.999865
-0.015037 0.006695 0.999865
-0.015037 0.006695 0.999865
-0.016460 -0.000000 0.999865
-0.016460 -0.000000 0.999865
-0.016460 -0.000000 0.999865
-0.016460 -0.000000 0.999865
-0.016460 -0.000000 0.999865
-0.016460 -0.000000 0.999865
-0.015037 -0.006695 0.999865
-0.015037 -0.006695 0.999865
-0.015037 -0.006695 0.999865
-0.015037 -0.006695 0.999865
-0.015037 -0.006695 0.999865
-0.015037 -0.006695 0.999865
-0.011014 -0.012232 0.999865
-0.011014 -0.012232 0.999865
-0.011014 -0.012232 0.999865
-0.011014 -0.012232 0.999865
-0.011014 -0.012232 0.999865
-0.011014 -0.012232 0.999865
-0.005087 -0.015655 0.999865
-0.005087 -0.015655 0.999865
-0.005087 -0.015655 0.999865
-0.005087 -0.015655 0.999865
-0.005087 -0.015655 0.999865
-0.005087 -0.015655 0.999865
0.001721 -0.016370 0.999865
0.001721 -0.016370 0.999865
0.001721 -0.016370 0.999865
0.001721 -0.016370 0.999864
0.001721 -0.016370 0.999865
0.001721 -0.016370 0.999865
0.008230 -0.014255 0.999865
0.008230 -0.014255 0.999865
0.008230 -0.014255 0.999865
0.008230 -0.014255 0.999865
0.008230 -0.014255 0.999865
0.008230 -0.014255 0.999865
0.013317 -0.009675 0.999865
0.013317 -0.009675 0.999865
0.013317 -0.009675 0.999865
0.013317 -0.009675 0.999865
0.013317 -0.009675 0.999865
0.013317 -0.009675 0.999865
0.016101 -0.003422 0.999865
0.016101 -0.003422 0.999865
0.016101 -0.003422 0.999865
0.016101 -0.003422 0.999864
0.016101 -0.003422 0.999865
0.016101 -0.003422 0.999865
0.261752 0.965135 0.000000
0.261752 0.965135 0.000000
0.339004 0.940785 0.000000
0.339004 0.940785 0.000000
0.339004 0.940785 0.000000
0.261752 0.965135 0.000000
0.000000 0.000000 -1.000000
0.000000 0.000000 -1.000000
0.000000 0.000000 -1.000000
0.000000 0.000000 -1.000000
0.000000 0.000000 -1.000000
0.000000 0.000000 -1.000000
-0.991002 -0.133851 0.000000
-0.991002 -0.133851 0.000000
-0.991002 -0.133851 0.000000
-0.991002 -0.133851 0.000000
-0.991002 -0.133851 0.000000
-0.991002 -0.133851 0.000000
0.000000 0.000000 1.000000
0.000000 0.000000 1.000000
0.000000 0.000000 1.000000
0.000000 0.000000 1.000000
0.000000 0.000000 1.000000
0.000000 0.000000 1.000000
0.965888 -0.258959 0.000000
0.965888 -0.258959 0.000000
0.965888 -0.258959 0.000000
0.965888 -0.258959 0.000000
0.965888 -0.258959 0.000000
0.965888 -0.258959 0.000000
-0.261752 -0.965135 -0.000000
-0.261752 -0.965135 -0.000000
-0.339004 -0.940785 -0.000000
-0.339004 -0.940785 -0.000000
-0.339004 -0.940785 0.000000
-0.261752 -0.965135 -0.000000
-0.102083 -0.994776 0.000000
-0.102083 -0.994776 0.000000
-0.102083 -0.994776 0.000000
-0.102083 -0.994776 0.000000
-0.102083 -0.994776 0.000000
-0.102083 -0.994776 0.000000
0.000000 0.000000 1.000000
0.000000 0.000000 1.000000
0.000000 0.000000 1.000000
0.000000 0.000000 1.000000
0.000000 0.000000 1.000000
0.000000 0.000000 1.000000
0.101955 0.994789 0.000000
0.101955 0.994789 0.000000
0.101955 0.994789 0.000000
0.101955 0.994789 0.000000
0.101955 0.994789 0.000000
0.101955 0.994789 0.000000
0.000000 0.000000 -1.000000
0.000000 0.000000 -1.000000
0.000000 0.000000 -1.000000
0.000000 0.000000 -1.000000
0.000000 0.000000 -1.000000
0.000000 0.000000 -1.000000
0.120686 -0.992691 0.000000
0.120686 -0.992691 0.000000
0.120686 -0.992691 0.000000
0.120686 -0.992691 0.000000
0.120686 -0.992691 0.000000
0.120686 -0.992691 0.000000
0.000000 0.000000 1.000000
0.000000 0.000000 1.000000
0.000000 0.000000 1.000000
0.000000 0.000000 1.000000
0.000000 0.000000 1.000000
0.000000 0.000000 1.000000
-0.113033 0.993591 0.000000
-0.113033 0.993591 0.000000
-0.113033 0.993591 0.000000
-0.113033 0.993591 0.000000
-0.113033 0.993591 0.000000
-0.113033 0.993591 0.000000
0.000000 0.000000 -1.000000
0.000000 0.000000 -1.000000
0.000000 0.000000 -1.000000
0.000000 0.000000 -1.000000
0.000000 0.000000 -1.000000
0.000000 0.000000 -1.000000
0.182783 0.983153 0.000000
0.182783 0.983153 0.000000
0.261752 0.965135 0.000000
0.261752 0.965135 0.000000
0.261752 0.965135 0.000000
0.182783 0.983153 0.000000
0.000000 0.000000 -1.000000
0.000000 0.000000 -1.000000
0.000000 0.000000 -1.000000
0.000000 0.000000 -1.000000
0.000000 0.000000 -1.000000
0.000000 0.000000 -1.000000
0.000000 0.000000 1.000000
0.000000 0.000000 1.000000
0.000000 0.000000 1.000000
0.000000 0.000000 1.000000
0.000000 0.000000 1.000000
0.000000 0.000000 1.000000
-0.182783 -0.983153 -0.000000
-0.182783 -0.983153 0.000000
-0.261752 -0.965135 -0.000000
-0.261752 -0.965135 -0.000000
-0.261752 -0.965135 -0.000000
-0.182783 -0.983153 -0.000000
</float_array>
          <technique_common>
            <accessor source="#SM_ToiletRoll_01_A_1-Normal0-array" count="828" stride="3">
              <param name="X" type="float"/>
              <param name="Y" type="float"/>
              <param name="Z" type="float"/>
            </accessor>
          </technique_common>
        </source>
        <source id="SM_ToiletRoll_01_A_1-UV0">
          <float_array id="SM_ToiletRoll_01_A_1-UV0-array" count="330">
0.750000 0.000000
0.816667 0.000000
0.883333 0.000000
0.950000 0.000000
0.016667 0.000000
0.083333 0.000000
0.150000 0.000000
0.216667 0.000000
0.283333 0.000000
0.350000 0.000000
0.416667 0.000000
0.483333 0.000000
0.550000 0.000000
0.616667 0.000000
0.683333 0.000000
0.750000 1.000000
0.816667 1.000000
0.883333 1.000000
0.950000 1.000000
0.016667 1.000000
0.083333 1.000000
0.150000 1.000000
0.216667 1.000000
0.283333 1.000000
0.350000 1.000000
0.416667 1.000000
0.483333 1.000000
0.550000 1.000000
0.616667 1.000000
0.683333 1.000000
-0.050000 0.000000
-0.050000 1.000000
0.938857 0.000000
0.851832 0.000000
0.703972 0.000000
0.520844 0.000000
0.334111 0.000000
0.176062 0.000000
0.074025 0.000000
0.045643 0.000000
0.095823 0.000000
0.215890 0.000000
0.385081 0.000000
0.938858 1.000000
0.851833 1.000000
0.703973 1.000000
0.520844 1.000000
0.334111 1.000000
0.176062 1.000000
0.074024 1.000000
0.045642 1.000000
0.095822 1.000000
0.215889 1.000000
0.816667 0.000000
0.750000 0.000000
0.385081 0.000000
0.215890 0.000000
0.095823 0.000000
0.045643 0.000000
0.074025 0.000000
0.176062 0.000000
0.334111 0.000000
0.520844 0.000000
0.703972 0.000000
0.851832 0.000000
0.938857 0.000000
0.950000 0.000000
0.883333 0.000000
0.750000 1.000000
0.816667 1.000000
0.883333 1.000000
0.950000 1.000000
0.938858 1.000000
0.851833 1.000000
0.703973 1.000000
0.520844 1.000000
0.334111 1.000000
0.176062 1.000000
0.074024 1.000000
0.045642 1.000000
0.095822 1.000000
0.215889 1.000000
0.683333 1.000000
0.816667 0.000000
0.750000 0.000000
0.385081 0.000000
0.215890 0.000000
0.095823 0.000000
0.045643 0.000000
0.074025 0.000000
0.176062 0.000000
0.334111 0.000000
0.520844 0.000000
0.703972 0.000000
0.851832 0.000000
0.938857 0.000000
0.950000 0.000000
0.883333 0.000000
0.750000 1.000000
0.816667 1.000000
0.883333 1.000000
0.950000 1.000000
0.938858 1.000000
0.851833 1.000000
0.703973 1.000000
0.520844 1.000000
0.334111 1.000000
0.176062 1.000000
0.074024 1.000000
0.045642 1.000000
0.095822 1.000000
0.215889 1.000000
0.683333 1.000000
0.816667 0.000000
0.750000 0.000000
0.385081 0.000000
0.215890 0.000000
0.095823 0.000000
0.045643 0.000000
0.074025 0.000000
0.176062 0.000000
0.334111 0.000000
0.520844 0.000000
0.703972 0.000000
0.851832 0.000000
0.938857 0.000000
0.950000 0.000000
0.883333 0.000000
0.750000 1.000000
0.816667 1.000000
0.883333 1.000000
0.950000 1.000000
0.938858 1.000000
0.851833 1.000000
0.703973 1.000000
0.520844 1.000000
0.334111 1.000000
0.176062 1.000000
0.074024 1.000000
0.045642 1.000000
0.095822 1.000000
0.215889 1.000000
0.683333 1.000000
0.083333 0.000000
0.150000 0.000000
0.150000 1.000000
0.083333 1.000000
0.083333 0.000000
0.150000 0.000000
0.150000 1.000000
0.083333 1.000000
0.150000 0.000000
0.150000 1.000000
0.150000 1.000000
0.150000 0.000000
0.150000 0.000000
0.150000 1.000000
0.150000 1.000000
0.150000 0.000000
0.116667 0.000000
0.255086 0.000000
0.116667 1.000000
0.612408 0.000000
0.116667 0.000000
0.116667 1.000000
</float_array>
          <technique_common>
            <accessor source="#SM_ToiletRoll_01_A_1-UV0-array" count="165" stride="2">
              <param name="S" type="float"/>
              <param name="T" type="float"/>
            </accessor>
          </technique_common>
        </source>
        <source id="SM_ToiletRoll_01_A_1-VERTEX_COLOR0">
          <float_array id="SM_ToiletRoll_01_A_1-VERTEX_COLOR0-array" count="2208">
1.000000 0.584314 0.729412 1.000000
1.000000 0.584314 0.729412 1.000000
1.000000 0.584314 0.729412 1.000000
1.000000 0.584314 0.729412 1.000000
1.000000 0.584314 0.729412 1.000000
1.000000 0.584314 0.729412 1.000000
1.000000 0.584314 0.729412 1.000000
1.000000 0.584314 0.729412 1.000000
1.000000 0.584314 0.729412 1.000000
1.000000 0.584314 0.729412 1.000000
1.000000 0.584314 0.729412 1.000000
1.000000 0.584314 0.729412 1.000000
1.000000 0.584314 0.729412 1.000000
1.000000 0.584314 0.729412 1.000000
1.000000 0.584314 0.729412 1.000000
1.000000 0.584314 0.729412 1.000000
1.000000 0.584314 0.729412 1.000000
1.000000 0.584314 0.729412 1.000000
1.000000 0.584314 0.729412 1.000000
1.000000 0.584314 0.729412 1.000000
1.000000 0.584314 0.729412 1.000000
1.000000 0.584314 0.729412 1.000000
1.000000 0.584314 0.729412 1.000000
1.000000 0.584314 0.729412 1.000000
1.000000 0.584314 0.729412 1.000000
1.000000 0.584314 0.729412 1.000000
1.000000 0.584314 0.729412 1.000000
1.000000 0.584314 0.729412 1.000000
1.000000 0.584314 0.729412 1.000000
1.000000 0.584314 0.729412 1.000000
1.000000 0.584314 0.729412 1.000000
1.000000 0.584314 0.729412 1.000000
1.000000 0.584314 0.729412 1.000000
1.000000 0.584314 0.729412 1.000000
1.000000 0.584314 0.729412 1.000000
1.000000 0.584314 0.729412 1.000000
1.000000 0.584314 0.729412 1.000000
1.000000 0.584314 0.729412 1.000000
1.000000 0.584314 0.729412 1.000000
1.000000 0.584314 0.729412 1.000000
1.000000 0.584314 0.729412 1.000000
1.000000 0.584314 0.729412 1.000000
1.000000 0.584314 0.729412 1.000000
1.000000 0.584314 0.729412 1.000000
1.000000 0.584314 0.729412 1.000000
1.000000 0.584314 0.729412 1.000000
1.000000 0.584314 0.729412 1.000000
1.000000 0.584314 0.729412 1.000000
1.000000 0.584314 0.729412 1.000000
1.000000 0.584314 0.729412 1.000000
1.000000 0.584314 0.729412 1.000000
1.000000 0.584314 0.729412 1.000000
1.000000 0.584314 0.729412 1.000000
1.000000 0.584314 0.729412 1.000000
1.000000 0.584314 0.729412 1.000000
1.000000 0.584314 0.729412 1.000000
1.000000 0.584314 0.729412 1.000000
1.000000 0.584314 0.729412 1.000000
1.000000 0.584314 0.729412 1.000000
1.000000 0.584314 0.729412 1.000000
1.000000 0.729412 0.823529 1.000000
1.000000 0.729412 0.823529 1.000000
1.000000 0.729412 0.823529 1.000000
1.000000 0.729412 0.823529 1.000000
1.000000 0.729412 0.823529 1.000000
1.000000 0.729412 0.823529 1.000000
1.000000 0.729412 0.823529 1.000000
1.000000 0.729412 0.823529 1.000000
1.000000 0.729412 0.823529 1.000000
1.000000 0.729412 0.823529 1.000000
1.000000 0.729412 0.823529 1.000000
1.000000 0.729412 0.823529 1.000000
1.000000 0.729412 0.823529 1.000000
1.000000 0.729412 0.823529 1.000000
1.000000 0.729412 0.823529 1.000000
1.000000 0.729412 0.823529 1.000000
1.000000 0.729412 0.823529 1.000000
1.000000 0.729412 0.823529 1.000000
1.000000 0.729412 0.823529 1.000000
1.000000 0.729412 0.823529 1.000000
1.000000 0.729412 0.823529 1.000000
1.000000 0.729412 0.823529 1.000000
1.000000 0.729412 0.823529 1.000000
1.000000 0.729412 0.823529 1.000000
1.000000 0.729412 0.823529 1.000000
1.000000 0.729412 0.823529 1.000000
1.000000 0.729412 0.823529 1.000000
1.000000 0.729412 0.823529 1.000000
1.000000 0.729412 0.823529 1.000000
1.000000 0.729412 0.823529 1.000000
1.000000 0.729412 0.823529 1.000000
1.000000 0.729412 0.823529 1.000000
1.000000 0.729412 0.823529 1.000000
1.000000 0.729412 0.823529 1.000000
1.000000 0.729412 0.823529 1.000000
1.000000 0.729412 0.823529 1.000000
1.000000 0.729412 0.823529 1.000000
1.000000 0.729412 0.823529 1.000000
1.000000 0.729412 0.823529 1.000000
1.000000 0.729412 0.823529 1.000000
1.000000 0.729412 0.823529 1.000000
1.000000 0.729412 0.823529 1.000000
1.000000 0.729412 0.823529 1.000000
1.000000 0.729412 0.823529 1.000000
1.000000 0.729412 0.823529 1.000000
1.000000 0.729412 0.823529 1.000000
1.000000 0.729412 0.823529 1.000000
1.000000 0.729412 0.823529 1.000000
1.000000 0.729412 0.823529 1.000000
1.000000 0.729412 0.823529 1.000000
1.000000 0.729412 0.823529 1.000000
1.000000 0.729412 0.823529 1.000000
1.000000 0.729412 0.823529 1.000000
1.000000 0.729412 0.823529 1.000000
1.000000 0.729412 0.823529 1.000000
1.000000 0.729412 0.823529 1.000000
1.000000 0.729412 0.823529 1.000000
1.000000 0.729412 0.823529 1.000000
1.000000 0.729412 0.823529 1.000000
1.000000 0.729412 0.823529 1.000000
1.000000 0.729412 0.823529 1.000000
1.000000 0.729412 0.823529 1.000000
1.000000 0.729412 0.823529 1.000000
1.000000 0.729412 0.823529 1.000000
1.000000 0.729412 0.823529 1.000000
1.000000 0.729412 0.823529 1.000000
1.000000 0.729412 0.823529 1.000000
1.000000 0.729412 0.823529 1.000000
1.000000 0.729412 0.823529 1.000000
1.000000 0.729412 0.823529 1.000000
1.000000 0.729412 0.823529 1.000000
1.000000 0.729412 0.823529 1.000000
1.000000 0.729412 0.823529 1.000000
1.000000 0.729412 0.823529 1.000000
1.000000 0.729412 0.823529 1.000000
1.000000 0.729412 0.823529 1.000000
1.000000 0.729412 0.823529 1.000000
1.000000 0.729412 0.823529 1.000000
1.000000 0.729412 0.823529 1.000000
1.000000 0.729412 0.823529 1.000000
1.000000 0.729412 0.823529 1.000000
1.000000 0.729412 0.823529 1.000000
1.000000 0.729412 0.823529 1.000000
1.000000 0.729412 0.823529 1.000000
1.000000 0.729412 0.823529 1.000000
1.000000 0.729412 0.823529 1.000000
1.000000 0.729412 0.823529 1.000000
1.000000 0.729412 0.823529 1.000000
1.000000 0.729412 0.823529 1.000000
1.000000 0.729412 0.823529 1.000000
1.000000 0.729412 0.823529 1.000000
1.000000 0.729412 0.823529 1.000000
1.000000 0.729412 0.823529 1.000000
1.000000 0.729412 0.823529 1.000000
1.000000 0.729412 0.823529 1.000000
1.000000 0.729412 0.823529 1.000000
1.000000 0.729412 0.823529 1.000000
1.000000 0.729412 0.823529 1.000000
1.000000 0.729412 0.823529 1.000000
1.000000 0.729412 0.823529 1.000000
1.000000 0.729412 0.823529 1.000000
1.000000 0.729412 0.823529 1.000000
1.000000 0.729412 0.823529 1.000000
1.000000 0.729412 0.823529 1.000000
1.000000 0.729412 0.823529 1.000000
1.000000 0.729412 0.823529 1.000000
1.000000 0.729412 0.823529 1.000000
1.000000 0.729412 0.823529 1.000000
1.000000 0.729412 0.823529 1.000000
1.000000 0.729412 0.823529 1.000000
1.000000 0.729412 0.823529 1.000000
1.000000 0.729412 0.823529 1.000000
1.000000 0.729412 0.823529 1.000000
1.000000 0.729412 0.823529 1.000000
1.000000 0.729412 0.823529 1.000000
1.000000 0.729412 0.823529 1.000000
1.000000 0.729412 0.823529 1.000000
1.000000 0.729412 0.823529 1.000000
1.000000 0.729412 0.823529 1.000000
1.000000 0.729412 0.823529 1.000000
1.000000 0.584314 0.729412 1.000000
1.000000 0.584314 0.729412 1.000000
1.000000 0.584314 0.729412 1.000000
1.000000 0.584314 0.729412 1.000000
1.000000 0.584314 0.729412 1.000000
1.000000 0.584314 0.729412 1.000000
1.000000 0.584314 0.729412 1.000000
1.000000 0.584314 0.729412 1.000000
1.000000 0.584314 0.729412 1.000000
1.000000 0.584314 0.729412 1.000000
1.000000 0.584314 0.729412 1.000000
1.000000 0.584314 0.729412 1.000000
1.000000 0.584314 0.729412 1.000000
1.000000 0.584314 0.729412 1.000000
1.000000 0.584314 0.729412 1.000000
1.000000 0.584314 0.729412 1.000000
1.000000 0.584314 0.729412 1.000000
1.000000 0.584314 0.729412 1.000000
1.000000 0.584314 0.729412 1.000000
1.000000 0.584314 0.729412 1.000000
1.000000 0.584314 0.729412 1.000000
1.000000 0.584314 0.729412 1.000000
1.000000 0.584314 0.729412 1.000000
1.000000 0.584314 0.729412 1.000000
1.000000 0.584314 0.729412 1.000000
1.000000 0.584314 0.729412 1.000000
1.000000 0.584314 0.729412 1.000000
1.000000 0.584314 0.729412 1.000000
1.000000 0.584314 0.729412 1.000000
1.000000 0.584314 0.729412 1.000000
1.000000 0.584314 0.729412 1.000000
1.000000 0.584314 0.729412 1.000000
1.000000 0.584314 0.729412 1.000000
1.000000 0.584314 0.729412 1.000000
1.000000 0.584314 0.729412 1.000000
1.000000 0.584314 0.729412 1.000000
1.000000 0.584314 0.729412 1.000000
1.000000 0.584314 0.729412 1.000000
1.000000 0.584314 0.729412 1.000000
1.000000 0.584314 0.729412 1.000000
1.000000 0.584314 0.729412 1.000000
1.000000 0.584314 0.729412 1.000000
1.000000 0.584314 0.729412 1.000000
1.000000 0.584314 0.729412 1.000000
1.000000 0.584314 0.729412 1.000000
1.000000 0.584314 0.729412 1.000000
1.000000 0.584314 0.729412 1.000000
1.000000 0.584314 0.729412 1.000000
1.000000 0.584314 0.729412 1.000000
1.000000 0.584314 0.729412 1.000000
1.000000 0.584314 0.729412 1.000000
1.000000 0.584314 0.729412 1.000000
1.000000 0.584314 0.729412 1.000000
1.000000 0.584314 0.729412 1.000000
1.000000 0.584314 0.729412 1.000000
1.000000 0.584314 0.729412 1.000000
1.000000 0.584314 0.729412 1.000000
1.000000 0.584314 0.729412 1.000000
1.000000 0.584314 0.729412 1.000000
1.000000 0.584314 0.729412 1.000000
1.000000 0.584314 0.729412 1.000000
1.000000 0.584314 0.729412 1.000000
1.000000 0.584314 0.729412 1.000000
1.000000 0.584314 0.729412 1.000000
1.000000 0.584314 0.729412 1.000000
1.000000 0.584314 0.729412 1.000000
1.000000 0.584314 0.729412 1.000000
1.000000 0.584314 0.729412 1.000000
1.000000 0.584314 0.729412 1.000000
1.000000 0.584314 0.729412 1.000000
1.000000 0.584314 0.729412 1.000000
1.000000 0.584314 0.729412 1.000000
1.000000 0.584314 0.729412 1.000000
1.000000 0.584314 0.729412 1.000000
1.000000 0.584314 0.729412 1.000000
1.000000 0.584314 0.729412 1.000000
1.000000 0.584314 0.729412 1.000000
1.000000 0.584314 0.729412 1.000000
1.000000 0.584314 0.729412 1.000000
1.000000 0.584314 0.729412 1.000000
1.000000 0.584314 0.729412 1.000000
1.000000 0.584314 0.729412 1.000000
1.000000 0.584314 0.729412 1.000000
1.000000 0.584314 0.729412 1.000000
1.000000 0.584314 0.729412 1.000000
1.000000 0.584314 0.729412 1.000000
1.000000 0.584314 0.729412 1.000000
1.000000 0.584314 0.729412 1.000000
1.000000 0.584314 0.729412 1.000000
1.000000 0.584314 0.729412 1.000000
1.000000 0.584314 0.729412 1.000000
1.000000 0.584314 0.729412 1.000000
1.000000 0.584314 0.729412 1.000000
1.000000 0.584314 0.729412 1.000000
1.000000 0.584314 0.729412 1.000000
1.000000 0.584314 0.729412 1.000000
1.000000 0.584314 0.729412 1.000000
1.000000 0.584314 0.729412 1.000000
1.000000 0.584314 0.729412 1.000000
1.000000 0.584314 0.729412 1.000000
1.000000 0.584314 0.729412 1.000000
1.000000 0.584314 0.729412 1.000000
1.000000 0.584314 0.729412 1.000000
1.000000 0.584314 0.729412 1.000000
1.000000 0.584314 0.729412 1.000000
1.000000 0.584314 0.729412 1.000000
1.000000 0.584314 0.729412 1.000000
1.000000 0.584314 0.729412 1.000000
1.000000 0.584314 0.729412 1.000000
1.000000 0.584314 0.729412 1.000000
1.000000 0.584314 0.729412 1.000000
1.000000 0.584314 0.729412 1.000000
1.000000 0.584314 0.729412 1.000000
1.000000 0.584314 0.729412 1.000000
1.000000 0.584314 0.729412 1.000000
1.000000 0.584314 0.729412 1.000000
1.000000 0.584314 0.729412 1.000000
1.000000 0.584314 0.729412 1.000000
1.000000 0.584314 0.729412 1.000000
1.000000 0.584314 0.729412 1.000000
0.129412 0.070588 0.023529 1.000000
0.129412 0.070588 0.023529 1.000000
0.129412 0.070588 0.023529 1.000000
0.129412 0.070588 0.023529 1.000000
0.129412 0.070588 0.023529 1.000000
0.129412 0.070588 0.023529 1.000000
0.129412 0.070588 0.023529 1.000000
0.129412 0.070588 0.023529 1.000000
0.129412 0.070588 0.023529 1.000000
0.129412 0.070588 0.023529 1.000000
0.129412 0.070588 0.023529 1.000000
0.129412 0.070588 0.023529 1.000000
0.129412 0.070588 0.023529 1.000000
0.129412 0.070588 0.023529 1.000000
0.129412 0.070588 0.023529 1.000000
0.129412 0.070588 0.023529 1.000000
0.129412 0.070588 0.023529 1.000000
0.129412 0.070588 0.023529 1.000000
0.129412 0.070588 0.023529 1.000000
0.129412 0.070588 0.023529 1.000000
0.129412 0.070588 0.023529 1.000000
0.129412 0.070588 0.023529 1.000000
0.129412 0.070588 0.023529 1.000000
0.129412 0.070588 0.023529 1.000000
0.129412 0.070588 0.023529 1.000000
0.129412 0.070588 0.023529 1.000000
0.129412 0.070588 0.023529 1.000000
0.129412 0.070588 0.023529 1.000000
0.129412 0.070588 0.023529 1.000000
0.129412 0.070588 0.023529 1.000000
0.129412 0.070588 0.023529 1.000000
0.129412 0.070588 0.023529 1.000000
0.129412 0.070588 0.023529 1.000000
0.129412 0.070588 0.023529 1.000000
0.129412 0.070588 0.023529 1.000000
0.129412 0.070588 0.023529 1.000000
0.129412 0.070588 0.023529 1.000000
0.129412 0.070588 0.023529 1.000000
0.129412 0.070588 0.023529 1.000000
0.129412 0.070588 0.023529 1.000000
0.129412 0.070588 0.023529 1.000000
0.129412 0.070588 0.023529 1.000000
0.129412 0.070588 0.023529 1.000000
0.129412 0.070588 0.023529 1.000000
0.129412 0.070588 0.023529 1.000000
0.129412 0.070588 0.023529 1.000000
0.129412 0.070588 0.023529 1.000000
0.129412 0.070588 0.023529 1.000000
0.129412 0.070588 0.023529 1.000000
0.129412 0.070588 0.023529 1.000000
0.129412 0.070588 0.023529 1.000000
0.129412 0.070588 0.023529 1.000000
0.129412 0.070588 0.023529 1.000000
0.129412 0.070588 0.023529 1.000000
0.129412 0.070588 0.023529 1.000000
0.129412 0.070588 0.023529 1.000000
0.129412 0.070588 0.023529 1.000000
0.129412 0.070588 0.023529 1.000000
0.129412 0.070588 0.023529 1.000000
0.129412 0.070588 0.023529 1.000000
0.250980 0.145098 0.062745 1.000000
0.250980 0.145098 0.062745 1.000000
0.250980 0.145098 0.062745 1.000000
0.250980 0.145098 0.062745 1.000000
0.250980 0.145098 0.062745 1.000000
0.250980 0.145098 0.062745 1.000000
0.250980 0.145098 0.062745 1.000000
0.250980 0.145098 0.062745 1.000000
0.250980 0.145098 0.062745 1.000000
0.250980 0.145098 0.062745 1.000000
0.250980 0.145098 0.062745 1.000000
0.250980 0.145098 0.062745 1.000000
0.250980 0.145098 0.062745 1.000000
0.250980 0.145098 0.062745 1.000000
0.250980 0.145098 0.062745 1.000000
0.250980 0.145098 0.062745 1.000000
0.250980 0.145098 0.062745 1.000000
0.250980 0.145098 0.062745 1.000000
0.250980 0.145098 0.062745 1.000000
0.250980 0.145098 0.062745 1.000000
0.250980 0.145098 0.062745 1.000000
0.250980 0.145098 0.062745 1.000000
0.250980 0.145098 0.062745 1.000000
0.250980 0.145098 0.062745 1.000000
0.250980 0.145098 0.062745 1.000000
0.250980 0.145098 0.062745 1.000000
0.250980 0.145098 0.062745 1.000000
0.250980 0.145098 0.062745 1.000000
0.250980 0.145098 0.062745 1.000000
0.250980 0.145098 0.062745 1.000000
0.250980 0.145098 0.062745 1.000000
0.250980 0.145098 0.062745 1.000000
0.250980 0.145098 0.062745 1.000000
0.250980 0.145098 0.062745 1.000000
0.250980 0.145098 0.062745 1.000000
0.250980 0.145098 0.062745 1.000000
0.250980 0.145098 0.062745 1.000000
0.250980 0.145098 0.062745 1.000000
0.250980 0.145098 0.062745 1.000000
0.250980 0.145098 0.062745 1.000000
0.250980 0.145098 0.062745 1.000000
0.250980 0.145098 0.062745 1.000000
0.250980 0.145098 0.062745 1.000000
0.250980 0.145098 0.062745 1.000000
0.250980 0.145098 0.062745 1.000000
0.250980 0.145098 0.062745 1.000000
0.250980 0.145098 0.062745 1.000000
0.250980 0.145098 0.062745 1.000000
0.250980 0.145098 0.062745 1.000000
0.250980 0.145098 0.062745 1.000000
0.250980 0.145098 0.062745 1.000000
0.250980 0.145098 0.062745 1.000000
0.250980 0.145098 0.062745 1.000000
0.250980 0.145098 0.062745 1.000000
0.250980 0.145098 0.062745 1.000000
0.250980 0.145098 0.062745 1.000000
0.250980 0.145098 0.062745 1.000000
0.250980 0.145098 0.062745 1.000000
0.250980 0.145098 0.062745 1.000000
0.250980 0.145098 0.062745 1.000000
0.250980 0.145098 0.062745 1.000000
0.250980 0.145098 0.062745 1.000000
0.250980 0.145098 0.062745 1.000000
0.250980 0.145098 0.062745 1.000000
0.250980 0.145098 0.062745 1.000000
0.250980 0.145098 0.062745 1.000000
0.250980 0.145098 0.062745 1.000000
0.250980 0.145098 0.062745 1.000000
0.250980 0.145098 0.062745 1.000000
0.250980 0.145098 0.062745 1.000000
0.250980 0.145098 0.062745 1.000000
0.250980 0.145098 0.062745 1.000000
0.250980 0.145098 0.062745 1.000000
0.250980 0.145098 0.062745 1.000000
0.250980 0.145098 0.062745 1.000000
0.250980 0.145098 0.062745 1.000000
0.250980 0.145098 0.062745 1.000000
0.250980 0.145098 0.062745 1.000000
0.250980 0.145098 0.062745 1.000000
0.250980 0.145098 0.062745 1.000000
0.250980 0.145098 0.062745 1.000000
0.250980 0.145098 0.062745 1.000000
0.250980 0.145098 0.062745 1.000000
0.250980 0.145098 0.062745 1.000000
0.250980 0.145098 0.062745 1.000000
0.250980 0.145098 0.062745 1.000000
0.250980 0.145098 0.062745 1.000000
0.250980 0.145098 0.062745 1.000000
0.250980 0.145098 0.062745 1.000000
0.250980 0.145098 0.062745 1.000000
0.250980 0.145098 0.062745 1.000000
0.250980 0.145098 0.062745 1.000000
0.250980 0.145098 0.062745 1.000000
0.250980 0.145098 0.062745 1.000000
0.250980 0.145098 0.062745 1.000000
0.250980 0.145098 0.062745 1.000000
0.250980 0.145098 0.062745 1.000000
0.250980 0.145098 0.062745 1.000000
0.250980 0.145098 0.062745 1.000000
0.250980 0.145098 0.062745 1.000000
0.250980 0.145098 0.062745 1.000000
0.250980 0.145098 0.062745 1.000000
0.250980 0.145098 0.062745 1.000000
0.250980 0.145098 0.062745 1.000000
0.250980 0.145098 0.062745 1.000000
0.250980 0.145098 0.062745 1.000000
0.250980 0.145098 0.062745 1.000000
0.250980 0.145098 0.062745 1.000000
0.250980 0.145098 0.062745 1.000000
0.250980 0.145098 0.062745 1.000000
0.250980 0.145098 0.062745 1.000000
0.250980 0.145098 0.062745 1.000000
0.250980 0.145098 0.062745 1.000000
0.250980 0.145098 0.062745 1.000000
0.250980 0.145098 0.062745 1.000000
0.250980 0.145098 0.062745 1.000000
0.250980 0.145098 0.062745 1.000000
0.250980 0.145098 0.062745 1.000000
0.250980 0.145098 0.062745 1.000000
0.250980 0.145098 0.062745 1.000000
1.000000 0.584314 0.729412 1.000000
1.000000 0.584314 0.729412 1.000000
1.000000 0.584314 0.729412 1.000000
1.000000 0.584314 0.729412 1.000000
1.000000 0.584314 0.729412 1.000000
1.000000 0.584314 0.729412 1.000000
1.000000 0.584314 0.729412 1.000000
1.000000 0.584314 0.729412 1.000000
1.000000 0.584314 0.729412 1.000000
1.000000 0.584314 0.729412 1.000000
1.000000 0.584314 0.729412 1.000000
1.000000 0.584314 0.729412 1.000000
1.000000 0.584314 0.729412 1.000000
1.000000 0.584314 0.729412 1.000000
1.000000 0.584314 0.729412 1.000000
1.000000 0.584314 0.729412 1.000000
1.000000 0.584314 0.729412 1.000000
1.000000 0.584314 0.729412 1.000000
1.000000 0.584314 0.729412 1.000000
1.000000 0.584314 0.729412 1.000000
1.000000 0.584314 0.729412 1.000000
1.000000 0.584314 0.729412 1.000000
1.000000 0.584314 0.729412 1.000000
1.000000 0.584314 0.729412 1.000000
1.000000 0.584314 0.729412 1.000000
1.000000 0.584314 0.729412 1.000000
1.000000 0.584314 0.729412 1.000000
1.000000 0.584314 0.729412 1.000000
1.000000 0.584314 0.729412 1.000000
1.000000 0.584314 0.729412 1.000000
1.000000 0.584314 0.729412 1.000000
1.000000 0.584314 0.729412 1.000000
1.000000 0.584314 0.729412 1.000000
1.000000 0.584314 0.729412 1.000000
1.000000 0.584314 0.729412 1.000000
1.000000 0.584314 0.729412 1.000000
1.000000 0.584314 0.729412 1.000000
1.000000 0.584314 0.729412 1.000000
1.000000 0.584314 0.729412 1.000000
1.000000 0.584314 0.729412 1.000000
1.000000 0.584314 0.729412 1.000000
1.000000 0.584314 0.729412 1.000000
1.000000 0.584314 0.729412 1.000000
1.000000 0.584314 0.729412 1.000000
1.000000 0.584314 0.729412 1.000000
1.000000 0.584314 0.729412 1.000000
1.000000 0.584314 0.729412 1.000000
1.000000 0.584314 0.729412 1.000000
1.000000 0.584314 0.729412 1.000000
1.000000 0.584314 0.729412 1.000000
1.000000 0.584314 0.729412 1.000000
1.000000 0.584314 0.729412 1.000000
1.000000 0.584314 0.729412 1.000000
1.000000 0.584314 0.729412 1.000000
1.000000 0.584314 0.729412 1.000000
1.000000 0.584314 0.729412 1.000000
1.000000 0.584314 0.729412 1.000000
1.000000 0.584314 0.729412 1.000000
1.000000 0.584314 0.729412 1.000000
1.000000 0.584314 0.729412 1.000000
1.000000 0.584314 0.729412 1.000000
1.000000 0.584314 0.729412 1.000000
1.000000 0.584314 0.729412 1.000000
1.000000 0.584314 0.729412 1.000000
1.000000 0.584314 0.729412 1.000000
1.000000 0.584314 0.729412 1.000000
1.000000 0.584314 0.729412 1.000000
1.000000 0.584314 0.729412 1.000000
1.000000 0.584314 0.729412 1.000000
1.000000 0.584314 0.729412 1.000000
1.000000 0.584314 0.729412 1.000000
1.000000 0.584314 0.729412 1.000000
</float_array>
          <technique_common>
            <accessor source="#SM_ToiletRoll_01_A_1-VERTEX_COLOR0-array" count="552" stride="4">
              <param name="R" type="double"/>
              <param name="G" type="double"/>
              <param name="B" type="double"/>
              <param name="A" type="double"/>
            </accessor>
          </technique_common>
        </source>
        <vertices id="SM_ToiletRoll_01_A_1-VERTEX">
          <input semantic="POSITION" source="#SM_ToiletRoll_01_A_1-POSITION"/>
        </vertices>
        <triangles count="276">
          <input semantic="VERTEX" offset="0" source="#SM_ToiletRoll_01_A_1-VERTEX"/>
          <input semantic="NORMAL" offset="1" source="#SM_ToiletRoll_01_A_1-Normal0"/>
          <input semantic="TEXCOORD" offset="2" set="0" source="#SM_ToiletRoll_01_A_1-UV0"/>
          <input semantic="COLOR" offset="3" set="0" source="#SM_ToiletRoll_01_A_1-VERTEX_COLOR0"/>
          <p> 0 0 0 0 1 1 1 1 16 2 16 2 16 3 16 2 15 4 15 3 0 5 0 0 1 6 1 4 2 7 2 5 17 8 17 6 17 9 17 6 16 10 16 7 1 11 1 4 2 12 2 8 3 13 3 9 18 14 18 10 18 15 18 10 17 16 17 11 2 17 2 8 3 18 30 12 4 19 4 13 19 20 19 14 19 21 19 14 18 22 31 15 3 23 30 12 4 24 4 16 5 25 5 17 20 26 20 18 20 27 20 18 19 28 19 19 4 29 4 16 5 30 5 20 6 31 6 21 21 32 21 22 21 33 21 22 20 34 20 23 5 35 5 20 6 36 6 24 7 37 7 25 22 38 22 26 22 39 22 26 21 40 21 27 6 41 6 24 7 42 7 28 8 43 8 29 23 44 23 30 23 45 23 30 22 46 22 31 7 47 7 28 8 48 8 32 9 49 9 33 24 50 24 34 24 51 24 34 23 52 23 35 8 53 8 32 9 54 9 36 10 55 10 37 25 56 25 38 25 57 25 38 24 58 24 39 9 59 9 36 10 60 10 40 11 61 11 41 26 62 26 42 26 63 26 42 25 64 25 43 10 65 10 40 11 66 11 44 12 67 12 45 27 68 27 46 27 69 27 46 26 70 26 47 11 71 11 44 12 72 12 48 13 73 13 49 28 74 28 50 28 75 28 50 27 76 27 51 12 77 12 48 13 78 13 52 14 79 14 53 29 80 29 54 29 81 29 54 28 82 28 55 13 83 13 52 14 84 14 56 0 85 0 57 15 86 15 58 15 87 15 58 29 88 29 59 14 89 14 56 1 90 1 60 0 91 0 61 31 92 54 62 31 93 54 62 30 94 53 63 1 95 1 60 0 96 0 64 14 97 42 65 32 98 55 66 32 99 55 66 31 100 54 67 0 101 0 64 14 102 42 68 13 103 41 69 33 104 56 70 33 105 56 70 32 106 55 71 14 107 42 68 13 108 41 72 12 109 40 73 34 110 57 74 34 111 57 74 33 112 56 75 13 113 41 72 12 114 40 76 11 115 39 77 35 116 58 78 35 117 58 78 34 118 57 79 12 119 40 76 11 120 39 80 10 121 38 81 36 122 59 82 36 123 59 82 35 124 58 83 11 125 39 80 10 126 38 84 9 127 37 85 37 128 60 86 37 129 60 86 36 130 59 87 10 131 38 84 9 132 37 88 8 133 36 89 38 134 61 90 38 135 61 90 37 136 60 91 9 137 37 88 8 138 36 92 7 139 35 93 39 140 62 94 39 141 62 94 38 142 61 95 8 143 36 92 7 144 35 96 6 145 34 97 40 146 63 98 40 147 63 98 39 148 62 99 7 149 35 96 6 150 34 100 5 151 33 101 41 152 64 102 41 153 64 102 40 154 63 103 6 155 34 100 5 156 33 104 4 157 32 105 42 158 65 106 42 159 65 106 41 160 64 107 5 161 33 104 4 162 32 108 3 163 3 109 43 164 66 110 43 165 66 110 42 166 65 111 4 167 32 108 3 168 3 112 2 169 2 113 44 170 67 114 44 171 67 114 43 172 66 115 3 173 3 112 2 174 2 116 1 175 1 117 30 176 53 118 30 177 53 118 44 178 67 119 2 179 2 116 15 180 15 120 16 181 16 121 46 182 69 122 46 183 69 122 45 184 68 123 15 185 15 120 16 186 16 124 17 187 17 125 47 188 70 126 47 189 70 126 46 190 69 127 16 191 16 124 17 192 17 128 18 193 18 129 48 194 71 130 48 195 71 130 47 196 70 131 17 197 17 128 18 198 18 132 19 199 43 133 49 200 72 134 49 201 72 134 48 202 71 135 18 203 18 132 19 204 43 136 20 205 44 137 50 206 73 138 50 207 73 138 49 208 72 139 19 209 43 136 20 210 44 140 21 211 45 141 51 212 74 142 51 213 74 142 50 214 73 143 20 215 44 140 21 216 45 144 22 217 46 145 52 218 75 146 52 219 75 146 51 220 74 147 21 221 45 144 22 222 46 148 23 223 47 149 53 224 76 150 53 225 76 150 52 226 75 151 22 227 46 148 23 228 47 152 24 229 48 153 54 230 77 154 54 231 77 154 53 232 76 155 23 233 47 152 24 234 48 156 25 235 49 157 55 236 78 158 55 237 78 158 54 238 77 159 24 239 48 156 25 240 49 160 26 241 50 161 56 242 79 162 56 243 79 162 55 244 78 163 25 245 49 160 26 246 50 164 27 247 51 165 57 248 80 166 57 249 80 166 56 250 79 167 26 251 50 164 27 252 51 168 28 253 52 169 58 254 81 170 58 255 81 170 57 256 80 171 27 257 51 168 28 258 52 172 29 259 29 173 59 260 82 174 59 261 82 174 58 262 81 175 28 263 52 172 29 264 29 176 15 265 15 177 45 266 68 178 45 267 68 178 59 268 82 179 29 269 29 176 31 270 54 181 91 271 114 182 90 272 113 183 90 273 113 183 30 274 53 180 31 275 54 181 32 276 55 185 92 277 115 186 91 278 114 187 91 279 114 187 31 280 54 184 32 281 55 185 33 282 56 189 93 283 116 190 92 284 115 191 92 285 115 191 32 286 55 188 33 287 56 189 34 288 57 193 94 289 117 194 93 290 116 195 93 291 116 195 33 292 56 192 34 293 57 193 35 294 58 197 95 295 118 198 94 296 117 199 94 297 117 199 34 298 57 196 35 299 58 197 36 300 59 201 96 301 119 202 95 302 118 203 95 303 118 203 35 304 58 200 36 305 59 201 37 306 60 205 97 307 120 206 96 308 119 207 96 309 119 207 36 310 59 204 37 311 60 205 38 312 61 209 98 313 121 210 97 314 120 211 97 315 120 211 37 316 60 208 38 317 61 209 39 318 62 213 99 319 122 214 98 320 121 215 98 321 121 215 38 322 61 212 39 323 62 213 40 324 63 217 100 325 123 218 99 326 122 219 99 327 122 219 39 328 62 216 40 329 63 217 41 330 64 221 101 331 124 222 100 332 123 223 100 333 123 223 40 334 63 220 41 335 64 221 42 336 65 225 102 337 125 226 101 338 124 227 101 339 124 227 41 340 64 224 42 341 65 225 43 342 66 229 103 343 126 230 102 344 125 231 102 345 125 231 42 346 65 228 43 347 66 229 44 348 67 233 104 349 127 234 103 350 126 235 103 351 126 235 43 352 66 232 44 353 67 233 30 354 53 237 90 355 113 238 104 356 127 239 104 357 127 239 44 358 67 236 30 359 53 237 46 360 69 241 106 361 129 242 105 362 128 243 105 363 128 243 45 364 68 240 46 365 69 241 47 366 70 245 107 367 130 246 106 368 129 247 106 369 129 247 46 370 69 244 47 371 70 245 48 372 71 249 108 373 131 250 107 374 130 251 107 375 130 251 47 376 70 248 48 377 71 249 49 378 72 253 109 379 132 254 108 380 131 255 108 381 131 255 48 382 71 252 49 383 72 253 50 384 73 257 110 385 133 258 109 386 132 259 109 387 132 259 49 388 72 256 50 389 73 257 51 390 74 261 111 391 134 262 110 392 133 263 110 393 133 263 50 394 73 260 51 395 74 261 52 396 75 265 112 397 135 266 111 398 134 267 111 399 134 267 51 400 74 264 52 401 75 265 53 402 76 269 113 403 136 270 112 404 135 271 112 405 135 271 52 406 75 268 53 407 76 269 54 408 77 273 114 409 137 274 113 410 136 275 113 411 136 275 53 412 76 272 54 413 77 273 55 414 78 277 115 415 138 278 114 416 137 279 114 417 137 279 54 418 77 276 55 419 78 277 56 420 79 281 116 421 139 282 115 422 138 283 115 423 138 283 55 424 78 280 56 425 79 281 57 426 80 285 117 427 140 286 116 428 139 287 116 429 139 287 56 430 79 284 57 431 80 285 58 432 81 289 118 433 141 290 117 434 140 291 117 435 140 291 57 436 80 288 58 437 81 289 59 438 82 293 119 439 142 294 118 440 141 295 118 441 141 295 58 442 81 292 59 443 82 293 45 444 68 297 105 445 128 298 119 446 142 299 119 447 142 299 59 448 82 296 45 449 68 297 75 450 75 301 61 451 61 302 62 452 62 303 62 453 62 303 89 454 89 300 75 455 75 301 89 456 89 305 62 457 62 306 63 458 63 307 63 459 63 307 88 460 88 304 89 461 89 305 88 462 88 309 63 463 63 310 64 464 64 311 64 465 64 311 87 466 87 308 88 467 88 309 87 468 87 313 64 469 64 314 65 470 65 315 65 471 65 315 86 472 86 312 87 473 87 313 86 474 86 317 65 475 65 318 66 476 66 319 66 477 66 319 85 478 85 316 86 479 86 317 85 480 85 321 66 481 66 322 67 482 67 323 67 483 67 323 84 484 84 320 85 485 85 321 84 486 84 325 67 487 67 326 68 488 68 327 68 489 68 327 83 490 83 324 84 491 84 325 83 492 83 329 68 493 68 330 69 494 69 331 69 495 69 331 82 496 82 328 83 497 83 329 82 498 82 333 69 499 69 334 70 500 70 335 70 501 70 335 81 502 81 332 82 503 82 333 81 504 81 337 70 505 70 338 71 506 71 339 71 507 71 339 80 508 80 336 81 509 81 337 80 510 80 341 71 511 71 342 72 512 72 343 72 513 72 343 79 514 79 340 80 515 80 341 79 516 79 345 72 517 72 346 73 518 73 347 73 519 73 347 78 520 78 344 79 521 79 345 78 522 78 349 73 523 73 350 74 524 74 351 74 525 74 351 77 526 77 348 78 527 78 349 77 528 77 353 74 529 74 354 60 530 60 355 60 531 60 355 76 532 76 352 77 533 77 353 76 534 76 357 60 535 60 358 61 536 61 359 61 537 61 359 75 538 75 356 76 539 76 357 61 540 84 361 60 541 83 362 90 542 113 363 90 543 113 363 91 544 114 360 61 545 84 361 62 546 85 365 61 547 84 366 91 548 114 367 91 549 114 367 92 550 115 364 62 551 85 365 63 552 86 369 62 553 85 370 92 554 115 371 92 555 115 371 93 556 116 368 63 557 86 369 64 558 87 373 63 559 86 374 93 560 116 375 93 561 116 375 94 562 117 372 64 563 87 373 65 564 88 377 64 565 87 378 94 566 117 379 94 567 117 379 95 568 118 376 65 569 88 377 66 570 89 381 65 571 88 382 95 572 118 383 95 573 118 383 96 574 119 380 66 575 89 381 67 576 90 385 66 577 89 386 96 578 119 387 96 579 119 387 97 580 120 384 67 581 90 385 68 582 91 389 67 583 90 390 97 584 120 391 97 585 120 391 98 586 121 388 68 587 91 389 69 588 92 393 68 589 91 394 98 590 121 395 98 591 121 395 99 592 122 392 69 593 92 393 70 594 93 397 69 595 92 398 99 596 122 399 99 597 122 399 100 598 123 396 70 599 93 397 71 600 94 401 70 601 93 402 100 602 123 403 100 603 123 403 101 604 124 400 71 605 94 401 72 606 95 405 71 607 94 406 101 608 124 407 101 609 124 407 102 610 125 404 72 611 95 405 73 612 96 409 72 613 95 410 102 614 125 411 102 615 125 411 103 616 126 408 73 617 96 409 74 618 97 413 73 619 96 414 103 620 126 415 103 621 126 415 104 622 127 412 74 623 97 413 60 624 83 417 74 625 97 418 104 626 127 419 104 627 127 419 90 628 113 416 60 629 83 417 76 630 99 421 75 631 98 422 105 632 128 423 105 633 128 423 106 634 129 420 76 635 99 421 77 636 100 425 76 637 99 426 106 638 129 427 106 639 129 427 107 640 130 424 77 641 100 425 78 642 101 429 77 643 100 430 107 644 130 431 107 645 130 431 108 646 131 428 78 647 101 429 79 648 102 433 78 649 101 434 108 650 131 435 108 651 131 435 109 652 132 432 79 653 102 433 80 654 103 437 79 655 102 438 109 656 132 439 109 657 132 439 110 658 133 436 80 659 103 437 81 660 104 441 80 661 103 442 110 662 133 443 110 663 133 443 111 664 134 440 81 665 104 441 82 666 105 445 81 667 104 446 111 668 134 447 111 669 134 447 112 670 135 444 82 671 105 445 83 672 106 449 82 673 105 450 112 674 135 451 112 675 135 451 113 676 136 448 83 677 106 449 84 678 107 453 83 679 106 454 113 680 136 455 113 681 136 455 114 682 137 452 84 683 107 453 85 684 108 457 84 685 107 458 114 686 137 459 114 687 137 459 115 688 138 456 85 689 108 457 86 690 109 461 85 691 108 462 115 692 138 463 115 693 138 463 116 694 139 460 86 695 109 461 87 696 110 465 86 697 109 466 116 698 139 467 116 699 139 467 117 700 140 464 87 701 110 465 88 702 111 469 87 703 110 470 117 704 140 471 117 705 140 471 118 706 141 468 88 707 111 469 89 708 112 473 88 709 111 474 118 710 141 475 118 711 141 475 119 712 142 472 89 713 112 473 75 714 98 477 89 715 112 478 119 716 142 479 119 717 142 479 105 718 128 476 75 719 98 477 138 720 163 481 139 721 164 482 127 722 150 483 127 723 150 483 124 724 147 480 138 725 163 481 136 726 159 485 138 727 163 486 124 728 147 487 124 729 147 487 120 730 143 484 136 731 159 485 128 732 151 488 129 733 152 489 130 734 153 490 130 735 153 490 131 736 154 491 128 737 151 488 137 738 161 493 139 739 164 494 126 740 149 495 126 741 149 495 122 742 145 492 137 743 161 493 123 744 146 496 120 745 143 497 124 746 147 498 124 747 147 498 127 748 150 499 123 749 146 496 137 750 162 501 136 751 160 502 120 752 120 503 120 753 120 503 123 754 123 500 137 755 162 501 122 756 145 505 133 757 156 506 132 758 155 507 132 759 155 507 121 760 144 504 122 761 145 505 122 762 145 508 126 763 149 509 134 764 157 510 134 765 157 510 133 766 156 511 122 767 145 508 125 768 148 513 135 769 158 514 134 770 157 515 134 771 157 515 126 772 149 512 125 773 148 513 121 774 144 517 132 775 155 518 135 776 158 519 135 777 158 519 125 778 148 516 121 779 144 517 129 780 152 521 128 781 151 522 132 782 155 523 132 783 155 523 133 784 156 520 129 785 152 521 130 786 153 525 129 787 152 526 133 788 156 527 133 789 156 527 134 790 157 524 130 791 153 525 131 792 154 529 130 793 153 530 134 794 157 531 134 795 157 531 135 796 158 528 131 797 154 529 128 798 151 533 131 799 154 534 135 800 158 535 135 801 158 535 132 802 155 532 128 803 151 533 125 804 148 537 126 805 149 538 139 806 164 539 139 807 164 539 138 808 163 536 125 809 148 537 121 810 144 541 125 811 148 542 138 812 163 543 138 813 163 543 136 814 159 540 121 815 144 541 123 816 146 545 127 817 150 546 139 818 164 547 139 819 164 547 137 820 161 544 123 821 146 545 122 822 122 549 121 823 121 550 136 824 160 551 136 825 160 551 137 826 162 548 122 827 122 549</p>
        </triangles>
      </mesh>
    </geometry>
  </library_geometries>
  <library_visual_scenes>
    <visual_scene id="SM_ToiletRoll_01_A_1" name="SM_ToiletRoll_01_A_1">
      <node name="SM_ToiletRoll_01_A_1" id="SM_ToiletRoll_01_A_1" sid="SM_ToiletRoll_01_A_1">
        <matrix sid="matrix">0.750037 0.000000 0.000000 0.000000 0.000000 0.750037 0.000000 0.000000 0.000000 0.000000 0.955136 0.000000 0.000000 0.000000 0.000000 1.000000</matrix>
        <instance_geometry url="#SM_ToiletRoll_01_A_1-lib"/>
        <extra>
          <technique profile="FCOLLADA">
            <visibility>1.000000</visibility>
          </technique>
        </extra>
      </node>
      <extra>
        <technique profile="MAX3D">
          <frame_rate>30.000000</frame_rate>
        </technique>
        <technique profile="FCOLLADA">
          <start_time>0.000000</start_time>
          <end_time>3.333333</end_time>
        </technique>
      </extra>
    </visual_scene>
  </library_visual_scenes>
  <scene>
    <instance_visual_scene url="#SM_ToiletRoll_01_A_1"/>
  </scene>
</COLLADA>
