[gd_scene load_steps=6 format=2]

[ext_resource path="res://tests/Nico/ui/menu/fonts/medium_2_font.tres" type="DynamicFont" id=1]
[ext_resource path="res://tests/Nico/ui/menu/Game_scene/back_button.gd" type="Script" id=2]
[ext_resource path="res://assets/main_button/new_small/Button_S_hover.png" type="Texture" id=3]
[ext_resource path="res://assets/main_button/new_small/Button_S_pressed.png" type="Texture" id=4]
[ext_resource path="res://assets/main_button/new_small/Button_S_normal.png" type="Texture" id=5]

[node name="back_button" type="TextureButton"]
anchor_left = 0.5
anchor_top = 1.0
anchor_right = 0.5
anchor_bottom = 1.0
margin_left = -117.0
margin_top = -85.0
margin_right = 117.0
mouse_default_cursor_shape = 2
texture_normal = ExtResource( 5 )
texture_pressed = ExtResource( 4 )
texture_hover = ExtResource( 3 )
script = ExtResource( 2 )
__meta__ = {
"_edit_use_anchors_": false
}

[node name="Label" type="Label" parent="."]
anchor_right = 1.0
anchor_bottom = 1.0
custom_fonts/font = ExtResource( 1 )
custom_colors/font_color = Color( 1, 1, 1, 1 )
custom_colors/font_color_shadow = Color( 0.266667, 0.266667, 0.266667, 1 )
custom_constants/shadow_offset_y = 5
text = "BACK"
align = 1
valign = 1
__meta__ = {
"_edit_use_anchors_": false
}
