[gd_scene load_steps=2 format=2]

[ext_resource path="res://assets/buttons/menu_button.tscn" type="PackedScene" id=1]

[node name="InstructionsButton" instance=ExtResource( 1 )]

[node name="Label" parent="." index="0"]
text = "INSTRUCTIONS"
