[gd_scene load_steps=6 format=2]

[ext_resource path="res://tests/Nico/ui/menu/fonts/medium_2_font.tres" type="DynamicFont" id=1]
[ext_resource path="res://assets/buttons/menu_button.gd" type="Script" id=2]
[ext_resource path="res://assets/main_button/new/Button_pressed.png" type="Texture" id=3]
[ext_resource path="res://assets/main_button/new/Button_normal.png" type="Texture" id=4]
[ext_resource path="res://assets/main_button/new/Button_hover.png" type="Texture" id=5]

[node name="menu_button" type="TextureButton"]
margin_right = 198.0
margin_bottom = 88.0
rect_min_size = Vector2( 200, 90 )
texture_normal = ExtResource( 4 )
texture_pressed = ExtResource( 3 )
texture_hover = ExtResource( 5 )
script = ExtResource( 2 )
__meta__ = {
"_edit_use_anchors_": false
}

[node name="Label" type="Label" parent="."]
anchor_right = 1.0
anchor_bottom = 1.0
rect_min_size = Vector2( 200, 80 )
size_flags_vertical = 1
custom_fonts/font = ExtResource( 1 )
custom_colors/font_color = Color( 1, 1, 1, 1 )
custom_colors/font_outline_modulate = Color( 0, 0, 0, 1 )
custom_colors/font_color_shadow = Color( 0.266667, 0.266667, 0.266667, 1 )
custom_constants/shadow_offset_x = 2
custom_constants/shadow_offset_y = 5
text = "LABEL"
align = 1
valign = 1
__meta__ = {
"_edit_use_anchors_": false
}
