[gd_scene load_steps=7 format=2]

[ext_resource path="res://assets/buttons/menu_button.tscn" type="PackedScene" id=1]
[ext_resource path="res://assets/main_button/new_medium/Button_M_normal.png" type="Texture" id=2]
[ext_resource path="res://assets/main_button/new_medium/Button_M_hover.png" type="Texture" id=3]
[ext_resource path="res://assets/main_button/new_medium/Button_M_pressed.png" type="Texture" id=4]
[ext_resource path="res://assets/Bangers-Regular.ttf" type="DynamicFontData" id=5]

[sub_resource type="DynamicFont" id=1]
size = 38
extra_spacing_bottom = 7
extra_spacing_char = 5
font_data = ExtResource( 5 )

[node name="PlayButton" instance=ExtResource( 1 )]
margin_right = 264.0
margin_bottom = 90.0
mouse_default_cursor_shape = 2
texture_normal = ExtResource( 2 )
texture_pressed = ExtResource( 4 )
texture_hover = ExtResource( 3 )
text = "Play"

[node name="Label" parent="." index="0"]
custom_fonts/font = SubResource( 1 )
custom_constants/line_spacing = 0
text = "Play"
[connection signal="pressed" from="." to="." method="_on_play_button_pressed"]
