[gd_resource type="ParticlesMaterial" format=2]

[resource]
lifetime_randomness = 0.5
emission_shape = 1
emission_sphere_radius = 2.0
direction = Vector3( 0, 0, 0 )
spread = 180.0
flatness = 1.0
gravity = Vector3( 0, 3, 0 )
angle = 50.0
scale = 0.1
scale_random = 0.5
color = Color( 1, 0, 0, 1 )
