[gd_scene load_steps=4 format=2]

[ext_resource path="res://ART/Material/Effects/M_BirdsStunned.tres" type="Material" id=1]
[ext_resource path="res://ART/Effects/Ressources/BirdsStuned_01_A_1.DAE" type="PackedScene" id=2]

[sub_resource type="Animation" id=1]
resource_name = "BirdFlying"
loop = true
tracks/0/type = "transform"
tracks/0/path = NodePath("BirdsStuned_01_A_1")
tracks/0/interp = 1
tracks/0/loop_wrap = true
tracks/0/imported = false
tracks/0/enabled = true
tracks/0/keys = PoolRealArray( 0, 1, 0, 0, 0, 0, 0, 0, 1, 1, 1, 1, 0.5, 1, 0, 0, 0, 0, 1, 0, -4.37114e-08, 1, 1, 1, 1, 1, 0, 0, 0, 0, 8.74228e-08, 0, 1, 1, 1, 1 )

[node name="BirdsStuned_01_A_1" instance=ExtResource( 2 )]

[node name="BirdsStuned_01_A_1" parent="." index="0"]
transform = Transform( -0.938854, 0, -0.344315, 0, 1, 0, 0.344315, 0, -0.938854, 0, 0, 0 )
material/0 = ExtResource( 1 )

[node name="AnimationPlayer" parent="." index="1"]
anims/BirdFlying = SubResource( 1 )
