[gd_scene load_steps=8 format=2]

[ext_resource path="res://ART/Material/Effects/MSP_Sparkles.tres" type="Material" id=1]

[sub_resource type="Gradient" id=1]
offsets = PoolRealArray( 0.254613, 0.719557, 1 )
colors = PoolColorArray( 0.994629, 0.557658, 0.0466232, 1, 1, 0.779297, 0.117188, 1, 3, 1.5, 0.5, 0 )

[sub_resource type="GradientTexture" id=2]
gradient = SubResource( 1 )

[sub_resource type="Curve" id=3]
_data = [ Vector2( 0, 0.0227273 ), 0.0, 6.41455, 0, 0, Vector2( 0.486395, 1 ), 0.0, 0.0, 0, 0, Vector2( 1, 0.730682 ), -1.54517, 0.0, 0, 0 ]

[sub_resource type="CurveTexture" id=4]
curve = SubResource( 3 )

[sub_resource type="ParticlesMaterial" id=5]
emission_shape = 1
emission_sphere_radius = 0.1
direction = Vector3( 0, 1, 0 )
spread = 25.0
gravity = Vector3( 0, 0.6, 0 )
initial_velocity = 1.0
angular_velocity = 180.0
scale = 0.6
scale_curve = SubResource( 4 )
color_ramp = SubResource( 2 )

[sub_resource type="QuadMesh" id=6]
material = ExtResource( 1 )

[node name="Spatial" type="Spatial"]

[node name="Particles" type="Particles" parent="."]
amount = 4
lifetime = 0.75
explosiveness = 0.5
randomness = 0.5
local_coords = false
process_material = SubResource( 5 )
draw_pass_1 = SubResource( 6 )
