[gd_resource type="ShaderMaterial" load_steps=2 format=2]

[ext_resource path="res://ART/Shader/S_EnviroPropsTakeableSpecial.tres" type="Shader" id=1]

[resource]
shader = ExtResource( 1 )
shader_param/ColorUniform = Color( 0.909804, 0.764706, 0.415686, 1 )
