[gd_resource type="SpatialMaterial" load_steps=2 format=2]

[ext_resource path="res://ART/Textures/T_Sparkles_02_M.tga" type="Texture" id=1]

[resource]
flags_unshaded = true
vertex_color_use_as_albedo = true
params_blend_mode = 1
params_billboard_mode = 3
particles_anim_h_frames = 1
particles_anim_v_frames = 1
particles_anim_loop = false
albedo_texture = ExtResource( 1 )
