[gd_resource type="StyleBoxFlat" format=2]

[resource]
content_margin_left = 20.0
content_margin_right = 20.0
content_margin_top = 10.0
content_margin_bottom = 10.0
border_width_left = 4
border_width_top = 4
border_width_right = 4
border_width_bottom = 4
border_color = Color( 0.4, 0.4, 0.4, 1 )
corner_radius_top_left = 20
corner_radius_top_right = 20
corner_radius_bottom_right = 20
corner_radius_bottom_left = 20
