<?xml version="1.0" encoding="utf-8"?>
<COLLADA xmlns="http://www.collada.org/2005/11/COLLADASchema" version="1.4.1">
  <asset><contributor><author></author><authoring_tool>FBX COLLADA exporter</authoring_tool><comments></comments></contributor><created>2020-05-01T11:59:33Z</created><keywords></keywords><modified>2020-05-01T11:59:33Z</modified><revision></revision><subject></subject><title></title><unit meter="0.010000" name="centimeter"></unit><up_axis>Z_UP</up_axis></asset>
  <library_geometries>
    <geometry id="SM_FrontPole_01_A_1-lib" name="SM_FrontPole_01_A_1Mesh">
      <mesh>
        <source id="SM_FrontPole_01_A_1-POSITION">
          <float_array id="SM_FrontPole_01_A_1-POSITION-array" count="324">
16.713297 0.000000 0.000000
14.474140 8.356648 0.000000
8.356647 14.474141 0.000000
-0.000001 16.713297 0.000000
-8.356650 14.474140 0.000000
-14.474140 8.356650 0.000000
-16.713297 0.000003 0.000000
-14.474143 -8.356646 0.000000
-8.356654 -14.474135 0.000000
-0.000008 -16.713297 0.000000
8.356640 -14.474146 0.000000
14.474134 -8.356659 0.000000
16.713297 0.000000 131.066620
14.474140 8.356648 131.066620
8.356647 14.474141 131.066620
-0.000001 16.713297 131.066620
-8.356650 14.474140 131.066620
-14.474140 8.356650 131.066620
-16.713297 0.000003 131.066620
-14.474143 -8.356646 131.066620
-8.356654 -14.474135 131.066620
-0.000008 -16.713297 131.066620
8.356640 -14.474146 131.066620
14.474134 -8.356659 131.066620
16.713297 0.000000 100.279785
14.474140 8.356648 100.279785
8.356647 14.474141 100.279785
-0.000001 16.713297 100.279785
-8.356650 14.474140 100.279785
-14.474140 8.356650 100.279785
-16.713297 0.000003 100.279785
-14.474143 -8.356646 100.279785
-8.356654 -14.474135 100.279785
-0.000008 -16.713297 100.279785
8.356640 -14.474146 100.279785
14.474134 -8.356659 100.279785
16.713297 0.000000 109.006439
14.474140 8.356648 109.006439
8.356647 14.474141 109.006439
-0.000001 16.713297 109.006439
-8.356650 14.474140 109.006439
-14.474140 8.356650 109.006439
-16.713297 0.000003 109.006439
-14.474143 -8.356646 109.006439
-8.356654 -14.474135 109.006439
-0.000008 -16.713297 109.006439
8.356640 -14.474146 109.006439
14.474134 -8.356659 109.006439
12.534973 0.000000 101.672562
10.855604 6.267487 101.672562
6.267485 10.855606 101.672562
-0.000000 12.534973 101.672562
-6.267594 10.855544 101.672562
-10.855544 6.267594 101.672562
-12.534973 -0.000121 101.672562
-10.855670 -6.267377 101.672562
-6.267489 -10.855601 101.672562
-0.000005 -12.534973 101.672562
6.267480 -10.855609 101.672562
10.855600 -6.267494 101.672562
10.855604 6.267487 107.613663
12.534973 0.000000 107.613663
10.855600 -6.267494 107.613663
6.267480 -10.855609 107.613663
-0.000005 -12.534973 107.613663
-6.267489 -10.855601 107.613663
-10.855670 -6.267377 107.613663
-12.534973 -0.000121 107.613663
-10.855544 6.267594 107.613663
-6.267594 10.855544 107.613663
-0.000000 12.534973 107.613663
6.267485 10.855606 107.613663
13.252722 0.000000 133.485611
11.477193 6.626360 133.485611
6.626360 11.477195 133.485611
-0.000000 13.252722 133.485611
-6.626362 11.477193 133.485611
-11.477193 6.626362 133.485611
-13.252721 0.000002 133.485611
-11.477197 -6.626359 133.485611
-6.626364 -11.477190 133.485611
-0.000006 -13.252722 133.485611
6.626355 -11.477198 133.485611
11.477189 -6.626369 133.485611
15.041968 0.000000 101.672562
13.026726 7.520984 101.672562
7.520983 13.026726 101.672562
-0.000001 15.041968 101.672562
-7.521027 13.026701 101.672562
-13.026701 7.521027 101.672562
-15.041968 -0.000047 101.672562
-13.026752 -7.520938 101.672562
-7.520988 -13.026723 101.672562
-0.000007 -15.041968 101.672562
7.520976 -13.026731 101.672562
13.026722 -7.520992 101.672562
15.041968 0.000000 107.613663
13.026726 7.520984 107.613663
7.520983 13.026726 107.613663
-0.000001 15.041968 107.613663
-7.521027 13.026701 107.613663
-13.026701 7.521027 107.613663
-15.041968 -0.000047 107.613663
-13.026752 -7.520938 107.613663
-7.520988 -13.026723 107.613663
-0.000007 -15.041968 107.613663
7.520976 -13.026731 107.613663
13.026722 -7.520992 107.613663
</float_array>
          <technique_common>
            <accessor source="#SM_FrontPole_01_A_1-POSITION-array" count="108" stride="3">
              <param name="X" type="float"/>
              <param name="Y" type="float"/>
              <param name="Z" type="float"/>
            </accessor>
          </technique_common>
        </source>
        <source id="SM_FrontPole_01_A_1-Normal0">
          <float_array id="SM_FrontPole_01_A_1-Normal0-array" count="1908">
0.000000 0.000000 -1.000000
0.000000 0.000000 -1.000000
0.000000 0.000000 -1.000000
0.000000 0.000000 -1.000000
0.000000 0.000000 -1.000000
0.000000 0.000000 -1.000000
0.000000 0.000000 -1.000000
0.000000 0.000000 -1.000000
0.000000 0.000000 -1.000000
0.000000 0.000000 -1.000000
0.000000 0.000000 -1.000000
0.000000 0.000000 -1.000000
0.000000 0.000000 -1.000000
0.000000 0.000000 -1.000000
0.000000 0.000000 -1.000000
0.000000 0.000000 -1.000000
0.000000 0.000000 -1.000000
0.000000 0.000000 -1.000000
0.000000 0.000000 -1.000000
0.000000 0.000000 -1.000000
0.000000 0.000000 -1.000000
0.000000 0.000000 -1.000000
0.000000 0.000000 -1.000000
0.000000 0.000000 -1.000000
0.000000 0.000000 -1.000000
0.000000 0.000000 -1.000000
0.000000 0.000000 -1.000000
0.000000 0.000000 -1.000000
0.000000 0.000000 -1.000000
0.000000 0.000000 -1.000000
0.866026 0.500000 0.000000
0.866025 0.500000 0.000000
1.000000 -0.000000 0.000000
1.000000 -0.000000 0.000000
1.000000 -0.000000 0.000000
0.866026 0.500000 0.000000
0.500000 0.866025 0.000000
0.500000 0.866026 0.000000
0.866025 0.500000 0.000000
0.866025 0.500000 0.000000
0.866026 0.500000 0.000000
0.500000 0.866025 0.000000
0.000000 1.000000 0.000000
-0.000000 1.000000 0.000000
0.500000 0.866026 0.000000
0.500000 0.866026 0.000000
0.500000 0.866025 0.000000
0.000000 1.000000 0.000000
-0.500000 0.866026 0.000000
-0.500000 0.866025 0.000000
-0.000000 1.000000 0.000000
-0.000000 1.000000 0.000000
0.000000 1.000000 0.000000
-0.500000 0.866026 0.000000
-0.866025 0.500000 0.000000
-0.866025 0.500000 0.000000
-0.500000 0.866025 0.000000
-0.500000 0.866025 0.000000
-0.500000 0.866026 0.000000
-0.866025 0.500000 0.000000
-1.000000 0.000000 0.000000
-1.000000 0.000000 0.000000
-0.866025 0.500000 0.000000
-0.866025 0.500000 0.000000
-0.866025 0.500000 0.000000
-1.000000 0.000000 0.000000
-0.866026 -0.500000 0.000000
-0.866026 -0.500000 0.000000
-1.000000 0.000000 0.000000
-1.000000 0.000000 0.000000
-1.000000 0.000000 0.000000
-0.866026 -0.500000 0.000000
-0.500000 -0.866025 0.000000
-0.500000 -0.866025 0.000000
-0.866026 -0.500000 0.000000
-0.866026 -0.500000 0.000000
-0.866026 -0.500000 0.000000
-0.500000 -0.866025 0.000000
-0.000001 -1.000000 0.000000
-0.000001 -1.000000 0.000000
-0.500000 -0.866025 0.000000
-0.500000 -0.866025 0.000000
-0.500000 -0.866025 0.000000
-0.000001 -1.000000 0.000000
0.499999 -0.866026 0.000000
0.499999 -0.866026 0.000000
-0.000001 -1.000000 0.000000
-0.000001 -1.000000 0.000000
-0.000001 -1.000000 0.000000
0.499999 -0.866026 0.000000
0.866025 -0.500000 0.000000
0.866025 -0.500000 0.000000
0.499999 -0.866026 0.000000
0.499999 -0.866026 0.000000
0.499999 -0.866026 0.000000
0.866025 -0.500000 0.000000
1.000000 -0.000000 0.000000
1.000000 -0.000000 0.000000
0.866025 -0.500000 0.000000
0.866025 -0.500000 0.000000
0.866025 -0.500000 0.000000
1.000000 -0.000000 0.000000
0.000000 0.000000 1.000000
0.000000 0.000000 1.000000
0.000000 0.000000 1.000000
0.000000 0.000000 1.000000
0.000000 0.000000 1.000000
0.000000 0.000000 1.000000
0.000000 0.000000 1.000000
0.000000 0.000000 1.000000
0.000000 0.000000 1.000000
0.000000 0.000000 1.000000
0.000000 0.000000 1.000000
0.000000 0.000000 1.000000
0.000000 0.000000 1.000000
0.000000 0.000000 1.000000
0.000000 0.000000 1.000000
0.000000 0.000000 1.000000
0.000000 0.000000 1.000000
0.000000 0.000000 1.000000
0.000000 0.000000 1.000000
0.000000 0.000000 1.000000
0.000000 0.000000 1.000000
0.000000 0.000000 1.000000
0.000000 0.000000 1.000000
0.000000 0.000000 1.000000
0.000000 0.000000 1.000000
0.000000 0.000000 1.000000
0.000000 0.000000 1.000000
0.000000 0.000000 1.000000
0.000000 0.000000 1.000000
0.000000 0.000000 1.000000
0.866025 0.500000 0.000000
1.000000 -0.000000 0.000000
1.000000 -0.000000 0.000000
1.000000 -0.000000 0.000000
0.866025 0.500000 0.000000
0.866025 0.500000 0.000000
0.500000 0.866025 0.000000
0.866025 0.500000 0.000000
0.866025 0.500000 0.000000
0.866025 0.500000 0.000000
0.500000 0.866025 0.000000
0.500000 0.866025 0.000000
-0.000000 1.000000 0.000000
0.500000 0.866025 0.000000
0.500000 0.866025 0.000000
0.500000 0.866025 0.000000
-0.000000 1.000000 0.000000
-0.000000 1.000000 0.000000
-0.500000 0.866025 0.000000
-0.000000 1.000000 0.000000
-0.000000 1.000000 0.000000
-0.000000 1.000000 0.000000
-0.500000 0.866025 0.000000
-0.500000 0.866025 0.000000
-0.866025 0.500000 0.000000
-0.500000 0.866025 0.000000
-0.500000 0.866025 0.000000
-0.500000 0.866025 0.000000
-0.866025 0.500000 0.000000
-0.866025 0.500000 0.000000
-1.000000 0.000000 0.000000
-0.866025 0.500000 0.000000
-0.866025 0.500000 0.000000
-0.866025 0.500000 0.000000
-1.000000 0.000000 0.000000
-1.000000 0.000000 0.000000
-0.866026 -0.500000 0.000000
-1.000000 0.000000 0.000000
-1.000000 0.000000 0.000000
-1.000000 0.000000 0.000000
-0.866026 -0.500000 0.000000
-0.866026 -0.500000 0.000000
-0.500000 -0.866025 0.000000
-0.866026 -0.500000 0.000000
-0.866026 -0.500000 0.000000
-0.866026 -0.500000 0.000000
-0.500000 -0.866025 0.000000
-0.500000 -0.866025 0.000000
-0.000001 -1.000000 0.000000
-0.500000 -0.866025 0.000000
-0.500000 -0.866025 0.000000
-0.500000 -0.866025 0.000000
-0.000001 -1.000000 0.000000
-0.000001 -1.000000 0.000000
0.499999 -0.866026 0.000000
-0.000001 -1.000000 0.000000
-0.000001 -1.000000 0.000000
-0.000001 -1.000000 0.000000
0.499999 -0.866026 0.000000
0.499999 -0.866026 0.000000
0.866025 -0.500000 0.000000
0.499999 -0.866026 0.000000
0.499999 -0.866026 0.000000
0.499999 -0.866026 0.000000
0.866025 -0.500000 0.000000
0.866025 -0.500000 0.000000
1.000000 -0.000000 0.000000
0.866025 -0.500000 0.000000
0.866025 -0.500000 0.000000
0.866025 -0.500000 0.000000
1.000000 -0.000000 0.000000
1.000000 -0.000000 0.000000
0.866025 0.500000 0.000000
0.866025 0.500000 0.000000
1.000000 -0.000000 0.000000
1.000000 -0.000000 0.000000
1.000000 -0.000000 0.000000
0.866025 0.500000 0.000000
0.500000 0.866025 0.000000
0.500000 0.866025 0.000000
0.866025 0.500000 0.000000
0.866025 0.500000 0.000000
0.866025 0.500000 0.000000
0.500000 0.866025 0.000000
-0.000002 1.000000 0.000000
-0.000002 1.000000 0.000000
0.500000 0.866025 0.000000
0.500000 0.866025 0.000000
0.500000 0.866025 0.000000
-0.000002 1.000000 0.000000
-0.500002 0.866024 0.000000
-0.500002 0.866024 0.000000
-0.000002 1.000000 0.000000
-0.000002 1.000000 0.000000
-0.000002 1.000000 0.000000
-0.500002 0.866024 0.000000
-0.866025 0.500000 0.000000
-0.866025 0.500000 0.000000
-0.500002 0.866024 0.000000
-0.500002 0.866024 0.000000
-0.500002 0.866024 0.000000
-0.866025 0.500000 0.000000
-1.000000 0.000000 0.000000
-1.000000 0.000000 0.000000
-0.866025 0.500000 0.000000
-0.866025 0.500000 0.000000
-0.866025 0.500000 0.000000
-1.000000 0.000000 0.000000
-0.866027 -0.499998 0.000000
-0.866027 -0.499998 0.000000
-1.000000 0.000000 0.000000
-1.000000 0.000000 0.000000
-1.000000 0.000000 0.000000
-0.866027 -0.499998 0.000000
-0.500002 -0.866024 0.000000
-0.500002 -0.866024 0.000000
-0.866027 -0.499998 0.000000
-0.866027 -0.499998 0.000000
-0.866027 -0.499998 0.000000
-0.500002 -0.866024 0.000000
-0.000001 -1.000000 0.000000
-0.000001 -1.000000 0.000000
-0.500002 -0.866024 0.000000
-0.500002 -0.866024 0.000000
-0.500002 -0.866024 0.000000
-0.000001 -1.000000 0.000000
0.500000 -0.866026 0.000000
0.500000 -0.866026 0.000000
-0.000001 -1.000000 0.000000
-0.000001 -1.000000 0.000000
-0.000001 -1.000000 0.000000
0.500000 -0.866026 0.000000
0.866025 -0.500000 0.000000
0.866025 -0.500000 0.000000
0.500000 -0.866026 0.000000
0.500000 -0.866026 0.000000
0.500000 -0.866026 0.000000
0.866025 -0.500000 0.000000
1.000000 -0.000000 0.000000
1.000000 -0.000000 0.000000
0.866025 -0.500000 0.000000
0.866025 -0.500000 0.000000
0.866025 -0.500000 0.000000
1.000000 -0.000000 0.000000
0.000000 0.000000 1.000000
0.000000 0.000000 1.000000
0.000000 0.000000 1.000000
0.000000 0.000000 1.000000
0.000000 0.000000 1.000000
0.000000 0.000000 1.000000
0.000000 0.000000 1.000000
0.000000 0.000000 1.000000
0.000000 0.000000 1.000000
0.000000 0.000000 1.000000
0.000000 0.000000 1.000000
0.000000 0.000000 1.000000
0.000000 0.000000 1.000000
0.000000 0.000000 1.000000
0.000000 0.000000 1.000000
0.000000 0.000000 1.000000
0.000000 0.000000 1.000000
0.000000 0.000000 1.000000
0.000000 0.000000 1.000000
0.000000 0.000000 1.000000
0.000000 0.000000 1.000000
0.000000 0.000000 1.000000
0.000000 0.000000 1.000000
0.000000 0.000000 1.000000
0.000000 0.000000 1.000000
0.000000 0.000000 1.000000
0.000000 0.000000 1.000000
0.000000 0.000000 1.000000
0.000000 0.000000 1.000000
0.000000 0.000000 1.000000
0.000000 0.000000 1.000000
0.000000 0.000000 1.000000
0.000000 0.000000 1.000000
0.000000 0.000000 1.000000
0.000000 0.000000 1.000000
0.000000 0.000000 1.000000
0.000000 0.000000 1.000000
0.000000 0.000000 1.000000
0.000000 0.000000 1.000000
0.000000 0.000000 1.000000
0.000000 0.000000 1.000000
0.000000 0.000000 1.000000
0.000000 0.000000 1.000000
0.000000 0.000000 1.000000
0.000000 0.000000 1.000000
0.000000 0.000000 1.000000
0.000000 0.000000 1.000000
0.000000 0.000000 1.000000
0.000000 0.000000 1.000000
0.000000 0.000000 1.000000
0.000000 0.000000 1.000000
0.000000 0.000000 1.000000
0.000000 0.000000 1.000000
0.000000 0.000000 1.000000
0.000000 0.000000 1.000000
0.000000 0.000000 1.000000
0.000000 0.000000 1.000000
0.000000 0.000000 1.000000
0.000000 0.000000 1.000000
0.000000 0.000000 1.000000
0.000000 0.000000 1.000000
0.000000 0.000000 1.000000
0.000000 0.000000 1.000000
0.000000 0.000000 1.000000
0.000000 0.000000 1.000000
0.000000 0.000000 1.000000
0.000000 0.000000 1.000000
0.000000 0.000000 1.000000
0.000000 0.000000 1.000000
0.000000 0.000000 1.000000
0.000000 0.000000 1.000000
0.000000 0.000000 1.000000
0.000000 0.000000 -1.000000
0.000000 0.000000 -1.000000
0.000000 0.000000 -1.000000
0.000000 0.000000 -1.000000
0.000000 0.000000 -1.000000
0.000000 0.000000 -1.000000
0.000000 0.000000 -1.000000
0.000000 0.000000 -1.000000
0.000000 0.000000 -1.000000
0.000000 0.000000 -1.000000
0.000000 0.000000 -1.000000
0.000000 0.000000 -1.000000
0.000000 0.000000 -1.000000
0.000000 0.000000 -1.000000
0.000000 0.000000 -1.000000
0.000000 0.000000 -1.000000
0.000000 0.000000 -1.000000
0.000000 0.000000 -1.000000
0.000000 0.000000 -1.000000
0.000000 0.000000 -1.000000
0.000000 0.000000 -1.000000
0.000000 0.000000 -1.000000
0.000000 0.000000 -1.000000
0.000000 0.000000 -1.000000
0.000000 0.000000 -1.000000
0.000000 0.000000 -1.000000
0.000000 0.000000 -1.000000
0.000000 0.000000 -1.000000
0.000000 0.000000 -1.000000
0.000000 0.000000 -1.000000
0.000000 0.000000 -1.000000
0.000000 0.000000 -1.000000
0.000000 0.000000 -1.000000
0.000000 0.000000 -1.000000
0.000000 0.000000 -1.000000
0.000000 0.000000 -1.000000
0.000000 0.000000 -1.000000
0.000000 0.000000 -1.000000
0.000000 0.000000 -1.000000
0.000000 0.000000 -1.000000
0.000000 0.000000 -1.000000
0.000000 0.000000 -1.000000
0.000000 0.000000 -1.000000
0.000000 0.000000 -1.000000
0.000000 0.000000 -1.000000
0.000000 0.000000 -1.000000
0.000000 0.000000 -1.000000
0.000000 0.000000 -1.000000
0.000000 0.000000 -1.000000
0.000000 0.000000 -1.000000
0.000000 0.000000 -1.000000
0.000000 0.000000 -1.000000
0.000000 0.000000 -1.000000
0.000000 0.000000 -1.000000
0.000000 0.000000 -1.000000
0.000000 0.000000 -1.000000
0.000000 0.000000 -1.000000
0.000000 0.000000 -1.000000
0.000000 0.000000 -1.000000
0.000000 0.000000 -1.000000
0.000000 0.000000 -1.000000
0.000000 0.000000 -1.000000
0.000000 0.000000 -1.000000
0.000000 0.000000 -1.000000
0.000000 0.000000 -1.000000
0.000000 0.000000 -1.000000
0.000000 0.000000 -1.000000
0.000000 0.000000 -1.000000
0.000000 0.000000 -1.000000
0.000000 0.000000 -1.000000
0.000000 0.000000 -1.000000
0.000000 0.000000 -1.000000
0.572920 -0.000000 0.819611
0.496163 0.286460 0.819611
0.496163 0.286460 0.819611
0.496163 0.286460 0.819611
0.572920 -0.000000 0.819611
0.572920 -0.000000 0.819611
0.496163 0.286460 0.819611
0.286460 0.496163 0.819611
0.286460 0.496163 0.819611
0.286460 0.496163 0.819611
0.496163 0.286460 0.819611
0.496163 0.286460 0.819611
0.286460 0.496163 0.819611
-0.000000 0.572920 0.819611
-0.000000 0.572920 0.819611
-0.000000 0.572920 0.819611
0.286460 0.496163 0.819611
0.286460 0.496163 0.819611
-0.000000 0.572920 0.819611
-0.286460 0.496163 0.819611
-0.286460 0.496163 0.819611
-0.286460 0.496163 0.819611
-0.000000 0.572920 0.819611
-0.000000 0.572920 0.819611
-0.286460 0.496163 0.819611
-0.496163 0.286460 0.819611
-0.496163 0.286460 0.819611
-0.496163 0.286460 0.819611
-0.286460 0.496163 0.819611
-0.286460 0.496163 0.819611
-0.496163 0.286460 0.819611
-0.572920 0.000000 0.819611
-0.572920 0.000000 0.819611
-0.572920 0.000000 0.819611
-0.496163 0.286460 0.819611
-0.496163 0.286460 0.819611
-0.572920 0.000000 0.819611
-0.496163 -0.286460 0.819611
-0.496163 -0.286460 0.819611
-0.496163 -0.286460 0.819611
-0.572920 0.000000 0.819611
-0.572920 0.000000 0.819611
-0.496163 -0.286460 0.819611
-0.286460 -0.496163 0.819611
-0.286460 -0.496163 0.819611
-0.286460 -0.496163 0.819611
-0.496163 -0.286460 0.819611
-0.496163 -0.286460 0.819611
-0.286460 -0.496163 0.819611
-0.000000 -0.572920 0.819611
-0.000000 -0.572920 0.819611
-0.000000 -0.572920 0.819611
-0.286460 -0.496163 0.819611
-0.286460 -0.496163 0.819611
-0.000000 -0.572920 0.819611
0.286460 -0.496163 0.819611
0.286460 -0.496163 0.819611
0.286460 -0.496163 0.819611
-0.000000 -0.572920 0.819611
-0.000000 -0.572920 0.819611
0.286460 -0.496163 0.819611
0.496163 -0.286460 0.819611
0.496163 -0.286460 0.819611
0.496163 -0.286460 0.819611
0.286460 -0.496163 0.819611
0.286460 -0.496163 0.819611
0.496163 -0.286460 0.819611
0.572920 -0.000000 0.819611
0.572920 -0.000000 0.819611
0.572920 -0.000000 0.819611
0.496163 -0.286460 0.819611
0.496163 -0.286460 0.819611
0.640185 -0.000000 0.768221
0.640185 -0.000000 0.768221
0.554416 0.320092 0.768221
0.554416 0.320092 0.768221
0.554416 0.320093 0.768221
0.640185 -0.000000 0.768221
0.554416 0.320093 0.768221
0.554416 0.320092 0.768221
0.320092 0.554416 0.768221
0.320092 0.554416 0.768221
0.320092 0.554416 0.768221
0.554416 0.320093 0.768221
0.320092 0.554416 0.768221
0.320092 0.554416 0.768221
0.000000 0.640185 0.768221
0.000000 0.640185 0.768221
-0.000000 0.640185 0.768221
0.320092 0.554416 0.768221
-0.000000 0.640185 0.768221
0.000000 0.640185 0.768221
-0.320091 0.554417 0.768221
-0.320091 0.554417 0.768221
-0.320095 0.554414 0.768221
-0.000000 0.640185 0.768221
-0.320095 0.554414 0.768221
-0.320091 0.554417 0.768221
-0.554417 0.320091 0.768221
-0.554417 0.320091 0.768221
-0.554415 0.320095 0.768221
-0.320095 0.554414 0.768221
-0.554415 0.320095 0.768221
-0.554417 0.320091 0.768221
-0.640185 0.000002 0.768221
-0.640185 0.000002 0.768221
-0.640185 -0.000003 0.768221
-0.554415 0.320095 0.768221
-0.640185 -0.000003 0.768221
-0.640185 0.000002 0.768221
-0.554415 -0.320094 0.768221
-0.554415 -0.320094 0.768221
-0.554418 -0.320090 0.768221
-0.640185 -0.000003 0.768221
-0.554418 -0.320090 0.768221
-0.554415 -0.320094 0.768221
-0.320093 -0.554416 0.768221
-0.320093 -0.554416 0.768221
-0.320093 -0.554416 0.768221
-0.554418 -0.320090 0.768221
-0.320093 -0.554416 0.768221
-0.320093 -0.554416 0.768221
-0.000000 -0.640185 0.768221
-0.000000 -0.640185 0.768221
-0.000000 -0.640185 0.768221
-0.320093 -0.554416 0.768221
-0.000000 -0.640185 0.768221
-0.000000 -0.640185 0.768221
0.320092 -0.554417 0.768221
0.320092 -0.554417 0.768221
0.320092 -0.554417 0.768221
-0.000000 -0.640185 0.768221
0.320092 -0.554417 0.768221
0.320092 -0.554417 0.768221
0.554416 -0.320093 0.768221
0.554416 -0.320093 0.768221
0.554416 -0.320093 0.768221
0.320092 -0.554417 0.768221
0.554416 -0.320093 0.768221
0.554416 -0.320093 0.768221
0.640185 -0.000000 0.768221
0.640185 -0.000000 0.768221
0.640185 -0.000000 0.768221
0.554416 -0.320093 0.768221
0.554416 0.320093 -0.768221
0.554416 0.320092 -0.768221
0.640185 -0.000000 -0.768221
0.640185 -0.000000 -0.768221
0.640185 -0.000000 -0.768221
0.554416 0.320093 -0.768221
0.320092 0.554416 -0.768221
0.320092 0.554416 -0.768221
0.554416 0.320092 -0.768221
0.554416 0.320092 -0.768221
0.554416 0.320093 -0.768221
0.320092 0.554416 -0.768221
-0.000001 0.640185 -0.768221
-0.000000 0.640185 -0.768221
0.320092 0.554416 -0.768221
0.320092 0.554416 -0.768221
0.320092 0.554416 -0.768221
-0.000001 0.640185 -0.768221
-0.320095 0.554415 -0.768221
-0.320091 0.554417 -0.768221
-0.000000 0.640185 -0.768221
-0.000000 0.640185 -0.768221
-0.000001 0.640185 -0.768221
-0.320095 0.554415 -0.768221
-0.554415 0.320095 -0.768221
-0.554417 0.320091 -0.768221
-0.320091 0.554417 -0.768221
-0.320091 0.554417 -0.768221
-0.320095 0.554415 -0.768221
-0.554415 0.320095 -0.768221
-0.640185 -0.000003 -0.768221
-0.640185 0.000002 -0.768221
-0.554417 0.320091 -0.768221
-0.554417 0.320091 -0.768221
-0.554415 0.320095 -0.768221
-0.640185 -0.000003 -0.768221
-0.554418 -0.320089 -0.768221
-0.554416 -0.320094 -0.768221
-0.640185 0.000002 -0.768221
-0.640185 0.000002 -0.768221
-0.640185 -0.000003 -0.768221
-0.554418 -0.320089 -0.768221
-0.320093 -0.554416 -0.768221
-0.320093 -0.554416 -0.768221
-0.554416 -0.320094 -0.768221
-0.554416 -0.320094 -0.768221
-0.554418 -0.320089 -0.768221
-0.320093 -0.554416 -0.768221
-0.000000 -0.640185 -0.768221
-0.000000 -0.640185 -0.768221
-0.320093 -0.554416 -0.768221
-0.320093 -0.554416 -0.768221
-0.320093 -0.554416 -0.768221
-0.000000 -0.640185 -0.768221
0.320092 -0.554417 -0.768221
0.320092 -0.554417 -0.768221
-0.000000 -0.640185 -0.768221
-0.000000 -0.640185 -0.768221
-0.000000 -0.640185 -0.768221
0.320092 -0.554417 -0.768221
0.554416 -0.320093 -0.768221
0.554416 -0.320093 -0.768221
0.320092 -0.554417 -0.768221
0.320092 -0.554417 -0.768221
0.320092 -0.554417 -0.768221
0.554416 -0.320093 -0.768221
0.640185 -0.000000 -0.768221
0.640185 -0.000000 -0.768221
0.554416 -0.320093 -0.768221
0.554416 -0.320093 -0.768221
0.554416 -0.320093 -0.768221
0.640185 -0.000000 -0.768221
</float_array>
          <technique_common>
            <accessor source="#SM_FrontPole_01_A_1-Normal0-array" count="636" stride="3">
              <param name="X" type="float"/>
              <param name="Y" type="float"/>
              <param name="Z" type="float"/>
            </accessor>
          </technique_common>
        </source>
        <source id="SM_FrontPole_01_A_1-UV0">
          <float_array id="SM_FrontPole_01_A_1-UV0-array" count="266">
0.750000 0.000000
0.833333 0.000000
0.916667 0.000000
0.000000 0.000000
0.083333 0.000000
0.166667 0.000000
0.250000 0.000000
0.333333 0.000000
0.416667 0.000000
0.500000 0.000000
0.583333 0.000000
0.666667 0.000000
0.750000 1.000000
0.833333 1.000000
0.916667 1.000000
0.000000 1.000000
0.083333 1.000000
0.166667 1.000000
0.250000 1.000000
0.333333 1.000000
0.416667 1.000000
0.500000 1.000000
0.583333 1.000000
0.666667 1.000000
-0.083333 0.000000
-0.083333 1.000000
0.888354 0.000000
0.755983 0.000000
0.555021 0.000000
0.339316 0.000000
0.166667 0.000000
0.083333 0.000000
0.111646 0.000000
0.244017 0.000000
0.444979 0.000000
0.888354 1.000000
0.755983 1.000000
0.555021 1.000000
0.339316 1.000000
0.166667 1.000000
0.083333 1.000000
0.111645 1.000000
0.244017 1.000000
0.750000 0.720000
0.833333 0.720000
0.916667 0.720000
-0.083333 0.720000
0.000000 0.720000
0.083333 0.720000
0.166667 0.720000
0.250000 0.720000
0.333333 0.720000
0.416667 0.720000
0.500000 0.720000
0.583333 0.720000
0.666667 0.720000
0.750000 0.780000
0.833333 0.780000
0.916667 0.780000
-0.083333 0.780000
0.000000 0.780000
0.083333 0.780000
0.166667 0.780000
0.250000 0.780000
0.333333 0.780000
0.416667 0.780000
0.500000 0.780000
0.583333 0.780000
0.666667 0.780000
0.750000 0.730000
0.833333 0.730000
0.916667 0.730000
-0.083333 0.730000
0.000000 0.730000
0.083333 0.730000
0.166667 0.730000
0.250000 0.730000
0.333333 0.730000
0.416667 0.730000
0.500000 0.730000
0.583333 0.730000
0.666667 0.730000
0.833333 0.770000
0.750000 0.770000
0.666667 0.770000
0.583333 0.770000
0.500000 0.770000
0.416667 0.770000
0.333333 0.770000
0.250000 0.770000
0.166667 0.770000
0.083333 0.770000
0.000000 0.770000
0.916667 0.770000
-0.083333 0.770000
0.750000 1.000000
0.833333 1.000000
0.916667 1.000000
0.888354 1.000000
0.755983 1.000000
0.555021 1.000000
0.339316 1.000000
0.166667 1.000000
0.083333 1.000000
0.111645 1.000000
0.244017 1.000000
0.666667 1.000000
0.750000 0.730000
0.833333 0.730000
0.916667 0.730000
-0.083333 0.730000
0.000000 0.730000
0.083333 0.730000
0.166667 0.730000
0.250000 0.730000
0.333333 0.730000
0.416667 0.730000
0.500000 0.730000
0.583333 0.730000
0.666667 0.730000
0.750000 0.770000
0.833333 0.770000
-0.083333 0.770000
0.916667 0.770000
0.000000 0.770000
0.083333 0.770000
0.166667 0.770000
0.250000 0.770000
0.333333 0.770000
0.416667 0.770000
0.500000 0.770000
0.583333 0.770000
0.666667 0.770000
</float_array>
          <technique_common>
            <accessor source="#SM_FrontPole_01_A_1-UV0-array" count="133" stride="2">
              <param name="S" type="float"/>
              <param name="T" type="float"/>
            </accessor>
          </technique_common>
        </source>
        <source id="SM_FrontPole_01_A_1-VERTEX_COLOR0">
          <float_array id="SM_FrontPole_01_A_1-VERTEX_COLOR0-array" count="1632">
0.098039 0.098039 0.098039 1.000000
0.098039 0.098039 0.098039 1.000000
0.098039 0.098039 0.098039 1.000000
0.098039 0.098039 0.098039 1.000000
0.098039 0.098039 0.098039 1.000000
0.098039 0.098039 0.098039 1.000000
0.098039 0.098039 0.098039 1.000000
0.098039 0.098039 0.098039 1.000000
0.098039 0.098039 0.098039 1.000000
0.098039 0.098039 0.098039 1.000000
0.098039 0.098039 0.098039 1.000000
0.098039 0.098039 0.098039 1.000000
0.098039 0.098039 0.098039 1.000000
0.098039 0.098039 0.098039 1.000000
0.222495 0.222495 0.222495 1.000000
0.222495 0.222495 0.222495 1.000000
0.098039 0.098039 0.098039 1.000000
0.098039 0.098039 0.098039 1.000000
0.222495 0.222495 0.222495 1.000000
0.222495 0.222495 0.222495 1.000000
0.098039 0.098039 0.098039 1.000000
0.098039 0.098039 0.098039 1.000000
0.222495 0.222495 0.222495 1.000000
0.222495 0.222495 0.222495 1.000000
0.098039 0.098039 0.098039 1.000000
0.098039 0.098039 0.098039 1.000000
0.222495 0.222495 0.222495 1.000000
0.222495 0.222495 0.222495 1.000000
0.098039 0.098039 0.098039 1.000000
0.098039 0.098039 0.098039 1.000000
0.222495 0.222495 0.222495 1.000000
0.222495 0.222495 0.222495 1.000000
0.098039 0.098039 0.098039 1.000000
0.098039 0.098039 0.098039 1.000000
0.222495 0.222495 0.222495 1.000000
0.222495 0.222495 0.222495 1.000000
0.098039 0.098039 0.098039 1.000000
0.098039 0.098039 0.098039 1.000000
0.222495 0.222495 0.222495 1.000000
0.222495 0.222495 0.222495 1.000000
0.098039 0.098039 0.098039 1.000000
0.098039 0.098039 0.098039 1.000000
0.222495 0.222495 0.222495 1.000000
0.222495 0.222495 0.222495 1.000000
0.098039 0.098039 0.098039 1.000000
0.098039 0.098039 0.098039 1.000000
0.222495 0.222495 0.222495 1.000000
0.222495 0.222495 0.222495 1.000000
0.098039 0.098039 0.098039 1.000000
0.098039 0.098039 0.098039 1.000000
0.222495 0.222495 0.222495 1.000000
0.222495 0.222495 0.222495 1.000000
0.098039 0.098039 0.098039 1.000000
0.098039 0.098039 0.098039 1.000000
0.222495 0.222495 0.222495 1.000000
0.222495 0.222495 0.222495 1.000000
0.098039 0.098039 0.098039 1.000000
0.098039 0.098039 0.098039 1.000000
0.222495 0.222495 0.222495 1.000000
0.222495 0.222495 0.222495 1.000000
0.222495 0.222495 0.222495 1.000000
0.222495 0.222495 0.222495 1.000000
0.222495 0.222495 0.222495 1.000000
0.222495 0.222495 0.222495 1.000000
0.222495 0.222495 0.222495 1.000000
0.222495 0.222495 0.222495 1.000000
0.222495 0.222495 0.222495 1.000000
0.222495 0.222495 0.222495 1.000000
0.222495 0.222495 0.222495 1.000000
0.222495 0.222495 0.222495 1.000000
0.222495 0.222495 0.222495 1.000000
0.222495 0.222495 0.222495 1.000000
0.222495 0.222495 0.222495 1.000000
0.222495 0.222495 0.222495 1.000000
0.222495 0.222495 0.222495 1.000000
0.222495 0.222495 0.222495 1.000000
0.222495 0.222495 0.222495 1.000000
0.222495 0.222495 0.222495 1.000000
0.222495 0.222495 0.222495 1.000000
0.222495 0.222495 0.222495 1.000000
0.222495 0.222495 0.222495 1.000000
0.222495 0.222495 0.222495 1.000000
0.222495 0.222495 0.222495 1.000000
0.222495 0.222495 0.222495 1.000000
0.222495 0.222495 0.222495 1.000000
0.222495 0.222495 0.222495 1.000000
0.222495 0.222495 0.222495 1.000000
0.222495 0.222495 0.222495 1.000000
0.222495 0.222495 0.222495 1.000000
0.222495 0.222495 0.222495 1.000000
0.222495 0.222495 0.222495 1.000000
0.222495 0.222495 0.222495 1.000000
0.222495 0.222495 0.222495 1.000000
0.222495 0.222495 0.222495 1.000000
0.222495 0.222495 0.222495 1.000000
0.222495 0.222495 0.222495 1.000000
0.222495 0.222495 0.222495 1.000000
0.222495 0.222495 0.222495 1.000000
0.222495 0.222495 0.222495 1.000000
0.222495 0.222495 0.222495 1.000000
0.222495 0.222495 0.222495 1.000000
0.222495 0.222495 0.222495 1.000000
0.222495 0.222495 0.222495 1.000000
0.222495 0.222495 0.222495 1.000000
0.222495 0.222495 0.222495 1.000000
0.222495 0.222495 0.222495 1.000000
0.222495 0.222495 0.222495 1.000000
0.222495 0.222495 0.222495 1.000000
0.222495 0.222495 0.222495 1.000000
0.222495 0.222495 0.222495 1.000000
0.222495 0.222495 0.222495 1.000000
0.222495 0.222495 0.222495 1.000000
0.222495 0.222495 0.222495 1.000000
0.222495 0.222495 0.222495 1.000000
0.222495 0.222495 0.222495 1.000000
0.222495 0.222495 0.222495 1.000000
0.222495 0.222495 0.222495 1.000000
0.222495 0.222495 0.222495 1.000000
0.222495 0.222495 0.222495 1.000000
0.222495 0.222495 0.222495 1.000000
0.222495 0.222495 0.222495 1.000000
0.222495 0.222495 0.222495 1.000000
0.222495 0.222495 0.222495 1.000000
0.222495 0.222495 0.222495 1.000000
0.222495 0.222495 0.222495 1.000000
0.222495 0.222495 0.222495 1.000000
0.222495 0.222495 0.222495 1.000000
0.222495 0.222495 0.222495 1.000000
0.222495 0.222495 0.222495 1.000000
0.222495 0.222495 0.222495 1.000000
0.222495 0.222495 0.222495 1.000000
0.222495 0.222495 0.222495 1.000000
0.222495 0.222495 0.222495 1.000000
0.222495 0.222495 0.222495 1.000000
0.222495 0.222495 0.222495 1.000000
0.222495 0.222495 0.222495 1.000000
0.222495 0.222495 0.222495 1.000000
0.222495 0.222495 0.222495 1.000000
0.222495 0.222495 0.222495 1.000000
0.222495 0.222495 0.222495 1.000000
0.222495 0.222495 0.222495 1.000000
0.222495 0.222495 0.222495 1.000000
0.222495 0.222495 0.222495 1.000000
0.222495 0.222495 0.222495 1.000000
0.222495 0.222495 0.222495 1.000000
0.222495 0.222495 0.222495 1.000000
0.222495 0.222495 0.222495 1.000000
0.222495 0.222495 0.222495 1.000000
0.222495 0.222495 0.222495 1.000000
0.222495 0.222495 0.222495 1.000000
0.222495 0.222495 0.222495 1.000000
0.222495 0.222495 0.222495 1.000000
0.222495 0.222495 0.222495 1.000000
0.222495 0.222495 0.222495 1.000000
0.222495 0.222495 0.222495 1.000000
0.222495 0.222495 0.222495 1.000000
0.222495 0.222495 0.222495 1.000000
0.222495 0.222495 0.222495 1.000000
0.222495 0.222495 0.222495 1.000000
0.222495 0.222495 0.222495 1.000000
0.222495 0.222495 0.222495 1.000000
0.222495 0.222495 0.222495 1.000000
0.222495 0.222495 0.222495 1.000000
0.222495 0.222495 0.222495 1.000000
0.222495 0.222495 0.222495 1.000000
0.222495 0.222495 0.222495 1.000000
0.222495 0.222495 0.222495 1.000000
0.222495 0.222495 0.222495 1.000000
0.222495 0.222495 0.222495 1.000000
0.222495 0.222495 0.222495 1.000000
0.222495 0.222495 0.222495 1.000000
0.222495 0.222495 0.222495 1.000000
0.222495 0.222495 0.222495 1.000000
0.222495 0.222495 0.222495 1.000000
0.222495 0.222495 0.222495 1.000000
0.222495 0.222495 0.222495 1.000000
0.222495 0.222495 0.222495 1.000000
0.222495 0.222495 0.222495 1.000000
0.222495 0.222495 0.222495 1.000000
0.222495 0.222495 0.222495 1.000000
0.222495 0.222495 0.222495 1.000000
0.222495 0.222495 0.222495 1.000000
0.222495 0.222495 0.222495 1.000000
0.222495 0.222495 0.222495 1.000000
0.222495 0.222495 0.222495 1.000000
0.222495 0.222495 0.222495 1.000000
0.222495 0.222495 0.222495 1.000000
0.222495 0.222495 0.222495 1.000000
0.222495 0.222495 0.222495 1.000000
0.222495 0.222495 0.222495 1.000000
0.222495 0.222495 0.222495 1.000000
0.222495 0.222495 0.222495 1.000000
0.222495 0.222495 0.222495 1.000000
0.222495 0.222495 0.222495 1.000000
0.222495 0.222495 0.222495 1.000000
0.222495 0.222495 0.222495 1.000000
0.222495 0.222495 0.222495 1.000000
0.222495 0.222495 0.222495 1.000000
0.222495 0.222495 0.222495 1.000000
0.222495 0.222495 0.222495 1.000000
0.222495 0.222495 0.222495 1.000000
0.222495 0.222495 0.222495 1.000000
0.222495 0.222495 0.222495 1.000000
0.222495 0.222495 0.222495 1.000000
0.222495 0.222495 0.222495 1.000000
0.222495 0.222495 0.222495 1.000000
0.222495 0.222495 0.222495 1.000000
0.222495 0.222495 0.222495 1.000000
0.222495 0.222495 0.222495 1.000000
0.222495 0.222495 0.222495 1.000000
0.222495 0.222495 0.222495 1.000000
0.222495 0.222495 0.222495 1.000000
0.222495 0.222495 0.222495 1.000000
0.222495 0.222495 0.222495 1.000000
0.222495 0.222495 0.222495 1.000000
0.222495 0.222495 0.222495 1.000000
0.222495 0.222495 0.222495 1.000000
0.222495 0.222495 0.222495 1.000000
0.222495 0.222495 0.222495 1.000000
0.222495 0.222495 0.222495 1.000000
0.222495 0.222495 0.222495 1.000000
0.222495 0.222495 0.222495 1.000000
0.222495 0.222495 0.222495 1.000000
0.222495 0.222495 0.222495 1.000000
0.222495 0.222495 0.222495 1.000000
0.222495 0.222495 0.222495 1.000000
0.222495 0.222495 0.222495 1.000000
0.222495 0.222495 0.222495 1.000000
0.222495 0.222495 0.222495 1.000000
0.222495 0.222495 0.222495 1.000000
0.222495 0.222495 0.222495 1.000000
0.222495 0.222495 0.222495 1.000000
0.222495 0.222495 0.222495 1.000000
0.222495 0.222495 0.222495 1.000000
0.222495 0.222495 0.222495 1.000000
0.222495 0.222495 0.222495 1.000000
0.222495 0.222495 0.222495 1.000000
0.222495 0.222495 0.222495 1.000000
0.222495 0.222495 0.222495 1.000000
0.222495 0.222495 0.222495 1.000000
0.222495 0.222495 0.222495 1.000000
0.222495 0.222495 0.222495 1.000000
0.222495 0.222495 0.222495 1.000000
0.222495 0.222495 0.222495 1.000000
0.222495 0.222495 0.222495 1.000000
0.222495 0.222495 0.222495 1.000000
0.222495 0.222495 0.222495 1.000000
0.222495 0.222495 0.222495 1.000000
0.222495 0.222495 0.222495 1.000000
0.222495 0.222495 0.222495 1.000000
0.222495 0.222495 0.222495 1.000000
0.222495 0.222495 0.222495 1.000000
0.222495 0.222495 0.222495 1.000000
0.222495 0.222495 0.222495 1.000000
0.222495 0.222495 0.222495 1.000000
0.222495 0.222495 0.222495 1.000000
0.222495 0.222495 0.222495 1.000000
0.222495 0.222495 0.222495 1.000000
0.222495 0.222495 0.222495 1.000000
0.222495 0.222495 0.222495 1.000000
0.222495 0.222495 0.222495 1.000000
0.222495 0.222495 0.222495 1.000000
0.222495 0.222495 0.222495 1.000000
0.222495 0.222495 0.222495 1.000000
0.383612 0.383612 0.383612 1.000000
0.383612 0.383612 0.383612 1.000000
0.383612 0.383612 0.383612 1.000000
0.383612 0.383612 0.383612 1.000000
0.383612 0.383612 0.383612 1.000000
0.383612 0.383612 0.383612 1.000000
0.383612 0.383612 0.383612 1.000000
0.383612 0.383612 0.383612 1.000000
0.383612 0.383612 0.383612 1.000000
0.383612 0.383612 0.383612 1.000000
0.383612 0.383612 0.383612 1.000000
0.383612 0.383612 0.383612 1.000000
0.383612 0.383612 0.383612 1.000000
0.383612 0.383612 0.383612 1.000000
0.383612 0.383612 0.383612 1.000000
0.383612 0.383612 0.383612 1.000000
0.383612 0.383612 0.383612 1.000000
0.383612 0.383612 0.383612 1.000000
0.383612 0.383612 0.383612 1.000000
0.383612 0.383612 0.383612 1.000000
0.383612 0.383612 0.383612 1.000000
0.383612 0.383612 0.383612 1.000000
0.383612 0.383612 0.383612 1.000000
0.383612 0.383612 0.383612 1.000000
0.383612 0.383612 0.383612 1.000000
0.383612 0.383612 0.383612 1.000000
0.383612 0.383612 0.383612 1.000000
0.383612 0.383612 0.383612 1.000000
0.383612 0.383612 0.383612 1.000000
0.383612 0.383612 0.383612 1.000000
0.383612 0.383612 0.383612 1.000000
0.383612 0.383612 0.383612 1.000000
0.383612 0.383612 0.383612 1.000000
0.383612 0.383612 0.383612 1.000000
0.383612 0.383612 0.383612 1.000000
0.383612 0.383612 0.383612 1.000000
0.383612 0.383612 0.383612 1.000000
0.383612 0.383612 0.383612 1.000000
0.383612 0.383612 0.383612 1.000000
0.383612 0.383612 0.383612 1.000000
0.383612 0.383612 0.383612 1.000000
0.383612 0.383612 0.383612 1.000000
0.383612 0.383612 0.383612 1.000000
0.383612 0.383612 0.383612 1.000000
0.383612 0.383612 0.383612 1.000000
0.383612 0.383612 0.383612 1.000000
0.383612 0.383612 0.383612 1.000000
0.383612 0.383612 0.383612 1.000000
0.383612 0.383612 0.383612 1.000000
0.383612 0.383612 0.383612 1.000000
0.383612 0.383612 0.383612 1.000000
0.383612 0.383612 0.383612 1.000000
0.383612 0.383612 0.383612 1.000000
0.383612 0.383612 0.383612 1.000000
0.383612 0.383612 0.383612 1.000000
0.383612 0.383612 0.383612 1.000000
0.383612 0.383612 0.383612 1.000000
0.383612 0.383612 0.383612 1.000000
0.383612 0.383612 0.383612 1.000000
0.383612 0.383612 0.383612 1.000000
0.383612 0.383612 0.383612 1.000000
0.383612 0.383612 0.383612 1.000000
0.383612 0.383612 0.383612 1.000000
0.383612 0.383612 0.383612 1.000000
0.383612 0.383612 0.383612 1.000000
0.383612 0.383612 0.383612 1.000000
0.383612 0.383612 0.383612 1.000000
0.383612 0.383612 0.383612 1.000000
0.383612 0.383612 0.383612 1.000000
0.383612 0.383612 0.383612 1.000000
0.383612 0.383612 0.383612 1.000000
0.383612 0.383612 0.383612 1.000000
0.383612 0.383612 0.383612 1.000000
0.383612 0.383612 0.383612 1.000000
0.383612 0.383612 0.383612 1.000000
0.383612 0.383612 0.383612 1.000000
0.383612 0.383612 0.383612 1.000000
0.383612 0.383612 0.383612 1.000000
0.383612 0.383612 0.383612 1.000000
0.383612 0.383612 0.383612 1.000000
0.383612 0.383612 0.383612 1.000000
0.383612 0.383612 0.383612 1.000000
0.383612 0.383612 0.383612 1.000000
0.383612 0.383612 0.383612 1.000000
0.383612 0.383612 0.383612 1.000000
0.383612 0.383612 0.383612 1.000000
0.383612 0.383612 0.383612 1.000000
0.383612 0.383612 0.383612 1.000000
0.383612 0.383612 0.383612 1.000000
0.383612 0.383612 0.383612 1.000000
0.383612 0.383612 0.383612 1.000000
0.383612 0.383612 0.383612 1.000000
0.383612 0.383612 0.383612 1.000000
0.383612 0.383612 0.383612 1.000000
0.383612 0.383612 0.383612 1.000000
0.383612 0.383612 0.383612 1.000000
0.383612 0.383612 0.383612 1.000000
0.383612 0.383612 0.383612 1.000000
0.383612 0.383612 0.383612 1.000000
0.383612 0.383612 0.383612 1.000000
0.383612 0.383612 0.383612 1.000000
0.383612 0.383612 0.383612 1.000000
0.383612 0.383612 0.383612 1.000000
0.383612 0.383612 0.383612 1.000000
0.383612 0.383612 0.383612 1.000000
0.383612 0.383612 0.383612 1.000000
0.383612 0.383612 0.383612 1.000000
0.383612 0.383612 0.383612 1.000000
0.383612 0.383612 0.383612 1.000000
0.383612 0.383612 0.383612 1.000000
0.383612 0.383612 0.383612 1.000000
0.383612 0.383612 0.383612 1.000000
0.383612 0.383612 0.383612 1.000000
0.383612 0.383612 0.383612 1.000000
0.383612 0.383612 0.383612 1.000000
0.383612 0.383612 0.383612 1.000000
0.383612 0.383612 0.383612 1.000000
0.383612 0.383612 0.383612 1.000000
0.383612 0.383612 0.383612 1.000000
0.383612 0.383612 0.383612 1.000000
0.383612 0.383612 0.383612 1.000000
0.383612 0.383612 0.383612 1.000000
0.383612 0.383612 0.383612 1.000000
0.383612 0.383612 0.383612 1.000000
0.383612 0.383612 0.383612 1.000000
0.383612 0.383612 0.383612 1.000000
0.383612 0.383612 0.383612 1.000000
0.383612 0.383612 0.383612 1.000000
0.383612 0.383612 0.383612 1.000000
0.383612 0.383612 0.383612 1.000000
0.383612 0.383612 0.383612 1.000000
0.383612 0.383612 0.383612 1.000000
0.383612 0.383612 0.383612 1.000000
0.383612 0.383612 0.383612 1.000000
0.383612 0.383612 0.383612 1.000000
0.383612 0.383612 0.383612 1.000000
0.383612 0.383612 0.383612 1.000000
0.383612 0.383612 0.383612 1.000000
0.383612 0.383612 0.383612 1.000000
0.383612 0.383612 0.383612 1.000000
0.383612 0.383612 0.383612 1.000000
0.383612 0.383612 0.383612 1.000000
0.383612 0.383612 0.383612 1.000000
0.383612 0.383612 0.383612 1.000000
</float_array>
          <technique_common>
            <accessor source="#SM_FrontPole_01_A_1-VERTEX_COLOR0-array" count="408" stride="4">
              <param name="R" type="double"/>
              <param name="G" type="double"/>
              <param name="B" type="double"/>
              <param name="A" type="double"/>
            </accessor>
          </technique_common>
        </source>
        <vertices id="SM_FrontPole_01_A_1-VERTEX">
          <input semantic="POSITION" source="#SM_FrontPole_01_A_1-POSITION"/>
        </vertices>
        <polylist count="212"><input semantic="VERTEX" offset="0" source="#SM_FrontPole_01_A_1-VERTEX"/><input semantic="NORMAL" offset="1" source="#SM_FrontPole_01_A_1-Normal0"/><input semantic="TEXCOORD" offset="2" set="0" source="#SM_FrontPole_01_A_1-UV0"/><input semantic="COLOR" offset="3" set="0" source="#SM_FrontPole_01_A_1-VERTEX_COLOR0"/><vcount>3 3 3 3 3 3 3 3 3 3 3 3 3 3 3 3 3 3 3 3 3 3 3 3 3 3 3 3 3 3 3 3 3 3 3 3 3 3 3 3 3 3 3 3 3 3 3 3 3 3 3 3 3 3 3 3 3 3 3 3 3 3 3 3 3 3 3 3 3 3 3 3 3 3 3 3 3 3 3 3 3 3 3 3 3 3 3 3 3 3 3 3 3 3 3 3 3 3 3 3 3 3 3 3 3 3 3 3 3 3 3 3 3 3 3 3 3 3 3 3 3 3 3 3 3 3 3 3 3 3 3 3 3 3 3 3 3 3 3 3 3 3 3 3 3 3 3 3 3 3 3 3 3 3 3 3 3 3 3 3 3 3 3 3 3 3 3 3 3 3 3 3 3 3 3 3 3 3 3 3 3 3 3 3 3 3 3 3 3 3 3 3 3 3 3 3 3 3 3 3 3 3 3 3 3 3 3 3 3 3 3 3 </vcount><p> 10 0 33 1 9 1 32 2 8 2 31 3 8 3 31 3 7 4 30 4 6 5 29 5 6 6 29 5 5 7 28 6 4 8 27 7 8 9 31 3 6 10 29 5 4 11 27 7 4 12 27 7 3 13 26 8 2 14 2 9 2 15 2 9 1 16 1 10 0 17 0 11 4 18 27 7 2 19 2 9 0 20 0 11 8 21 31 3 4 22 27 7 0 23 0 11 10 24 33 1 8 25 31 3 0 26 0 11 11 27 34 0 10 28 33 1 0 29 0 11 1 30 1 13 25 31 44 14 24 32 43 15 24 33 43 15 0 34 0 12 1 35 1 13 2 36 2 17 26 37 45 18 25 38 44 19 25 39 44 19 1 40 1 16 2 41 2 17 3 42 3 21 27 43 47 22 26 44 46 23 26 45 46 23 2 46 24 20 3 47 3 21 4 48 4 25 28 49 48 26 27 50 47 27 27 51 47 27 3 52 3 24 4 53 4 25 5 54 5 29 29 55 49 30 28 56 48 31 28 57 48 31 4 58 4 28 5 59 5 29 6 60 6 33 30 61 50 34 29 62 49 35 29 63 49 35 5 64 5 32 6 65 6 33 7 66 7 37 31 67 51 38 30 68 50 39 30 69 50 39 6 70 6 36 7 71 7 37 8 72 8 41 32 73 52 42 31 74 51 43 31 75 51 43 7 76 7 40 8 77 8 41 9 78 9 45 33 79 53 46 32 80 52 47 32 81 52 47 8 82 8 44 9 83 9 45 10 84 10 49 34 85 54 50 33 86 53 51 33 87 53 51 9 88 9 48 10 89 10 49 11 90 11 53 35 91 55 54 34 92 54 55 34 93 54 55 10 94 10 52 11 95 11 53 0 96 0 57 24 97 43 58 35 98 55 59 35 99 55 59 11 100 11 56 0 101 0 57 72 102 95 61 73 103 96 62 74 104 97 63 74 105 97 63 75 106 98 64 76 107 99 65 76 108 99 65 77 109 100 66 78 110 101 67 74 111 97 63 76 112 99 65 78 113 101 67 78 114 101 67 79 115 102 68 80 116 103 69 80 117 103 69 81 118 104 70 82 119 105 71 78 120 101 67 80 121 103 69 82 122 105 71 74 123 97 63 78 124 101 67 82 125 105 71 72 126 95 61 74 127 97 63 82 128 105 71 83 129 106 60 72 130 95 61 82 131 105 71 13 132 13 73 12 133 12 74 36 134 56 75 36 135 56 75 37 136 57 72 13 137 13 73 14 138 14 77 13 139 13 78 37 140 57 79 37 141 57 79 38 142 58 76 14 143 14 77 15 144 15 81 14 145 25 82 38 146 59 83 38 147 59 83 39 148 60 80 15 149 15 81 16 150 16 85 15 151 15 86 39 152 60 87 39 153 60 87 40 154 61 84 16 155 16 85 17 156 17 89 16 157 16 90 40 158 61 91 40 159 61 91 41 160 62 88 17 161 17 89 18 162 18 93 17 163 17 94 41 164 62 95 41 165 62 95 42 166 63 92 18 167 18 93 19 168 19 97 18 169 18 98 42 170 63 99 42 171 63 99 43 172 64 96 19 173 19 97 20 174 20 101 19 175 19 102 43 176 64 103 43 177 64 103 44 178 65 100 20 179 20 101 21 180 21 105 20 181 20 106 44 182 65 107 44 183 65 107 45 184 66 104 21 185 21 105 22 186 22 109 21 187 21 110 45 188 66 111 45 189 66 111 46 190 67 108 22 191 22 109 23 192 23 113 22 193 22 114 46 194 67 115 46 195 67 115 47 196 68 112 23 197 23 113 12 198 12 117 23 199 23 118 47 200 68 119 47 201 68 119 36 202 56 116 12 203 12 117 49 204 70 120 60 205 82 121 61 206 83 122 61 207 83 122 48 208 69 123 49 209 70 120 50 210 71 124 71 211 93 125 60 212 82 126 60 213 82 126 49 214 70 127 50 215 71 124 51 216 73 128 70 217 92 129 71 218 94 130 71 219 94 130 50 220 72 131 51 221 73 128 52 222 74 132 69 223 91 133 70 224 92 134 70 225 92 134 51 226 73 135 52 227 74 132 53 228 75 136 68 229 90 137 69 230 91 138 69 231 91 138 52 232 74 139 53 233 75 136 54 234 76 140 67 235 89 141 68 236 90 142 68 237 90 142 53 238 75 143 54 239 76 140 55 240 77 144 66 241 88 145 67 242 89 146 67 243 89 146 54 244 76 147 55 245 77 144 56 246 78 148 65 247 87 149 66 248 88 150 66 249 88 150 55 250 77 151 56 251 78 148 57 252 79 152 64 253 86 153 65 254 87 154 65 255 87 154 56 256 78 155 57 257 79 152 58 258 80 156 63 259 85 157 64 260 86 158 64 261 86 158 57 262 79 159 58 263 80 156 59 264 81 160 62 265 84 161 63 266 85 162 63 267 85 162 58 268 80 163 59 269 81 160 48 270 69 164 61 271 83 165 62 272 84 166 62 273 84 166 59 274 81 167 48 275 69 164 84 276 107 168 85 277 108 169 49 278 70 170 49 279 70 170 48 280 69 171 84 281 107 168 85 282 108 172 86 283 109 173 50 284 71 174 50 285 71 174 49 286 70 175 85 287 108 172 86 288 110 176 87 289 111 177 51 290 73 178 51 291 73 178 50 292 72 179 86 293 110 176 87 294 111 180 88 295 112 181 52 296 74 182 52 297 74 182 51 298 73 183 87 299 111 180 88 300 112 184 89 301 113 185 53 302 75 186 53 303 75 186 52 304 74 187 88 305 112 184 89 306 113 188 90 307 114 189 54 308 76 190 54 309 76 190 53 310 75 191 89 311 113 188 90 312 114 192 91 313 115 193 55 314 77 194 55 315 77 194 54 316 76 195 90 317 114 192 91 318 115 196 92 319 116 197 56 320 78 198 56 321 78 198 55 322 77 199 91 323 115 196 92 324 116 200 93 325 117 201 57 326 79 202 57 327 79 202 56 328 78 203 92 329 116 200 93 330 117 204 94 331 118 205 58 332 80 206 58 333 80 206 57 334 79 207 93 335 117 204 94 336 118 208 95 337 119 209 59 338 81 210 59 339 81 210 58 340 80 211 94 341 118 208 95 342 119 212 84 343 107 213 48 344 69 214 48 345 69 214 59 346 81 215 95 347 119 212 97 348 121 216 96 349 120 217 61 350 83 218 61 351 83 218 60 352 82 219 97 353 121 216 96 354 120 220 107 355 132 221 62 356 84 222 62 357 84 222 61 358 83 223 96 359 120 220 107 360 132 224 106 361 131 225 63 362 85 226 63 363 85 226 62 364 84 227 107 365 132 224 106 366 131 228 105 367 130 229 64 368 86 230 64 369 86 230 63 370 85 231 106 371 131 228 105 372 130 232 104 373 129 233 65 374 87 234 65 375 87 234 64 376 86 235 105 377 130 232 104 378 129 236 103 379 128 237 66 380 88 238 66 381 88 238 65 382 87 239 104 383 129 236 103 384 128 240 102 385 127 241 67 386 89 242 67 387 89 242 66 388 88 243 103 389 128 240 102 390 127 244 101 391 126 245 68 392 90 246 68 393 90 246 67 394 89 247 102 395 127 244 101 396 126 248 100 397 125 249 69 398 91 250 69 399 91 250 68 400 90 251 101 401 126 248 100 402 125 252 99 403 124 253 70 404 92 254 70 405 92 254 69 406 91 255 100 407 125 252 99 408 124 256 98 409 122 257 71 410 94 258 71 411 94 258 70 412 92 259 99 413 124 256 98 414 123 260 97 415 121 261 60 416 82 262 60 417 82 262 71 418 93 263 98 419 123 260 12 420 12 264 13 421 13 265 73 422 96 266 73 423 96 266 72 424 95 267 12 425 12 264 13 426 13 268 14 427 14 269 74 428 97 270 74 429 97 270 73 430 96 271 13 431 13 268 14 432 14 272 15 433 35 273 75 434 98 274 75 435 98 274 74 436 97 275 14 437 14 272 15 438 35 276 16 439 36 277 76 440 99 278 76 441 99 278 75 442 98 279 15 443 35 276 16 444 36 280 17 445 37 281 77 446 100 282 77 447 100 282 76 448 99 283 16 449 36 280 17 450 37 284 18 451 38 285 78 452 101 286 78 453 101 286 77 454 100 287 17 455 37 284 18 456 38 288 19 457 39 289 79 458 102 290 79 459 102 290 78 460 101 291 18 461 38 288 19 462 39 292 20 463 40 293 80 464 103 294 80 465 103 294 79 466 102 295 19 467 39 292 20 468 40 296 21 469 41 297 81 470 104 298 81 471 104 298 80 472 103 299 20 473 40 296 21 474 41 300 22 475 42 301 82 476 105 302 82 477 105 302 81 478 104 303 21 479 41 300 22 480 42 304 23 481 23 305 83 482 106 306 83 483 106 306 82 484 105 307 22 485 42 304 23 486 23 308 12 487 12 309 72 488 95 310 72 489 95 310 83 490 106 311 23 491 23 308 84 492 107 312 24 493 43 313 25 494 44 314 25 495 44 314 85 496 108 315 84 497 107 312 85 498 108 316 25 499 44 317 26 500 45 318 26 501 45 318 86 502 109 319 85 503 108 316 86 504 110 320 26 505 46 321 27 506 47 322 27 507 47 322 87 508 111 323 86 509 110 320 87 510 111 324 27 511 47 325 28 512 48 326 28 513 48 326 88 514 112 327 87 515 111 324 88 516 112 328 28 517 48 329 29 518 49 330 29 519 49 330 89 520 113 331 88 521 112 328 89 522 113 332 29 523 49 333 30 524 50 334 30 525 50 334 90 526 114 335 89 527 113 332 90 528 114 336 30 529 50 337 31 530 51 338 31 531 51 338 91 532 115 339 90 533 114 336 91 534 115 340 31 535 51 341 32 536 52 342 32 537 52 342 92 538 116 343 91 539 115 340 92 540 116 344 32 541 52 345 33 542 53 346 33 543 53 346 93 544 117 347 92 545 116 344 93 546 117 348 33 547 53 349 34 548 54 350 34 549 54 350 94 550 118 351 93 551 117 348 94 552 118 352 34 553 54 353 35 554 55 354 35 555 55 354 95 556 119 355 94 557 118 352 95 558 119 356 35 559 55 357 24 560 43 358 24 561 43 358 84 562 107 359 95 563 119 356 97 564 121 360 37 565 57 361 36 566 56 362 36 567 56 362 96 568 120 363 97 569 121 360 98 570 123 364 38 571 58 365 37 572 57 366 37 573 57 366 97 574 121 367 98 575 123 364 99 576 124 368 39 577 60 369 38 578 59 370 38 579 59 370 98 580 122 371 99 581 124 368 100 582 125 372 40 583 61 373 39 584 60 374 39 585 60 374 99 586 124 375 100 587 125 372 101 588 126 376 41 589 62 377 40 590 61 378 40 591 61 378 100 592 125 379 101 593 126 376 102 594 127 380 42 595 63 381 41 596 62 382 41 597 62 382 101 598 126 383 102 599 127 380 103 600 128 384 43 601 64 385 42 602 63 386 42 603 63 386 102 604 127 387 103 605 128 384 104 606 129 388 44 607 65 389 43 608 64 390 43 609 64 390 103 610 128 391 104 611 129 388 105 612 130 392 45 613 66 393 44 614 65 394 44 615 65 394 104 616 129 395 105 617 130 392 106 618 131 396 46 619 67 397 45 620 66 398 45 621 66 398 105 622 130 399 106 623 131 396 107 624 132 400 47 625 68 401 46 626 67 402 46 627 67 402 106 628 131 403 107 629 132 400 96 630 120 404 36 631 56 405 47 632 68 406 47 633 68 406 107 634 132 407 96 635 120 404</p></polylist>
      </mesh>
    </geometry>
  </library_geometries>
  <library_visual_scenes>
    <visual_scene id="SM_FrontPole_01_A_1" name="SM_FrontPole_01_A_1">
      <node name="SM_FrontPole_01_A_1" id="SM_FrontPole_01_A_1" sid="SM_FrontPole_01_A_1"><matrix sid="matrix">1.000000 0.000000 0.000000 0.000000 0.000000 1.000000 0.000000 0.000000 0.000000 0.000000 1.000000 0.000000 0.000000 0.000000 0.000000 1.000000</matrix><instance_geometry url="#SM_FrontPole_01_A_1-lib"/><extra><technique profile="FCOLLADA"><visibility>1.000000</visibility></technique></extra></node>
      <extra><technique profile="MAX3D"><frame_rate>60.000000</frame_rate></technique><technique profile="FCOLLADA"><start_time>0.000000</start_time><end_time>2.000000</end_time></technique></extra>
    </visual_scene>
  </library_visual_scenes>
  <scene>
    <instance_visual_scene url="#SM_FrontPole_01_A_1"></instance_visual_scene>
  </scene>
</COLLADA>
