<?xml version="1.0" encoding="utf-8"?>
<COLLADA xmlns="http://www.collada.org/2005/11/COLLADASchema" version="1.4.1">
  <asset><contributor><author></author><authoring_tool>FBX COLLADA exporter</authoring_tool><comments></comments></contributor><created>2020-04-30T19:42:08Z</created><keywords></keywords><modified>2020-04-30T19:42:08Z</modified><revision></revision><subject></subject><title></title><unit meter="0.010000" name="centimeter"></unit><up_axis>Z_UP</up_axis></asset>
  <library_geometries>
    <geometry id="CharacterCashier_accessory_01-lib" name="CharacterCashier_accessory_01Mesh">
      <mesh>
        <source id="CharacterCashier_accessory_01-POSITION">
          <float_array id="CharacterCashier_accessory_01-POSITION-array" count="744">
0.000000 0.000000 49.999996
0.000008 10.630901 49.039261
-1.903011 10.411556 49.039257
-3.732883 9.801804 49.039253
-5.419319 8.822983 49.039253
-6.897480 7.508705 49.039253
-8.110588 5.905334 49.039261
-9.012001 4.071545 49.039253
-9.567085 2.077084 49.039249
-9.754513 -0.000011 49.039246
-9.567085 -2.077084 49.039253
-9.011993 -4.071537 49.039253
-8.110592 -5.905327 49.039253
-6.897472 -7.508701 49.039261
-5.419315 -8.822960 49.039257
-3.732891 -9.801796 49.039249
-1.903000 -10.411530 49.039257
0.000011 -10.630901 49.039261
1.903015 -10.450748 49.039257
3.732899 -9.874268 49.039268
5.419338 -8.917656 49.039261
6.897499 -7.611183 49.039261
8.110603 -6.000011 49.039257
9.012009 -4.143993 49.039261
9.567108 -2.116272 49.039268
9.754509 0.000023 49.039261
9.567081 2.116333 49.039261
9.011993 4.144047 49.039261
8.110573 6.000050 49.039261
6.897472 7.611217 49.039257
5.419304 8.917686 49.039257
3.732887 9.874290 49.039261
1.902996 10.450760 49.039261
0.000000 20.853260 46.193974
-3.732883 20.411190 46.193977
-7.322330 19.250011 46.193977
-10.630375 17.391010 46.193970
-13.529903 14.871117 46.193970
-15.909477 11.753975 46.193974
-17.677670 8.139019 46.193970
-18.766514 4.164158 46.193970
-19.134165 0.000015 46.193977
-18.766520 -4.164169 46.193970
-17.677666 -8.139019 46.193970
-15.909477 -11.753971 46.193977
-13.529900 -14.871117 46.193970
-10.630356 -17.390999 46.193966
-7.322327 -19.250008 46.193962
-3.732876 -20.411184 46.193970
0.000027 -20.853243 46.193977
3.732922 -20.562103 46.193974
7.322353 -19.528860 46.193970
10.630390 -17.755348 46.193974
13.529903 -15.265480 46.193970
15.909492 -12.118317 46.193970
17.677681 -8.417847 46.193970
18.766518 -4.315048 46.193970
19.134171 0.000038 46.193970
18.766510 4.315136 46.193970
17.677658 8.417934 46.193970
15.909462 12.118378 46.193966
13.529854 15.265537 46.193966
10.630341 17.755390 46.193970
7.322300 19.528904 46.193970
3.732857 20.562122 46.193970
-0.000004 30.274235 41.573475
-5.419323 29.637760 41.573483
-10.630379 28.053867 41.573467
-15.432915 25.505161 41.573479
-19.642372 21.979305 41.573471
-23.096998 17.508595 41.573467
-25.664005 12.204170 41.573475
-27.244753 6.271496 41.573475
-27.778509 -0.000011 41.573471
-27.244749 -6.271488 41.573475
-25.663992 -12.204178 41.573475
-23.096983 -17.508596 41.573467
-19.642359 -21.979307 41.573475
-15.432907 -25.505165 41.573475
-10.630367 -28.053879 41.573467
-5.419300 -29.637770 41.573467
0.000034 -30.274225 41.573479
5.419346 -29.955862 41.573475
10.630402 -28.641634 41.573471
15.432938 -26.273098 41.573475
19.642410 -22.810501 41.573483
23.097000 -18.276518 41.573475
25.664017 -12.791893 41.573475
27.244766 -6.589523 41.573479
27.778511 0.000057 41.573475
27.244743 6.589642 41.573475
25.663971 12.792004 41.573471
23.096962 18.276608 41.573479
19.642342 22.810581 41.573475
15.432869 26.273159 41.573479
10.630322 28.641666 41.573467
5.419262 29.955875 41.573475
0.000000 38.531796 35.355343
-6.897484 37.748798 35.355339
-13.529900 35.902042 35.355339
-19.642378 32.894337 35.355331
-25.000002 28.609440 35.355343
-29.396893 22.997608 35.355335
-32.664078 16.150982 35.355335
-34.675995 8.340557 35.355335
-35.355339 0.000000 35.355343
-34.675991 -8.340557 35.355343
-32.664063 -16.150986 35.355335
-29.396875 -22.997604 35.355335
-24.999987 -28.609442 35.355339
-19.642351 -32.894348 35.355328
-13.529865 -35.902042 35.355328
-6.897449 -37.748795 35.355343
0.000034 -38.531788 35.355339
6.897518 -38.264076 35.355339
13.529942 -36.854156 35.355335
19.642426 -34.138344 35.355339
25.000023 -29.955923 35.355331
29.396904 -24.241579 35.355335
32.664093 -17.103062 35.355335
34.675995 -8.855774 35.355335
35.355339 0.000084 35.355339
34.675980 8.855930 35.355335
32.664055 17.103207 35.355335
29.396851 24.241703 35.355335
24.999939 29.956013 35.355331
19.642319 34.138416 35.355339
13.529835 36.854214 35.355335
6.897411 38.264111 35.355343
0.000000 45.308598 27.778507
-8.110584 44.431355 27.778503
-15.909477 42.468586 27.778505
-23.096975 39.216282 27.778511
-29.396887 34.418331 27.778511
-34.567089 27.909290 27.778507
-38.408890 19.739758 27.778503
-40.774662 10.240620 27.778509
-41.573479 -0.000004 27.778507
-40.774654 -10.240627 27.778507
-38.408878 -19.739792 27.778507
-34.567074 -27.909286 27.778507
-29.396875 -34.418354 27.778503
-23.096956 -39.216259 27.778511
-15.909439 -42.468594 27.778503
-8.110550 -44.431362 27.778503
0.000050 -45.308590 27.778507
8.110615 -45.143845 27.778507
15.909523 -43.785076 27.778507
23.097031 -40.936329 27.778509
29.396942 -36.280121 27.778511
34.567123 -29.629318 27.778509
34.567032 29.629475 27.778507
29.396828 36.280216 27.778503
23.096924 40.936405 27.778507
15.909409 43.785122 27.778505
8.110497 45.143871 27.778507
0.000000 50.344219 19.134169
-9.011993 49.416653 19.134171
-17.677670 47.437641 19.134171
-25.663990 44.095226 19.134171
-32.664063 38.991940 19.134172
-38.408886 31.842770 19.134169
-42.677670 22.649929 19.134169
-45.306370 11.792999 19.134169
-46.193970 -0.000004 19.134171
-45.306362 -11.792995 19.134167
-42.677658 -22.649950 19.134169
-38.408875 -31.842762 19.134163
-32.664051 -38.991928 19.134172
-25.663963 -44.095200 19.134169
-17.677633 -47.437630 19.134169
-9.011959 -49.416637 19.134169
0.000050 -50.344204 19.134171
9.012058 -50.296288 19.134171
17.677711 -49.063015 19.134163
25.664055 -46.218861 19.134172
32.664116 -41.290546 19.134172
38.408943 -33.966370 19.134172
38.408829 33.966534 19.134169
32.664017 41.290661 19.134171
25.663925 46.218937 19.134169
17.677589 49.063068 19.134171
9.011906 50.296314 19.134171
-0.000004 53.445110 9.754517
-9.567085 52.496273 9.754517
-18.766523 50.540699 9.754517
-27.244753 47.186260 9.754517
-34.675995 41.930798 9.754517
-40.774658 34.399906 9.754517
-45.306374 24.557629 9.754517
-48.096985 12.815632 9.754517
-49.039261 -0.000004 9.754517
-48.096977 -12.815659 9.754517
-45.306358 -24.557648 9.754517
-40.774635 -34.399899 9.754517
-34.675972 -41.930809 9.754517
-27.244722 -47.186279 9.754517
-18.766478 -50.540718 9.754518
-9.567051 -52.496311 9.754516
0.000046 -53.445122 9.754517
9.567150 -53.487671 9.754517
18.766571 -52.372498 9.754517
27.244804 -49.579613 9.754517
34.676025 -44.521309 9.754516
40.774681 -36.793179 9.754517
40.774605 36.793377 9.754517
34.675926 44.521435 9.754517
27.244667 49.579685 9.754517
18.766418 52.372532 9.754517
9.566982 53.487667 9.754517
19.805405 -18.696493 31.336782
22.480988 -13.073677 31.336782
24.128624 -6.731434 31.336784
24.684929 0.000069 31.336784
24.128586 6.731567 31.336784
22.480949 13.073807 31.336784
19.805344 18.696613 31.336782
28.970093 -23.273560 24.416691
28.970039 23.273685 24.416695
32.116272 -26.457903 15.772352
32.116196 26.458027 15.772354
0.662037 43.798763 6.392701
-7.172737 42.886646 6.392701
-14.706425 40.894367 6.392701
-21.649511 37.652843 6.392701
-27.735180 32.947353 6.392701
-32.729561 26.644756 6.392701
-36.440720 18.805996 6.392701
-38.726036 9.743343 6.392701
-39.497696 -0.000004 6.392701
-38.726028 -9.743347 6.392701
-36.440704 -18.806005 6.392701
-32.729546 -26.644745 6.392701
-27.735163 -32.947357 6.392701
-21.649490 -37.652836 6.392701
-14.706394 -40.894356 6.392701
-7.172703 -42.886631 6.392701
0.662086 -43.798752 6.392701
8.496853 -43.657990 6.392701
16.030548 -42.319641 6.392701
22.973633 -39.515064 6.392701
29.059296 -34.962997 6.392701
34.053665 -28.506937 6.392701
34.053596 28.507092 6.392701
29.059204 34.963123 6.392701
22.973526 39.515148 6.392701
16.030426 42.319714 6.392701
8.496731 43.658031 6.392701
</float_array>
          <technique_common>
            <accessor source="#CharacterCashier_accessory_01-POSITION-array" count="248" stride="3">
              <param name="X" type="float"/>
              <param name="Y" type="float"/>
              <param name="Z" type="float"/>
            </accessor>
          </technique_common>
        </source>
        <source id="CharacterCashier_accessory_01-Normal0">
          <float_array id="CharacterCashier_accessory_01-Normal0-array" count="2832">
-0.000213 0.000000 1.000000
-0.002921 0.185523 0.982636
-0.040366 0.182106 0.982450
-0.000213 0.000000 1.000000
-0.040366 0.182106 0.982450
-0.076621 0.171491 0.982202
-0.000213 0.000000 1.000000
-0.076621 0.171491 0.982202
-0.110633 0.154012 0.981856
-0.000213 0.000000 1.000000
-0.110633 0.154012 0.981856
-0.141010 0.130385 0.981385
-0.000213 0.000000 1.000000
-0.141010 0.130385 0.981385
-0.166240 0.101768 0.980820
-0.000213 0.000000 1.000000
-0.166240 0.101768 0.980820
-0.185034 0.069596 0.980265
-0.000213 0.000000 1.000000
-0.185034 0.069596 0.980265
-0.196563 0.035283 0.979856
-0.000213 0.000000 1.000000
-0.196563 0.035283 0.979856
-0.200439 0.000001 0.979706
-0.000213 0.000000 1.000000
-0.200439 0.000001 0.979706
-0.196562 -0.035283 0.979856
-0.000213 0.000000 1.000000
-0.196562 -0.035283 0.979856
-0.185033 -0.069598 0.980265
-0.000213 0.000000 1.000000
-0.185033 -0.069598 0.980265
-0.166241 -0.101767 0.980820
-0.000213 0.000000 1.000000
-0.166241 -0.101767 0.980820
-0.141010 -0.130384 0.981385
-0.000213 0.000000 1.000000
-0.141010 -0.130384 0.981385
-0.110631 -0.154014 0.981856
-0.000213 0.000000 1.000000
-0.110631 -0.154014 0.981856
-0.076621 -0.171492 0.982201
-0.000213 0.000000 1.000000
-0.076621 -0.171492 0.982201
-0.040367 -0.182106 0.982450
-0.000213 0.000000 1.000000
-0.040367 -0.182106 0.982450
-0.002921 -0.185523 0.982636
-0.000213 0.000000 1.000000
-0.002921 -0.185523 0.982636
0.034884 -0.181630 0.982748
-0.000213 0.000000 1.000000
0.034884 -0.181630 0.982748
0.072109 -0.170480 0.982719
-0.000213 0.000000 1.000000
0.072109 -0.170480 0.982719
0.107406 -0.152440 0.982459
-0.000213 0.000000 1.000000
0.107406 -0.152440 0.982459
0.139027 -0.128378 0.981932
-0.000213 0.000000 1.000000
0.139027 -0.128378 0.981932
0.165202 -0.099654 0.981212
-0.000213 0.000000 1.000000
0.165202 -0.099654 0.981212
0.184564 -0.067825 0.980477
-0.000213 0.000000 1.000000
0.184564 -0.067825 0.980477
0.196360 -0.034270 0.979933
-0.000213 0.000000 1.000000
0.196360 -0.034270 0.979933
0.200309 0.000002 0.979733
-0.000213 0.000000 1.000000
0.200309 0.000002 0.979733
0.196360 0.034271 0.979933
-0.000213 0.000000 1.000000
0.196360 0.034271 0.979933
0.184565 0.067824 0.980477
-0.000213 0.000000 1.000000
0.184565 0.067824 0.980477
0.165200 0.099655 0.981212
-0.000213 0.000000 1.000000
0.165200 0.099655 0.981212
0.139026 0.128379 0.981932
-0.000213 0.000000 1.000000
0.139026 0.128379 0.981932
0.107406 0.152440 0.982459
-0.000213 0.000000 1.000000
0.107406 0.152440 0.982459
0.072110 0.170480 0.982719
-0.000213 0.000000 1.000000
0.072110 0.170480 0.982719
0.034884 0.181630 0.982748
-0.000213 0.000000 1.000000
0.034884 0.181630 0.982748
-0.002921 0.185523 0.982636
-0.002921 0.185523 0.982636
-0.008226 0.360185 0.932845
-0.076355 0.353749 0.932218
-0.040366 0.182106 0.982450
-0.040366 0.182106 0.982450
-0.076355 0.353749 0.932218
-0.143377 0.333021 0.931955
-0.076621 0.171491 0.982202
-0.076621 0.171491 0.982202
-0.143377 0.333021 0.931955
-0.208066 0.298469 0.931464
-0.110633 0.154012 0.981856
-0.110633 0.154012 0.981856
-0.208066 0.298469 0.931464
-0.267552 0.251593 0.930116
-0.141010 0.130385 0.981385
-0.141010 0.130385 0.981385
-0.267552 0.251593 0.930116
-0.317994 0.195170 0.927787
-0.166240 0.101768 0.980820
-0.166240 0.101768 0.980820
-0.317994 0.195170 0.927787
-0.355949 0.132611 0.925048
-0.185034 0.069596 0.980265
-0.185034 0.069596 0.980265
-0.355949 0.132611 0.925048
-0.379289 0.066900 0.922856
-0.196563 0.035283 0.979856
-0.196563 0.035283 0.979856
-0.379289 0.066900 0.922856
-0.387134 0.000000 0.922023
-0.200439 0.000001 0.979706
-0.200439 0.000001 0.979706
-0.387134 0.000000 0.922023
-0.379290 -0.066901 0.922856
-0.196562 -0.035283 0.979856
-0.196562 -0.035283 0.979856
-0.379290 -0.066901 0.922856
-0.355949 -0.132612 0.925048
-0.185033 -0.069598 0.980265
-0.185033 -0.069598 0.980265
-0.355949 -0.132612 0.925048
-0.317994 -0.195170 0.927787
-0.166241 -0.101767 0.980820
-0.166241 -0.101767 0.980820
-0.317994 -0.195170 0.927787
-0.267551 -0.251594 0.930116
-0.141010 -0.130384 0.981385
-0.141010 -0.130384 0.981385
-0.267551 -0.251594 0.930116
-0.208064 -0.298469 0.931464
-0.110631 -0.154014 0.981856
-0.110631 -0.154014 0.981856
-0.208064 -0.298469 0.931464
-0.143377 -0.333021 0.931955
-0.076621 -0.171492 0.982201
-0.076621 -0.171492 0.982201
-0.143377 -0.333021 0.931955
-0.076356 -0.353749 0.932218
-0.040367 -0.182106 0.982450
-0.040367 -0.182106 0.982450
-0.076356 -0.353749 0.932218
-0.008227 -0.360184 0.932845
-0.002921 -0.185523 0.982636
-0.002921 -0.185523 0.982636
-0.008227 -0.360184 0.932845
0.060868 -0.352234 0.933931
0.034884 -0.181630 0.982748
0.034884 -0.181630 0.982748
0.060868 -0.352234 0.933931
0.130526 -0.329932 0.934937
0.072109 -0.170480 0.982719
0.072109 -0.170480 0.982719
0.130526 -0.329932 0.934937
0.198785 -0.293880 0.934943
0.107406 -0.152440 0.982459
0.107406 -0.152440 0.982459
0.198785 -0.293880 0.934943
0.261800 -0.245969 0.933252
0.139027 -0.128378 0.981932
0.139027 -0.128378 0.981932
0.261800 -0.245969 0.933252
0.314969 -0.189452 0.930001
0.165202 -0.099654 0.981212
0.165202 -0.099654 0.981212
0.314969 -0.189452 0.930001
0.354617 -0.127959 0.926215
0.184564 -0.067825 0.980477
0.184564 -0.067825 0.980477
0.354617 -0.127959 0.926215
0.378792 -0.064300 0.923245
0.196360 -0.034270 0.979933
0.196360 -0.034270 0.979933
0.378792 -0.064300 0.923245
0.386878 0.000001 0.922131
0.200309 0.000002 0.979733
0.200309 0.000002 0.979733
0.386878 0.000001 0.922131
0.378792 0.064301 0.923245
0.196360 0.034271 0.979933
0.196360 0.034271 0.979933
0.378792 0.064301 0.923245
0.354617 0.127960 0.926215
0.184565 0.067824 0.980477
0.184565 0.067824 0.980477
0.354617 0.127960 0.926215
0.314968 0.189453 0.930001
0.165200 0.099655 0.981212
0.165200 0.099655 0.981212
0.314968 0.189453 0.930001
0.261798 0.245970 0.933253
0.139026 0.128379 0.981932
0.139026 0.128379 0.981932
0.261798 0.245970 0.933253
0.198784 0.293880 0.934944
0.107406 0.152440 0.982459
0.107406 0.152440 0.982459
0.198784 0.293880 0.934944
0.130525 0.329933 0.934937
0.072110 0.170480 0.982719
0.072110 0.170480 0.982719
0.130525 0.329933 0.934937
0.060867 0.352234 0.933931
0.034884 0.181630 0.982748
0.034884 0.181630 0.982748
0.060867 0.352234 0.933931
-0.008226 0.360185 0.932845
-0.002921 0.185523 0.982636
-0.008226 0.360185 0.932845
-0.016132 0.525730 0.850499
-0.106241 0.516387 0.849740
-0.076355 0.353749 0.932218
-0.076355 0.353749 0.932218
-0.106241 0.516387 0.849740
-0.197467 0.486126 0.851286
-0.143377 0.333021 0.931955
-0.143377 0.333021 0.931955
-0.197467 0.486126 0.851286
-0.289814 0.434746 0.852645
-0.208066 0.298469 0.931464
-0.208066 0.298469 0.931464
-0.289814 0.434746 0.852645
-0.378303 0.364153 0.851047
-0.267552 0.251593 0.930116
-0.267552 0.251593 0.930116
-0.378303 0.364153 0.851047
-0.454778 0.279568 0.845588
-0.317994 0.195170 0.927787
-0.317994 0.195170 0.927787
-0.454778 0.279568 0.845588
-0.512190 0.187772 0.838095
-0.355949 0.132611 0.925048
-0.355949 0.132611 0.925048
-0.512190 0.187772 0.838095
-0.547078 0.093890 0.831799
-0.379289 0.066900 0.922856
-0.379289 0.066900 0.922856
-0.547078 0.093890 0.831799
-0.558696 -0.000000 0.829373
-0.387134 0.000000 0.922023
-0.387134 0.000000 0.922023
-0.558696 -0.000000 0.829373
-0.547078 -0.093890 0.831799
-0.379290 -0.066901 0.922856
-0.379290 -0.066901 0.922856
-0.547078 -0.093890 0.831799
-0.512190 -0.187772 0.838095
-0.355949 -0.132612 0.925048
-0.355949 -0.132612 0.925048
-0.512190 -0.187772 0.838095
-0.454778 -0.279569 0.845588
-0.317994 -0.195170 0.927787
-0.317994 -0.195170 0.927787
-0.454778 -0.279569 0.845588
-0.378302 -0.364153 0.851046
-0.267551 -0.251594 0.930116
-0.267551 -0.251594 0.930116
-0.378302 -0.364153 0.851046
-0.289814 -0.434747 0.852645
-0.208064 -0.298469 0.931464
-0.208064 -0.298469 0.931464
-0.289814 -0.434747 0.852645
-0.197467 -0.486126 0.851286
-0.143377 -0.333021 0.931955
-0.143377 -0.333021 0.931955
-0.197467 -0.486126 0.851286
-0.106241 -0.516387 0.849739
-0.076356 -0.353749 0.932218
-0.076356 -0.353749 0.932218
-0.106241 -0.516387 0.849739
-0.016132 -0.525729 0.850499
-0.008227 -0.360184 0.932845
-0.008227 -0.360184 0.932845
-0.016132 -0.525729 0.850499
0.076031 -0.514372 0.854190
0.060868 -0.352234 0.933931
0.060868 -0.352234 0.933931
0.076031 -0.514372 0.854190
0.172905 -0.481749 0.859082
0.130526 -0.329932 0.934937
0.130526 -0.329932 0.934937
0.172905 -0.481749 0.859082
0.272896 -0.427685 0.861750
0.198785 -0.293880 0.934943
0.198785 -0.293880 0.934943
0.272896 -0.427685 0.861750
0.368675 -0.354863 0.859157
0.261800 -0.245969 0.933252
0.261800 -0.245969 0.933252
0.368675 -0.354863 0.859157
0.450285 -0.269722 0.851171
0.314969 -0.189452 0.930001
0.314969 -0.189452 0.930001
0.450285 -0.269722 0.851171
0.510447 -0.179641 0.840936
0.354617 -0.127959 0.926215
0.354617 -0.127959 0.926215
0.510447 -0.179641 0.840936
0.546475 -0.089340 0.832696
0.378792 -0.064300 0.923245
0.378792 -0.064300 0.923245
0.546475 -0.089340 0.832696
0.558379 0.000001 0.829586
0.386878 0.000001 0.922131
0.386878 0.000001 0.922131
0.558379 0.000001 0.829586
0.546474 0.089342 0.832697
0.378792 0.064301 0.923245
0.378792 0.064301 0.923245
0.546474 0.089342 0.832697
0.510447 0.179642 0.840936
0.354617 0.127960 0.926215
0.354617 0.127960 0.926215
0.510447 0.179642 0.840936
0.450284 0.269724 0.851172
0.314968 0.189453 0.930001
0.314968 0.189453 0.930001
0.450284 0.269724 0.851172
0.368674 0.354865 0.859157
0.261798 0.245970 0.933253
0.261798 0.245970 0.933253
0.368674 0.354865 0.859157
0.272895 0.427685 0.861750
0.198784 0.293880 0.934944
0.198784 0.293880 0.934944
0.272895 0.427685 0.861750
0.172903 0.481749 0.859082
0.130525 0.329933 0.934937
0.130525 0.329933 0.934937
0.172903 0.481749 0.859082
0.076029 0.514372 0.854190
0.060867 0.352234 0.933931
0.060867 0.352234 0.933931
0.076029 0.514372 0.854190
-0.016132 0.525730 0.850499
-0.008226 0.360185 0.932845
-0.016132 0.525730 0.850499
-0.025607 0.677031 0.735509
-0.127963 0.665402 0.735435
-0.106241 0.516387 0.849740
-0.106241 0.516387 0.849740
-0.127963 0.665402 0.735435
-0.236647 0.628197 0.741193
-0.197467 0.486126 0.851286
-0.197467 0.486126 0.851286
-0.236647 0.628197 0.741193
-0.354517 0.562323 0.747068
-0.289814 0.434746 0.852645
-0.289814 0.434746 0.852645
-0.354517 0.562323 0.747068
-0.472859 0.468291 0.746396
-0.378303 0.364153 0.851047
-0.378303 0.364153 0.851047
-0.472859 0.468291 0.746396
-0.575647 0.354672 0.736776
-0.454778 0.279568 0.845588
-0.454778 0.279568 0.845588
-0.575647 0.354672 0.736776
-0.650676 0.234259 0.722318
-0.512190 0.187772 0.838095
-0.512190 0.187772 0.838095
-0.650676 0.234259 0.722318
-0.694607 0.115593 0.710042
-0.547078 0.093890 0.831799
-0.547078 0.093890 0.831799
-0.694607 0.115593 0.710042
-0.708885 -0.000000 0.705324
-0.558696 -0.000000 0.829373
-0.558696 -0.000000 0.829373
-0.708885 -0.000000 0.705324
-0.694607 -0.115594 0.710042
-0.547078 -0.093890 0.831799
-0.547078 -0.093890 0.831799
-0.694607 -0.115594 0.710042
-0.650676 -0.234259 0.722318
-0.512190 -0.187772 0.838095
-0.512190 -0.187772 0.838095
-0.650676 -0.234259 0.722318
-0.575647 -0.354672 0.736776
-0.454778 -0.279569 0.845588
-0.454778 -0.279569 0.845588
-0.575647 -0.354672 0.736776
-0.472859 -0.468292 0.746396
-0.378302 -0.364153 0.851046
-0.378302 -0.364153 0.851046
-0.472859 -0.468292 0.746396
-0.354517 -0.562324 0.747068
-0.289814 -0.434747 0.852645
-0.289814 -0.434747 0.852645
-0.354517 -0.562324 0.747068
-0.236647 -0.628197 0.741193
-0.197467 -0.486126 0.851286
-0.197467 -0.486126 0.851286
-0.236647 -0.628197 0.741193
-0.127963 -0.665402 0.735436
-0.106241 -0.516387 0.849739
-0.106241 -0.516387 0.849739
-0.127963 -0.665402 0.735436
-0.025606 -0.677031 0.735509
-0.016132 -0.525729 0.850499
-0.016132 -0.525729 0.850499
-0.025606 -0.677031 0.735509
0.080315 -0.664391 0.743057
0.076031 -0.514372 0.854190
0.076031 -0.514372 0.854190
0.080315 -0.664391 0.743057
0.198936 -0.625116 0.754755
0.172905 -0.481749 0.859082
0.172905 -0.481749 0.859082
0.198936 -0.625116 0.754755
0.330355 -0.555493 0.763081
0.272896 -0.427685 0.861750
0.272896 -0.427685 0.861750
0.330355 -0.555493 0.763081
0.461094 -0.457144 0.760534
0.368675 -0.354863 0.859157
0.368675 -0.354863 0.859157
0.461094 -0.457144 0.760534
0.526044 -0.354993 0.772825
0.450285 -0.269722 0.851171
0.450285 -0.269722 0.851171
0.526044 -0.354993 0.772825
0.574716 -0.208379 0.791378
0.510447 -0.179641 0.840936
0.510447 -0.179641 0.840936
0.574716 -0.208379 0.791378
0.618826 -0.103813 0.778638
0.546475 -0.089340 0.832696
0.546475 -0.089340 0.832696
0.618826 -0.103813 0.778638
0.633583 0.000001 0.773675
0.558379 0.000001 0.829586
0.558379 0.000001 0.829586
0.633583 0.000001 0.773675
0.618825 0.103815 0.778639
0.546474 0.089342 0.832697
0.546474 0.089342 0.832697
0.618825 0.103815 0.778639
0.574714 0.208380 0.791379
0.510447 0.179642 0.840936
0.510447 0.179642 0.840936
0.574714 0.208380 0.791379
0.526041 0.354996 0.772825
0.450284 0.269724 0.851172
0.450284 0.269724 0.851172
0.526041 0.354996 0.772825
0.461092 0.457147 0.760533
0.368674 0.354865 0.859157
0.368674 0.354865 0.859157
0.461092 0.457147 0.760533
0.330354 0.555494 0.763081
0.272895 0.427685 0.861750
0.272895 0.427685 0.861750
0.330354 0.555494 0.763081
0.198934 0.625116 0.754755
0.172903 0.481749 0.859082
0.172903 0.481749 0.859082
0.198934 0.625116 0.754755
0.080313 0.664391 0.743057
0.076029 0.514372 0.854190
0.076029 0.514372 0.854190
0.080313 0.664391 0.743057
-0.025607 0.677031 0.735509
-0.016132 0.525730 0.850499
-0.025607 0.677031 0.735509
-0.035366 0.807706 0.588524
-0.141529 0.795119 0.589709
-0.127963 0.665402 0.735435
-0.127963 0.665402 0.735435
-0.141529 0.795119 0.589709
-0.262082 0.755609 0.600307
-0.236647 0.628197 0.741193
-0.236647 0.628197 0.741193
-0.262082 0.755609 0.600307
-0.404197 0.680120 0.611605
-0.354517 0.562323 0.747068
-0.354517 0.562323 0.747068
-0.404197 0.680120 0.611605
-0.553213 0.564425 0.612683
-0.472859 0.468291 0.746396
-0.472859 0.468291 0.746396
-0.553213 0.564425 0.612683
-0.680828 0.420992 0.599366
-0.575647 0.354672 0.736776
-0.575647 0.354672 0.736776
-0.680828 0.420992 0.599366
-0.768865 0.272335 0.578516
-0.650676 0.234259 0.722318
-0.650676 0.234259 0.722318
-0.768865 0.272335 0.578516
-0.817174 0.132147 0.561038
-0.694607 0.115593 0.710042
-0.694607 0.115593 0.710042
-0.817174 0.132147 0.561038
-0.832240 -0.000000 0.554415
-0.708885 -0.000000 0.705324
-0.708885 -0.000000 0.705324
-0.832240 -0.000000 0.554415
-0.817174 -0.132148 0.561038
-0.694607 -0.115594 0.710042
-0.694607 -0.115594 0.710042
-0.817174 -0.132148 0.561038
-0.768865 -0.272335 0.578516
-0.650676 -0.234259 0.722318
-0.650676 -0.234259 0.722318
-0.768865 -0.272335 0.578516
-0.680827 -0.420992 0.599366
-0.575647 -0.354672 0.736776
-0.575647 -0.354672 0.736776
-0.680827 -0.420992 0.599366
-0.553212 -0.564426 0.612682
-0.472859 -0.468292 0.746396
-0.472859 -0.468292 0.746396
-0.553212 -0.564426 0.612682
-0.404197 -0.680121 0.611605
-0.354517 -0.562324 0.747068
-0.354517 -0.562324 0.747068
-0.404197 -0.680121 0.611605
-0.262082 -0.755609 0.600306
-0.236647 -0.628197 0.741193
-0.236647 -0.628197 0.741193
-0.262082 -0.755609 0.600306
-0.141528 -0.795119 0.589708
-0.127963 -0.665402 0.735436
-0.127963 -0.665402 0.735436
-0.141528 -0.795119 0.589708
-0.035365 -0.807706 0.588524
-0.025606 -0.677031 0.735509
-0.025606 -0.677031 0.735509
-0.035365 -0.807706 0.588524
0.076015 -0.796837 0.599394
0.080315 -0.664391 0.743057
0.080315 -0.664391 0.743057
0.076015 -0.796837 0.599394
0.211491 -0.757181 0.618020
0.198936 -0.625116 0.754755
0.198936 -0.625116 0.754755
0.211491 -0.757181 0.618020
0.374463 -0.677539 0.633023
0.330355 -0.555493 0.763081
0.330355 -0.555493 0.763081
0.374463 -0.677539 0.633023
0.541979 -0.554443 0.631547
0.461094 -0.457144 0.760534
0.461094 -0.457144 0.760534
0.541979 -0.554443 0.631547
0.612657 -0.476287 0.630716
0.526044 -0.354993 0.772825
0.526041 0.354996 0.772825
0.612654 0.476290 0.630716
0.541977 0.554445 0.631547
0.461092 0.457147 0.760533
0.461092 0.457147 0.760533
0.541977 0.554445 0.631547
0.374461 0.677540 0.633023
0.330354 0.555494 0.763081
0.330354 0.555494 0.763081
0.374461 0.677540 0.633023
0.211489 0.757182 0.618019
0.198934 0.625116 0.754755
0.198934 0.625116 0.754755
0.211489 0.757182 0.618019
0.076013 0.796837 0.599394
0.080313 0.664391 0.743057
0.080313 0.664391 0.743057
0.076013 0.796837 0.599394
-0.035366 0.807706 0.588524
-0.025607 0.677031 0.735509
-0.035366 0.807706 0.588524
-0.043942 0.910037 0.412193
-0.148529 0.897968 0.414238
-0.141529 0.795119 0.589709
-0.141529 0.795119 0.589709
-0.148529 0.897968 0.414238
-0.276792 0.860968 0.426756
-0.262082 0.755609 0.600307
-0.262082 0.755609 0.600307
-0.276792 0.860968 0.426756
-0.440992 0.781960 0.440528
-0.404197 0.680120 0.611605
-0.404197 0.680120 0.611605
-0.440992 0.781960 0.440528
-0.618998 0.648541 0.442985
-0.553213 0.564425 0.612683
-0.553213 0.564425 0.612683
-0.618998 0.648541 0.442985
-0.767242 0.476696 0.429068
-0.680828 0.420992 0.599366
-0.680828 0.420992 0.599366
-0.767242 0.476696 0.429068
-0.862160 0.301759 0.406966
-0.768865 0.272335 0.578516
-0.768865 0.272335 0.578516
-0.862160 0.301759 0.406966
-0.909991 0.143878 0.388864
-0.817174 0.132147 0.561038
-0.817174 0.132147 0.561038
-0.909991 0.143878 0.388864
-0.924107 -0.000000 0.382134
-0.832240 -0.000000 0.554415
-0.832240 -0.000000 0.554415
-0.924107 -0.000000 0.382134
-0.909991 -0.143878 0.388864
-0.817174 -0.132148 0.561038
-0.817174 -0.132148 0.561038
-0.909991 -0.143878 0.388864
-0.862160 -0.301760 0.406966
-0.768865 -0.272335 0.578516
-0.768865 -0.272335 0.578516
-0.862160 -0.301760 0.406966
-0.767242 -0.476697 0.429068
-0.680827 -0.420992 0.599366
-0.680827 -0.420992 0.599366
-0.767242 -0.476697 0.429068
-0.618998 -0.648542 0.442985
-0.553212 -0.564426 0.612682
-0.553212 -0.564426 0.612682
-0.618998 -0.648542 0.442985
-0.440991 -0.781960 0.440529
-0.404197 -0.680121 0.611605
-0.404197 -0.680121 0.611605
-0.440991 -0.781960 0.440529
-0.276792 -0.860967 0.426757
-0.262082 -0.755609 0.600306
-0.262082 -0.755609 0.600306
-0.276792 -0.860967 0.426757
-0.148528 -0.897967 0.414239
-0.141528 -0.795119 0.589708
-0.141528 -0.795119 0.589708
-0.148528 -0.897967 0.414239
-0.043941 -0.910036 0.412194
-0.035365 -0.807706 0.588524
-0.035365 -0.807706 0.588524
-0.043941 -0.910036 0.412194
0.067286 -0.903419 0.423446
0.076015 -0.796837 0.599394
0.076015 -0.796837 0.599394
0.067286 -0.903419 0.423446
0.215217 -0.869703 0.444183
0.211491 -0.757181 0.618020
0.211491 -0.757181 0.618020
0.215217 -0.869703 0.444183
0.407963 -0.787320 0.462270
0.374463 -0.677539 0.633023
0.374463 -0.677539 0.633023
0.407963 -0.787320 0.462270
0.610795 -0.642874 0.462214
0.541979 -0.554443 0.631547
0.541979 -0.554443 0.631547
0.610795 -0.642874 0.462214
0.698240 -0.547368 0.461356
0.612657 -0.476287 0.630716
0.612654 0.476290 0.630716
0.698237 0.547371 0.461358
0.610792 0.642876 0.462216
0.541977 0.554445 0.631547
0.541977 0.554445 0.631547
0.610792 0.642876 0.462216
0.407960 0.787321 0.462270
0.374461 0.677540 0.633023
0.374461 0.677540 0.633023
0.407960 0.787321 0.462270
0.215214 0.869704 0.444182
0.211489 0.757182 0.618019
0.211489 0.757182 0.618019
0.215214 0.869704 0.444182
0.067283 0.903420 0.423445
0.076013 0.796837 0.599394
0.076013 0.796837 0.599394
0.067283 0.903420 0.423445
-0.043942 0.910037 0.412193
-0.035366 0.807706 0.588524
-0.043942 0.910037 0.412193
-0.047120 0.947452 0.316410
-0.149991 0.935886 0.318779
-0.148529 0.897968 0.414238
-0.148529 0.897968 0.414238
-0.149991 0.935886 0.318779
-0.280697 0.900716 0.331541
-0.276792 0.860968 0.426756
-0.276792 0.860968 0.426756
-0.280697 0.900716 0.331541
-0.452756 0.821805 0.345902
-0.440992 0.781960 0.440528
-0.440992 0.781960 0.440528
-0.452756 0.821805 0.345902
-0.640538 0.683925 0.349223
-0.618998 0.648541 0.442985
-0.618998 0.648541 0.442985
-0.640538 0.683925 0.349223
-0.796495 0.502592 0.336152
-0.767242 0.476696 0.429068
-0.767242 0.476696 0.429068
-0.796495 0.502592 0.336152
-0.894805 0.316497 0.314885
-0.862160 0.301759 0.406966
-0.862160 0.301759 0.406966
-0.894805 0.316497 0.314885
-0.942831 0.149955 0.297629
-0.909991 0.143878 0.388864
-0.909991 0.143878 0.388864
-0.942831 0.149955 0.297629
-0.956637 -0.000000 0.291283
-0.924107 -0.000000 0.382134
-0.924107 -0.000000 0.382134
-0.956637 -0.000000 0.291283
-0.942831 -0.149956 0.297629
-0.909991 -0.143878 0.388864
-0.909991 -0.143878 0.388864
-0.942831 -0.149956 0.297629
-0.894805 -0.316498 0.314885
-0.862160 -0.301760 0.406966
-0.862160 -0.301760 0.406966
-0.894805 -0.316498 0.314885
-0.796494 -0.502592 0.336152
-0.767242 -0.476697 0.429068
-0.767242 -0.476697 0.429068
-0.796494 -0.502592 0.336152
-0.640538 -0.683925 0.349224
-0.618998 -0.648542 0.442985
-0.618998 -0.648542 0.442985
-0.640538 -0.683925 0.349224
-0.452755 -0.821805 0.345904
-0.440991 -0.781960 0.440529
-0.440991 -0.781960 0.440529
-0.452755 -0.821805 0.345904
-0.280697 -0.900715 0.331544
-0.276792 -0.860967 0.426757
-0.276792 -0.860967 0.426757
-0.280697 -0.900715 0.331544
-0.149990 -0.935885 0.318783
-0.148528 -0.897967 0.414239
-0.148528 -0.897967 0.414239
-0.149990 -0.935885 0.318783
-0.047119 -0.947451 0.316413
-0.043941 -0.910036 0.412194
-0.043941 -0.910036 0.412194
-0.047119 -0.947451 0.316413
0.063138 -0.942873 0.327115
0.067286 -0.903419 0.423446
0.067286 -0.903419 0.423446
0.063138 -0.942873 0.327115
0.215629 -0.912476 0.347694
0.215217 -0.869703 0.444183
0.215217 -0.869703 0.444183
0.215629 -0.912476 0.347694
0.418583 -0.830953 0.366478
0.407963 -0.787320 0.462270
0.407963 -0.787320 0.462270
0.418583 -0.830953 0.366478
0.632572 -0.681731 0.367554
0.610795 -0.642874 0.462214
0.610795 -0.642874 0.462214
0.632572 -0.681731 0.367554
0.733891 -0.577442 0.357722
0.698240 -0.547368 0.461356
0.698237 0.547371 0.461358
0.733888 0.577444 0.357725
0.632568 0.681733 0.367556
0.610792 0.642876 0.462216
0.610792 0.642876 0.462216
0.632568 0.681733 0.367556
0.418579 0.830955 0.366478
0.407960 0.787321 0.462270
0.407960 0.787321 0.462270
0.418579 0.830955 0.366478
0.215626 0.912478 0.347692
0.215214 0.869704 0.444182
0.215214 0.869704 0.444182
0.215626 0.912478 0.347692
0.063135 0.942874 0.327112
0.067283 0.903420 0.423445
0.067283 0.903420 0.423445
0.063135 0.942874 0.327112
-0.047120 0.947452 0.316410
-0.043942 0.910037 0.412193
0.311465 -0.145045 -0.939123
0.311465 -0.145045 -0.939123
0.311465 -0.145045 -0.939123
0.311465 -0.145045 -0.939123
0.338186 -0.084828 -0.937248
0.338186 -0.084828 -0.937248
0.338186 -0.084828 -0.937248
0.338186 -0.084828 -0.937248
0.351650 -0.027876 -0.935716
0.351650 -0.027876 -0.935716
0.351650 -0.027876 -0.935716
0.351650 -0.027876 -0.935716
0.351650 0.027877 -0.935717
0.351650 0.027877 -0.935717
0.351650 0.027877 -0.935717
0.351649 0.027877 -0.935717
0.338185 0.084829 -0.937249
0.338185 0.084829 -0.937249
0.338185 0.084829 -0.937249
0.338185 0.084829 -0.937249
0.311464 0.145046 -0.939123
0.311464 0.145046 -0.939123
0.311464 0.145046 -0.939123
0.311464 0.145046 -0.939123
0.601808 0.797253 0.047071
0.601808 0.797253 0.047071
0.601808 0.797253 0.047071
0.601808 0.797253 0.047071
0.601810 -0.797251 0.047071
0.601810 -0.797251 0.047071
0.601810 -0.797251 0.047071
0.601810 -0.797251 0.047071
0.754287 0.656259 0.019375
0.754287 0.656259 0.019375
0.754287 0.656259 0.019375
0.754287 0.656259 0.019375
0.754290 -0.656255 0.019376
0.754291 -0.656255 0.019376
0.754291 -0.656255 0.019376
0.754291 -0.656255 0.019376
-0.034706 0.324540 -0.945235
-0.034706 0.324540 -0.945235
-0.034706 0.324540 -0.945235
-0.034706 0.324540 -0.945235
-0.072444 0.307057 -0.948930
-0.072444 0.307057 -0.948930
-0.072444 0.307057 -0.948930
-0.072444 0.307057 -0.948930
-0.117718 0.275224 -0.954146
-0.117718 0.275224 -0.954146
-0.117718 0.275224 -0.954146
-0.117718 0.275224 -0.954146
-0.170947 0.231974 -0.957583
-0.170947 0.231974 -0.957583
-0.170947 0.231974 -0.957583
-0.170947 0.231974 -0.957583
-0.226483 0.181617 -0.956933
-0.226483 0.181617 -0.956933
-0.226483 0.181617 -0.956933
-0.226483 0.181617 -0.956933
-0.275961 0.128653 -0.952520
-0.275961 0.128653 -0.952520
-0.275961 0.128653 -0.952520
-0.275961 0.128653 -0.952520
-0.312262 0.076186 -0.946936
-0.312262 0.076186 -0.946936
-0.312262 0.076186 -0.946936
-0.312262 0.076186 -0.946936
-0.331235 0.025166 -0.943212
-0.331236 0.025166 -0.943213
-0.331236 0.025166 -0.943212
-0.331236 0.025166 -0.943212
-0.331235 -0.025166 -0.943212
-0.331235 -0.025166 -0.943212
-0.331236 -0.025166 -0.943213
-0.331236 -0.025166 -0.943212
-0.312262 -0.076186 -0.946936
-0.312262 -0.076186 -0.946936
-0.312262 -0.076186 -0.946936
-0.312262 -0.076186 -0.946936
-0.275961 -0.128653 -0.952520
-0.275961 -0.128653 -0.952520
-0.275961 -0.128653 -0.952520
-0.275961 -0.128653 -0.952520
-0.226484 -0.181616 -0.956933
-0.226484 -0.181616 -0.956933
-0.226484 -0.181616 -0.956933
-0.226484 -0.181616 -0.956933
-0.170947 -0.231974 -0.957583
-0.170947 -0.231974 -0.957583
-0.170947 -0.231974 -0.957583
-0.170947 -0.231974 -0.957583
-0.117717 -0.275223 -0.954146
-0.117717 -0.275223 -0.954146
-0.117717 -0.275223 -0.954146
-0.117717 -0.275223 -0.954146
-0.072444 -0.307055 -0.948930
-0.072444 -0.307055 -0.948930
-0.072444 -0.307055 -0.948930
-0.072444 -0.307055 -0.948930
-0.034706 -0.324539 -0.945235
-0.034706 -0.324539 -0.945235
-0.034706 -0.324539 -0.945235
-0.034706 -0.324539 -0.945235
0.001842 -0.326292 -0.945267
0.001842 -0.326292 -0.945267
0.001842 -0.326292 -0.945267
0.001842 -0.326292 -0.945267
0.045768 -0.312137 -0.948934
0.045768 -0.312137 -0.948934
0.045768 -0.312137 -0.948934
0.045768 -0.312137 -0.948934
0.102701 -0.282947 -0.953621
0.102701 -0.282947 -0.953621
0.102701 -0.282947 -0.953621
0.102701 -0.282947 -0.953621
0.171338 -0.240985 -0.955285
0.171338 -0.240985 -0.955285
0.171338 -0.240985 -0.955285
0.171338 -0.240985 -0.955285
0.243220 -0.190215 -0.951137
0.243220 -0.190215 -0.951137
0.243220 -0.190215 -0.951137
0.243220 -0.190215 -0.951137
0.769527 0.638527 0.010556
0.769527 0.638527 0.010556
0.769527 0.638527 0.010556
0.769527 0.638527 0.010556
0.769529 -0.638524 0.010557
0.769529 -0.638524 0.010557
0.769529 -0.638524 0.010557
0.769529 -0.638524 0.010557
0.243219 0.190216 -0.951137
0.243219 0.190216 -0.951137
0.243219 0.190216 -0.951137
0.243219 0.190216 -0.951137
0.171336 0.240986 -0.955285
0.171336 0.240986 -0.955285
0.171336 0.240986 -0.955285
0.171336 0.240986 -0.955285
0.102700 0.282948 -0.953621
0.102700 0.282948 -0.953621
0.102700 0.282948 -0.953621
0.102700 0.282948 -0.953621
0.045767 0.312139 -0.948934
0.045767 0.312139 -0.948934
0.045767 0.312139 -0.948934
0.045767 0.312139 -0.948934
0.001841 0.326293 -0.945267
0.001841 0.326293 -0.945267
0.001841 0.326293 -0.945267
0.001841 0.326293 -0.945267
</float_array>
          <technique_common>
            <accessor source="#CharacterCashier_accessory_01-Normal0-array" count="944" stride="3">
              <param name="X" type="float"/>
              <param name="Y" type="float"/>
              <param name="Z" type="float"/>
            </accessor>
          </technique_common>
        </source>
        <source id="CharacterCashier_accessory_01-UV0">
          <float_array id="CharacterCashier_accessory_01-UV0-array" count="574">
0.000000 1.000000
0.031250 1.000000
0.062500 1.000000
0.093750 1.000000
0.125000 1.000000
0.156250 1.000000
0.187500 1.000000
0.218750 1.000000
0.250000 1.000000
0.281250 1.000000
0.312500 1.000000
0.343750 1.000000
0.375000 1.000000
0.406250 1.000000
0.437500 1.000000
0.468750 1.000000
0.500000 1.000000
0.531250 1.000000
0.562500 1.000000
0.593750 1.000000
0.625000 1.000000
0.656250 1.000000
0.687500 1.000000
0.718750 1.000000
0.750000 1.000000
0.781250 1.000000
0.812500 1.000000
0.843750 1.000000
0.875000 1.000000
0.906250 1.000000
0.937500 1.000000
0.968750 1.000000
0.000000 0.937500
0.031250 0.937500
0.062500 0.937500
0.093750 0.937500
0.125000 0.937500
0.156250 0.937500
0.187500 0.937500
0.218750 0.937500
0.250000 0.937500
0.281250 0.937500
0.312500 0.937500
0.343750 0.937500
0.375000 0.937500
0.406250 0.937500
0.437500 0.937500
0.468750 0.937500
0.500000 0.937500
0.531250 0.937500
0.562500 0.937500
0.593750 0.937500
0.625000 0.937500
0.656250 0.937500
0.687500 0.937500
0.718750 0.937500
0.750000 0.937500
0.781250 0.937500
0.812500 0.937500
0.843750 0.937500
0.875000 0.937500
0.906250 0.937500
0.937500 0.937500
0.968750 0.937500
1.000000 0.937500
0.000000 0.875000
0.031250 0.875000
0.062500 0.875000
0.093750 0.875000
0.125000 0.875000
0.156250 0.875000
0.187500 0.875000
0.218750 0.875000
0.250000 0.875000
0.281250 0.875000
0.312500 0.875000
0.343750 0.875000
0.375000 0.875000
0.406250 0.875000
0.437500 0.875000
0.468750 0.875000
0.500000 0.875000
0.531250 0.875000
0.562500 0.875000
0.593750 0.875000
0.625000 0.875000
0.656250 0.875000
0.687500 0.875000
0.718750 0.875000
0.750000 0.875000
0.781250 0.875000
0.812500 0.875000
0.843750 0.875000
0.875000 0.875000
0.906250 0.875000
0.937500 0.875000
0.968750 0.875000
1.000000 0.875000
0.000000 0.812500
0.031250 0.812500
0.062500 0.812500
0.093750 0.812500
0.125000 0.812500
0.156250 0.812500
0.187500 0.812500
0.218750 0.812500
0.250000 0.812500
0.281250 0.812500
0.312500 0.812500
0.343750 0.812500
0.375000 0.812500
0.406250 0.812500
0.437500 0.812500
0.468750 0.812500
0.500000 0.812500
0.531250 0.812500
0.562500 0.812500
0.593750 0.812500
0.625000 0.812500
0.656250 0.812500
0.687500 0.812500
0.718750 0.812500
0.750000 0.812500
0.781250 0.812500
0.812500 0.812500
0.843750 0.812500
0.875000 0.812500
0.906250 0.812500
0.937500 0.812500
0.968750 0.812500
1.000000 0.812500
0.000000 0.750000
0.031250 0.750000
0.062500 0.750000
0.093750 0.750000
0.125000 0.750000
0.156250 0.750000
0.187500 0.750000
0.218750 0.750000
0.250000 0.750000
0.281250 0.750000
0.312500 0.750000
0.343750 0.750000
0.375000 0.750000
0.406250 0.750000
0.437500 0.750000
0.468750 0.750000
0.500000 0.750000
0.531250 0.750000
0.562500 0.750000
0.593750 0.750000
0.625000 0.750000
0.656250 0.750000
0.687500 0.750000
0.718750 0.750000
0.750000 0.750000
0.781250 0.750000
0.812500 0.750000
0.843750 0.750000
0.875000 0.750000
0.906250 0.750000
0.937500 0.750000
0.968750 0.750000
1.000000 0.750000
0.000000 0.687500
0.031250 0.687500
0.062500 0.687500
0.093750 0.687500
0.125000 0.687500
0.156250 0.687500
0.187500 0.687500
0.218750 0.687500
0.250000 0.687500
0.281250 0.687500
0.312500 0.687500
0.343750 0.687500
0.375000 0.687500
0.406250 0.687500
0.437500 0.687500
0.468750 0.687500
0.500000 0.687500
0.531250 0.687500
0.562500 0.687500
0.593750 0.687500
0.625000 0.687500
0.656250 0.687500
0.843750 0.687500
0.875000 0.687500
0.906250 0.687500
0.937500 0.687500
0.968750 0.687500
1.000000 0.687500
0.000000 0.625000
0.031250 0.625000
0.062500 0.625000
0.093750 0.625000
0.125000 0.625000
0.156250 0.625000
0.187500 0.625000
0.218750 0.625000
0.250000 0.625000
0.281250 0.625000
0.312500 0.625000
0.343750 0.625000
0.375000 0.625000
0.406250 0.625000
0.437500 0.625000
0.468750 0.625000
0.500000 0.625000
0.531250 0.625000
0.562500 0.625000
0.593750 0.625000
0.625000 0.625000
0.656250 0.625000
0.843750 0.625000
0.875000 0.625000
0.906250 0.625000
0.937500 0.625000
0.968750 0.625000
1.000000 0.625000
0.000000 0.562500
0.031250 0.562500
0.062500 0.562500
0.093750 0.562500
0.125000 0.562500
0.156250 0.562500
0.187500 0.562500
0.218750 0.562500
0.250000 0.562500
0.281250 0.562500
0.312500 0.562500
0.343750 0.562500
0.375000 0.562500
0.406250 0.562500
0.437500 0.562500
0.468750 0.562500
0.500000 0.562500
0.531250 0.562500
0.562500 0.562500
0.593750 0.562500
0.625000 0.562500
0.656250 0.562500
0.843750 0.562500
0.875000 0.562500
0.906250 0.562500
0.937500 0.562500
0.968750 0.562500
1.000000 0.562500
0.656250 0.750000
0.687500 0.750000
0.718750 0.750000
0.750000 0.750000
0.781250 0.750000
0.812500 0.750000
0.843750 0.750000
0.656250 0.687500
0.843750 0.687500
0.656250 0.625000
0.843750 0.625000
0.000000 0.562500
0.031250 0.562500
0.062500 0.562500
0.093750 0.562500
0.125000 0.562500
0.156250 0.562500
0.187500 0.562500
0.218750 0.562500
0.250000 0.562500
0.281250 0.562500
0.312500 0.562500
0.343750 0.562500
0.375000 0.562500
0.406250 0.562500
0.437500 0.562500
0.468750 0.562500
0.500000 0.562500
0.531250 0.562500
0.562500 0.562500
0.593750 0.562500
0.625000 0.562500
0.656250 0.562500
0.843750 0.562500
0.875000 0.562500
0.906250 0.562500
0.937500 0.562500
0.968750 0.562500
1.000000 0.562500
</float_array>
          <technique_common>
            <accessor source="#CharacterCashier_accessory_01-UV0-array" count="287" stride="2">
              <param name="S" type="float"/>
              <param name="T" type="float"/>
            </accessor>
          </technique_common>
        </source>
        <source id="CharacterCashier_accessory_01-VERTEX_COLOR0">
          <float_array id="CharacterCashier_accessory_01-VERTEX_COLOR0-array" count="3776">
0.019608 0.007843 0.000000 0.000000
0.019608 0.007843 0.000000 0.000000
0.019608 0.007843 0.000000 0.000000
0.019608 0.007843 0.000000 0.000000
0.019608 0.007843 0.000000 0.000000
0.019608 0.007843 0.000000 0.000000
0.019608 0.007843 0.000000 0.000000
0.019608 0.007843 0.000000 0.000000
0.019608 0.007843 0.000000 0.000000
0.019608 0.007843 0.000000 0.000000
0.019608 0.007843 0.000000 0.000000
0.019608 0.007843 0.000000 0.000000
0.019608 0.007843 0.000000 0.000000
0.019608 0.007843 0.000000 0.000000
0.019608 0.007843 0.000000 0.000000
0.019608 0.007843 0.000000 0.000000
0.019608 0.007843 0.000000 0.000000
0.019608 0.007843 0.000000 0.000000
0.019608 0.007843 0.000000 0.000000
0.019608 0.007843 0.000000 0.000000
0.019608 0.007843 0.000000 0.000000
0.019608 0.007843 0.000000 0.000000
0.019608 0.007843 0.000000 0.000000
0.019608 0.007843 0.000000 0.000000
0.019608 0.007843 0.000000 0.000000
0.019608 0.007843 0.000000 0.000000
0.019608 0.007843 0.000000 0.000000
0.019608 0.007843 0.000000 0.000000
0.019608 0.007843 0.000000 0.000000
0.019608 0.007843 0.000000 0.000000
0.019608 0.007843 0.000000 0.000000
0.019608 0.007843 0.000000 0.000000
0.019608 0.007843 0.000000 0.000000
0.019608 0.007843 0.000000 0.000000
0.019608 0.007843 0.000000 0.000000
0.019608 0.007843 0.000000 0.000000
0.019608 0.007843 0.000000 0.000000
0.019608 0.007843 0.000000 0.000000
0.019608 0.007843 0.000000 0.000000
0.019608 0.007843 0.000000 0.000000
0.019608 0.007843 0.000000 0.000000
0.019608 0.007843 0.000000 0.000000
0.019608 0.007843 0.000000 0.000000
0.019608 0.007843 0.000000 0.000000
0.019608 0.007843 0.000000 0.000000
0.019608 0.007843 0.000000 0.000000
0.019608 0.007843 0.000000 0.000000
0.019608 0.007843 0.000000 0.000000
0.019608 0.007843 0.000000 0.000000
0.019608 0.007843 0.000000 0.000000
0.019608 0.007843 0.000000 0.000000
0.019608 0.007843 0.000000 0.000000
0.019608 0.007843 0.000000 0.000000
0.019608 0.007843 0.000000 0.000000
0.019608 0.007843 0.000000 0.000000
0.019608 0.007843 0.000000 0.000000
0.019608 0.007843 0.000000 0.000000
0.019608 0.007843 0.000000 0.000000
0.019608 0.007843 0.000000 0.000000
0.019608 0.007843 0.000000 0.000000
0.019608 0.007843 0.000000 0.000000
0.019608 0.007843 0.000000 0.000000
0.019608 0.007843 0.000000 0.000000
0.019608 0.007843 0.000000 0.000000
0.019608 0.007843 0.000000 0.000000
0.019608 0.007843 0.000000 0.000000
0.019608 0.007843 0.000000 0.000000
0.019608 0.007843 0.000000 0.000000
0.019608 0.007843 0.000000 0.000000
0.019608 0.007843 0.000000 0.000000
0.019608 0.007843 0.000000 0.000000
0.019608 0.007843 0.000000 0.000000
0.019608 0.007843 0.000000 0.000000
0.019608 0.007843 0.000000 0.000000
0.019608 0.007843 0.000000 0.000000
0.019608 0.007843 0.000000 0.000000
0.019608 0.007843 0.000000 0.000000
0.019608 0.007843 0.000000 0.000000
0.019608 0.007843 0.000000 0.000000
0.019608 0.007843 0.000000 0.000000
0.019608 0.007843 0.000000 0.000000
0.019608 0.007843 0.000000 0.000000
0.019608 0.007843 0.000000 0.000000
0.019608 0.007843 0.000000 0.000000
0.019608 0.007843 0.000000 0.000000
0.019608 0.007843 0.000000 0.000000
0.019608 0.007843 0.000000 0.000000
0.019608 0.007843 0.000000 0.000000
0.019608 0.007843 0.000000 0.000000
0.019608 0.007843 0.000000 0.000000
0.019608 0.007843 0.000000 0.000000
0.019608 0.007843 0.000000 0.000000
0.019608 0.007843 0.000000 0.000000
0.019608 0.007843 0.000000 0.000000
0.019608 0.007843 0.000000 0.000000
0.019608 0.007843 0.000000 0.000000
0.019608 0.007843 0.000000 0.000000
0.019608 0.007843 0.000000 0.000000
0.019608 0.007843 0.000000 0.000000
0.019608 0.007843 0.000000 0.000000
0.019608 0.007843 0.000000 0.000000
0.019608 0.007843 0.000000 0.000000
0.019608 0.007843 0.000000 0.000000
0.019608 0.007843 0.000000 0.000000
0.019608 0.007843 0.000000 0.000000
0.019608 0.007843 0.000000 0.000000
0.019608 0.007843 0.000000 0.000000
0.019608 0.007843 0.000000 0.000000
0.019608 0.007843 0.000000 0.000000
0.019608 0.007843 0.000000 0.000000
0.019608 0.007843 0.000000 0.000000
0.019608 0.007843 0.000000 0.000000
0.019608 0.007843 0.000000 0.000000
0.019608 0.007843 0.000000 0.000000
0.019608 0.007843 0.000000 0.000000
0.019608 0.007843 0.000000 0.000000
0.019608 0.007843 0.000000 0.000000
0.019608 0.007843 0.000000 0.000000
0.019608 0.007843 0.000000 0.000000
0.019608 0.007843 0.000000 0.000000
0.019608 0.007843 0.000000 0.000000
0.019608 0.007843 0.000000 0.000000
0.019608 0.007843 0.000000 0.000000
0.019608 0.007843 0.000000 0.000000
0.019608 0.007843 0.000000 0.000000
0.019608 0.007843 0.000000 0.000000
0.019608 0.007843 0.000000 0.000000
0.019608 0.007843 0.000000 0.000000
0.019608 0.007843 0.000000 0.000000
0.019608 0.007843 0.000000 0.000000
0.019608 0.007843 0.000000 0.000000
0.019608 0.007843 0.000000 0.000000
0.019608 0.007843 0.000000 0.000000
0.019608 0.007843 0.000000 0.000000
0.019608 0.007843 0.000000 0.000000
0.019608 0.007843 0.000000 0.000000
0.019608 0.007843 0.000000 0.000000
0.019608 0.007843 0.000000 0.000000
0.019608 0.007843 0.000000 0.000000
0.019608 0.007843 0.000000 0.000000
0.019608 0.007843 0.000000 0.000000
0.019608 0.007843 0.000000 0.000000
0.019608 0.007843 0.000000 0.000000
0.019608 0.007843 0.000000 0.000000
0.019608 0.007843 0.000000 0.000000
0.019608 0.007843 0.000000 0.000000
0.019608 0.007843 0.000000 0.000000
0.019608 0.007843 0.000000 0.000000
0.019608 0.007843 0.000000 0.000000
0.019608 0.007843 0.000000 0.000000
0.019608 0.007843 0.000000 0.000000
0.019608 0.007843 0.000000 0.000000
0.019608 0.007843 0.000000 0.000000
0.019608 0.007843 0.000000 0.000000
0.019608 0.007843 0.000000 0.000000
0.019608 0.007843 0.000000 0.000000
0.019608 0.007843 0.000000 0.000000
0.019608 0.007843 0.000000 0.000000
0.019608 0.007843 0.000000 0.000000
0.019608 0.007843 0.000000 0.000000
0.019608 0.007843 0.000000 0.000000
0.019608 0.007843 0.000000 0.000000
0.019608 0.007843 0.000000 0.000000
0.019608 0.007843 0.000000 0.000000
0.019608 0.007843 0.000000 0.000000
0.019608 0.007843 0.000000 0.000000
0.019608 0.007843 0.000000 0.000000
0.019608 0.007843 0.000000 0.000000
0.019608 0.007843 0.000000 0.000000
0.019608 0.007843 0.000000 0.000000
0.019608 0.007843 0.000000 0.000000
0.019608 0.007843 0.000000 0.000000
0.019608 0.007843 0.000000 0.000000
0.019608 0.007843 0.000000 0.000000
0.019608 0.007843 0.000000 0.000000
0.019608 0.007843 0.000000 0.000000
0.019608 0.007843 0.000000 0.000000
0.019608 0.007843 0.000000 0.000000
0.019608 0.007843 0.000000 0.000000
0.019608 0.007843 0.000000 0.000000
0.019608 0.007843 0.000000 0.000000
0.019608 0.007843 0.000000 0.000000
0.019608 0.007843 0.000000 0.000000
0.019608 0.007843 0.000000 0.000000
0.019608 0.007843 0.000000 0.000000
0.019608 0.007843 0.000000 0.000000
0.019608 0.007843 0.000000 0.000000
0.019608 0.007843 0.000000 0.000000
0.019608 0.007843 0.000000 0.000000
0.019608 0.007843 0.000000 0.000000
0.019608 0.007843 0.000000 0.000000
0.019608 0.007843 0.000000 0.000000
0.019608 0.007843 0.000000 0.000000
0.019608 0.007843 0.000000 0.000000
0.019608 0.007843 0.000000 0.000000
0.019608 0.007843 0.000000 0.000000
0.019608 0.007843 0.000000 0.000000
0.019608 0.007843 0.000000 0.000000
0.019608 0.007843 0.000000 0.000000
0.019608 0.007843 0.000000 0.000000
0.019608 0.007843 0.000000 0.000000
0.019608 0.007843 0.000000 0.000000
0.019608 0.007843 0.000000 0.000000
0.019608 0.007843 0.000000 0.000000
0.019608 0.007843 0.000000 0.000000
0.019608 0.007843 0.000000 0.000000
0.019608 0.007843 0.000000 0.000000
0.019608 0.007843 0.000000 0.000000
0.019608 0.007843 0.000000 0.000000
0.019608 0.007843 0.000000 0.000000
0.019608 0.007843 0.000000 0.000000
0.019608 0.007843 0.000000 0.000000
0.019608 0.007843 0.000000 0.000000
0.019608 0.007843 0.000000 0.000000
0.019608 0.007843 0.000000 0.000000
0.019608 0.007843 0.000000 0.000000
0.019608 0.007843 0.000000 0.000000
0.019608 0.007843 0.000000 0.000000
0.019608 0.007843 0.000000 0.000000
0.019608 0.007843 0.000000 0.000000
0.019608 0.007843 0.000000 0.000000
0.019608 0.007843 0.000000 0.000000
0.019608 0.007843 0.000000 0.000000
0.019608 0.007843 0.000000 0.000000
0.019608 0.007843 0.000000 0.000000
0.019608 0.007843 0.000000 0.000000
0.019608 0.007843 0.000000 0.000000
0.019608 0.007843 0.000000 0.000000
0.019608 0.007843 0.000000 0.000000
0.019608 0.007843 0.000000 0.000000
0.019608 0.007843 0.000000 0.000000
0.019608 0.007843 0.000000 0.000000
0.019608 0.007843 0.000000 0.000000
0.019608 0.007843 0.000000 0.000000
0.019608 0.007843 0.000000 0.000000
0.019608 0.007843 0.000000 0.000000
0.019608 0.007843 0.000000 0.000000
0.019608 0.007843 0.000000 0.000000
0.019608 0.007843 0.000000 0.000000
0.019608 0.007843 0.000000 0.000000
0.019608 0.007843 0.000000 0.000000
0.019608 0.007843 0.000000 0.000000
0.019608 0.007843 0.000000 0.000000
0.019608 0.007843 0.000000 0.000000
0.019608 0.007843 0.000000 0.000000
0.019608 0.007843 0.000000 0.000000
0.019608 0.007843 0.000000 0.000000
0.019608 0.007843 0.000000 0.000000
0.019608 0.007843 0.000000 0.000000
0.019608 0.007843 0.000000 0.000000
0.019608 0.007843 0.000000 0.000000
0.019608 0.007843 0.000000 0.000000
0.019608 0.007843 0.000000 0.000000
0.019608 0.007843 0.000000 0.000000
0.019608 0.007843 0.000000 0.000000
0.019608 0.007843 0.000000 0.000000
0.019608 0.007843 0.000000 0.000000
0.019608 0.007843 0.000000 0.000000
0.019608 0.007843 0.000000 0.000000
0.019608 0.007843 0.000000 0.000000
0.019608 0.007843 0.000000 0.000000
0.019608 0.007843 0.000000 0.000000
0.019608 0.007843 0.000000 0.000000
0.019608 0.007843 0.000000 0.000000
0.019608 0.007843 0.000000 0.000000
0.019608 0.007843 0.000000 0.000000
0.019608 0.007843 0.000000 0.000000
0.019608 0.007843 0.000000 0.000000
0.019608 0.007843 0.000000 0.000000
0.019608 0.007843 0.000000 0.000000
0.019608 0.007843 0.000000 0.000000
0.019608 0.007843 0.000000 0.000000
0.019608 0.007843 0.000000 0.000000
0.019608 0.007843 0.000000 0.000000
0.019608 0.007843 0.000000 0.000000
0.019608 0.007843 0.000000 0.000000
0.019608 0.007843 0.000000 0.000000
0.019608 0.007843 0.000000 0.000000
0.019608 0.007843 0.000000 0.000000
0.019608 0.007843 0.000000 0.000000
0.019608 0.007843 0.000000 0.000000
0.019608 0.007843 0.000000 0.000000
0.019608 0.007843 0.000000 0.000000
0.019608 0.007843 0.000000 0.000000
0.019608 0.007843 0.000000 0.000000
0.019608 0.007843 0.000000 0.000000
0.019608 0.007843 0.000000 0.000000
0.019608 0.007843 0.000000 0.000000
0.019608 0.007843 0.000000 0.000000
0.019608 0.007843 0.000000 0.000000
0.019608 0.007843 0.000000 0.000000
0.019608 0.007843 0.000000 0.000000
0.019608 0.007843 0.000000 0.000000
0.019608 0.007843 0.000000 0.000000
0.019608 0.007843 0.000000 0.000000
0.019608 0.007843 0.000000 0.000000
0.019608 0.007843 0.000000 0.000000
0.019608 0.007843 0.000000 0.000000
0.019608 0.007843 0.000000 0.000000
0.019608 0.007843 0.000000 0.000000
0.019608 0.007843 0.000000 0.000000
0.019608 0.007843 0.000000 0.000000
0.019608 0.007843 0.000000 0.000000
0.019608 0.007843 0.000000 0.000000
0.019608 0.007843 0.000000 0.000000
0.019608 0.007843 0.000000 0.000000
0.019608 0.007843 0.000000 0.000000
0.019608 0.007843 0.000000 0.000000
0.019608 0.007843 0.000000 0.000000
0.019608 0.007843 0.000000 0.000000
0.019608 0.007843 0.000000 0.000000
0.019608 0.007843 0.000000 0.000000
0.019608 0.007843 0.000000 0.000000
0.019608 0.007843 0.000000 0.000000
0.019608 0.007843 0.000000 0.000000
0.019608 0.007843 0.000000 0.000000
0.019608 0.007843 0.000000 0.000000
0.019608 0.007843 0.000000 0.000000
0.019608 0.007843 0.000000 0.000000
0.019608 0.007843 0.000000 0.000000
0.019608 0.007843 0.000000 0.000000
0.019608 0.007843 0.000000 0.000000
0.019608 0.007843 0.000000 0.000000
0.019608 0.007843 0.000000 0.000000
0.019608 0.007843 0.000000 0.000000
0.019608 0.007843 0.000000 0.000000
0.019608 0.007843 0.000000 0.000000
0.019608 0.007843 0.000000 0.000000
0.019608 0.007843 0.000000 0.000000
0.019608 0.007843 0.000000 0.000000
0.019608 0.007843 0.000000 0.000000
0.019608 0.007843 0.000000 0.000000
0.019608 0.007843 0.000000 0.000000
0.019608 0.007843 0.000000 0.000000
0.019608 0.007843 0.000000 0.000000
0.019608 0.007843 0.000000 0.000000
0.019608 0.007843 0.000000 0.000000
0.019608 0.007843 0.000000 0.000000
0.019608 0.007843 0.000000 0.000000
0.019608 0.007843 0.000000 0.000000
0.019608 0.007843 0.000000 0.000000
0.019608 0.007843 0.000000 0.000000
0.019608 0.007843 0.000000 0.000000
0.019608 0.007843 0.000000 0.000000
0.019608 0.007843 0.000000 0.000000
0.019608 0.007843 0.000000 0.000000
0.019608 0.007843 0.000000 0.000000
0.019608 0.007843 0.000000 0.000000
0.019608 0.007843 0.000000 0.000000
0.019608 0.007843 0.000000 0.000000
0.019608 0.007843 0.000000 0.000000
0.019608 0.007843 0.000000 0.000000
0.019608 0.007843 0.000000 0.000000
0.019608 0.007843 0.000000 0.000000
0.019608 0.007843 0.000000 0.000000
0.019608 0.007843 0.000000 0.000000
0.019608 0.007843 0.000000 0.000000
0.019608 0.007843 0.000000 0.000000
0.019608 0.007843 0.000000 0.000000
0.019608 0.007843 0.000000 0.000000
0.019608 0.007843 0.000000 0.000000
0.019608 0.007843 0.000000 0.000000
0.019608 0.007843 0.000000 0.000000
0.019608 0.007843 0.000000 0.000000
0.019608 0.007843 0.000000 0.000000
0.019608 0.007843 0.000000 0.000000
0.019608 0.007843 0.000000 0.000000
0.019608 0.007843 0.000000 0.000000
0.019608 0.007843 0.000000 0.000000
0.019608 0.007843 0.000000 0.000000
0.019608 0.007843 0.000000 0.000000
0.019608 0.007843 0.000000 0.000000
0.019608 0.007843 0.000000 0.000000
0.019608 0.007843 0.000000 0.000000
0.019608 0.007843 0.000000 0.000000
0.019608 0.007843 0.000000 0.000000
0.019608 0.007843 0.000000 0.000000
0.019608 0.007843 0.000000 0.000000
0.019608 0.007843 0.000000 0.000000
0.019608 0.007843 0.000000 0.000000
0.019608 0.007843 0.000000 0.000000
0.019608 0.007843 0.000000 0.000000
0.019608 0.007843 0.000000 0.000000
0.019608 0.007843 0.000000 0.000000
0.019608 0.007843 0.000000 0.000000
0.019608 0.007843 0.000000 0.000000
0.019608 0.007843 0.000000 0.000000
0.019608 0.007843 0.000000 0.000000
0.019608 0.007843 0.000000 0.000000
0.019608 0.007843 0.000000 0.000000
0.019608 0.007843 0.000000 0.000000
0.019608 0.007843 0.000000 0.000000
0.019608 0.007843 0.000000 0.000000
0.019608 0.007843 0.000000 0.000000
0.019608 0.007843 0.000000 0.000000
0.019608 0.007843 0.000000 0.000000
0.019608 0.007843 0.000000 0.000000
0.019608 0.007843 0.000000 0.000000
0.019608 0.007843 0.000000 0.000000
0.019608 0.007843 0.000000 0.000000
0.019608 0.007843 0.000000 0.000000
0.019608 0.007843 0.000000 0.000000
0.019608 0.007843 0.000000 0.000000
0.019608 0.007843 0.000000 0.000000
0.019608 0.007843 0.000000 0.000000
0.019608 0.007843 0.000000 0.000000
0.019608 0.007843 0.000000 0.000000
0.019608 0.007843 0.000000 0.000000
0.019608 0.007843 0.000000 0.000000
0.019608 0.007843 0.000000 0.000000
0.019608 0.007843 0.000000 0.000000
0.019608 0.007843 0.000000 0.000000
0.019608 0.007843 0.000000 0.000000
0.019608 0.007843 0.000000 0.000000
0.019608 0.007843 0.000000 0.000000
0.019608 0.007843 0.000000 0.000000
0.019608 0.007843 0.000000 0.000000
0.019608 0.007843 0.000000 0.000000
0.019608 0.007843 0.000000 0.000000
0.019608 0.007843 0.000000 0.000000
0.019608 0.007843 0.000000 0.000000
0.019608 0.007843 0.000000 0.000000
0.019608 0.007843 0.000000 0.000000
0.019608 0.007843 0.000000 0.000000
0.019608 0.007843 0.000000 0.000000
0.019608 0.007843 0.000000 0.000000
0.019608 0.007843 0.000000 0.000000
0.019608 0.007843 0.000000 0.000000
0.019608 0.007843 0.000000 0.000000
0.019608 0.007843 0.000000 0.000000
0.019608 0.007843 0.000000 0.000000
0.019608 0.007843 0.000000 0.000000
0.019608 0.007843 0.000000 0.000000
0.019608 0.007843 0.000000 0.000000
0.019608 0.007843 0.000000 0.000000
0.019608 0.007843 0.000000 0.000000
0.019608 0.007843 0.000000 0.000000
0.019608 0.007843 0.000000 0.000000
0.019608 0.007843 0.000000 0.000000
0.019608 0.007843 0.000000 0.000000
0.019608 0.007843 0.000000 0.000000
0.019608 0.007843 0.000000 0.000000
0.019608 0.007843 0.000000 0.000000
0.019608 0.007843 0.000000 0.000000
0.019608 0.007843 0.000000 0.000000
0.019608 0.007843 0.000000 0.000000
0.019608 0.007843 0.000000 0.000000
0.019608 0.007843 0.000000 0.000000
0.019608 0.007843 0.000000 0.000000
0.019608 0.007843 0.000000 0.000000
0.019608 0.007843 0.000000 0.000000
0.019608 0.007843 0.000000 0.000000
0.019608 0.007843 0.000000 0.000000
0.019608 0.007843 0.000000 0.000000
0.019608 0.007843 0.000000 0.000000
0.019608 0.007843 0.000000 0.000000
0.019608 0.007843 0.000000 0.000000
0.019608 0.007843 0.000000 0.000000
0.019608 0.007843 0.000000 0.000000
0.019608 0.007843 0.000000 0.000000
0.019608 0.007843 0.000000 0.000000
0.019608 0.007843 0.000000 0.000000
0.019608 0.007843 0.000000 0.000000
0.019608 0.007843 0.000000 0.000000
0.019608 0.007843 0.000000 0.000000
0.019608 0.007843 0.000000 0.000000
0.019608 0.007843 0.000000 0.000000
0.019608 0.007843 0.000000 0.000000
0.019608 0.007843 0.000000 0.000000
0.019608 0.007843 0.000000 0.000000
0.019608 0.007843 0.000000 0.000000
0.019608 0.007843 0.000000 0.000000
0.019608 0.007843 0.000000 0.000000
0.019608 0.007843 0.000000 0.000000
0.019608 0.007843 0.000000 0.000000
0.019608 0.007843 0.000000 0.000000
0.019608 0.007843 0.000000 0.000000
0.019608 0.007843 0.000000 0.000000
0.019608 0.007843 0.000000 0.000000
0.019608 0.007843 0.000000 0.000000
0.019608 0.007843 0.000000 0.000000
0.019608 0.007843 0.000000 0.000000
0.019608 0.007843 0.000000 0.000000
0.019608 0.007843 0.000000 0.000000
0.019608 0.007843 0.000000 0.000000
0.019608 0.007843 0.000000 0.000000
0.019608 0.007843 0.000000 0.000000
0.019608 0.007843 0.000000 0.000000
0.019608 0.007843 0.000000 0.000000
0.019608 0.007843 0.000000 0.000000
0.019608 0.007843 0.000000 0.000000
0.019608 0.007843 0.000000 0.000000
0.019608 0.007843 0.000000 0.000000
0.019608 0.007843 0.000000 0.000000
0.019608 0.007843 0.000000 0.000000
0.019608 0.007843 0.000000 0.000000
0.019608 0.007843 0.000000 0.000000
0.019608 0.007843 0.000000 0.000000
0.019608 0.007843 0.000000 0.000000
0.019608 0.007843 0.000000 0.000000
0.019608 0.007843 0.000000 0.000000
0.019608 0.007843 0.000000 0.000000
0.019608 0.007843 0.000000 0.000000
0.019608 0.007843 0.000000 0.000000
0.019608 0.007843 0.000000 0.000000
0.019608 0.007843 0.000000 0.000000
0.019608 0.007843 0.000000 0.000000
0.019608 0.007843 0.000000 0.000000
0.019608 0.007843 0.000000 0.000000
0.019608 0.007843 0.000000 0.000000
0.019608 0.007843 0.000000 0.000000
0.019608 0.007843 0.000000 0.000000
0.019608 0.007843 0.000000 0.000000
0.019608 0.007843 0.000000 0.000000
0.019608 0.007843 0.000000 0.000000
0.019608 0.007843 0.000000 0.000000
0.019608 0.007843 0.000000 0.000000
0.019608 0.007843 0.000000 0.000000
0.019608 0.007843 0.000000 0.000000
0.019608 0.007843 0.000000 0.000000
0.019608 0.007843 0.000000 0.000000
0.019608 0.007843 0.000000 0.000000
0.019608 0.007843 0.000000 0.000000
0.019608 0.007843 0.000000 0.000000
0.019608 0.007843 0.000000 0.000000
0.019608 0.007843 0.000000 0.000000
0.019608 0.007843 0.000000 0.000000
0.019608 0.007843 0.000000 0.000000
0.019608 0.007843 0.000000 0.000000
0.019608 0.007843 0.000000 0.000000
0.019608 0.007843 0.000000 0.000000
0.019608 0.007843 0.000000 0.000000
0.019608 0.007843 0.000000 0.000000
0.019608 0.007843 0.000000 0.000000
0.019608 0.007843 0.000000 0.000000
0.019608 0.007843 0.000000 0.000000
0.019608 0.007843 0.000000 0.000000
0.019608 0.007843 0.000000 0.000000
0.019608 0.007843 0.000000 0.000000
0.019608 0.007843 0.000000 0.000000
0.019608 0.007843 0.000000 0.000000
0.019608 0.007843 0.000000 0.000000
0.019608 0.007843 0.000000 0.000000
0.019608 0.007843 0.000000 0.000000
0.019608 0.007843 0.000000 0.000000
0.019608 0.007843 0.000000 0.000000
0.019608 0.007843 0.000000 0.000000
0.019608 0.007843 0.000000 0.000000
0.019608 0.007843 0.000000 0.000000
0.019608 0.007843 0.000000 0.000000
0.019608 0.007843 0.000000 0.000000
0.019608 0.007843 0.000000 0.000000
0.019608 0.007843 0.000000 0.000000
0.019608 0.007843 0.000000 0.000000
0.019608 0.007843 0.000000 0.000000
0.019608 0.007843 0.000000 0.000000
0.019608 0.007843 0.000000 0.000000
0.019608 0.007843 0.000000 0.000000
0.019608 0.007843 0.000000 0.000000
0.019608 0.007843 0.000000 0.000000
0.019608 0.007843 0.000000 0.000000
0.019608 0.007843 0.000000 0.000000
0.019608 0.007843 0.000000 0.000000
0.019608 0.007843 0.000000 0.000000
0.019608 0.007843 0.000000 0.000000
0.019608 0.007843 0.000000 0.000000
0.019608 0.007843 0.000000 0.000000
0.019608 0.007843 0.000000 0.000000
0.019608 0.007843 0.000000 0.000000
0.019608 0.007843 0.000000 0.000000
0.019608 0.007843 0.000000 0.000000
0.019608 0.007843 0.000000 0.000000
0.019608 0.007843 0.000000 0.000000
0.019608 0.007843 0.000000 0.000000
0.019608 0.007843 0.000000 0.000000
0.019608 0.007843 0.000000 0.000000
0.019608 0.007843 0.000000 0.000000
0.019608 0.007843 0.000000 0.000000
0.019608 0.007843 0.000000 0.000000
0.019608 0.007843 0.000000 0.000000
0.019608 0.007843 0.000000 0.000000
0.019608 0.007843 0.000000 0.000000
0.019608 0.007843 0.000000 0.000000
0.019608 0.007843 0.000000 0.000000
0.019608 0.007843 0.000000 0.000000
0.019608 0.007843 0.000000 0.000000
0.019608 0.007843 0.000000 0.000000
0.019608 0.007843 0.000000 0.000000
0.019608 0.007843 0.000000 0.000000
0.019608 0.007843 0.000000 0.000000
0.019608 0.007843 0.000000 0.000000
0.019608 0.007843 0.000000 0.000000
0.019608 0.007843 0.000000 0.000000
0.019608 0.007843 0.000000 0.000000
0.019608 0.007843 0.000000 0.000000
0.019608 0.007843 0.000000 0.000000
0.019608 0.007843 0.000000 0.000000
0.019608 0.007843 0.000000 0.000000
0.019608 0.007843 0.000000 0.000000
0.019608 0.007843 0.000000 0.000000
0.019608 0.007843 0.000000 0.000000
0.019608 0.007843 0.000000 0.000000
0.019608 0.007843 0.000000 0.000000
0.019608 0.007843 0.000000 0.000000
0.019608 0.007843 0.000000 0.000000
0.019608 0.007843 0.000000 0.000000
0.019608 0.007843 0.000000 0.000000
0.019608 0.007843 0.000000 0.000000
0.019608 0.007843 0.000000 0.000000
0.019608 0.007843 0.000000 0.000000
0.019608 0.007843 0.000000 0.000000
0.019608 0.007843 0.000000 0.000000
0.019608 0.007843 0.000000 0.000000
0.019608 0.007843 0.000000 0.000000
0.019608 0.007843 0.000000 0.000000
0.019608 0.007843 0.000000 0.000000
0.019608 0.007843 0.000000 0.000000
0.019608 0.007843 0.000000 0.000000
0.019608 0.007843 0.000000 0.000000
0.019608 0.007843 0.000000 0.000000
0.019608 0.007843 0.000000 0.000000
0.019608 0.007843 0.000000 0.000000
0.019608 0.007843 0.000000 0.000000
0.019608 0.007843 0.000000 0.000000
0.019608 0.007843 0.000000 0.000000
0.019608 0.007843 0.000000 0.000000
0.019608 0.007843 0.000000 0.000000
0.019608 0.007843 0.000000 0.000000
0.019608 0.007843 0.000000 0.000000
0.019608 0.007843 0.000000 0.000000
0.019608 0.007843 0.000000 0.000000
0.019608 0.007843 0.000000 0.000000
0.019608 0.007843 0.000000 0.000000
0.019608 0.007843 0.000000 0.000000
0.019608 0.007843 0.000000 0.000000
0.019608 0.007843 0.000000 0.000000
0.019608 0.007843 0.000000 0.000000
0.019608 0.007843 0.000000 0.000000
0.019608 0.007843 0.000000 0.000000
0.019608 0.007843 0.000000 0.000000
0.019608 0.007843 0.000000 0.000000
0.019608 0.007843 0.000000 0.000000
0.019608 0.007843 0.000000 0.000000
0.019608 0.007843 0.000000 0.000000
0.019608 0.007843 0.000000 0.000000
0.019608 0.007843 0.000000 0.000000
0.019608 0.007843 0.000000 0.000000
0.019608 0.007843 0.000000 0.000000
0.019608 0.007843 0.000000 0.000000
0.019608 0.007843 0.000000 0.000000
0.019608 0.007843 0.000000 0.000000
0.019608 0.007843 0.000000 0.000000
0.019608 0.007843 0.000000 0.000000
0.019608 0.007843 0.000000 0.000000
0.019608 0.007843 0.000000 0.000000
0.019608 0.007843 0.000000 0.000000
0.019608 0.007843 0.000000 0.000000
0.019608 0.007843 0.000000 0.000000
0.019608 0.007843 0.000000 0.000000
0.019608 0.007843 0.000000 0.000000
0.019608 0.007843 0.000000 0.000000
0.019608 0.007843 0.000000 0.000000
0.019608 0.007843 0.000000 0.000000
0.019608 0.007843 0.000000 0.000000
0.019608 0.007843 0.000000 0.000000
0.019608 0.007843 0.000000 0.000000
0.019608 0.007843 0.000000 0.000000
0.019608 0.007843 0.000000 0.000000
0.019608 0.007843 0.000000 0.000000
0.019608 0.007843 0.000000 0.000000
0.019608 0.007843 0.000000 0.000000
0.019608 0.007843 0.000000 0.000000
0.019608 0.007843 0.000000 0.000000
0.019608 0.007843 0.000000 0.000000
0.019608 0.007843 0.000000 0.000000
0.019608 0.007843 0.000000 0.000000
0.019608 0.007843 0.000000 0.000000
0.019608 0.007843 0.000000 0.000000
0.019608 0.007843 0.000000 0.000000
0.019608 0.007843 0.000000 0.000000
0.019608 0.007843 0.000000 0.000000
0.019608 0.007843 0.000000 0.000000
0.019608 0.007843 0.000000 0.000000
0.019608 0.007843 0.000000 0.000000
0.019608 0.007843 0.000000 0.000000
0.019608 0.007843 0.000000 0.000000
0.019608 0.007843 0.000000 0.000000
0.019608 0.007843 0.000000 0.000000
0.019608 0.007843 0.000000 0.000000
0.019608 0.007843 0.000000 0.000000
0.019608 0.007843 0.000000 0.000000
0.019608 0.007843 0.000000 0.000000
0.019608 0.007843 0.000000 0.000000
0.019608 0.007843 0.000000 0.000000
0.019608 0.007843 0.000000 0.000000
0.019608 0.007843 0.000000 0.000000
0.019608 0.007843 0.000000 0.000000
0.019608 0.007843 0.000000 0.000000
0.019608 0.007843 0.000000 0.000000
0.019608 0.007843 0.000000 0.000000
0.019608 0.007843 0.000000 0.000000
0.019608 0.007843 0.000000 0.000000
0.019608 0.007843 0.000000 0.000000
0.019608 0.007843 0.000000 0.000000
0.019608 0.007843 0.000000 0.000000
0.019608 0.007843 0.000000 0.000000
0.019608 0.007843 0.000000 0.000000
0.019608 0.007843 0.000000 0.000000
0.019608 0.007843 0.000000 0.000000
0.019608 0.007843 0.000000 0.000000
0.019608 0.007843 0.000000 0.000000
0.019608 0.007843 0.000000 0.000000
0.019608 0.007843 0.000000 0.000000
0.019608 0.007843 0.000000 0.000000
0.019608 0.007843 0.000000 0.000000
0.019608 0.007843 0.000000 0.000000
0.019608 0.007843 0.000000 0.000000
0.019608 0.007843 0.000000 0.000000
0.019608 0.007843 0.000000 0.000000
0.019608 0.007843 0.000000 0.000000
0.019608 0.007843 0.000000 0.000000
0.019608 0.007843 0.000000 0.000000
0.019608 0.007843 0.000000 0.000000
0.019608 0.007843 0.000000 0.000000
0.019608 0.007843 0.000000 0.000000
0.019608 0.007843 0.000000 0.000000
0.019608 0.007843 0.000000 0.000000
0.019608 0.007843 0.000000 0.000000
0.019608 0.007843 0.000000 0.000000
0.019608 0.007843 0.000000 0.000000
0.019608 0.007843 0.000000 0.000000
0.019608 0.007843 0.000000 0.000000
0.019608 0.007843 0.000000 0.000000
0.019608 0.007843 0.000000 0.000000
0.019608 0.007843 0.000000 0.000000
0.019608 0.007843 0.000000 0.000000
0.019608 0.007843 0.000000 0.000000
0.019608 0.007843 0.000000 0.000000
0.019608 0.007843 0.000000 0.000000
0.019608 0.007843 0.000000 0.000000
0.019608 0.007843 0.000000 0.000000
0.019608 0.007843 0.000000 0.000000
0.019608 0.007843 0.000000 0.000000
0.019608 0.007843 0.000000 0.000000
0.019608 0.007843 0.000000 0.000000
0.019608 0.007843 0.000000 0.000000
0.019608 0.007843 0.000000 0.000000
0.019608 0.007843 0.000000 0.000000
0.019608 0.007843 0.000000 0.000000
0.019608 0.007843 0.000000 0.000000
0.019608 0.007843 0.000000 0.000000
0.019608 0.007843 0.000000 0.000000
0.019608 0.007843 0.000000 0.000000
0.019608 0.007843 0.000000 0.000000
0.019608 0.007843 0.000000 0.000000
0.019608 0.007843 0.000000 0.000000
0.019608 0.007843 0.000000 0.000000
0.019608 0.007843 0.000000 0.000000
0.019608 0.007843 0.000000 0.000000
0.019608 0.007843 0.000000 0.000000
0.019608 0.007843 0.000000 0.000000
0.019608 0.007843 0.000000 0.000000
0.019608 0.007843 0.000000 0.000000
0.019608 0.007843 0.000000 0.000000
0.019608 0.007843 0.000000 0.000000
0.019608 0.007843 0.000000 0.000000
0.019608 0.007843 0.000000 0.000000
0.019608 0.007843 0.000000 0.000000
0.019608 0.007843 0.000000 0.000000
0.019608 0.007843 0.000000 0.000000
0.019608 0.007843 0.000000 0.000000
0.019608 0.007843 0.000000 0.000000
0.019608 0.007843 0.000000 0.000000
0.019608 0.007843 0.000000 0.000000
0.019608 0.007843 0.000000 0.000000
0.019608 0.007843 0.000000 0.000000
0.019608 0.007843 0.000000 0.000000
0.019608 0.007843 0.000000 0.000000
0.019608 0.007843 0.000000 0.000000
0.019608 0.007843 0.000000 0.000000
0.019608 0.007843 0.000000 0.000000
0.019608 0.007843 0.000000 0.000000
0.019608 0.007843 0.000000 0.000000
0.019608 0.007843 0.000000 0.000000
0.019608 0.007843 0.000000 0.000000
0.019608 0.007843 0.000000 0.000000
0.019608 0.007843 0.000000 0.000000
0.019608 0.007843 0.000000 0.000000
0.019608 0.007843 0.000000 0.000000
0.019608 0.007843 0.000000 0.000000
0.019608 0.007843 0.000000 0.000000
0.019608 0.007843 0.000000 0.000000
0.019608 0.007843 0.000000 0.000000
0.019608 0.007843 0.000000 0.000000
0.019608 0.007843 0.000000 0.000000
0.019608 0.007843 0.000000 0.000000
0.019608 0.007843 0.000000 0.000000
0.019608 0.007843 0.000000 0.000000
0.019608 0.007843 0.000000 0.000000
0.019608 0.007843 0.000000 0.000000
0.019608 0.007843 0.000000 0.000000
0.019608 0.007843 0.000000 0.000000
0.019608 0.007843 0.000000 0.000000
0.019608 0.007843 0.000000 0.000000
0.019608 0.007843 0.000000 0.000000
0.019608 0.007843 0.000000 0.000000
0.019608 0.007843 0.000000 0.000000
0.019608 0.007843 0.000000 0.000000
0.019608 0.007843 0.000000 0.000000
0.019608 0.007843 0.000000 0.000000
0.019608 0.007843 0.000000 0.000000
0.019608 0.007843 0.000000 0.000000
0.019608 0.007843 0.000000 0.000000
0.019608 0.007843 0.000000 0.000000
0.019608 0.007843 0.000000 0.000000
0.019608 0.007843 0.000000 0.000000
0.019608 0.007843 0.000000 0.000000
0.019608 0.007843 0.000000 0.000000
0.019608 0.007843 0.000000 0.000000
0.019608 0.007843 0.000000 0.000000
0.019608 0.007843 0.000000 0.000000
0.019608 0.007843 0.000000 0.000000
0.019608 0.007843 0.000000 0.000000
0.019608 0.007843 0.000000 0.000000
0.019608 0.007843 0.000000 0.000000
0.019608 0.007843 0.000000 0.000000
0.019608 0.007843 0.000000 0.000000
0.019608 0.007843 0.000000 0.000000
0.019608 0.007843 0.000000 0.000000
0.019608 0.007843 0.000000 0.000000
0.019608 0.007843 0.000000 0.000000
0.019608 0.007843 0.000000 0.000000
0.019608 0.007843 0.000000 0.000000
0.019608 0.007843 0.000000 0.000000
0.019608 0.007843 0.000000 0.000000
0.019608 0.007843 0.000000 0.000000
0.019608 0.007843 0.000000 0.000000
0.019608 0.007843 0.000000 0.000000
0.019608 0.007843 0.000000 0.000000
0.019608 0.007843 0.000000 0.000000
0.019608 0.007843 0.000000 0.000000
0.019608 0.007843 0.000000 0.000000
0.019608 0.007843 0.000000 0.000000
0.019608 0.007843 0.000000 0.000000
0.019608 0.007843 0.000000 0.000000
0.019608 0.007843 0.000000 0.000000
0.019608 0.007843 0.000000 0.000000
0.019608 0.007843 0.000000 0.000000
0.019608 0.007843 0.000000 0.000000
0.019608 0.007843 0.000000 0.000000
0.019608 0.007843 0.000000 0.000000
0.019608 0.007843 0.000000 0.000000
0.019608 0.007843 0.000000 0.000000
0.019608 0.007843 0.000000 0.000000
0.019608 0.007843 0.000000 0.000000
0.019608 0.007843 0.000000 0.000000
0.019608 0.007843 0.000000 0.000000
0.019608 0.007843 0.000000 0.000000
0.019608 0.007843 0.000000 0.000000
0.019608 0.007843 0.000000 0.000000
0.019608 0.007843 0.000000 0.000000
0.019608 0.007843 0.000000 0.000000
0.019608 0.007843 0.000000 0.000000
0.019608 0.007843 0.000000 0.000000
0.019608 0.007843 0.000000 0.000000
0.019608 0.007843 0.000000 0.000000
0.019608 0.007843 0.000000 0.000000
0.019608 0.007843 0.000000 0.000000
0.019608 0.007843 0.000000 0.000000
0.019608 0.007843 0.000000 0.000000
0.019608 0.007843 0.000000 0.000000
0.019608 0.007843 0.000000 0.000000
0.019608 0.007843 0.000000 0.000000
0.019608 0.007843 0.000000 0.000000
0.019608 0.007843 0.000000 0.000000
0.019608 0.007843 0.000000 0.000000
0.019608 0.007843 0.000000 0.000000
0.019608 0.007843 0.000000 0.000000
0.019608 0.007843 0.000000 0.000000
0.019608 0.007843 0.000000 0.000000
0.019608 0.007843 0.000000 0.000000
0.019608 0.007843 0.000000 0.000000
0.019608 0.007843 0.000000 0.000000
0.019608 0.007843 0.000000 0.000000
0.019608 0.007843 0.000000 0.000000
0.019608 0.007843 0.000000 0.000000
0.019608 0.007843 0.000000 0.000000
0.019608 0.007843 0.000000 0.000000
0.019608 0.007843 0.000000 0.000000
0.019608 0.007843 0.000000 0.000000
0.019608 0.007843 0.000000 0.000000
0.019608 0.007843 0.000000 0.000000
0.019608 0.007843 0.000000 0.000000
0.019608 0.007843 0.000000 0.000000
0.019608 0.007843 0.000000 0.000000
0.019608 0.007843 0.000000 0.000000
0.019608 0.007843 0.000000 0.000000
0.019608 0.007843 0.000000 0.000000
0.019608 0.007843 0.000000 0.000000
0.019608 0.007843 0.000000 0.000000
0.019608 0.007843 0.000000 0.000000
0.019608 0.007843 0.000000 0.000000
0.019608 0.007843 0.000000 0.000000
0.019608 0.007843 0.000000 0.000000
0.019608 0.007843 0.000000 0.000000
0.019608 0.007843 0.000000 0.000000
0.019608 0.007843 0.000000 0.000000
0.019608 0.007843 0.000000 0.000000
0.019608 0.007843 0.000000 0.000000
0.019608 0.007843 0.000000 0.000000
0.019608 0.007843 0.000000 0.000000
0.019608 0.007843 0.000000 0.000000
0.019608 0.007843 0.000000 0.000000
0.019608 0.007843 0.000000 0.000000
0.019608 0.007843 0.000000 0.000000
0.019608 0.007843 0.000000 0.000000
0.019608 0.007843 0.000000 0.000000
0.019608 0.007843 0.000000 0.000000
0.019608 0.007843 0.000000 0.000000
0.019608 0.007843 0.000000 0.000000
0.019608 0.007843 0.000000 0.000000
0.019608 0.007843 0.000000 0.000000
0.019608 0.007843 0.000000 0.000000
0.019608 0.007843 0.000000 0.000000
0.019608 0.007843 0.000000 0.000000
0.019608 0.007843 0.000000 0.000000
0.019608 0.007843 0.000000 0.000000
0.019608 0.007843 0.000000 0.000000
0.019608 0.007843 0.000000 0.000000
0.019608 0.007843 0.000000 0.000000
0.019608 0.007843 0.000000 0.000000
0.019608 0.007843 0.000000 0.000000
0.019608 0.007843 0.000000 0.000000
0.019608 0.007843 0.000000 0.000000
0.019608 0.007843 0.000000 0.000000
0.019608 0.007843 0.000000 0.000000
0.019608 0.007843 0.000000 0.000000
0.019608 0.007843 0.000000 0.000000
0.019608 0.007843 0.000000 0.000000
0.019608 0.007843 0.000000 0.000000
0.019608 0.007843 0.000000 0.000000
0.019608 0.007843 0.000000 0.000000
0.019608 0.007843 0.000000 0.000000
0.019608 0.007843 0.000000 0.000000
</float_array>
          <technique_common>
            <accessor source="#CharacterCashier_accessory_01-VERTEX_COLOR0-array" count="944" stride="4">
              <param name="R" type="double"/>
              <param name="G" type="double"/>
              <param name="B" type="double"/>
              <param name="A" type="double"/>
            </accessor>
          </technique_common>
        </source>
        <vertices id="CharacterCashier_accessory_01-VERTEX">
          <input semantic="POSITION" source="#CharacterCashier_accessory_01-POSITION"/>
        </vertices>
        <polylist count="244"><input semantic="VERTEX" offset="0" source="#CharacterCashier_accessory_01-VERTEX"/><input semantic="NORMAL" offset="1" source="#CharacterCashier_accessory_01-Normal0"/><input semantic="TEXCOORD" offset="2" set="0" source="#CharacterCashier_accessory_01-UV0"/><input semantic="COLOR" offset="3" set="0" source="#CharacterCashier_accessory_01-VERTEX_COLOR0"/><vcount>3 3 3 3 3 3 3 3 3 3 3 3 3 3 3 3 3 3 3 3 3 3 3 3 3 3 3 3 3 3 3 3 4 4 4 4 4 4 4 4 4 4 4 4 4 4 4 4 4 4 4 4 4 4 4 4 4 4 4 4 4 4 4 4 4 4 4 4 4 4 4 4 4 4 4 4 4 4 4 4 4 4 4 4 4 4 4 4 4 4 4 4 4 4 4 4 4 4 4 4 4 4 4 4 4 4 4 4 4 4 4 4 4 4 4 4 4 4 4 4 4 4 4 4 4 4 4 4 4 4 4 4 4 4 4 4 4 4 4 4 4 4 4 4 4 4 4 4 4 4 4 4 4 4 4 4 4 4 4 4 4 4 4 4 4 4 4 4 4 4 4 4 4 4 4 4 4 4 4 4 4 4 4 4 4 4 4 4 4 4 4 4 4 4 4 4 4 4 4 4 4 4 4 4 4 4 4 4 4 4 4 4 4 4 4 4 4 4 4 4 4 4 4 4 4 4 4 4 4 4 4 4 4 4 4 4 4 4 4 4 4 4 4 4 </vcount><p> 0 0 0 0 1 1 32 1 2 2 33 2 0 3 1 3 2 4 33 4 3 5 34 5 0 6 2 6 3 7 34 7 4 8 35 8 0 9 3 9 4 10 35 10 5 11 36 11 0 12 4 12 5 13 36 13 6 14 37 14 0 15 5 15 6 16 37 16 7 17 38 17 0 18 6 18 7 19 38 19 8 20 39 20 0 21 7 21 8 22 39 22 9 23 40 23 0 24 8 24 9 25 40 25 10 26 41 26 0 27 9 27 10 28 41 28 11 29 42 29 0 30 10 30 11 31 42 31 12 32 43 32 0 33 11 33 12 34 43 34 13 35 44 35 0 36 12 36 13 37 44 37 14 38 45 38 0 39 13 39 14 40 45 40 15 41 46 41 0 42 14 42 15 43 46 43 16 44 47 44 0 45 15 45 16 46 47 46 17 47 48 47 0 48 16 48 17 49 48 49 18 50 49 50 0 51 17 51 18 52 49 52 19 53 50 53 0 54 18 54 19 55 50 55 20 56 51 56 0 57 19 57 20 58 51 58 21 59 52 59 0 60 20 60 21 61 52 61 22 62 53 62 0 63 21 63 22 64 53 64 23 65 54 65 0 66 22 66 23 67 54 67 24 68 55 68 0 69 23 69 24 70 55 70 25 71 56 71 0 72 24 72 25 73 56 73 26 74 57 74 0 75 25 75 26 76 57 76 27 77 58 77 0 78 26 78 27 79 58 79 28 80 59 80 0 81 27 81 28 82 59 82 29 83 60 83 0 84 28 84 29 85 60 85 30 86 61 86 0 87 29 87 30 88 61 88 31 89 62 89 0 90 30 90 31 91 62 91 32 92 63 92 0 93 31 93 32 94 63 94 1 95 64 95 1 96 32 96 33 97 65 97 34 98 66 98 2 99 33 99 2 100 33 100 34 101 66 101 35 102 67 102 3 103 34 103 3 104 34 104 35 105 67 105 36 106 68 106 4 107 35 107 4 108 35 108 36 109 68 109 37 110 69 110 5 111 36 111 5 112 36 112 37 113 69 113 38 114 70 114 6 115 37 115 6 116 37 116 38 117 70 117 39 118 71 118 7 119 38 119 7 120 38 120 39 121 71 121 40 122 72 122 8 123 39 123 8 124 39 124 40 125 72 125 41 126 73 126 9 127 40 127 9 128 40 128 41 129 73 129 42 130 74 130 10 131 41 131 10 132 41 132 42 133 74 133 43 134 75 134 11 135 42 135 11 136 42 136 43 137 75 137 44 138 76 138 12 139 43 139 12 140 43 140 44 141 76 141 45 142 77 142 13 143 44 143 13 144 44 144 45 145 77 145 46 146 78 146 14 147 45 147 14 148 45 148 46 149 78 149 47 150 79 150 15 151 46 151 15 152 46 152 47 153 79 153 48 154 80 154 16 155 47 155 16 156 47 156 48 157 80 157 49 158 81 158 17 159 48 159 17 160 48 160 49 161 81 161 50 162 82 162 18 163 49 163 18 164 49 164 50 165 82 165 51 166 83 166 19 167 50 167 19 168 50 168 51 169 83 169 52 170 84 170 20 171 51 171 20 172 51 172 52 173 84 173 53 174 85 174 21 175 52 175 21 176 52 176 53 177 85 177 54 178 86 178 22 179 53 179 22 180 53 180 54 181 86 181 55 182 87 182 23 183 54 183 23 184 54 184 55 185 87 185 56 186 88 186 24 187 55 187 24 188 55 188 56 189 88 189 57 190 89 190 25 191 56 191 25 192 56 192 57 193 89 193 58 194 90 194 26 195 57 195 26 196 57 196 58 197 90 197 59 198 91 198 27 199 58 199 27 200 58 200 59 201 91 201 60 202 92 202 28 203 59 203 28 204 59 204 60 205 92 205 61 206 93 206 29 207 60 207 29 208 60 208 61 209 93 209 62 210 94 210 30 211 61 211 30 212 61 212 62 213 94 213 63 214 95 214 31 215 62 215 31 216 62 216 63 217 95 217 64 218 96 218 32 219 63 219 32 220 63 220 64 221 96 221 33 222 97 222 1 223 64 223 33 224 65 224 65 225 98 225 66 226 99 226 34 227 66 227 34 228 66 228 66 229 99 229 67 230 100 230 35 231 67 231 35 232 67 232 67 233 100 233 68 234 101 234 36 235 68 235 36 236 68 236 68 237 101 237 69 238 102 238 37 239 69 239 37 240 69 240 69 241 102 241 70 242 103 242 38 243 70 243 38 244 70 244 70 245 103 245 71 246 104 246 39 247 71 247 39 248 71 248 71 249 104 249 72 250 105 250 40 251 72 251 40 252 72 252 72 253 105 253 73 254 106 254 41 255 73 255 41 256 73 256 73 257 106 257 74 258 107 258 42 259 74 259 42 260 74 260 74 261 107 261 75 262 108 262 43 263 75 263 43 264 75 264 75 265 108 265 76 266 109 266 44 267 76 267 44 268 76 268 76 269 109 269 77 270 110 270 45 271 77 271 45 272 77 272 77 273 110 273 78 274 111 274 46 275 78 275 46 276 78 276 78 277 111 277 79 278 112 278 47 279 79 279 47 280 79 280 79 281 112 281 80 282 113 282 48 283 80 283 48 284 80 284 80 285 113 285 81 286 114 286 49 287 81 287 49 288 81 288 81 289 114 289 82 290 115 290 50 291 82 291 50 292 82 292 82 293 115 293 83 294 116 294 51 295 83 295 51 296 83 296 83 297 116 297 84 298 117 298 52 299 84 299 52 300 84 300 84 301 117 301 85 302 118 302 53 303 85 303 53 304 85 304 85 305 118 305 86 306 119 306 54 307 86 307 54 308 86 308 86 309 119 309 87 310 120 310 55 311 87 311 55 312 87 312 87 313 120 313 88 314 121 314 56 315 88 315 56 316 88 316 88 317 121 317 89 318 122 318 57 319 89 319 57 320 89 320 89 321 122 321 90 322 123 322 58 323 90 323 58 324 90 324 90 325 123 325 91 326 124 326 59 327 91 327 59 328 91 328 91 329 124 329 92 330 125 330 60 331 92 331 60 332 92 332 92 333 125 333 93 334 126 334 61 335 93 335 61 336 93 336 93 337 126 337 94 338 127 338 62 339 94 339 62 340 94 340 94 341 127 341 95 342 128 342 63 343 95 343 63 344 95 344 95 345 128 345 96 346 129 346 64 347 96 347 64 348 96 348 96 349 129 349 65 350 130 350 33 351 97 351 65 352 98 352 97 353 131 353 98 354 132 354 66 355 99 355 66 356 99 356 98 357 132 357 99 358 133 358 67 359 100 359 67 360 100 360 99 361 133 361 100 362 134 362 68 363 101 363 68 364 101 364 100 365 134 365 101 366 135 366 69 367 102 367 69 368 102 368 101 369 135 369 102 370 136 370 70 371 103 371 70 372 103 372 102 373 136 373 103 374 137 374 71 375 104 375 71 376 104 376 103 377 137 377 104 378 138 378 72 379 105 379 72 380 105 380 104 381 138 381 105 382 139 382 73 383 106 383 73 384 106 384 105 385 139 385 106 386 140 386 74 387 107 387 74 388 107 388 106 389 140 389 107 390 141 390 75 391 108 391 75 392 108 392 107 393 141 393 108 394 142 394 76 395 109 395 76 396 109 396 108 397 142 397 109 398 143 398 77 399 110 399 77 400 110 400 109 401 143 401 110 402 144 402 78 403 111 403 78 404 111 404 110 405 144 405 111 406 145 406 79 407 112 407 79 408 112 408 111 409 145 409 112 410 146 410 80 411 113 411 80 412 113 412 112 413 146 413 113 414 147 414 81 415 114 415 81 416 114 416 113 417 147 417 114 418 148 418 82 419 115 419 82 420 115 420 114 421 148 421 115 422 149 422 83 423 116 423 83 424 116 424 115 425 149 425 116 426 150 426 84 427 117 427 84 428 117 428 116 429 150 429 117 430 151 430 85 431 118 431 85 432 118 432 117 433 151 433 118 434 152 434 86 435 119 435 86 436 119 436 118 437 152 437 119 438 153 438 87 439 120 439 87 440 120 440 119 441 153 441 120 442 154 442 88 443 121 443 88 444 121 444 120 445 154 445 121 446 155 446 89 447 122 447 89 448 122 448 121 449 155 449 122 450 156 450 90 451 123 451 90 452 123 452 122 453 156 453 123 454 157 454 91 455 124 455 91 456 124 456 123 457 157 457 124 458 158 458 92 459 125 459 92 460 125 460 124 461 158 461 125 462 159 462 93 463 126 463 93 464 126 464 125 465 159 465 126 466 160 466 94 467 127 467 94 468 127 468 126 469 160 469 127 470 161 470 95 471 128 471 95 472 128 472 127 473 161 473 128 474 162 474 96 475 129 475 96 476 129 476 128 477 162 477 97 478 163 478 65 479 130 479 97 480 131 480 129 481 164 481 130 482 165 482 98 483 132 483 98 484 132 484 130 485 165 485 131 486 166 486 99 487 133 487 99 488 133 488 131 489 166 489 132 490 167 490 100 491 134 491 100 492 134 492 132 493 167 493 133 494 168 494 101 495 135 495 101 496 135 496 133 497 168 497 134 498 169 498 102 499 136 499 102 500 136 500 134 501 169 501 135 502 170 502 103 503 137 503 103 504 137 504 135 505 170 505 136 506 171 506 104 507 138 507 104 508 138 508 136 509 171 509 137 510 172 510 105 511 139 511 105 512 139 512 137 513 172 513 138 514 173 514 106 515 140 515 106 516 140 516 138 517 173 517 139 518 174 518 107 519 141 519 107 520 141 520 139 521 174 521 140 522 175 522 108 523 142 523 108 524 142 524 140 525 175 525 141 526 176 526 109 527 143 527 109 528 143 528 141 529 176 529 142 530 177 530 110 531 144 531 110 532 144 532 142 533 177 533 143 534 178 534 111 535 145 535 111 536 145 536 143 537 178 537 144 538 179 538 112 539 146 539 112 540 146 540 144 541 179 541 145 542 180 542 113 543 147 543 113 544 147 544 145 545 180 545 146 546 181 546 114 547 148 547 114 548 148 548 146 549 181 549 147 550 182 550 115 551 149 551 115 552 149 552 147 553 182 553 148 554 183 554 116 555 150 555 116 556 150 556 148 557 183 557 149 558 184 558 117 559 151 559 117 560 151 560 149 561 184 561 150 562 185 562 118 563 152 563 124 564 158 564 151 565 186 565 152 566 187 566 125 567 159 567 125 568 159 568 152 569 187 569 153 570 188 570 126 571 160 571 126 572 160 572 153 573 188 573 154 574 189 574 127 575 161 575 127 576 161 576 154 577 189 577 155 578 190 578 128 579 162 579 128 580 162 580 155 581 190 581 129 582 191 582 97 583 163 583 129 584 164 584 156 585 192 585 157 586 193 586 130 587 165 587 130 588 165 588 157 589 193 589 158 590 194 590 131 591 166 591 131 592 166 592 158 593 194 593 159 594 195 594 132 595 167 595 132 596 167 596 159 597 195 597 160 598 196 598 133 599 168 599 133 600 168 600 160 601 196 601 161 602 197 602 134 603 169 603 134 604 169 604 161 605 197 605 162 606 198 606 135 607 170 607 135 608 170 608 162 609 198 609 163 610 199 610 136 611 171 611 136 612 171 612 163 613 199 613 164 614 200 614 137 615 172 615 137 616 172 616 164 617 200 617 165 618 201 618 138 619 173 619 138 620 173 620 165 621 201 621 166 622 202 622 139 623 174 623 139 624 174 624 166 625 202 625 167 626 203 626 140 627 175 627 140 628 175 628 167 629 203 629 168 630 204 630 141 631 176 631 141 632 176 632 168 633 204 633 169 634 205 634 142 635 177 635 142 636 177 636 169 637 205 637 170 638 206 638 143 639 178 639 143 640 178 640 170 641 206 641 171 642 207 642 144 643 179 643 144 644 179 644 171 645 207 645 172 646 208 646 145 647 180 647 145 648 180 648 172 649 208 649 173 650 209 650 146 651 181 651 146 652 181 652 173 653 209 653 174 654 210 654 147 655 182 655 147 656 182 656 174 657 210 657 175 658 211 658 148 659 183 659 148 660 183 660 175 661 211 661 176 662 212 662 149 663 184 663 149 664 184 664 176 665 212 665 177 666 213 666 150 667 185 667 151 668 186 668 178 669 214 669 179 670 215 670 152 671 187 671 152 672 187 672 179 673 215 673 180 674 216 674 153 675 188 675 153 676 188 676 180 677 216 677 181 678 217 678 154 679 189 679 154 680 189 680 181 681 217 681 182 682 218 682 155 683 190 683 155 684 190 684 182 685 218 685 156 686 219 686 129 687 191 687 156 688 192 688 183 689 220 689 184 690 221 690 157 691 193 691 157 692 193 692 184 693 221 693 185 694 222 694 158 695 194 695 158 696 194 696 185 697 222 697 186 698 223 698 159 699 195 699 159 700 195 700 186 701 223 701 187 702 224 702 160 703 196 703 160 704 196 704 187 705 224 705 188 706 225 706 161 707 197 707 161 708 197 708 188 709 225 709 189 710 226 710 162 711 198 711 162 712 198 712 189 713 226 713 190 714 227 714 163 715 199 715 163 716 199 716 190 717 227 717 191 718 228 718 164 719 200 719 164 720 200 720 191 721 228 721 192 722 229 722 165 723 201 723 165 724 201 724 192 725 229 725 193 726 230 726 166 727 202 727 166 728 202 728 193 729 230 729 194 730 231 730 167 731 203 731 167 732 203 732 194 733 231 733 195 734 232 734 168 735 204 735 168 736 204 736 195 737 232 737 196 738 233 738 169 739 205 739 169 740 205 740 196 741 233 741 197 742 234 742 170 743 206 743 170 744 206 744 197 745 234 745 198 746 235 746 171 747 207 747 171 748 207 748 198 749 235 749 199 750 236 750 172 751 208 751 172 752 208 752 199 753 236 753 200 754 237 754 173 755 209 755 173 756 209 756 200 757 237 757 201 758 238 758 174 759 210 759 174 760 210 760 201 761 238 761 202 762 239 762 175 763 211 763 175 764 211 764 202 765 239 765 203 766 240 766 176 767 212 767 176 768 212 768 203 769 240 769 204 770 241 770 177 771 213 771 178 772 214 772 205 773 242 773 206 774 243 774 179 775 215 775 179 776 215 776 206 777 243 777 207 778 244 778 180 779 216 779 180 780 216 780 207 781 244 781 208 782 245 782 181 783 217 783 181 784 217 784 208 785 245 785 209 786 246 786 182 787 218 787 182 788 218 788 209 789 246 789 183 790 247 790 156 791 219 791 119 792 153 792 118 793 152 793 210 794 248 794 211 795 249 795 120 796 154 796 119 797 153 797 211 798 249 798 212 799 250 799 121 800 155 800 120 801 154 801 212 802 250 802 213 803 251 803 122 804 156 804 121 805 155 805 213 806 251 806 214 807 252 807 123 808 157 808 122 809 156 809 214 810 252 810 215 811 253 811 124 812 158 812 123 813 157 813 215 814 253 814 216 815 254 815 118 816 152 816 150 817 185 817 217 818 255 818 210 819 248 819 151 820 186 820 124 821 158 821 216 822 254 822 218 823 256 823 150 824 185 824 177 825 213 825 219 826 257 826 217 827 255 827 178 828 214 828 151 829 186 829 218 830 256 830 220 831 258 831 184 832 221 832 183 833 220 833 221 834 259 834 222 835 260 835 185 836 222 836 184 837 221 837 222 838 260 838 223 839 261 839 186 840 223 840 185 841 222 841 223 842 261 842 224 843 262 843 187 844 224 844 186 845 223 845 224 846 262 846 225 847 263 847 188 848 225 848 187 849 224 849 225 850 263 850 226 851 264 851 189 852 226 852 188 853 225 853 226 854 264 854 227 855 265 855 190 856 227 856 189 857 226 857 227 858 265 858 228 859 266 859 191 860 228 860 190 861 227 861 228 862 266 862 229 863 267 863 192 864 229 864 191 865 228 865 229 866 267 866 230 867 268 867 193 868 230 868 192 869 229 869 230 870 268 870 231 871 269 871 194 872 231 872 193 873 230 873 231 874 269 874 232 875 270 875 195 876 232 876 194 877 231 877 232 878 270 878 233 879 271 879 196 880 233 880 195 881 232 881 233 882 271 882 234 883 272 883 197 884 234 884 196 885 233 885 234 886 272 886 235 887 273 887 198 888 235 888 197 889 234 889 235 890 273 890 236 891 274 891 199 892 236 892 198 893 235 893 236 894 274 894 237 895 275 895 200 896 237 896 199 897 236 897 237 898 275 898 238 899 276 899 201 900 238 900 200 901 237 901 238 902 276 902 239 903 277 903 202 904 239 904 201 905 238 905 239 906 277 906 240 907 278 907 203 908 240 908 202 909 239 909 240 910 278 910 241 911 279 911 204 912 241 912 203 913 240 913 241 914 279 914 242 915 280 915 177 916 213 916 204 917 241 917 242 918 280 918 219 919 257 919 205 920 242 920 178 921 214 921 220 922 258 922 243 923 281 923 206 924 243 924 205 925 242 925 243 926 281 926 244 927 282 927 207 928 244 928 206 929 243 929 244 930 282 930 245 931 283 931 208 932 245 932 207 933 244 933 245 934 283 934 246 935 284 935 209 936 246 936 208 937 245 937 246 938 284 938 247 939 285 939 183 940 247 940 209 941 246 941 247 942 285 942 221 943 286 943</p></polylist>
      </mesh>
    </geometry>
  </library_geometries>
  <library_visual_scenes>
    <visual_scene id="CharacterCashier_accessory_01" name="CharacterCashier_accessory_01">
      <node name="CharacterCashier_accessory_01" id="CharacterCashier_accessory_01" sid="CharacterCashier_accessory_01"><matrix sid="matrix">1.000000 0.000000 0.000000 0.000000 0.000000 0.870902 0.000000 0.000000 0.000000 0.000000 1.000000 0.000000 0.000000 0.000000 0.000000 1.000000</matrix><instance_geometry url="#CharacterCashier_accessory_01-lib"/><extra><technique profile="FCOLLADA"><visibility>1.000000</visibility></technique></extra></node>
      <extra><technique profile="MAX3D"><frame_rate>60.000000</frame_rate></technique><technique profile="FCOLLADA"><start_time>0.000000</start_time><end_time>2.000000</end_time></technique></extra>
    </visual_scene>
  </library_visual_scenes>
  <scene>
    <instance_visual_scene url="#CharacterCashier_accessory_01"></instance_visual_scene>
  </scene>
</COLLADA>
