<?xml version="1.0" encoding="utf-8"?>
<COLLADA xmlns="http://www.collada.org/2005/11/COLLADASchema" version="1.4.1">
  <asset><contributor><author></author><authoring_tool>FBX COLLADA exporter</authoring_tool><comments></comments></contributor><created>2020-05-07T17:12:28Z</created><keywords></keywords><modified>2020-05-07T17:12:28Z</modified><revision></revision><subject></subject><title></title><unit meter="0.010000" name="centimeter"></unit><up_axis>Z_UP</up_axis></asset>
  <library_geometries>
    <geometry id="SM_number_01_1-lib" name="SM_number_01_1Mesh">
      <mesh>
        <source id="SM_number_01_1-POSITION">
          <float_array id="SM_number_01_1-POSITION-array" count="81">
-1.707420 2.475000 0.000000
2.817188 3.670313 0.000000
5.250002 18.478127 0.000000
7.810549 32.773830 0.000000
10.626564 46.941799 0.000000
13.912500 61.537502 0.000000
1.621876 59.574612 0.000000
-6.316405 58.293751 0.000000
-11.777343 57.185158 0.000000
-12.630468 50.868752 0.000000
-13.399218 45.875393 0.000000
-13.912499 42.248440 0.000000
-10.967577 42.718361 0.000000
-7.596093 43.272659 0.000000
-7.033211 43.366890 0.000000
-6.466884 43.454033 0.000000
-5.897113 43.534107 0.000000
-5.323899 43.607098 0.000000
-4.747241 43.673019 0.000000
-4.167140 43.731850 0.000000
-3.583593 43.783596 0.000000
-4.778905 37.041798 0.000000
-6.187499 29.830080 0.000000
-7.639452 22.575001 0.000000
-9.046874 15.705469 0.000000
-12.375000 0.342188 0.000000
-6.742968 1.450781 0.000000
</float_array>
          <technique_common>
            <accessor source="#SM_number_01_1-POSITION-array" count="27" stride="3">
              <param name="X" type="float"/>
              <param name="Y" type="float"/>
              <param name="Z" type="float"/>
            </accessor>
          </technique_common>
        </source>
        <source id="SM_number_01_1-Normal0">
          <float_array id="SM_number_01_1-Normal0-array" count="225">
0.000000 0.000000 1.000000
0.000000 0.000000 1.000000
0.000000 0.000000 1.000000
0.000000 0.000000 1.000000
0.000000 0.000000 1.000000
0.000000 0.000000 1.000000
0.000000 0.000000 1.000000
0.000000 0.000000 1.000000
0.000000 0.000000 1.000000
0.000000 0.000000 1.000000
0.000000 0.000000 1.000000
0.000000 0.000000 1.000000
0.000000 0.000000 1.000000
0.000000 0.000000 1.000000
0.000000 0.000000 1.000000
0.000000 0.000000 1.000000
0.000000 0.000000 1.000000
0.000000 0.000000 1.000000
0.000000 0.000000 1.000000
0.000000 0.000000 1.000000
0.000000 0.000000 1.000000
0.000000 0.000000 1.000000
0.000000 0.000000 1.000000
0.000000 0.000000 1.000000
0.000000 0.000000 1.000000
0.000000 0.000000 1.000000
0.000000 0.000000 1.000000
0.000000 0.000000 1.000000
0.000000 0.000000 1.000000
0.000000 0.000000 1.000000
0.000000 0.000000 1.000000
0.000000 0.000000 1.000000
0.000000 0.000000 1.000000
0.000000 0.000000 1.000000
0.000000 0.000000 1.000000
0.000000 0.000000 1.000000
0.000000 0.000000 1.000000
0.000000 0.000000 1.000000
0.000000 0.000000 1.000000
0.000000 0.000000 1.000000
0.000000 0.000000 1.000000
0.000000 0.000000 1.000000
0.000000 0.000000 1.000000
0.000000 0.000000 1.000000
0.000000 0.000000 1.000000
0.000000 0.000000 1.000000
0.000000 0.000000 1.000000
0.000000 0.000000 1.000000
0.000000 0.000000 1.000000
0.000000 0.000000 1.000000
0.000000 0.000000 1.000000
0.000000 0.000000 1.000000
0.000000 0.000000 1.000000
0.000000 0.000000 1.000000
0.000000 0.000000 1.000000
0.000000 0.000000 1.000000
0.000000 0.000000 1.000000
0.000000 0.000000 1.000000
0.000000 0.000000 1.000000
0.000000 0.000000 1.000000
0.000000 0.000000 1.000000
0.000000 0.000000 1.000000
0.000000 0.000000 1.000000
0.000000 0.000000 1.000000
0.000000 0.000000 1.000000
0.000000 0.000000 1.000000
0.000000 0.000000 1.000000
0.000000 0.000000 1.000000
0.000000 0.000000 1.000000
0.000000 0.000000 1.000000
0.000000 0.000000 1.000000
0.000000 0.000000 1.000000
0.000000 0.000000 1.000000
0.000000 0.000000 1.000000
0.000000 0.000000 1.000000
</float_array>
          <technique_common>
            <accessor source="#SM_number_01_1-Normal0-array" count="75" stride="3">
              <param name="X" type="float"/>
              <param name="Y" type="float"/>
              <param name="Z" type="float"/>
            </accessor>
          </technique_common>
        </source>
        <vertices id="SM_number_01_1-VERTEX">
          <input semantic="POSITION" source="#SM_number_01_1-POSITION"/>
        </vertices>
        <polylist count="25"><input semantic="VERTEX" offset="0" source="#SM_number_01_1-VERTEX"/><input semantic="NORMAL" offset="1" source="#SM_number_01_1-Normal0"/><vcount>3 3 3 3 3 3 3 3 3 3 3 3 3 3 3 3 3 3 3 3 3 3 3 3 3 </vcount><p> 24 0 25 1 26 2 24 3 26 4 0 5 24 6 0 7 1 8 24 9 1 10 2 11 4 12 5 13 6 14 10 15 11 16 12 17 12 18 13 19 14 20 10 21 12 22 14 23 10 24 14 25 15 26 10 27 15 28 16 29 9 30 10 31 16 32 9 33 16 34 17 35 9 36 17 37 18 38 9 39 18 40 19 41 8 42 9 43 19 44 7 45 8 46 19 47 7 48 19 49 20 50 6 51 7 52 20 53 4 54 6 55 20 56 4 57 20 58 21 59 3 60 4 61 21 62 3 63 21 64 22 65 3 66 22 67 23 68 2 69 3 70 23 71 24 72 2 73 23 74</p></polylist>
      </mesh>
    </geometry>
  </library_geometries>
  <library_visual_scenes>
    <visual_scene id="SM_number_01_1" name="SM_number_01_1">
      <node name="SM_number_01_1" id="SM_number_01_1" sid="SM_number_01_1"><matrix sid="matrix">-0.000000 1.000000 0.000000 0.000000 -1.000000 -0.000000 0.000000 0.000000 0.000000 0.000000 1.000000 0.000000 0.000000 0.000000 0.000000 1.000000</matrix><instance_geometry url="#SM_number_01_1-lib"/><extra><technique profile="FCOLLADA"><visibility>1.000000</visibility></technique></extra></node>
      <extra><technique profile="MAX3D"><frame_rate>60.000000</frame_rate></technique><technique profile="FCOLLADA"><start_time>0.000000</start_time><end_time>2.000000</end_time></technique></extra>
    </visual_scene>
  </library_visual_scenes>
  <scene>
    <instance_visual_scene url="#SM_number_01_1"></instance_visual_scene>
  </scene>
</COLLADA>
