[gd_scene load_steps=2 format=2]

[ext_resource path="res://src/FPS.gd" type="Script" id=1]

[node name="FPS" type="Label"]
margin_left = 18.0
margin_top = 21.0
margin_right = 88.0
margin_bottom = 58.0
text = "FPS : %s"
script = ExtResource( 1 )
__meta__ = {
"_edit_use_anchors_": false
}
