[gd_scene load_steps=2 format=2]

[ext_resource path="res://src/GameManager.gd" type="Script" id=1]

[node name="GameManager" type="Node"]
script = ExtResource( 1 )
score_promo = 2
score_rupture = 5
score_contamined = -1
score_in_list = 2
malus_timeout_by_sec = 30
