[gd_scene load_steps=3 format=2]

[ext_resource path="res://ART/Material/Enviro/M_EnviroProps_01.tres" type="Material" id=1]
[ext_resource path="res://ART/Enviro/Props/Ressources/SM_SideWalkBorder_01_A_1.DAE" type="PackedScene" id=2]

[node name="SM_SideWalkBorder_01_A_1" instance=ExtResource( 2 )]

[node name="SM_SideWalkBorder_01_A_1" parent="." index="0"]
material/0 = ExtResource( 1 )
