[gd_scene load_steps=4 format=2]

[ext_resource path="res://ART/Material/Enviro/M_DecalFloor_02.tres" type="Material" id=1]

[sub_resource type="ArrayMesh" id=1]
resource_name = "SM_WarninLineDecal_01_A_1Mesh"
surfaces/0 = {
"aabb": AABB( -2.875, 0.005, -2.875, 5.75, 1.00001e-05, 5.75 ),
"array_data": PoolByteArray( 149, 202, 4, 64, 10, 215, 163, 59, 0, 0, 56, 192, 0, 127, 0, 0, 149, 202, 4, 192, 10, 215, 163, 59, 0, 0, 56, 192, 0, 127, 0, 0, 210, 155, 1, 192, 10, 215, 163, 59, 0, 0, 40, 192, 0, 127, 0, 0, 210, 155, 1, 64, 10, 215, 163, 59, 0, 0, 40, 192, 0, 127, 0, 0, 30, 149, 29, 192, 10, 215, 163, 59, 47, 187, 45, 192, 0, 127, 0, 0, 253, 132, 20, 192, 10, 215, 163, 59, 183, 42, 32, 192, 0, 127, 0, 0, 42, 187, 45, 192, 10, 215, 163, 59, 38, 149, 29, 192, 0, 127, 0, 0, 189, 42, 32, 192, 10, 215, 163, 59, 246, 132, 20, 192, 0, 127, 0, 0, 0, 0, 56, 192, 10, 215, 163, 59, 149, 202, 4, 192, 0, 127, 0, 0, 0, 0, 40, 192, 10, 215, 163, 59, 210, 155, 1, 192, 0, 127, 0, 0, 0, 0, 40, 192, 10, 215, 163, 59, 210, 155, 1, 64, 0, 127, 0, 0, 0, 0, 56, 192, 10, 215, 163, 59, 149, 202, 4, 64, 0, 127, 0, 0, 47, 187, 45, 192, 10, 215, 163, 59, 30, 149, 29, 64, 0, 127, 0, 0, 183, 42, 32, 192, 10, 215, 163, 59, 253, 132, 20, 64, 0, 127, 0, 0, 38, 149, 29, 192, 10, 215, 163, 59, 42, 187, 45, 64, 0, 127, 0, 0, 246, 132, 20, 192, 10, 215, 163, 59, 189, 42, 32, 64, 0, 127, 0, 0, 149, 202, 4, 192, 10, 215, 163, 59, 0, 0, 56, 64, 0, 127, 0, 0, 210, 155, 1, 192, 10, 215, 163, 59, 0, 0, 40, 64, 0, 127, 0, 0, 210, 155, 1, 64, 10, 215, 163, 59, 0, 0, 40, 64, 0, 127, 0, 0, 149, 202, 4, 64, 10, 215, 163, 59, 0, 0, 56, 64, 0, 127, 0, 0, 245, 132, 20, 64, 10, 215, 163, 59, 189, 42, 32, 64, 0, 127, 0, 0, 38, 149, 29, 64, 10, 215, 163, 59, 42, 187, 45, 64, 0, 127, 0, 0, 43, 187, 45, 64, 10, 215, 163, 59, 37, 149, 29, 64, 0, 127, 0, 0, 190, 42, 32, 64, 10, 215, 163, 59, 244, 132, 20, 64, 0, 127, 0, 0, 0, 0, 56, 64, 10, 215, 163, 59, 149, 202, 4, 64, 0, 127, 0, 0, 0, 0, 40, 64, 10, 215, 163, 59, 210, 155, 1, 64, 0, 127, 0, 0, 0, 0, 40, 64, 10, 215, 163, 59, 210, 155, 1, 192, 0, 127, 0, 0, 0, 0, 56, 64, 10, 215, 163, 59, 149, 202, 4, 192, 0, 127, 0, 0, 190, 42, 32, 64, 10, 215, 163, 59, 244, 132, 20, 192, 0, 127, 0, 0, 43, 187, 45, 64, 10, 215, 163, 59, 37, 149, 29, 192, 0, 127, 0, 0, 246, 132, 20, 64, 10, 215, 163, 59, 189, 42, 32, 192, 0, 127, 0, 0, 38, 149, 29, 64, 10, 215, 163, 59, 42, 187, 45, 192, 0, 127, 0, 0 ),
"array_index_data": PoolByteArray( 0, 0, 2, 0, 1, 0, 0, 0, 3, 0, 2, 0, 4, 0, 1, 0, 2, 0, 2, 0, 5, 0, 4, 0, 5, 0, 7, 0, 6, 0, 6, 0, 4, 0, 5, 0, 7, 0, 9, 0, 8, 0, 8, 0, 6, 0, 7, 0, 10, 0, 8, 0, 9, 0, 8, 0, 10, 0, 11, 0, 12, 0, 11, 0, 10, 0, 10, 0, 13, 0, 12, 0, 14, 0, 12, 0, 13, 0, 13, 0, 15, 0, 14, 0, 15, 0, 17, 0, 16, 0, 16, 0, 14, 0, 15, 0, 18, 0, 16, 0, 17, 0, 18, 0, 19, 0, 16, 0, 20, 0, 19, 0, 18, 0, 19, 0, 20, 0, 21, 0, 21, 0, 23, 0, 22, 0, 21, 0, 20, 0, 23, 0, 24, 0, 22, 0, 23, 0, 23, 0, 25, 0, 24, 0, 26, 0, 27, 0, 24, 0, 24, 0, 25, 0, 26, 0, 27, 0, 26, 0, 28, 0, 28, 0, 29, 0, 27, 0, 30, 0, 29, 0, 28, 0, 29, 0, 30, 0, 31, 0, 0, 0, 31, 0, 30, 0, 30, 0, 3, 0, 0, 0 ),
"blend_shape_data": [  ],
"format": 97539,
"index_count": 96,
"primitive": 4,
"skeleton_aabb": [  ],
"vertex_count": 32
}

[sub_resource type="BoxShape" id=2]
extents = Vector3( 2.6383, 2.23385, 2.65697 )

[node name="SM_WarninLineDecal_01_A_1" type="StaticBody"]
collision_layer = 0
collision_mask = 32

[node name="SM_WarninLineDecal_01_A_1" type="MeshInstance" parent="."]
mesh = SubResource( 1 )
material/0 = ExtResource( 1 )

[node name="AnimationPlayer" type="AnimationPlayer" parent="."]

[node name="CollisionShape" type="CollisionShape" parent="."]
shape = SubResource( 2 )
