[gd_scene load_steps=4 format=2]

[ext_resource path="res://ART/Material/Enviro/M_EnviroProps_01.tres" type="Material" id=1]

[sub_resource type="ArrayMesh" id=1]
resource_name = "SM_WallDeco_01_A_1Mesh"
surfaces/0 = {
"aabb": AABB( -0.25, 0, -0.5, 0.50001, 2, 1 ),
"array_data": PoolByteArray( 0, 0, 128, 62, 0, 0, 0, 0, 0, 0, 0, 191, 0, 129, 0, 0, 129, 0, 0, 127, 24, 24, 24, 255, 0, 0, 0, 0, 0, 0, 128, 62, 0, 0, 0, 0, 0, 0, 0, 63, 0, 129, 0, 0, 129, 0, 0, 127, 24, 24, 24, 255, 0, 0, 0, 60, 0, 0, 128, 190, 0, 0, 0, 0, 0, 0, 0, 63, 0, 129, 0, 0, 129, 0, 0, 127, 24, 24, 24, 255, 0, 60, 0, 60, 0, 0, 128, 190, 0, 0, 0, 0, 0, 0, 0, 191, 0, 129, 0, 0, 129, 0, 0, 127, 24, 24, 24, 255, 0, 60, 0, 0, 0, 0, 128, 190, 0, 0, 0, 64, 0, 0, 0, 191, 0, 127, 0, 0, 127, 0, 0, 127, 24, 24, 24, 255, 0, 0, 0, 0, 0, 0, 128, 190, 0, 0, 0, 64, 0, 0, 0, 63, 0, 127, 0, 0, 127, 0, 0, 127, 24, 24, 24, 255, 0, 0, 0, 60, 0, 0, 128, 62, 0, 0, 0, 64, 0, 0, 0, 191, 0, 127, 0, 0, 127, 0, 0, 127, 24, 24, 24, 255, 0, 60, 0, 0, 0, 0, 128, 62, 0, 0, 0, 64, 0, 0, 0, 63, 0, 127, 0, 0, 127, 0, 0, 127, 24, 24, 24, 255, 0, 60, 0, 60, 207, 199, 31, 190, 178, 23, 211, 63, 0, 0, 0, 63, 0, 0, 127, 0, 127, 0, 0, 127, 100, 100, 100, 255, 0, 0, 180, 49, 207, 199, 31, 190, 59, 161, 179, 62, 0, 0, 0, 63, 0, 0, 127, 0, 126, 0, 0, 127, 100, 100, 100, 255, 0, 0, 146, 58, 53, 46, 102, 62, 178, 23, 211, 63, 0, 0, 0, 63, 0, 0, 127, 0, 126, 0, 0, 127, 100, 100, 100, 255, 0, 60, 180, 49, 53, 46, 102, 62, 59, 161, 179, 62, 0, 0, 0, 63, 0, 0, 127, 0, 127, 0, 0, 127, 100, 100, 100, 255, 0, 60, 146, 58, 53, 46, 102, 62, 59, 161, 179, 62, 0, 0, 0, 63, 127, 0, 0, 0, 0, 0, 130, 127, 100, 100, 100, 255, 0, 0, 146, 58, 53, 46, 102, 62, 178, 23, 211, 63, 0, 0, 0, 191, 127, 0, 0, 0, 0, 0, 130, 127, 100, 100, 100, 255, 0, 60, 180, 49, 53, 46, 102, 62, 178, 23, 211, 63, 0, 0, 0, 63, 127, 0, 0, 0, 0, 0, 129, 127, 100, 100, 100, 255, 0, 0, 180, 49, 53, 46, 102, 62, 59, 161, 179, 62, 0, 0, 0, 191, 127, 0, 0, 0, 0, 0, 129, 127, 100, 100, 100, 255, 0, 60, 146, 58, 53, 46, 102, 62, 178, 23, 211, 63, 0, 0, 0, 191, 0, 0, 129, 0, 129, 0, 0, 127, 100, 100, 100, 255, 0, 0, 180, 49, 53, 46, 102, 62, 59, 161, 179, 62, 0, 0, 0, 191, 0, 0, 129, 0, 130, 0, 0, 127, 100, 100, 100, 255, 0, 0, 146, 58, 207, 199, 31, 190, 178, 23, 211, 63, 0, 0, 0, 191, 0, 0, 129, 0, 130, 0, 0, 127, 100, 100, 100, 255, 0, 60, 180, 49, 207, 199, 31, 190, 59, 161, 179, 62, 0, 0, 0, 191, 0, 0, 129, 0, 129, 0, 0, 127, 100, 100, 100, 255, 0, 60, 146, 58, 207, 199, 31, 190, 59, 161, 179, 62, 0, 0, 0, 191, 129, 0, 0, 0, 0, 0, 126, 127, 100, 100, 100, 255, 0, 0, 146, 58, 207, 199, 31, 190, 178, 23, 211, 63, 0, 0, 0, 63, 129, 0, 0, 0, 0, 0, 126, 127, 100, 100, 100, 255, 0, 60, 180, 49, 207, 199, 31, 190, 178, 23, 211, 63, 0, 0, 0, 191, 129, 0, 0, 0, 0, 0, 127, 127, 100, 100, 100, 255, 0, 0, 180, 49, 207, 199, 31, 190, 59, 161, 179, 62, 0, 0, 0, 63, 129, 0, 0, 0, 0, 0, 127, 127, 100, 100, 100, 255, 0, 60, 146, 58, 0, 0, 128, 62, 0, 0, 0, 64, 0, 0, 0, 63, 0, 0, 127, 0, 127, 0, 0, 127, 24, 24, 24, 255, 0, 60, 0, 0, 0, 0, 128, 190, 0, 0, 0, 64, 0, 0, 0, 63, 0, 0, 127, 0, 127, 0, 0, 127, 24, 24, 24, 255, 0, 0, 0, 0, 0, 0, 128, 190, 171, 170, 230, 63, 0, 0, 0, 63, 0, 0, 127, 0, 127, 0, 0, 127, 24, 24, 24, 255, 0, 0, 85, 46, 0, 0, 128, 62, 171, 170, 230, 63, 0, 0, 0, 63, 0, 0, 127, 0, 127, 0, 0, 127, 24, 24, 24, 255, 0, 60, 85, 46, 0, 0, 128, 190, 164, 170, 74, 62, 0, 0, 0, 63, 0, 0, 127, 0, 127, 0, 0, 127, 24, 24, 24, 255, 0, 0, 53, 59, 0, 0, 128, 62, 0, 0, 0, 0, 0, 0, 0, 63, 0, 0, 127, 0, 127, 0, 0, 127, 24, 24, 24, 255, 0, 60, 0, 60, 0, 0, 128, 62, 169, 170, 74, 62, 0, 0, 0, 63, 0, 0, 127, 0, 127, 0, 0, 127, 24, 24, 24, 255, 0, 60, 53, 59, 0, 0, 128, 190, 0, 0, 0, 0, 0, 0, 0, 63, 0, 0, 127, 0, 127, 0, 0, 127, 24, 24, 24, 255, 0, 0, 0, 60, 0, 0, 128, 62, 0, 0, 0, 64, 0, 0, 0, 191, 127, 0, 0, 0, 0, 0, 130, 127, 24, 24, 24, 255, 0, 60, 0, 0, 0, 0, 128, 62, 0, 0, 0, 64, 0, 0, 0, 63, 127, 0, 0, 0, 0, 0, 129, 127, 24, 24, 24, 255, 0, 0, 0, 0, 0, 0, 128, 62, 171, 170, 230, 63, 0, 0, 0, 63, 127, 0, 0, 0, 0, 0, 130, 127, 24, 24, 24, 255, 0, 0, 85, 46, 0, 0, 128, 62, 171, 170, 230, 63, 0, 0, 0, 191, 127, 0, 0, 0, 0, 0, 129, 127, 24, 24, 24, 255, 0, 60, 85, 46, 0, 0, 128, 62, 169, 170, 74, 62, 0, 0, 0, 191, 127, 0, 0, 0, 0, 0, 130, 127, 24, 24, 24, 255, 0, 60, 53, 59, 0, 0, 128, 62, 169, 170, 74, 62, 0, 0, 0, 63, 127, 0, 0, 0, 0, 0, 129, 127, 24, 24, 24, 255, 0, 0, 53, 59, 0, 0, 128, 62, 0, 0, 0, 0, 0, 0, 0, 63, 127, 0, 0, 0, 0, 0, 130, 127, 24, 24, 24, 255, 0, 0, 0, 60, 0, 0, 128, 62, 0, 0, 0, 0, 0, 0, 0, 191, 127, 0, 0, 0, 0, 0, 129, 127, 24, 24, 24, 255, 0, 60, 0, 60, 0, 0, 128, 190, 0, 0, 0, 64, 0, 0, 0, 191, 0, 0, 129, 0, 129, 0, 0, 127, 24, 24, 24, 255, 0, 60, 0, 0, 0, 0, 128, 62, 0, 0, 0, 64, 0, 0, 0, 191, 0, 0, 129, 0, 129, 0, 0, 127, 24, 24, 24, 255, 0, 0, 0, 0, 0, 0, 128, 62, 171, 170, 230, 63, 0, 0, 0, 191, 0, 0, 129, 0, 129, 0, 0, 127, 24, 24, 24, 255, 0, 0, 85, 46, 0, 0, 128, 190, 171, 170, 230, 63, 0, 0, 0, 191, 0, 0, 129, 0, 129, 0, 0, 127, 24, 24, 24, 255, 0, 60, 85, 46, 0, 0, 128, 190, 169, 170, 74, 62, 0, 0, 0, 191, 0, 0, 129, 0, 129, 0, 0, 127, 24, 24, 24, 255, 0, 60, 53, 59, 0, 0, 128, 62, 169, 170, 74, 62, 0, 0, 0, 191, 0, 0, 129, 0, 129, 0, 0, 127, 24, 24, 24, 255, 0, 0, 53, 59, 0, 0, 128, 62, 0, 0, 0, 0, 0, 0, 0, 191, 0, 0, 129, 0, 129, 0, 0, 127, 24, 24, 24, 255, 0, 0, 0, 60, 0, 0, 128, 190, 0, 0, 0, 0, 0, 0, 0, 191, 0, 0, 129, 0, 129, 0, 0, 127, 24, 24, 24, 255, 0, 60, 0, 60, 0, 0, 128, 190, 0, 0, 0, 64, 0, 0, 0, 63, 129, 0, 0, 0, 0, 0, 126, 127, 24, 24, 24, 255, 0, 60, 0, 0, 0, 0, 128, 190, 0, 0, 0, 64, 0, 0, 0, 191, 129, 0, 0, 0, 0, 0, 127, 127, 24, 24, 24, 255, 0, 0, 0, 0, 0, 0, 128, 190, 171, 170, 230, 63, 0, 0, 0, 191, 129, 0, 0, 0, 0, 0, 126, 127, 24, 24, 24, 255, 0, 0, 85, 46, 0, 0, 128, 190, 171, 170, 230, 63, 0, 0, 0, 63, 129, 0, 0, 0, 0, 0, 127, 127, 24, 24, 24, 255, 0, 60, 85, 46, 0, 0, 128, 190, 164, 170, 74, 62, 0, 0, 0, 63, 129, 0, 0, 0, 0, 0, 126, 127, 24, 24, 24, 255, 0, 60, 53, 59, 0, 0, 128, 190, 169, 170, 74, 62, 0, 0, 0, 191, 129, 0, 0, 0, 0, 0, 127, 127, 24, 24, 24, 255, 0, 0, 53, 59, 0, 0, 128, 190, 0, 0, 0, 0, 0, 0, 0, 191, 129, 0, 0, 0, 0, 0, 126, 127, 24, 24, 24, 255, 0, 0, 0, 60, 0, 0, 128, 190, 0, 0, 0, 0, 0, 0, 0, 63, 129, 0, 0, 0, 0, 0, 127, 127, 24, 24, 24, 255, 0, 60, 0, 60, 153, 153, 57, 190, 228, 88, 210, 63, 0, 0, 0, 63, 0, 0, 127, 0, 127, 0, 0, 127, 24, 24, 24, 255, 0, 0, 180, 49, 0, 0, 128, 62, 228, 88, 210, 63, 0, 0, 0, 63, 0, 0, 127, 0, 127, 0, 0, 127, 24, 24, 24, 255, 0, 60, 180, 49, 153, 153, 57, 190, 112, 156, 182, 62, 0, 0, 0, 63, 0, 0, 127, 0, 127, 0, 0, 127, 24, 24, 24, 255, 0, 0, 146, 58, 0, 0, 128, 62, 112, 156, 182, 62, 0, 0, 0, 63, 0, 0, 127, 0, 127, 0, 0, 127, 24, 24, 24, 255, 0, 60, 146, 58, 0, 0, 128, 62, 228, 88, 210, 63, 0, 0, 0, 63, 127, 0, 0, 0, 0, 0, 129, 127, 24, 24, 24, 255, 0, 0, 180, 49, 0, 0, 128, 62, 228, 88, 210, 63, 0, 0, 0, 191, 127, 0, 0, 0, 0, 0, 129, 127, 24, 24, 24, 255, 0, 60, 180, 49, 0, 0, 128, 62, 112, 156, 182, 62, 0, 0, 0, 191, 127, 0, 0, 0, 0, 0, 129, 127, 24, 24, 24, 255, 0, 60, 146, 58, 0, 0, 128, 62, 112, 156, 182, 62, 0, 0, 0, 63, 127, 0, 0, 0, 0, 0, 129, 127, 24, 24, 24, 255, 0, 0, 146, 58, 153, 153, 57, 190, 228, 88, 210, 63, 0, 0, 0, 191, 0, 0, 129, 0, 129, 0, 0, 127, 24, 24, 24, 255, 0, 60, 180, 49, 0, 0, 128, 62, 228, 88, 210, 63, 0, 0, 0, 191, 0, 0, 129, 0, 129, 0, 0, 127, 24, 24, 24, 255, 0, 0, 180, 49, 153, 153, 57, 190, 112, 156, 182, 62, 0, 0, 0, 191, 0, 0, 129, 0, 129, 0, 0, 127, 24, 24, 24, 255, 0, 60, 146, 58, 0, 0, 128, 62, 112, 156, 182, 62, 0, 0, 0, 191, 0, 0, 129, 0, 129, 0, 0, 127, 24, 24, 24, 255, 0, 0, 146, 58, 153, 153, 57, 190, 228, 88, 210, 63, 0, 0, 0, 191, 140, 206, 0, 0, 0, 0, 127, 127, 24, 24, 24, 255, 0, 0, 180, 49, 0, 0, 128, 190, 171, 170, 230, 63, 0, 0, 0, 63, 140, 206, 0, 0, 0, 0, 127, 127, 24, 24, 24, 255, 0, 60, 85, 46, 0, 0, 128, 190, 171, 170, 230, 63, 0, 0, 0, 191, 140, 206, 0, 0, 0, 0, 127, 127, 24, 24, 24, 255, 0, 0, 85, 46, 153, 153, 57, 190, 228, 88, 210, 63, 0, 0, 0, 63, 140, 206, 0, 0, 0, 0, 127, 127, 24, 24, 24, 255, 0, 60, 180, 49, 153, 153, 57, 190, 112, 156, 182, 62, 0, 0, 0, 63, 140, 50, 0, 0, 0, 0, 127, 127, 24, 24, 24, 255, 0, 60, 146, 58, 153, 153, 57, 190, 112, 156, 182, 62, 0, 0, 0, 191, 140, 50, 0, 0, 0, 0, 127, 127, 24, 24, 24, 255, 0, 0, 146, 58, 0, 0, 128, 190, 169, 170, 74, 62, 0, 0, 0, 191, 140, 50, 0, 0, 0, 0, 127, 127, 24, 24, 24, 255, 0, 0, 53, 59, 0, 0, 128, 190, 164, 170, 74, 62, 0, 0, 0, 63, 140, 50, 0, 0, 0, 0, 127, 127, 24, 24, 24, 255, 0, 60, 53, 59, 153, 153, 57, 190, 228, 88, 210, 63, 0, 0, 0, 63, 0, 0, 129, 0, 127, 0, 0, 127, 100, 100, 100, 255, 0, 0, 180, 49, 53, 46, 102, 62, 178, 23, 211, 63, 0, 0, 0, 63, 0, 0, 129, 0, 127, 0, 0, 127, 100, 100, 100, 255, 0, 60, 180, 49, 0, 0, 128, 62, 228, 88, 210, 63, 0, 0, 0, 63, 0, 0, 129, 0, 127, 0, 0, 127, 100, 100, 100, 255, 0, 60, 180, 49, 207, 199, 31, 190, 178, 23, 211, 63, 0, 0, 0, 63, 0, 0, 129, 0, 127, 0, 0, 127, 100, 100, 100, 255, 0, 0, 180, 49, 0, 0, 128, 62, 112, 156, 182, 62, 0, 0, 0, 63, 0, 0, 129, 0, 127, 0, 0, 127, 100, 100, 100, 255, 0, 60, 146, 58, 207, 199, 31, 190, 59, 161, 179, 62, 0, 0, 0, 63, 0, 0, 129, 0, 127, 0, 0, 127, 100, 100, 100, 255, 0, 0, 146, 58, 153, 153, 57, 190, 112, 156, 182, 62, 0, 0, 0, 63, 0, 0, 129, 0, 127, 0, 0, 127, 100, 100, 100, 255, 0, 0, 146, 58, 53, 46, 102, 62, 59, 161, 179, 62, 0, 0, 0, 63, 0, 0, 129, 0, 127, 0, 0, 127, 100, 100, 100, 255, 0, 60, 146, 58, 53, 46, 102, 62, 178, 23, 211, 63, 0, 0, 0, 63, 228, 133, 0, 0, 127, 0, 0, 127, 100, 100, 100, 255, 0, 0, 180, 49, 53, 46, 102, 62, 178, 23, 211, 63, 0, 0, 0, 191, 228, 133, 0, 0, 127, 0, 0, 127, 100, 100, 100, 255, 0, 60, 180, 49, 0, 0, 128, 62, 228, 88, 210, 63, 0, 0, 0, 63, 228, 133, 0, 0, 127, 0, 0, 127, 100, 100, 100, 255, 0, 0, 180, 49, 0, 0, 128, 62, 228, 88, 210, 63, 0, 0, 0, 191, 228, 133, 0, 0, 127, 0, 0, 127, 100, 100, 100, 255, 0, 60, 180, 49, 53, 46, 102, 62, 59, 161, 179, 62, 0, 0, 0, 191, 228, 123, 0, 0, 127, 0, 0, 127, 100, 100, 100, 255, 0, 60, 146, 58, 53, 46, 102, 62, 59, 161, 179, 62, 0, 0, 0, 63, 228, 123, 0, 0, 127, 0, 0, 127, 100, 100, 100, 255, 0, 0, 146, 58, 0, 0, 128, 62, 112, 156, 182, 62, 0, 0, 0, 191, 228, 123, 0, 0, 127, 0, 0, 127, 100, 100, 100, 255, 0, 60, 146, 58, 0, 0, 128, 62, 112, 156, 182, 62, 0, 0, 0, 63, 228, 123, 0, 0, 127, 0, 0, 127, 100, 100, 100, 255, 0, 0, 146, 58, 0, 0, 128, 62, 228, 88, 210, 63, 0, 0, 0, 191, 0, 0, 127, 0, 127, 0, 0, 129, 100, 100, 100, 255, 0, 0, 180, 49, 207, 199, 31, 190, 178, 23, 211, 63, 0, 0, 0, 191, 0, 0, 127, 0, 127, 0, 0, 129, 100, 100, 100, 255, 0, 60, 180, 49, 153, 153, 57, 190, 228, 88, 210, 63, 0, 0, 0, 191, 0, 0, 127, 0, 127, 0, 0, 129, 100, 100, 100, 255, 0, 60, 180, 49, 53, 46, 102, 62, 178, 23, 211, 63, 0, 0, 0, 191, 0, 0, 127, 0, 127, 0, 0, 129, 100, 100, 100, 255, 0, 0, 180, 49, 153, 153, 57, 190, 112, 156, 182, 62, 0, 0, 0, 191, 0, 0, 127, 0, 127, 0, 0, 129, 100, 100, 100, 255, 0, 60, 146, 58, 53, 46, 102, 62, 59, 161, 179, 62, 0, 0, 0, 191, 0, 0, 127, 0, 127, 0, 0, 129, 100, 100, 100, 255, 0, 0, 146, 58, 0, 0, 128, 62, 112, 156, 182, 62, 0, 0, 0, 191, 0, 0, 127, 0, 127, 0, 0, 129, 100, 100, 100, 255, 0, 0, 146, 58, 207, 199, 31, 190, 59, 161, 179, 62, 0, 0, 0, 191, 0, 0, 127, 0, 127, 0, 0, 129, 100, 100, 100, 255, 0, 60, 146, 58, 153, 153, 57, 190, 228, 88, 210, 63, 0, 0, 0, 191, 28, 133, 0, 0, 127, 0, 0, 127, 100, 100, 100, 255, 0, 0, 180, 49, 207, 199, 31, 190, 178, 23, 211, 63, 0, 0, 0, 63, 28, 133, 0, 0, 127, 0, 0, 127, 100, 100, 100, 255, 0, 60, 180, 49, 153, 153, 57, 190, 228, 88, 210, 63, 0, 0, 0, 63, 28, 133, 0, 0, 127, 0, 0, 127, 100, 100, 100, 255, 0, 60, 180, 49, 207, 199, 31, 190, 178, 23, 211, 63, 0, 0, 0, 191, 28, 133, 0, 0, 127, 0, 0, 127, 100, 100, 100, 255, 0, 0, 180, 49, 153, 153, 57, 190, 112, 156, 182, 62, 0, 0, 0, 63, 28, 123, 0, 0, 127, 0, 0, 127, 100, 100, 100, 255, 0, 60, 146, 58, 207, 199, 31, 190, 59, 161, 179, 62, 0, 0, 0, 191, 28, 123, 0, 0, 127, 0, 0, 127, 100, 100, 100, 255, 0, 0, 146, 58, 153, 153, 57, 190, 112, 156, 182, 62, 0, 0, 0, 191, 28, 123, 0, 0, 127, 0, 0, 127, 100, 100, 100, 255, 0, 0, 146, 58, 207, 199, 31, 190, 59, 161, 179, 62, 0, 0, 0, 63, 28, 123, 0, 0, 127, 0, 0, 127, 100, 100, 100, 255, 0, 60, 146, 58 ),
"array_index_data": PoolByteArray( 0, 0, 2, 0, 1, 0, 2, 0, 0, 0, 3, 0, 4, 0, 6, 0, 5, 0, 6, 0, 7, 0, 5, 0, 8, 0, 10, 0, 9, 0, 10, 0, 11, 0, 9, 0, 12, 0, 14, 0, 13, 0, 13, 0, 15, 0, 12, 0, 16, 0, 18, 0, 17, 0, 18, 0, 19, 0, 17, 0, 20, 0, 22, 0, 21, 0, 21, 0, 23, 0, 20, 0, 24, 0, 26, 0, 25, 0, 24, 0, 27, 0, 26, 0, 28, 0, 30, 0, 29, 0, 29, 0, 31, 0, 28, 0, 32, 0, 34, 0, 33, 0, 32, 0, 35, 0, 34, 0, 36, 0, 38, 0, 37, 0, 36, 0, 39, 0, 38, 0, 40, 0, 42, 0, 41, 0, 40, 0, 43, 0, 42, 0, 44, 0, 46, 0, 45, 0, 44, 0, 47, 0, 46, 0, 48, 0, 50, 0, 49, 0, 48, 0, 51, 0, 50, 0, 52, 0, 54, 0, 53, 0, 52, 0, 55, 0, 54, 0, 27, 0, 56, 0, 26, 0, 27, 0, 57, 0, 56, 0, 58, 0, 59, 0, 30, 0, 30, 0, 28, 0, 58, 0, 60, 0, 34, 0, 35, 0, 35, 0, 61, 0, 60, 0, 62, 0, 37, 0, 63, 0, 62, 0, 36, 0, 37, 0, 42, 0, 43, 0, 64, 0, 64, 0, 65, 0, 42, 0, 66, 0, 45, 0, 67, 0, 45, 0, 66, 0, 44, 0, 68, 0, 70, 0, 69, 0, 69, 0, 71, 0, 68, 0, 72, 0, 74, 0, 73, 0, 72, 0, 75, 0, 74, 0, 76, 0, 78, 0, 77, 0, 77, 0, 79, 0, 76, 0, 80, 0, 82, 0, 81, 0, 81, 0, 83, 0, 80, 0, 84, 0, 86, 0, 85, 0, 86, 0, 87, 0, 85, 0, 88, 0, 90, 0, 89, 0, 90, 0, 91, 0, 89, 0, 92, 0, 94, 0, 93, 0, 93, 0, 95, 0, 92, 0, 96, 0, 98, 0, 97, 0, 97, 0, 99, 0, 96, 0, 100, 0, 102, 0, 101, 0, 101, 0, 103, 0, 100, 0, 104, 0, 106, 0, 105, 0, 105, 0, 107, 0, 104, 0 ),
"blend_shape_data": [  ],
"format": 97567,
"index_count": 180,
"primitive": 4,
"skeleton_aabb": [  ],
"vertex_count": 108
}

[sub_resource type="BoxShape" id=2]
extents = Vector3( 0.25, 1.025, 0.5 )

[node name="SM_WallDeco_01_A_1" type="StaticBody"]

[node name="SM_WallDeco_01_A_1" type="MeshInstance" parent="."]
transform = Transform( 1.01935, 0, 0, 0, 1.01935, 0, 0, 0, 1.01935, 0, 0, 0 )
mesh = SubResource( 1 )
material/0 = ExtResource( 1 )

[node name="AnimationPlayer" type="AnimationPlayer" parent="."]

[node name="CollisionShape" type="CollisionShape" parent="."]
transform = Transform( 1, 0, 0, 0, 1, 0, 0, 0, 1, 0, 1.025, 0 )
shape = SubResource( 2 )
