[gd_resource type="VisualShader" load_steps=5 format=2]

[sub_resource type="VisualShaderNodeScalarUniform" id=1]
uniform_name = "Roughness"

[sub_resource type="VisualShaderNodeScalarUniform" id=2]
uniform_name = "Metalness"

[sub_resource type="VisualShaderNodeColorUniform" id=3]
output_port_for_preview = 1
uniform_name = "Color"

[sub_resource type="VisualShaderNodeScalarUniform" id=4]
uniform_name = "Opacity"

[resource]
code = "shader_type spatial;
render_mode specular_schlick_ggx;

uniform vec4 Color : hint_color;
uniform float Opacity;
uniform float Metalness;
uniform float Roughness;



void vertex() {
// Output:0

}

void fragment() {
// ColorUniform:6
	vec3 n_out6p0 = Color.rgb;
	float n_out6p1 = Color.a;

// ScalarUniform:7
	float n_out7p0 = Opacity;

// ScalarUniform:5
	float n_out5p0 = Metalness;

// ScalarUniform:4
	float n_out4p0 = Roughness;

// Output:0
	ALBEDO = n_out6p0;
	ALPHA = n_out7p0;
	METALLIC = n_out5p0;
	ROUGHNESS = n_out4p0;

}

void light() {
// Output:0

}
"
graph_offset = Vector2( 56, 105.75 )
nodes/fragment/0/position = Vector2( 720, 160 )
nodes/fragment/4/node = SubResource( 1 )
nodes/fragment/4/position = Vector2( 480, 360 )
nodes/fragment/5/node = SubResource( 2 )
nodes/fragment/5/position = Vector2( 500, 420 )
nodes/fragment/6/node = SubResource( 3 )
nodes/fragment/6/position = Vector2( 260, 140 )
nodes/fragment/7/node = SubResource( 4 )
nodes/fragment/7/position = Vector2( 220, 400 )
nodes/fragment/connections = PoolIntArray( 4, 0, 0, 3, 5, 0, 0, 2, 6, 0, 0, 0, 7, 0, 0, 1, 4, 0, 0, 3, 5, 0, 0, 2, 6, 0, 0, 0, 7, 0, 0, 1, 4, 0, 0, 3, 5, 0, 0, 2, 6, 0, 0, 0, 7, 0, 0, 1, 4, 0, 0, 3, 5, 0, 0, 2, 6, 0, 0, 0, 7, 0, 0, 1, 4, 0, 0, 3, 5, 0, 0, 2, 6, 0, 0, 0, 7, 0, 0, 1, 4, 0, 0, 3, 5, 0, 0, 2, 6, 0, 0, 0, 7, 0, 0, 1, 4, 0, 0, 3, 5, 0, 0, 2, 6, 0, 0, 0, 7, 0, 0, 1, 4, 0, 0, 3, 5, 0, 0, 2, 6, 0, 0, 0, 7, 0, 0, 1, 4, 0, 0, 3, 5, 0, 0, 2, 6, 0, 0, 0, 7, 0, 0, 1, 4, 0, 0, 3, 5, 0, 0, 2, 6, 0, 0, 0, 7, 0, 0, 1, 4, 0, 0, 3, 5, 0, 0, 2, 6, 0, 0, 0, 7, 0, 0, 1, 4, 0, 0, 3, 5, 0, 0, 2, 6, 0, 0, 0, 7, 0, 0, 1, 4, 0, 0, 3, 5, 0, 0, 2, 6, 0, 0, 0, 7, 0, 0, 1, 4, 0, 0, 3, 5, 0, 0, 2, 6, 0, 0, 0, 7, 0, 0, 1, 4, 0, 0, 3, 5, 0, 0, 2, 6, 0, 0, 0, 7, 0, 0, 1, 4, 0, 0, 3, 5, 0, 0, 2, 6, 0, 0, 0, 7, 0, 0, 1, 4, 0, 0, 3, 5, 0, 0, 2, 6, 0, 0, 0, 7, 0, 0, 1, 4, 0, 0, 3, 5, 0, 0, 2, 6, 0, 0, 0, 7, 0, 0, 1, 4, 0, 0, 3, 5, 0, 0, 2, 6, 0, 0, 0, 7, 0, 0, 1, 4, 0, 0, 3, 5, 0, 0, 2, 6, 0, 0, 0, 7, 0, 0, 1, 4, 0, 0, 3, 5, 0, 0, 2, 6, 0, 0, 0, 7, 0, 0, 1, 4, 0, 0, 3, 5, 0, 0, 2, 6, 0, 0, 0, 7, 0, 0, 1, 4, 0, 0, 3, 5, 0, 0, 2, 6, 0, 0, 0, 7, 0, 0, 1, 4, 0, 0, 3, 5, 0, 0, 2, 6, 0, 0, 0, 7, 0, 0, 1 )
