[gd_resource type="VisualShader" load_steps=4 format=2]

[sub_resource type="VisualShaderNodeInput" id=1]
input_name = "color"

[sub_resource type="VisualShaderNodeScalarUniform" id=2]
uniform_name = "Roughness"

[sub_resource type="VisualShaderNodeScalarUniform" id=3]
uniform_name = "Metalness"

[resource]
code = "shader_type spatial;
render_mode specular_schlick_ggx;

uniform float Metalness;
uniform float Roughness;



void vertex() {
// Output:0

}

void fragment() {
// Input:3
	vec3 n_out3p0 = COLOR.rgb;

// ScalarUniform:5
	float n_out5p0 = Metalness;

// ScalarUniform:4
	float n_out4p0 = Roughness;

// Output:0
	ALBEDO = n_out3p0;
	METALLIC = n_out5p0;
	ROUGHNESS = n_out4p0;

}

void light() {
// Output:0

}
"
graph_offset = Vector2( 2, -180.25 )
nodes/fragment/0/position = Vector2( 780, 160 )
nodes/fragment/3/node = SubResource( 1 )
nodes/fragment/3/position = Vector2( 260, 40 )
nodes/fragment/4/node = SubResource( 2 )
nodes/fragment/4/position = Vector2( 480, 360 )
nodes/fragment/5/node = SubResource( 3 )
nodes/fragment/5/position = Vector2( 500, 420 )
nodes/fragment/connections = PoolIntArray( 4, 0, 0, 3, 5, 0, 0, 2, 3, 0, 0, 0, 4, 0, 0, 3, 5, 0, 0, 2, 3, 0, 0, 0, 4, 0, 0, 3, 5, 0, 0, 2, 3, 0, 0, 0, 4, 0, 0, 3, 5, 0, 0, 2, 3, 0, 0, 0, 4, 0, 0, 3, 5, 0, 0, 2, 3, 0, 0, 0, 4, 0, 0, 3, 5, 0, 0, 2, 3, 0, 0, 0, 4, 0, 0, 3, 5, 0, 0, 2, 3, 0, 0, 0, 4, 0, 0, 3, 5, 0, 0, 2, 3, 0, 0, 0, 4, 0, 0, 3, 5, 0, 0, 2, 3, 0, 0, 0, 4, 0, 0, 3, 5, 0, 0, 2, 3, 0, 0, 0, 4, 0, 0, 3, 5, 0, 0, 2, 3, 0, 0, 0, 4, 0, 0, 3, 5, 0, 0, 2, 3, 0, 0, 0, 4, 0, 0, 3, 5, 0, 0, 2, 3, 0, 0, 0, 4, 0, 0, 3, 5, 0, 0, 2, 3, 0, 0, 0, 4, 0, 0, 3, 5, 0, 0, 2, 3, 0, 0, 0, 4, 0, 0, 3, 5, 0, 0, 2, 3, 0, 0, 0, 4, 0, 0, 3, 5, 0, 0, 2, 3, 0, 0, 0, 4, 0, 0, 3, 5, 0, 0, 2, 3, 0, 0, 0, 4, 0, 0, 3, 5, 0, 0, 2, 3, 0, 0, 0, 4, 0, 0, 3, 5, 0, 0, 2, 3, 0, 0, 0, 4, 0, 0, 3, 5, 0, 0, 2, 3, 0, 0, 0, 4, 0, 0, 3, 5, 0, 0, 2, 3, 0, 0, 0, 4, 0, 0, 3, 5, 0, 0, 2, 3, 0, 0, 0, 4, 0, 0, 3, 5, 0, 0, 2, 3, 0, 0, 0 )
