[gd_resource type="VisualShader" load_steps=5 format=2]

[sub_resource type="VisualShaderNodeColorUniform" id=1]
output_port_for_preview = 1
uniform_name = "Color"

[sub_resource type="VisualShaderNodeScalarUniform" id=2]
uniform_name = "Opacity"

[sub_resource type="VisualShaderNodeVectorOp" id=3]
operator = 2

[sub_resource type="VisualShaderNodeScalarUniform" id=4]
uniform_name = "EmitIntensity"

[resource]
code = "shader_type spatial;
uniform vec4 Color : hint_color;
uniform float Opacity;
uniform float EmitIntensity;



void vertex() {
// Output:0

}

void fragment() {
// ColorUniform:6
	vec3 n_out6p0 = Color.rgb;
	float n_out6p1 = Color.a;

// ScalarUniform:7
	float n_out7p0 = Opacity;

// ScalarUniform:9
	float n_out9p0 = EmitIntensity;

// VectorOp:8
	vec3 n_out8p0 = n_out6p0 * vec3(n_out9p0);

// Output:0
	ALBEDO = n_out6p0;
	ALPHA = n_out7p0;
	EMISSION = n_out8p0;

}

void light() {
// Output:0

}
"
graph_offset = Vector2( 66, 23 )
nodes/fragment/0/position = Vector2( 720, 160 )
nodes/fragment/6/node = SubResource( 1 )
nodes/fragment/6/position = Vector2( 260, 140 )
nodes/fragment/7/node = SubResource( 2 )
nodes/fragment/7/position = Vector2( 540, 100 )
nodes/fragment/8/node = SubResource( 3 )
nodes/fragment/8/position = Vector2( 500, 240 )
nodes/fragment/9/node = SubResource( 4 )
nodes/fragment/9/position = Vector2( 260, 360 )
nodes/fragment/connections = PoolIntArray( 6, 0, 0, 0, 7, 0, 0, 1, 9, 0, 8, 1, 8, 0, 0, 5, 6, 0, 8, 0, 6, 0, 0, 0, 7, 0, 0, 1, 9, 0, 8, 1, 8, 0, 0, 5, 6, 0, 8, 0, 6, 0, 0, 0, 7, 0, 0, 1, 9, 0, 8, 1, 8, 0, 0, 5, 6, 0, 8, 0, 6, 0, 0, 0, 7, 0, 0, 1, 9, 0, 8, 1, 8, 0, 0, 5, 6, 0, 8, 0 )
