[gd_resource type="VisualShader" load_steps=7 format=2]

[sub_resource type="VisualShaderNodeInput" id=1]
input_name = "color"

[sub_resource type="VisualShaderNodeColorUniform" id=2]
uniform_name = "PlayerColor"

[sub_resource type="VisualShaderNodeVectorOp" id=3]
operator = 2

[sub_resource type="VisualShaderNodeVectorDecompose" id=4]

[sub_resource type="VisualShaderNodeScalarUniform" id=5]
uniform_name = "Rough"

[sub_resource type="VisualShaderNodeScalarUniform" id=6]
uniform_name = "Metalness"

[resource]
code = "shader_type spatial;
render_mode specular_schlick_ggx;

uniform vec4 PlayerColor : hint_color;
uniform float Metalness;
uniform float Rough;



void vertex() {
// Output:0

}

void fragment() {
// ColorUniform:4
	vec3 n_out4p0 = PlayerColor.rgb;
	float n_out4p1 = PlayerColor.a;

// Input:3
	vec3 n_out3p0 = COLOR.rgb;

// VectorDecompose:6
	float n_out6p0 = n_out3p0.x;
	float n_out6p1 = n_out3p0.y;
	float n_out6p2 = n_out3p0.z;

// VectorOp:5
	vec3 n_out5p0 = n_out4p0 * vec3(n_out6p0);

// ScalarUniform:8
	float n_out8p0 = Metalness;

// ScalarUniform:7
	float n_out7p0 = Rough;

// Output:0
	ALBEDO = n_out5p0;
	METALLIC = n_out8p0;
	ROUGHNESS = n_out7p0;

}

void light() {
// Output:0

}
"
nodes/fragment/0/position = Vector2( 720, 160 )
nodes/fragment/3/node = SubResource( 1 )
nodes/fragment/3/position = Vector2( 100, 260 )
nodes/fragment/4/node = SubResource( 2 )
nodes/fragment/4/position = Vector2( 240, 100 )
nodes/fragment/5/node = SubResource( 3 )
nodes/fragment/5/position = Vector2( 480, 140 )
nodes/fragment/6/node = SubResource( 4 )
nodes/fragment/6/position = Vector2( 300, 260 )
nodes/fragment/7/node = SubResource( 5 )
nodes/fragment/7/position = Vector2( 521, 424 )
nodes/fragment/8/node = SubResource( 6 )
nodes/fragment/8/position = Vector2( 460, 500 )
nodes/fragment/connections = PoolIntArray( 3, 0, 6, 0, 6, 0, 5, 1, 4, 0, 5, 0, 5, 0, 0, 0, 7, 0, 0, 3, 8, 0, 0, 2, 3, 0, 6, 0, 6, 0, 5, 1, 4, 0, 5, 0, 5, 0, 0, 0, 7, 0, 0, 3, 8, 0, 0, 2, 3, 0, 6, 0, 6, 0, 5, 1, 4, 0, 5, 0, 5, 0, 0, 0, 7, 0, 0, 3, 8, 0, 0, 2, 3, 0, 6, 0, 6, 0, 5, 1, 4, 0, 5, 0, 5, 0, 0, 0, 7, 0, 0, 3, 8, 0, 0, 2, 3, 0, 6, 0, 6, 0, 5, 1, 4, 0, 5, 0, 5, 0, 0, 0, 7, 0, 0, 3, 8, 0, 0, 2, 3, 0, 6, 0, 6, 0, 5, 1, 4, 0, 5, 0, 5, 0, 0, 0, 7, 0, 0, 3, 8, 0, 0, 2, 3, 0, 6, 0, 6, 0, 5, 1, 4, 0, 5, 0, 5, 0, 0, 0, 7, 0, 0, 3, 8, 0, 0, 2, 3, 0, 6, 0, 6, 0, 5, 1, 4, 0, 5, 0, 5, 0, 0, 0, 7, 0, 0, 3, 8, 0, 0, 2, 3, 0, 6, 0, 6, 0, 5, 1, 4, 0, 5, 0, 5, 0, 0, 0, 7, 0, 0, 3, 8, 0, 0, 2, 3, 0, 6, 0, 6, 0, 5, 1, 4, 0, 5, 0, 5, 0, 0, 0, 7, 0, 0, 3, 8, 0, 0, 2, 3, 0, 6, 0, 6, 0, 5, 1, 4, 0, 5, 0, 5, 0, 0, 0, 7, 0, 0, 3, 8, 0, 0, 2, 3, 0, 6, 0, 6, 0, 5, 1, 4, 0, 5, 0, 5, 0, 0, 0, 7, 0, 0, 3, 8, 0, 0, 2, 3, 0, 6, 0, 6, 0, 5, 1, 4, 0, 5, 0, 5, 0, 0, 0, 7, 0, 0, 3, 8, 0, 0, 2, 3, 0, 6, 0, 6, 0, 5, 1, 4, 0, 5, 0, 5, 0, 0, 0, 7, 0, 0, 3, 8, 0, 0, 2, 3, 0, 6, 0, 6, 0, 5, 1, 4, 0, 5, 0, 5, 0, 0, 0, 7, 0, 0, 3, 8, 0, 0, 2, 3, 0, 6, 0, 6, 0, 5, 1, 4, 0, 5, 0, 5, 0, 0, 0, 7, 0, 0, 3, 8, 0, 0, 2, 3, 0, 6, 0, 6, 0, 5, 1, 4, 0, 5, 0, 5, 0, 0, 0, 7, 0, 0, 3, 8, 0, 0, 2, 3, 0, 6, 0, 6, 0, 5, 1, 4, 0, 5, 0, 5, 0, 0, 0, 7, 0, 0, 3, 8, 0, 0, 2, 3, 0, 6, 0, 6, 0, 5, 1, 4, 0, 5, 0, 5, 0, 0, 0, 7, 0, 0, 3, 8, 0, 0, 2, 3, 0, 6, 0, 6, 0, 5, 1, 4, 0, 5, 0, 5, 0, 0, 0, 7, 0, 0, 3, 8, 0, 0, 2, 3, 0, 6, 0, 6, 0, 5, 1, 4, 0, 5, 0, 5, 0, 0, 0, 7, 0, 0, 3, 8, 0, 0, 2, 3, 0, 6, 0, 6, 0, 5, 1, 4, 0, 5, 0, 5, 0, 0, 0, 7, 0, 0, 3, 8, 0, 0, 2, 3, 0, 6, 0, 6, 0, 5, 1, 4, 0, 5, 0, 5, 0, 0, 0, 7, 0, 0, 3, 8, 0, 0, 2, 3, 0, 6, 0, 6, 0, 5, 1, 4, 0, 5, 0, 5, 0, 0, 0, 7, 0, 0, 3, 8, 0, 0, 2 )
