[gd_scene load_steps=6 format=2]

[ext_resource path="res://src/NotifyNetwork.tscn" type="PackedScene" id=1]
[ext_resource path="res://src/Product.gd" type="Script" id=2]

[sub_resource type="SphereMesh" id=1]
radius = 0.2
height = 0.4

[sub_resource type="SpatialMaterial" id=2]
albedo_color = Color( 0.901961, 0.0196078, 0.0196078, 1 )

[sub_resource type="SphereShape" id=3]
radius = 0.206286

[node name="RedCircle" type="RigidBody" groups=[
"circle",
]]
transform = Transform( 1, 0, 0, 0, 1, 0, 0, 0, 1, 0, 0.329, 0 )
script = ExtResource( 2 )
product_name = "Red Cricle"

[node name="MeshInstance" type="MeshInstance" parent="." groups=[
"circle",
]]
mesh = SubResource( 1 )
material/0 = SubResource( 2 )

[node name="CollisionShape" type="CollisionShape" parent="."]
shape = SubResource( 3 )

[node name="AnimationPlayer" type="AnimationPlayer" parent="."]

[node name="NotifyNetwork" parent="." instance=ExtResource( 1 )]
